<?xml version="1.0"?>
<VTKFile type="UnstructuredGrid" version="0.1" byte_order="LittleEndian">
  <UnstructuredGrid>
    <Piece NumberOfPoints="128" NumberOfCells="127">
      <PointData Scalars="W">
        <DataArray type="Float32" Name="W" NumberOfComponents="2">
          0 0 -0.13551077515988777 0.0804774058375885 -0.24428825092859449 0.1445046696043622 -0.3380057029380652 0.19872934008597626 -0.42568896574033371 0.2482907410514503 -0.51098588042974469 0.2951291995207827 -0.59558831113854316 0.34001451727497806 -0.68042924464599919 0.3832564052087099 -0.7660664170659105 0.42493311892322377 -0.85292001606682755 0.46503013627798212 -0.94126032890399747 0.50343588827526986 -1.0313004377986286 0.53999557915413376 -1.1232215193830006 0.57452558452041824 -1.2172256652786222 0.60684000268202287 -1.3135073043697729 0.63673355419765887 -1.4122273529978684 0.66396828322151025 -1.5134513251220569 0.68824702018611017 -1.6172975641461935 0.70928484155192595 -1.7238487199350516 0.72676610362673699 -1.8331379076701031 0.74034107340060384 -1.9451857275406093 0.74964378310808799 -2.0600156646896606 0.75429753325453197 -2.1776026176028842 0.75389552619983469 -2.2978629066388425 0.74800166186413453 -2.4207404300074131 0.73618129296102996 -2.5460483409258958 0.71795254668593589 -2.6736130915672578 0.69283718873010902 -2.8032935704594584 0.66036072716783523 -2.9348205026105902 0.62001251230286225 -3.0675326038163084 0.57121518068817123 -3.2013786743802544 0.5135301326886339 -3.3359053722175025 0.44643685444360209 -3.4706217074314489 0.36942547150051697 -3.6049315483267184 0.28199438216802469 -3.7381884795632834 0.18366564544238975 -3.8696514982057812 0.073989155887418834 -3.9986165047056752 -0.047448380047678963 -4.1241433298708818 -0.18101919593608529 -4.2451844881069336 -0.32702554964512859 -4.3607801330240346 -0.48570613031497195 -4.4698536801666817 -0.65722386311864134 -4.5712308481984989 -0.84164819600405683 4.0442756166155167 0.75342524684689482 3.8240734540513657 0.58871496802700363 3.58284777936107 0.44402142388048998 3.3691511915439958 0.3236173451334543 3.1439567198371656 0.22051049192696551 2.9614300912326259 0.1361477599930454 2.7196535938730531 0.064080204121326728 2.5277685252216791 0.0073143770962410346 2.3333480303342755 -0.037914407838381951 2.1370221135230678 -0.072376175149237026 1.9393302923114104 -0.096890014631240681 1.8056587115135838 -0.11696876968947532 1.6682659179004025 -0.13106338485475899 1.537676391963297 -0.14042421515932216 1.3441175750257004 -0.13821479928439825 1.2178168544547205 -0.13772681763895062 1.0981609764446605 -0.13441709202044372 0.91225568605180241 -0.11905651865209382 0.80104713972211827 -0.11009255213646289 0.61644110327484503 -0.088263345039730129 0.43529190427429809 -0.064185823877294004 0.32801664298446181 -0.049386357485593911 0.075425822001002799 -0.011480092619188548 -0.02873930971260432 0.0043796980165499407 -0.12643056914066603 0.019187325430504186 -0.2209363413847992 0.03321713430738768 -0.39757373851472261 0.058773484938621806 -0.48941231811174918 0.070585979766439155 -0.57425309994878848 0.080344247904419019 -0.65943804827109243 0.088968437767116063 -0.8218671337378004 0.10596395639061315 -0.90025734035040816 0.10982232445598099 -0.97082025414778095 0.11112818543938333 -1.0415376544947565 0.11081975290453894 -1.1082823873290055 0.10839378905983518 -1.254610654869905 0.11088173494540293 -1.313216634938609 0.10264655177066272 -1.3672335373186357 0.092324950110777793 -1.412328377667982 0.079824953756415989 -1.4569206627789328 0.065823132388828351 -1.4965538746494806 0.050170981041803613 -1.6177707225663127 0.03437601045394615 -1.6471188621596069 0.013819857433668771 -1.6708171987362785 -0.0078078249212662956 -1.6842395129313492 -0.030122707215592234 -1.6964372565058883 -0.05294144901395223 -1.7026508433153518 -0.075970817282264361 -1.6979932956028245 -0.098587315747024257 -1.6919741704318405 -0.12096278425989059 -1.6794331120040984 -0.14256348593975796 -1.6554853454301666 -0.16254116888732065 -1.6298189185044289 -0.18145054834269814 -1.5974138303959693 -0.19856392753059202 -1.5532690702237757 -0.21284005692270117 -1.5070685445524219 -0.22522977633374208 -1.4537906961062725 -0.2348331495495736 -1.388133983196308 -0.2404165816655113 -1.3204961836664704 -0.24346480464792253 -1.2452255519675508 -0.24285074165215434 -1.1569801530926782 -0.23724648927009978 -1.0662342567133223 -0.22859379183931663 -0.87317133890772536 -0.19435239823981604 -0.76630409509866859 -0.17589599815010307 -0.65069871357747033 -0.15328882182264766 -0.52045590121637986 -0.12521351362943625 -0.38610258503294487 -0.094391688584575278 -0.23572674785309986 -0.058259053606233152 -0.080510158479849547 -0.020007426607726673 0.092531688742657089 0.022990082188570987 0.27831338181705811 0.068704386703515738 0.47128495127661274 0.11482297359495942 0.68573917509397864 0.16367172578259551 0.82768415717097232 0.1922028135436025 1.0765292203604511 0.24127872551486021 1.2530311255648978 0.26850454845367144 1.5522675398451091 0.31434972262959032 1.8767955826023015 0.35326210612613346 2.1439847132555521 0.36794308089327676 2.4526572180168924 0.3747514502212575 0.37423450186903029 0.05287557357703386 0.18166785096635385 0.025258320447061347 0.62978638766497685 0.08549342999671046 1.1028424152415912 0.14198939536034111 3.5339814364834496 0.38912279324212662 5.0993266559383095 0.38589892267706422 0 0
        </DataArray>
        <DataArray type="Float32" Name="u" NumberOfComponents="1">
          0 0.007874015748031496 0.015748031496062992 0.023622047244094488 0.031496062992125984 0.03937007874015748 0.047244094488188976 0.055118110236220472 0.062992125984251968 0.070866141732283464 0.07874015748031496 0.086614173228346455 0.094488188976377951 0.10236220472440945 0.11023622047244094 0.11811023622047244 0.12598425196850394 0.13385826771653545 0.14173228346456693 0.14960629921259844 0.15748031496062992 0.16535433070866143 0.17322834645669291 0.18110236220472442 0.1889763779527559 0.19685039370078741 0.20472440944881889 0.2125984251968504 0.22047244094488189 0.2283464566929134 0.23622047244094488 0.24409448818897639 0.25196850393700787 0.25984251968503935 0.26771653543307089 0.27559055118110237 0.28346456692913385 0.29133858267716534 0.29921259842519687 0.30708661417322836 0.31496062992125984 0.32283464566929132 0.33070866141732286 0.33858267716535434 0.34645669291338582 0.3543307086614173 0.36220472440944884 0.37007874015748032 0.37795275590551181 0.38582677165354329 0.39370078740157483 0.40157480314960631 0.40944881889763779 0.41732283464566927 0.42519685039370081 0.43307086614173229 0.44094488188976377 0.44881889763779526 0.45669291338582679 0.46456692913385828 0.47244094488188976 0.48031496062992124 0.48818897637795278 0.49606299212598426 0.50393700787401574 0.51181102362204722 0.51968503937007871 0.52755905511811019 0.53543307086614178 0.54330708661417326 0.55118110236220474 0.55905511811023623 0.56692913385826771 0.57480314960629919 0.58267716535433067 0.59055118110236215 0.59842519685039375 0.60629921259842523 0.61417322834645671 0.62204724409448819 0.62992125984251968 0.63779527559055116 0.64566929133858264 0.65354330708661412 0.66141732283464572 0.6692913385826772 0.67716535433070868 0.68503937007874016 0.69291338582677164 0.70078740157480313 0.70866141732283461 0.71653543307086609 0.72440944881889768 0.73228346456692917 0.74015748031496065 0.74803149606299213 0.75590551181102361 0.76377952755905509 0.77165354330708658 0.77952755905511806 0.78740157480314965 0.79527559055118113 0.80314960629921262 0.8110236220472441 0.81889763779527558 0.82677165354330706 0.83464566929133854 0.84251968503937003 0.85039370078740162 0.8582677165354331 0.86614173228346458 0.87401574803149606 0.88188976377952755 0.88976377952755903 0.89763779527559051 0.90551181102362199 0.91338582677165359 0.92125984251968507 0.92913385826771655 0.93700787401574803 0.94488188976377951 0.952755905511811 0.96062992125984248 0.96850393700787396 0.97637795275590555 0.98425196850393704 0.99212598425196852 1
        </DataArray>
      </PointData>
      <CellData Scalars="P">
        <DataArray type="Float32" Name="P" NumberOfComponents="1">
          -0.0092192724799815308 -0.02753294865959894 -0.045480014281350588 -0.062814648241614326 -0.079260058179552492 -0.094501104335229333 -0.10818229105060068 -0.11990700044741595 -0.12923761124449351 -0.13569523071389814 -0.13876073993408067 -0.13787558307454745 -0.1324426305388271 -0.12182613218477122 -0.10535216300761066 -0.082309930142359752 -0.051955585432367848 -0.013512122950270511 0.033828014500499028 0.090899200551616779 0.15855978318342867 0.23768977729426607 0.32918597093213753 0.4339557637775085 0.55291506984195149 0.68697714057772052 0.83704860649475565 1.0040270893001721 1.1887882536739141 1.3921519741663175 1.6149186066546768 1.8578349324340988 2.1215841839561325 2.4067701311228884 2.7139047927067987 3.0433918333001424 3.395521226384361 3.7704388319629984 4.1681259867534024 4.5883977916870364 5.0308819840751937 5.4949989282204719 5.0435775326253376 4.6029418562894806 4.1786283553158841 3.7701092985054601 3.3811603987604237 3.0085200490794941 2.661445292863065 2.3351461846273298 2.0312154283306501 1.7509614057445297 1.4954199237421832 1.2568788792402839 1.0363170214976185 0.83321561403667455 0.65593492768007466 0.4958786794821668 0.35221493291823264 0.23310160785070894 0.12895854375058682 0.04833612416786448 -0.0098890861624561979 -0.055030314553580158 -0.071379627544212051 -0.076580313366349267 -0.071988376413820637 -0.058615104093126646 -0.029152505154598718 0.0070292073182945695 0.048507932682718413 0.094542875446439148 0.15059216538537451 0.20868831533392065 0.26747557764183405 0.32623191244471711 0.3839654383711692 0.44455703159039478 0.50186939656426865 0.55505201320405773 0.60314339388303184 0.6456447291564531 0.68192909741968499 0.71387205753172445 0.73815777740663313 0.75442863533019378 0.76237092496910541 0.76191688493373033 0.75302063002092956 0.73575017579082358 0.71028947859156444 0.6769141178925272 0.63607957980228369 0.58821884626016885 0.5339165577101509 0.47398859446911268 0.40908991687846996 0.34007427336647672 0.26807224596823387 0.19389119573167221 0.11859052151111396 0.043525540478935615 -0.030410842649429056 -0.097090902480986174 -0.16014607904560138 -0.21845456595857785 -0.27060024817994188 -0.31583888393824694 -0.35282724751746986 -0.38100705351035119 -0.39919706175885061 -0.40670834674101047 -0.40340399361655965 -0.38856440017882299 -0.36707619969287902 -0.33393734528940716 -0.29437192160281866 -0.24375347403575848 -0.18333688573051354 -0.11849988465910058 -0.050565528448765558 -0.040995623046007998 -0.041360235599245287 -0.034968761254134416 -0.026589750995408008 0.0008741041577215214 0.0097380507106640691
        </DataArray>
      </CellData>
      <Points>
        <DataArray type="Float32" NumberOfComponents="3" format="ascii">
          3.7920768031832437 8.0077865216904396 0
          3.7961017559586705 8.0145543143589606 0
          3.8001183029297176 8.0213270906511092 0
          3.8041196977325873 8.0281088172954593 0
          3.808100128506648 8.0349028543268233 0
          3.812054158014222 8.0417122733186197 0
          3.8159764973513388 8.048539977506179 0
          3.8198619009797428 8.0553887494136909 0
          3.8237051088306417 8.0622612699903229 0
          3.8275008116845535 8.0691601234150099 0
          3.8312436250848467 8.0760877961606923 0
          3.8349280725485997 8.08304667004934 0
          3.8385485723262791 8.090039012632344 0
          3.8420994261409636 8.0970669657875032 0
          3.845574806631805 8.1041325341777704 0
          3.8489687452733303 8.1112375725107473 0
          3.8522751223731526 8.1183837707738729 0
          3.8554876629851096 8.1255726357994664 0
          3.8585999295473754 8.1328054735898352 0
          3.8616053167339541 8.1400833697381483 0
          3.8644970493777104 8.1474071677358779 0
          3.8672681811697029 8.1547774462735383 0
          3.8699115931800865 8.1621944958756405 0
          3.8724199953918492 8.1696582936689097 0
          3.8747859318669424 8.1771684763328398 0
          3.8770017842031952 8.1847243131392471 0
          3.8790597830982061 8.192324676062535 0
          3.8809520190895537 8.1999680101140324 0
          3.8826704512848922 8.2076523039067695 0
          3.8842069240394097 8.2153750579766456 0
          3.8855532079398976 8.223133248965274 0
          3.8867010029642151 8.2309233024044328 0
          3.8876419665758561 8.2387410604195921 0
          3.8883677441547495 8.2465817500909644 0
          3.8888700059493777 8.2544399523253311 0
          3.8891404871491595 8.2623095721927236 0
          3.8891710338244136 8.2701838109869072 0
          3.8889536465811845 8.2780551405663108 0
          3.8884805388567583 8.2859152802389886 0
          3.8877442018731885 8.2937551779847016 0
          3.886737464160726 8.3015649956171469 0
          3.8854535583238414 8.3093340986427666 0
          3.8838861938695546 8.3170510519149285 0
          3.8825696047116498 8.3248147375853971 0
          3.8814901381935676 8.3326149394626974 0
          3.8806328375934367 8.3404426820740625 0
          3.8799844527144227 8.3482904968255731 0
          3.8795310200812305 8.3561519874827397 0
          3.8792612216729414 8.3640219212360911 0
          3.8791600653130773 8.3718958262795464 0
          3.8792156523071335 8.3797701809432006 0
          3.8794159266364621 8.3876421789384672 0
          3.8797487140462645 8.3955096816155805 0
          3.8802017555236512 8.4033711671782516 0
          3.8807667619138115 8.4112253904000003 0
          3.8814352133436256 8.4190714770044792 0
          3.8821990118431207 8.4269088463729886 0
          3.8830461547351223 8.4347376338234721 0
          3.8839688100461549 8.4425578694705816 0
          3.8849595578944007 8.4503697584875432 0
          3.8860068703074671 8.4581742517412604 0
          3.8871038513054055 8.4659719050951541 0
          3.8882390535933036 8.4737640704846964 0
          3.8894012443133557 8.4815522393346363 0
          3.8905837715738341 8.4893373293108425 0
          3.8917709726909924 8.4971216878436664 0
          3.892956388835648 8.50490629841096 0
          3.8941339626845726 8.5126920793159488 0
          3.8952978345065685 8.5204799006332781 0
          3.896437051892613 8.5282713456306585 0
          3.8975459206959955 8.5360671469501224 0
          3.8986191807436068 8.5438679099486823 0
          3.8996515505805212 8.5516741696330154 0
          3.9006329592837634 8.5594869789026298 0
          3.9015585468960623 8.567306577471939 0
          3.9024239388323845 8.5751330469119988 0
          3.9032247509645281 8.5829663687191946 0
          3.9039568455152533 8.5908063931830068 0
          3.9046111503484227 8.5986532744743478 0
          3.9051840324198346 8.6065065030541277 0
          3.9056721432139194 8.6143654401503049 0
          3.9060726873797948 8.6222293120981313 0
          3.9063829006926962 8.6300972522256885 0
          3.9066003263512989 8.6379682916984741 0
          3.9067174492734482 8.6458414526207079 0
          3.9067324502344727 8.6537154626568071 0
          3.9066438601920743 8.6615889832346529 0
          3.9064508470936983 8.6694606333846007 0
          3.906152654667403 8.6773290010959823 0
          3.9057488974998233 8.6851926615182755 0
          3.9052398640145491 8.6930502156077978 0
          3.9046259268626353 8.7009002794966559 0
          3.9039078628525639 8.7087415175843095 0
          3.9030871558039699 8.7165726950960956 0
          3.9021653958705671 8.724392643751818 0
          3.9011445907805204 8.7322003068623566 0
          3.9000274759184581 8.7399948038315891 0
          3.8988169139003834 8.7477753713068171 0
          3.8975162059332908 8.7555414189338752 0
          3.8961294205652064 8.7632926057591547 0
          3.8946607489871323 8.7710287483351603 0
          3.8931148555027808 8.778749890530797 0
          3.8914972088311992 8.7864563857600722 0
          3.8898134326510272 8.7941487768059563 0
          3.8880754957308703 8.8018291910087179 0
          3.8862900217401775 8.8094987792778703 0
          3.8844641763414409 8.8171589501720717 0
          3.8826060331644747 8.8248114514324953 0
          3.8807239210504823 8.8324582015420798 0
          3.8788271629778586 8.840101448401823 0
          3.876925382676315 8.8477435717867401 0
          3.8750293101619779 8.8553872458333824 0
          3.8731504665086098 8.8630353133945068 0
          3.8713008197531136 8.8706906428748038 0
          3.8694936717411221 8.8783562719297002 0
          3.8677378271599863 8.8860339821925045 0
          3.8660487240512547 8.8937268258862847 0
          3.8644373136927777 8.9014365044530059 0
          3.8629221643069669 8.9091658694678504 0
          3.8615234158869822 8.9169173421352657 0
          3.8602576530629524 8.9246918447675991 0
          3.8591440373399282 8.9324898106141273 0
          3.8580537469690221 8.9402903000383667 0
          3.8569748124067087 8.9480917327223111 0
          3.8559350098947487 8.9558979429453505 0
          3.854963654618786 8.9637125332674099 0
          3.8542114762721584 8.9715508876265204 0
          3.8537754817233369 8.9794132510451643 0
        </DataArray>
      </Points>
      <Cells>
        <DataArray type="Int32" Name="connectivity" format="ascii">
          0 1 1 2 2 3 3 4 4 5 5 6 6 7 7 8 8 9 9 10 10 11 11 12 12 13 13 14 14 15 15 16 16 17 17 18 18 19 19 20 20 21 21 22 22 23 23 24 24 25 25 26 26 27 27 28 28 29 29 30 30 31 31 32 32 33 33 34 34 35 35 36 36 37 37 38 38 39 39 40 40 41 41 42 42 43 43 44 44 45 45 46 46 47 47 48 48 49 49 50 50 51 51 52 52 53 53 54 54 55 55 56 56 57 57 58 58 59 59 60 60 61 61 62 62 63 63 64 64 65 65 66 66 67 67 68 68 69 69 70 70 71 71 72 72 73 73 74 74 75 75 76 76 77 77 78 78 79 79 80 80 81 81 82 82 83 83 84 84 85 85 86 86 87 87 88 88 89 89 90 90 91 91 92 92 93 93 94 94 95 95 96 96 97 97 98 98 99 99 100 100 101 101 102 102 103 103 104 104 105 105 106 106 107 107 108 108 109 109 110 110 111 111 112 112 113 113 114 114 115 115 116 116 117 117 118 118 119 119 120 120 121 121 122 122 123 123 124 124 125 125 126 126 127 
        </DataArray>
        <DataArray type="Int32" Name="offsets" format="ascii">
          2 4 6 8 10 12 14 16 18 20 22 24 26 28 30 32 34 36 38 40 42 44 46 48 50 52 54 56 58 60 62 64 66 68 70 72 74 76 78 80 82 84 86 88 90 92 94 96 98 100 102 104 106 108 110 112 114 116 118 120 122 124 126 128 130 132 134 136 138 140 142 144 146 148 150 152 154 156 158 160 162 164 166 168 170 172 174 176 178 180 182 184 186 188 190 192 194 196 198 200 202 204 206 208 210 212 214 216 218 220 222 224 226 228 230 232 234 236 238 240 242 244 246 248 250 252 254 
        </DataArray>
        <DataArray type="Int32" Name="types" format="ascii">
          3 3 3 3 3 3 3 3 3 3 3 3 3 3 3 3 3 3 3 3 3 3 3 3 3 3 3 3 3 3 3 3 3 3 3 3 3 3 3 3 3 3 3 3 3 3 3 3 3 3 3 3 3 3 3 3 3 3 3 3 3 3 3 3 3 3 3 3 3 3 3 3 3 3 3 3 3 3 3 3 3 3 3 3 3 3 3 3 3 3 3 3 3 3 3 3 3 3 3 3 3 3 3 3 3 3 3 3 3 3 3 3 3 3 3 3 3 3 3 3 3 3 3 3 3 3 3         </DataArray>
      </Cells>
    </Piece>
  </UnstructuredGrid>
</VTKFile>
