<?xml version="1.0"?>
<VTKFile type="UnstructuredGrid" version="0.1" byte_order="LittleEndian">
  <UnstructuredGrid>
    <Piece NumberOfPoints="128" NumberOfCells="127">
      <PointData Scalars="W">
        <DataArray type="Float32" Name="W" NumberOfComponents="2">
          0 0 0.35419298837940072 -0.66764269970208456 0.52124975435122656 -1.0003924509378066 0.63976285492167639 -1.2583937858876391 0.72836325597981155 -1.476404685808741 0.79485291136048952 -1.6686597043296811 0.84355365511319769 -1.8427982303855757 0.87721368753085593 -2.0035085925385427 0.89770483640993082 -2.1538564465958978 0.90634529938879804 -2.2958809013550905 0.9041277172968627 -2.4310385806613413 0.89180728484273186 -2.5603580920605222 0.86997933458559107 -2.6845898195776301 0.83909655813652928 -2.8041976916313049 0.79951145306908367 -2.9194150647159249 0.75153053479009146 -3.0303705434075634 0.69544002479527434 -3.1371703609078767 0.63148098066720004 -3.2397762329337056 0.55987777625354007 -3.3380705797881065 0.48085800642692184 -3.4319392090302521 0.39464462880059054 -3.5212253155479623 0.30145904439899579 -3.6057026069836531 0.20153490963090331 -3.6851608055472092 0.095114149755837277 -3.7593902632795313 -0.017551628065639521 -3.8280641815599847 -0.13619268593925571 -3.8909890048592528 -0.2605288253900031 -3.947901439828311 -0.39025633145454797 -3.9984704983407293 -0.52505177106794765 -4.0424201294710311 -0.66464435751079742 -4.079881965763553 -0.80865469960004566 -4.1102586790252396 -0.95671845091179331 -4.1333251296348745 -1.1084572699623314 -4.1488683516852127 -1.2634868177477183 -4.1567120076137991 -1.4214071224909557 -4.1566745144399766 -1.5818173916305729 -4.1486162884352122 -1.7442728937236436 -4.1323269792581714 -1.9083773351325957 -4.1077601314127321 -2.0737361855247434 -4.0748731772287483 -2.2398942828393325 -4.0335217674805177 -2.4064015486190766 -3.9836167816066079 -2.5728134484530396 -3.9251100806409602 1.991486283217941 3.0101304325226796 1.8524849048236245 2.9781168944510621 1.7498206102966196 2.9933152117968769 1.6184345079641018 2.9477315230113912 1.4931296126874474 2.8959756879372738 1.4021880450958872 2.8988057668887577 1.2866011950196314 2.8383785084116191 1.2035235184104218 2.8372614420163722 1.0979736023193425 2.7705668326316708 1.022731671136232 2.7676995101720752 0.90409716386343109 2.6274679993652494 0.79362495410999623 2.4755932410328363 -5.2895947887461814 -14.084557627912377 -6.9312872004564863 -13.382327278838375 -8.4720961885843185 -12.472656028776113 -9.9025255670737806 -11.392857862046316 -11.195161638114602 -10.146157796387721 -12.330537615534913 -8.7508724018153377 -13.292377393581662 -7.2277283335020073 -14.065758299160061 -5.5983116000046715 2.9514246335582452 1.0156893459490006 2.9764910385230068 1.1075786083062715 2.8909871125916284 1.1580467747122734 2.8550489450658478 1.2256245367881089 2.8165255385585226 1.2914613738362997 2.7745636065987505 1.3549458666950791 2.7300452831015058 1.4162501420499976 2.6832546406671458 1.4753268715697447 2.6344625836815303 1.5321505446953128 2.6320788980437078 1.6170975465373072 2.5785634331311083 1.6717128305854663 2.5236932308436266 1.7240315743747214 2.4682294693927282 1.7744959107229743 2.4113025068277603 1.8224119751893808 2.3536489804421299 1.8682165176553227 2.3373252338743473 1.9477377690732129 2.2770179304993512 1.9915407767211721 2.2164087088629518 2.0334368501855842 2.1556323458990851 2.0735391293472105 2.0948180649984445 2.1119777521444942 2.0701927376569977 2.1879598707437755 2.0077271194885222 2.225097981129105 1.9454391481612709 2.260876849292067 1.8833943360512 2.2954373367369336 1.8216439740972092 2.3289230768850597 1.7905169910243162 2.4031350737438699 1.7275018822212218 2.436308920008718 1.664814435988762 2.468775768948809 1.6024550636263717 2.5006885059534025 1.5657895295431912 2.5750565839064228 1.5020134618221879 2.6075042389728087 1.4384505118873354 2.6397900326235173 1.3750502671425548 2.6720738315504784 1.3322448531678248 2.7481022515922544 1.2668776748540433 2.7818371345206097 1.2014008231513078 2.8159899561114918 1.1524089230414609 2.8941979586024331 1.0842502127306026 2.930515997091387 1.0155755491590126 2.9677260437119091 0.94621755404620222 3.0060002747630339 0.87599998384624633 3.0455553575791123 0.8155218697962191 3.1303208243666862 0.74086007670091636 3.1743126769544348 0.66441178404531831 3.2195612897227286 0.58605555841328816 3.2670055057668521 0.50544688739812038 3.3169634291306207 0.42226686100064165 3.3704935961637279 0.33586112735149826 3.4266192834152291 0.24329056957915418 3.4422889069561653 0.15140803505345571 3.5063981053398354 0.054550848517380561 3.5764119845225992 -0.046967158223911273 3.6051093454196472 -0.15410422158597614 3.6882870369673819 -0.26957486956121468 3.7792047202133445 -0.38965628783574047 3.8333997334503911 0.34764019375782096 -3.3572408945750993 0.27830939435825913 -3.6874819034224768 0.18808277263567899 -4.2824760309664853 0.035086132221224281 -5.1184334063932413 -0.18656599403956581 -5.395582710283267 -0.50693141585408319 -6.2743986728904035 -1.0678294085613045 -7.7827028083812007 -1.3449228585634339 -6.8209195072448026 -1.4389931568019441 -5.745944878571799 -0.56284644113310833 -1.9810021067129067 0 0
        </DataArray>
        <DataArray type="Float32" Name="u" NumberOfComponents="1">
          0 0.007874015748031496 0.015748031496062992 0.023622047244094488 0.031496062992125984 0.03937007874015748 0.047244094488188976 0.055118110236220472 0.062992125984251968 0.070866141732283464 0.07874015748031496 0.086614173228346455 0.094488188976377951 0.10236220472440945 0.11023622047244094 0.11811023622047244 0.12598425196850394 0.13385826771653545 0.14173228346456693 0.14960629921259844 0.15748031496062992 0.16535433070866143 0.17322834645669291 0.18110236220472442 0.1889763779527559 0.19685039370078741 0.20472440944881889 0.2125984251968504 0.22047244094488189 0.2283464566929134 0.23622047244094488 0.24409448818897639 0.25196850393700787 0.25984251968503935 0.26771653543307089 0.27559055118110237 0.28346456692913385 0.29133858267716534 0.29921259842519687 0.30708661417322836 0.31496062992125984 0.32283464566929132 0.33070866141732286 0.33858267716535434 0.34645669291338582 0.3543307086614173 0.36220472440944884 0.37007874015748032 0.37795275590551181 0.38582677165354329 0.39370078740157483 0.40157480314960631 0.40944881889763779 0.41732283464566927 0.42519685039370081 0.43307086614173229 0.44094488188976377 0.44881889763779526 0.45669291338582679 0.46456692913385828 0.47244094488188976 0.48031496062992124 0.48818897637795278 0.49606299212598426 0.50393700787401574 0.51181102362204722 0.51968503937007871 0.52755905511811019 0.53543307086614178 0.54330708661417326 0.55118110236220474 0.55905511811023623 0.56692913385826771 0.57480314960629919 0.58267716535433067 0.59055118110236215 0.59842519685039375 0.60629921259842523 0.61417322834645671 0.62204724409448819 0.62992125984251968 0.63779527559055116 0.64566929133858264 0.65354330708661412 0.66141732283464572 0.6692913385826772 0.67716535433070868 0.68503937007874016 0.69291338582677164 0.70078740157480313 0.70866141732283461 0.71653543307086609 0.72440944881889768 0.73228346456692917 0.74015748031496065 0.74803149606299213 0.75590551181102361 0.76377952755905509 0.77165354330708658 0.77952755905511806 0.78740157480314965 0.79527559055118113 0.80314960629921262 0.8110236220472441 0.81889763779527558 0.82677165354330706 0.83464566929133854 0.84251968503937003 0.85039370078740162 0.8582677165354331 0.86614173228346458 0.87401574803149606 0.88188976377952755 0.88976377952755903 0.89763779527559051 0.90551181102362199 0.91338582677165359 0.92125984251968507 0.92913385826771655 0.93700787401574803 0.94488188976377951 0.952755905511811 0.96062992125984248 0.96850393700787396 0.97637795275590555 0.98425196850393704 0.99212598425196852 1
        </DataArray>
      </PointData>
      <CellData Scalars="P">
        <DataArray type="Float32" Name="P" NumberOfComponents="1">
          -0.01180361611454981 -0.033527960920746197 -0.051696512648727252 -0.065417765328012745 -0.074121414180742279 -0.07742793880682762 -0.075083355788029202 -0.066920662278281251 -0.052835877586817452 -0.032773217598498265 -0.0067136734542341033 0.025332519935483706 0.063331815029115751 0.10722981952967627 0.15695239947088283 0.21240800140477967 0.27349104923784001 0.34008140747875426 0.41204470472484284 0.48923445455907055 0.57149259407547948 0.6586488746191167 0.75052250999790293 0.84692325774732891 0.94764863153431722 1.0524888194835733 1.1612251712189448 1.2736285046865814 1.3894613308803025 1.5084922232364695 1.6304715473909317 1.7551443010740748 1.8822508303179013 2.0115283853337349 2.1427111639984444 2.2755320271233694 2.4097200236168086 2.54500656730049 2.6811257923660432 2.8178107716608061 2.9547955920574038 3.0918169078187976 2.9510442677119535 2.8110065315791535 2.6710656709617919 2.5350048947553345 2.4041201475079994 2.2771672982930635 2.1574495266162876 2.0434952428992723 1.9382349504338912 1.8401149852776491 1.7535238099448831 1.6784697441582621 1.9358238885201375 2.126737171923772 2.2581746849361086 2.3388063580856677 2.3781710596821739 2.3865845286634366 2.3748210673014896 2.3537906484318425 2.3290257920037907 2.2963611015884879 2.2570265463719532 2.2115783426294744 2.1607571536763768 2.1052936447653212 2.0458872979646747 1.9832080805850709 1.9178936838853526 1.8496280112443304 1.7798537044159333 1.7091233966572459 1.637940438497665 1.5667928897248828 1.4961198792270594 1.4253763553257059 1.3558874904962561 1.2880002577787786 1.2220267182267068 1.1582450351349414 1.0961351563257333 1.036723436299952 0.98021055845003446 0.92676949179135859 0.87654711981053102 0.82918154109729025 0.78531897137891471 0.74504961023936034 0.70844416528149401 0.67533067016874404 0.64603772957838679 0.62059647270341334 0.59902472741407375 0.58136199766289176 0.56763691482864753 0.55784350497968005 0.55218167883620228 0.55048066073047286 0.55272208186917049 0.5588837672916751 0.56894117753251794 0.58334934317423726 0.6016638279761426 0.62385904361355127 0.64992027780488537 0.67983807148026387 0.71362129029419108 0.75126651906713859 0.79200979364440838 0.83663163229736537 0.88519546948101235 0.93682993208065368 0.99255388485448337 1.0524880158266665 1.1157907172501444 1.0183974543429042 0.91119912816693838 0.78949030905345474 0.65015510816258892 0.50989185233753886 0.36101967909982863 0.2126669515508515 0.10284831262516321 0.031261143503412872 0.0074103446585568654
        </DataArray>
      </CellData>
      <Points>
        <DataArray type="Float32" NumberOfComponents="3" format="ascii">
          7.1095539048368552 9.8447277421787227 0
          7.1164991088131737 9.8484387869322525 0
          7.1234662764395864 9.8521084331885014 0
          7.1304657670745391 9.8557160481437158 0
          7.1375049298833595 9.8592456338728418 0
          7.144589259149507 9.8626836720925102 0
          7.1517228780748043 9.866018241520786 0
          7.1589088067755009 9.8692385441834425 0
          7.1661491326963187 9.8723346147067197 0
          7.1734451266801553 9.8752971302273185 0
          7.1807973247069761 9.8781172839557332 0
          7.1882055894447605 9.8807866948578891 0
          7.1956691570764013 9.8832973438770235 0
          7.2031866742135735 9.8856415274075804 0
          7.2107562259655831 9.8878118285316887 0
          7.2183753577953382 9.8898011025530721 0
          7.2260410945241329 9.8916024690265587 0
          7.2337499580782163 9.8932093051749312 0
          7.2414979824350363 9.8946152482672183 0
          7.2492807275352327 9.8958142029140905 0
          7.2570932933946803 9.8968003481533451 0
          7.2649303339293887 9.897568147177827 0
          7.272786070684278 9.8981123613722168 0
          7.2806543073223562 9.8984280633568069 0
          7.2885284446270964 9.8985106499921702 0
          7.2964014961056458 9.8983558626481489 0
          7.3042661047168354 9.8979597992104544 0
          7.3121145602483208 9.89731893041143 0
          7.319938818152453 9.8964301203582661 0
          7.3277305196053151 9.8952906436542811 0
          7.3354810083016844 9.8938981772398034 0
          7.3431813539848809 9.8922508374347302 0
          7.3508223750440864 9.8903471939015599 0
          7.3583946619798137 9.8881862828530078 0
          7.3658886012415872 9.8857676179877139 0
          7.3732944000351974 9.8830912017505792 0
          7.3806021111809965 9.8801575339880721 0
          7.3878016606968826 9.8769676249910106 0
          7.3948828723776741 9.8735229983736321 0
          7.4018354922650476 9.8698256937108493 0
          7.4086492168769684 9.8658782754861516 0
          7.4153137211215903 9.8616838386141215 0
          7.4218186858669792 9.8572460114210187 0
          7.4284471013562783 9.8529948633237776 0
          7.4351903466537035 9.8489284057511473 0
          7.4420420556543547 9.8450475769191073 0
          7.4489940804472594 9.8413495469432597 0
          7.456038650665664 9.8378311032711263 0
          7.4631701282250535 9.8344924175154542 0
          7.470381346139054 9.8313297397151551 0
          7.4776671545892492 9.828342997076609 0
          7.4850210096782197 9.8255280513726504 0
          7.4924382480246683 9.8228847216824793 0
          7.4999115143153823 9.8204043109801713 0
          7.5074339599292932 9.8180774004602362 0
          7.5146284405946888 9.8148772239721449 0
          7.5213931688131002 9.8108473213574108 0
          7.5276326122205788 9.806044093986122 0
          7.5332580820879507 9.800534491370092 0
          7.5381894331346464 9.7943958111506877 0
          7.5423562704858407 9.7877145634418685 0
          7.5456989588030554 9.7805851857539068 0
          7.5481695475126012 9.7731087046227572 0
          7.550823123111571 9.7656952142309983 0
          7.5536612394200917 9.7583504091615598 0
          7.5566785945990107 9.7510774168312366 0
          7.5598729602945145 9.7438804250450151 0
          7.5632419480365813 9.7367635137376798 0
          7.5667829563245341 9.7297306170802127 0
          7.5704932253139621 9.7227855341549656 0
          7.5743698544208256 9.7159319260284018 0
          7.5784098191083826 9.709173314176164 0
          7.5826129723027798 9.7025149638102537 0
          7.5869759967970261 9.6959602597908798 0
          7.5914954914890291 9.6895124447033556 0
          7.5961680185629428 9.6831746462759885 0
          7.6009900495610241 9.6769498343625564 0
          7.6059580110436178 9.6708408480241967 0
          7.6110708919099066 9.6648526171027083 0
          7.6163249542107918 9.6589878568774932 0
          7.6217164413049359 9.65324916451892 0
          7.6272415862038487 9.6476390261031 0
          7.6328966195727785 9.642159824679938 0
          7.6386800154753098 9.6368162714809955 0
          7.6445879020964194 9.6316106692018817 0
          7.6506164186069858 9.6265452363737491 0
          7.6567617192165427 9.6216221160934605 0
          7.6630199763448594 9.6168433849250281 0
          7.6693892605507452 9.6122136450220008 0
          7.6758656656494884 9.6077349538190866 0
          7.6824453057036095 9.6034093249979779 0
          7.6891243150430579 9.5992387379605653 0
          7.6959004203748398 9.5952278049139661 0
          7.7027696679623148 9.5913785385572261 0
          7.7097281171987015 9.5876929416043133 0
          7.7167718374801186 9.5841730166893893 0
          7.7238981743377639 9.5808234791642874 0
          7.7311030749811076 9.5776464216812016 0
          7.7383824797382941 9.5746439628233766 0
          7.7457333502099504 9.5718209531037459 0
          7.7531514602352871 9.5691796453392914 0
          7.7606325515963261 9.5667223476488807 0
          7.7681723236467324 9.5644514341239617 0
          7.7757664223912766 9.5623693582589517 0
          7.7834110968258114 9.5604813770227146 0
          7.7911017172643069 9.5587902189222049 0
          7.7988335432415639 9.5572986903585946 0
          7.8066017159816425 9.5560097338448333 0
          7.8144012370471883 9.5549264477319173 0
          7.8222269485617835 9.5540521518496302 0
          7.8300734926760382 9.553390326945232 0
          7.8379351302616973 9.5529419451806383 0
          7.8458061639786774 9.5527109823884508 0
          7.8536805880618124 9.5527017805431669 0
          7.8615521088382323 9.552916119784399 0
          7.8694140832546209 9.5533591584797435 0
          7.8772593515858187 9.5540365349941769 0
          7.8850804693063798 9.5549516108447126 0
          7.8929233384369386 9.5556585284155382 0
          7.9007837114827844 9.5561367953923035 0
          7.9086560622772053 9.5563494912121989 0
          7.9165309941789337 9.5562447326083912 0
          7.9243948420725419 9.5558052724728206 0
          7.9322278577945315 9.5549765106922404 0
          7.9399942933565359 9.5536649528627162 0
          7.9476769723118883 9.5519303225178476 0
          7.9552700798938139 9.5498393491552864 0
          7.9628278855879095 9.5476256169415663 0
        </DataArray>
      </Points>
      <Cells>
        <DataArray type="Int32" Name="connectivity" format="ascii">
          0 1 1 2 2 3 3 4 4 5 5 6 6 7 7 8 8 9 9 10 10 11 11 12 12 13 13 14 14 15 15 16 16 17 17 18 18 19 19 20 20 21 21 22 22 23 23 24 24 25 25 26 26 27 27 28 28 29 29 30 30 31 31 32 32 33 33 34 34 35 35 36 36 37 37 38 38 39 39 40 40 41 41 42 42 43 43 44 44 45 45 46 46 47 47 48 48 49 49 50 50 51 51 52 52 53 53 54 54 55 55 56 56 57 57 58 58 59 59 60 60 61 61 62 62 63 63 64 64 65 65 66 66 67 67 68 68 69 69 70 70 71 71 72 72 73 73 74 74 75 75 76 76 77 77 78 78 79 79 80 80 81 81 82 82 83 83 84 84 85 85 86 86 87 87 88 88 89 89 90 90 91 91 92 92 93 93 94 94 95 95 96 96 97 97 98 98 99 99 100 100 101 101 102 102 103 103 104 104 105 105 106 106 107 107 108 108 109 109 110 110 111 111 112 112 113 113 114 114 115 115 116 116 117 117 118 118 119 119 120 120 121 121 122 122 123 123 124 124 125 125 126 126 127 
        </DataArray>
        <DataArray type="Int32" Name="offsets" format="ascii">
          2 4 6 8 10 12 14 16 18 20 22 24 26 28 30 32 34 36 38 40 42 44 46 48 50 52 54 56 58 60 62 64 66 68 70 72 74 76 78 80 82 84 86 88 90 92 94 96 98 100 102 104 106 108 110 112 114 116 118 120 122 124 126 128 130 132 134 136 138 140 142 144 146 148 150 152 154 156 158 160 162 164 166 168 170 172 174 176 178 180 182 184 186 188 190 192 194 196 198 200 202 204 206 208 210 212 214 216 218 220 222 224 226 228 230 232 234 236 238 240 242 244 246 248 250 252 254 
        </DataArray>
        <DataArray type="Int32" Name="types" format="ascii">
          3 3 3 3 3 3 3 3 3 3 3 3 3 3 3 3 3 3 3 3 3 3 3 3 3 3 3 3 3 3 3 3 3 3 3 3 3 3 3 3 3 3 3 3 3 3 3 3 3 3 3 3 3 3 3 3 3 3 3 3 3 3 3 3 3 3 3 3 3 3 3 3 3 3 3 3 3 3 3 3 3 3 3 3 3 3 3 3 3 3 3 3 3 3 3 3 3 3 3 3 3 3 3 3 3 3 3 3 3 3 3 3 3 3 3 3 3 3 3 3 3 3 3 3 3 3 3         </DataArray>
      </Cells>
    </Piece>
  </UnstructuredGrid>
</VTKFile>
