<?xml version="1.0"?>
<VTKFile type="UnstructuredGrid" version="0.1" byte_order="LittleEndian">
  <UnstructuredGrid>
    <Piece NumberOfPoints="128" NumberOfCells="127">
      <PointData Scalars="W">
        <DataArray type="Float32" Name="W" NumberOfComponents="2">
          0 0 0.013910171319542705 0.0006477275639229414 -0.036033839609492503 -0.0016810657696649572 -0.070446144219475926 -0.0033161127310474179 -0.095709822731539662 -0.0045681716949390041 -0.11438714367186291 -0.0055545750543905033 -0.12761167449030567 -0.0063187733953838678 -0.13602138490111615 -0.0068768978752926169 -0.14002555977915099 -0.007232116771264 -0.13997963610887584 -0.0073846888368472047 -0.13611412891753419 -0.0073293484277359763 -0.12866139921835928 -0.0070627566601822169 -0.11784288903572859 -0.0065837765546765108 -0.10387815446615427 -0.0058946885557555045 -0.086997867796977685 -0.0050024945834013226 -0.067410983547080999 -0.0039174078284115333 -0.045235789586056147 -0.0026489203582398062 -0.020669235887499856 -0.0012157412371968106 0.006130945885882132 0.00036096809466871203 0.035047237085089424 0.002057744282863639 0.065945405048604619 0.0038455271648728563 0.098678034901386283 0.0056900128556071653 0.13310549475144248 0.0075531234116589085 0.16909975151109014 0.0093934878172287524 0.20651220493406433 0.011164985166537161 0.24526442268103943 0.012822016548263895 0.28521139280755581 0.014312372550742844 0.3261417608909184 0.015578509844906701 0.3679380665233063 0.016566281565129157 0.41080102445989009 0.017233120965748659 0.45422980011332392 0.017504257759148687 0.49808975609480943 0.017323194834109757 0.54223528264881216 0.016634089627050593 0.58652978452742788 0.015383201875351875 0.63080698436154226 0.013518617745340359 0.67491750978356924 0.010992507741243189 0.71859229984976836 0.0077602859218158515 0.76170957230299707 0.0037861639373542879 0.80416388302624919 -0.00096057203757753996 0.84570074651612803 -0.0065038636316359548 0.88607953026370345 -0.012857144541681539 0.92509702247917613 -0.020023440411146738 -9.1287925135425851 -0.097385762941828574 -9.0538560932746552 -0.74769584106683185 -5.5168100083507845 -0.77806249819613083 -5.2024661306856625 -0.96218495512543978 -4.9972343311597687 -1.1379314533648821 -4.784267667332144 -1.2911127977291859 -4.5649827016033093 -1.4217522467581398 -4.3407393054823151 -1.5299834916051356 -4.2473890024320351 -1.6717343023400368 -4.1773039799218266 -1.8199754755041433 -4.07498292213449 -1.9514551910377225 -3.9743111838056904 -2.0795185734379671 -3.8608033981849537 -2.196304987905779 -3.7484989694834145 -2.3087642200304206 -3.3809083331763081 -2.2409903781230689 -3.0108567014040739 -2.1306263524050659 -2.6435083332477158 -1.9821006818588853 -2.2783831679441229 -1.7969401186918676 -1.9041988162544894 -1.5682288617115487 -1.5244115257890118 -1.3011538410034609 -1.14165447247829 -1.0021585003828406 -0.74102271900124039 -0.66357886147699852 -0.33594738139045516 -0.30430653356527493 -0.10004113213943619 -0.091041772219219955 -0.06843226371387337 -0.062388660693286559 -0.036907977941899907 -0.033686402090783663 0.19883206422022048 0.18116263904114696 0.2308940565627203 0.20941130216168857 0.48263445820395834 0.43441242321161949 0.51666738043930427 0.46012983646266908 0.77372436508773867 0.67970963673337492 0.81124861687645355 0.70086540335879144 0.84895032420501615 0.72077294245643997 1.1303924361879871 0.94010242650460341 1.1728425895101922 0.95234493704273515 1.2079703707516669 0.95701582120834749 1.5103687513109263 1.1635747486037349 1.5586647577221242 1.1635497257536844 1.6069606920652804 1.1613437092738532 1.9334255686910529 1.347602905852447 1.9879148763697083 1.3310592373299535 2.0334863028384231 1.3064970722671299 2.385680196818087 1.4644495308045544 2.4452986524829075 1.4273991858722781 2.5036277862375029 1.3871595921438964 2.8820040032937309 1.507296694418218 2.9447654381944477 1.4449229081548771 3.0050722679054886 1.3790138558324072 3.3982327922481379 1.4474376163091658 3.4600510276263989 1.3559355195709053 3.5178725260222454 1.2608237160921674 3.9401011049191381 1.27569885310635 3.9954712088465612 1.1508312324350516 4.0448881998742854 1.0226794945213853 4.4792221105479832 0.96956023496685528 4.5096527014293795 0.80703618162798241 4.5424503647963697 0.64465854775658127 4.9777290922942532 0.51555851586838464 4.9949176039198653 0.31905724681988701 5.0014249524552037 0.12195726179911204 5.4232846994044941 -0.09047300351396087 5.3944498431290313 -0.32038106557749685 5.8010714479340422 -0.60297579203088447 5.7508868097566967 -0.86587705778831259 6.1300046417481893 -1.2232382415139236 6.0267298506732825 -1.5135563992779453 6.3643799920394626 -1.9459901006869573 6.6737164171907262 -2.4431888030429816 6.478106291871403 -2.7902805773304715 6.7157004770764122 -3.3614055225305415 6.901729963123497 -3.9982621246421841 7.0144162714663114 -4.6938480205145963 6.631710625341908 -5.1039757257206215 6.619211555776614 -5.8491172746716007 6.5242496205916591 -6.653762352612195 6.6909251122732485 -7.9788858711474901 6.2859801536873494 -8.9216946788508142 4.141186765905112 -6.9243708619691189 3.4234767336051273 -6.6101034800003333 2.912902464237157 -6.5150778391589386 2.3432199576835062 -6.1031493339170897 1.762589213206925 -5.3424028760633755 1.2163693084611509 -4.2437689534884679 0.53520987227439409 -2.0671384247286495 -0.26091040594389819 1.0256184938988575 0 0
        </DataArray>
        <DataArray type="Float32" Name="u" NumberOfComponents="1">
          0 0.007874015748031496 0.015748031496062992 0.023622047244094488 0.031496062992125984 0.03937007874015748 0.047244094488188976 0.055118110236220472 0.062992125984251968 0.070866141732283464 0.07874015748031496 0.086614173228346455 0.094488188976377951 0.10236220472440945 0.11023622047244094 0.11811023622047244 0.12598425196850394 0.13385826771653545 0.14173228346456693 0.14960629921259844 0.15748031496062992 0.16535433070866143 0.17322834645669291 0.18110236220472442 0.1889763779527559 0.19685039370078741 0.20472440944881889 0.2125984251968504 0.22047244094488189 0.2283464566929134 0.23622047244094488 0.24409448818897639 0.25196850393700787 0.25984251968503935 0.26771653543307089 0.27559055118110237 0.28346456692913385 0.29133858267716534 0.29921259842519687 0.30708661417322836 0.31496062992125984 0.32283464566929132 0.33070866141732286 0.33858267716535434 0.34645669291338582 0.3543307086614173 0.36220472440944884 0.37007874015748032 0.37795275590551181 0.38582677165354329 0.39370078740157483 0.40157480314960631 0.40944881889763779 0.41732283464566927 0.42519685039370081 0.43307086614173229 0.44094488188976377 0.44881889763779526 0.45669291338582679 0.46456692913385828 0.47244094488188976 0.48031496062992124 0.48818897637795278 0.49606299212598426 0.50393700787401574 0.51181102362204722 0.51968503937007871 0.52755905511811019 0.53543307086614178 0.54330708661417326 0.55118110236220474 0.55905511811023623 0.56692913385826771 0.57480314960629919 0.58267716535433067 0.59055118110236215 0.59842519685039375 0.60629921259842523 0.61417322834645671 0.62204724409448819 0.62992125984251968 0.63779527559055116 0.64566929133858264 0.65354330708661412 0.66141732283464572 0.6692913385826772 0.67716535433070868 0.68503937007874016 0.69291338582677164 0.70078740157480313 0.70866141732283461 0.71653543307086609 0.72440944881889768 0.73228346456692917 0.74015748031496065 0.74803149606299213 0.75590551181102361 0.76377952755905509 0.77165354330708658 0.77952755905511806 0.78740157480314965 0.79527559055118113 0.80314960629921262 0.8110236220472441 0.81889763779527558 0.82677165354330706 0.83464566929133854 0.84251968503937003 0.85039370078740162 0.8582677165354331 0.86614173228346458 0.87401574803149606 0.88188976377952755 0.88976377952755903 0.89763779527559051 0.90551181102362199 0.91338582677165359 0.92125984251968507 0.92913385826771655 0.93700787401574803 0.94488188976377951 0.952755905511811 0.96062992125984248 0.96850393700787396 0.97637795275590555 0.98425196850393704 0.99212598425196852 1
        </DataArray>
      </PointData>
      <CellData Scalars="P">
        <DataArray type="Float32" Name="P" NumberOfComponents="1">
          0.012418098983121061 0.037251136469936996 0.06210912854117831 0.086995475107105508 0.1119014897680493 0.13681126295010049 0.16170472000618449 0.18656030074443547 0.21135739981254992 0.23607857558328862 0.26071155943340918 0.28525101484603077 0.3097000073868571 0.33407115483565442 0.35838739093217109 0.38268251047969354 0.4070019319488038 0.43140233432714675 0.45595158978837147 0.48072862847683651 0.50582261260620875 0.53133176379523939 0.55736212106078931 0.58402613552960669 0.61144054031628181 0.63972549410820245 0.66900129476536363 0.69938442275902668 0.73098653528626767 0.76391919680721643 0.7982751584988943 0.83413293569998093 0.87155335123225319 0.91057654114542286 0.95121791193747152 0.99346539714288529 1.0372727837032496 1.0825610743184284 1.1292164046570834 1.1770830940158181 1.2259620310795449 1.2756103230800948 1.0250385719254922 0.77246162665661799 0.6268260508220681 0.48768623629210689 0.35133711829056719 0.2178984077249457 0.087548178486061307 -0.03948066060517598 -0.16797559368888396 -0.29904091500248881 -0.43165976365382919 -0.56607598194327857 -0.70190915375915686 -0.8393266339863904 -0.96648912382258723 -1.0821247709841966 -1.1850530638475116 -1.2739749686879307 -1.3469396200990233 -1.4021443022798741 -1.4379947902293 -1.4521968186988388 -1.4434613064204804 -1.421127919483858 -1.3971286188244729 -1.3714599185778729 -1.3320167377793291 -1.2909891063821128 -1.2356635733900878 -1.1790371007355867 -1.1087038409181813 -1.03753271416517 -0.96572973594371236 -0.88080506549600912 -0.79593926829462347 -0.71174500065186963 -0.61595021872634959 -0.52130867761456057 -0.42808965494255602 -0.32526800718580651 -0.22485684464405964 -0.12743478409378378 -0.022782760975937656 0.078133613477307517 0.17506115599809205 0.27653641659866562 0.37292926960735295 0.46403236135804277 0.55661362077254295 0.64286982757532096 0.72267298581912343 0.80125007558138694 0.87243499408027902 0.93621068159192666 0.99595095878337747 1.0474761036053812 1.0910133194817964 1.1280452849444396 1.1566664239548936 1.1771943914923475 1.1892687957398618 1.19327996598249 1.1876504622009179 1.1742117722158905 1.1502716741025054 1.1192398050898604 1.0773321875700783 1.0240965725607651 0.96516596423324819 0.89537609971190668 0.81485039469369347 0.72408235696449064 0.63122271936447305 0.53040348818207605 0.42283632735273852 0.30204665318769652 0.17835774648640146 0.10551170115969079 0.046847701820827529 -0.00044986501239651006 -0.033170413337766873 -0.049800942301886066 -0.050906947290556712 -0.035848298815155055 -0.01082911474498134
        </DataArray>
      </CellData>
      <Points>
        <DataArray type="Float32" NumberOfComponents="3" format="ascii">
          4.0002619006866862 7.2625895605470099 0
          3.9998952079618313 7.2704551314250958 0
          3.9995293777134964 7.278320741975068 0
          3.9991613133519426 7.2861862473439771 0
          3.9987888812808814 7.2940515456934643 0
          3.9984105151368303 7.3019165589231534 0
          3.9980250569244844 7.3097812253959518 0
          3.9976316867335138 7.3176454972477227 0
          3.9972298831829098 7.3255093393926014 0
          3.9968193980438476 7.3333727293333011 0
          3.9964002342009253 7.3412356571527155 0
          3.9959726313584798 7.3490981258489141 0
          3.995537051632212 7.3569601515514167 0
          3.9950941658176142 7.3648217636016149 0
          3.9946448397751868 7.3726830044220311 0
          3.9941901201263743 7.3805439290935109 0
          3.993731221296033 7.3884046047338972 0
          3.9932695181763926 7.3962651099220809 0
          3.9928065339140644 7.4041255335511744 0
          3.9923439301288974 7.4119859735301814 0
          3.9918834996264416 7.4198465353435132 0
          3.9914271580746301 7.4277073302640026 0
          3.9909769348637893 7.4355684732412515 0
          3.9905349644499588 7.4434300805564266 0
          3.9901034784182468 7.4512922672732609 0
          3.9896847962720625 7.4591551443948543 0
          3.9892813205739532 7.4670188160531037 0
          3.9888955279598255 7.474883376288445 0
          3.9885299560413894 7.4827489054989691 0
          3.9881871961316357 7.490615467100123 0
          3.9878699056989908 7.4984831049022356 0
          3.9875807773270946 7.5063518384912005 0
          3.9873225303807622 7.5142216597417129 0
          3.9870979019936144 7.5220925293705401 0
          3.986909638616619 7.5299643736195234 0
          3.9867604857283259 7.5378370810509256 0
          3.9866531785952088 7.5457104995949837 0
          3.9865904256129405 7.5535844337974538 0
          3.9865749007809499 7.5614586426111776 0
          3.9866092371917383 7.5693328375006992 0
          3.9866960112805674 7.5772066809651868 0
          3.9868377279350002 7.5850797857108514 0
          3.9870368079253216 7.5929517144668557 0
          3.9866698338297435 7.6008176772799843 0
          3.9857414354952927 7.6086373566336833 0
          3.9844709442891753 7.6164087850917666 0
          3.9828778537990739 7.6241205416113162 0
          3.9809748914472878 7.6317617276016723 0
          3.9787752643859466 7.6393228437294027 0
          3.9762925716529867 7.6467957884821418 0
          3.9735407198404498 7.654173849884387 0
          3.9705254977426447 7.6614482407632938 0
          3.9672512508776108 7.6686097720299617 0
          3.9637243236105295 7.675650293119304 0
          3.9599509576737404 7.6825618652980294 0
          3.9559381905792628 7.6893372487250709 0
          3.951692984906201 7.6959694718327292 0
          3.9472381370982821 7.7024627327949515 0
          3.9425965969836931 7.7088238707137 0
          3.9377911473222458 7.7150620911684147 0
          3.9328444333828765 7.7211888715562687 0
          3.9277796625008854 7.7272183896882094 0
          3.9226203893899321 7.7331672022785165 0
          3.9173903524343014 7.7390538455107141 0
          3.912114397703653 7.7448993100208501 0
          3.9068176453892285 7.7507258699124897 0
          3.9015147221830482 7.7565467496204858 0
          3.8962075840040336 7.7623637302537682 0
          3.89089818175214 7.7681785955921523 0
          3.885601130459686 7.7740046682190496 0
          3.8803184141509277 7.7798437035542642 0
          3.8750656390666278 7.7857096537717538 0
          3.8698449113304263 7.7916041172444332 0
          3.8646721659932823 7.7975407105201731 0
          3.8595497257336389 7.8035207491466876 0
          3.8544799247007422 7.809545470977449 0
          3.8494802094241973 7.8156284777668583 0
          3.8445532087751824 7.8217705322805582 0
          3.8397010981962896 7.8279719274981474 0
          3.834942623569197 7.8342454744959591 0
          3.8302807773506085 7.840591175327746 0
          3.8257185525812027 7.8470088964571456 0
          3.8212761878790404 7.8535101917586427 0
          3.8169570611377983 7.8600940389831546 0
          3.8127639979987986 7.8667589181551616 0
          3.8087188335243316 7.8735146296122336 0
          3.8048252653541899 7.8803588793307648 0
          3.8010869117687291 7.8872891749676501 0
          3.7975272330263001 7.8943129737826547 0
          3.79415012356968 7.9014264110549064 0
          3.7909593261483971 7.9086254021365852 0
          3.7879792202097087 7.9159141990573056 0
          3.7852136437166259 7.9232871300245478 0
          3.7826661871633207 7.9307382985465145 0
          3.7803630353079791 7.9382686376790117 0
          3.7783076282631582 7.9458704053782334 0
          3.7765030371441966 7.9535356549503202 0
          3.7749762008909604 7.9612611040353469 0
          3.7737290149549945 7.9690366734012361 0
          3.7727635213976995 7.9768522921328104 0
          3.7721067217669599 7.9846999665561826 0
          3.7717596918721696 7.9925675086436163 0
          3.7717228447596742 8.0004426921451035 0
          3.7720223544909559 8.0083123556247351 0
          3.7726564440471169 8.0161622365260872 0
          3.7736503471931067 8.0239748220078777 0
          3.7750009650661775 8.0317338021452152 0
          3.7767318315758094 8.0394170265005247 0
          3.7788365576869261 8.0470064820900689 0
          3.7813361125765699 8.0544753607362143 0
          3.7842497165413214 8.0617928359451696 0
          3.7875652617436568 8.0689373678365452 0
          3.7912975292511684 8.0758735396307877 0
          3.7954581119474917 8.0825618527988059 0
          3.80005406458233 8.0889591586541378 0
          3.8050616944692748 8.0950399883011457 0
          3.8104803080405598 8.1007581025690349 0
          3.8163041123759536 8.1060635565245125 0
          3.8225436069123764 8.1108741025849227 0
          3.8291738142896539 8.1151311618519593 0
          3.8360601990339647 8.1189578689683657 0
          3.8431582308463219 8.1223739416345211 0
          3.8504362881874226 8.1253854669123697 0
          3.8578590931836789 8.1280181529342848 0
          3.8653906995924814 8.1303193053848162 0
          3.8729973074147592 8.1323571483004091 0
          3.8806367443231444 8.1342667141416598 0
          3.8882597327236894 8.136239804839029 0
        </DataArray>
      </Points>
      <Cells>
        <DataArray type="Int32" Name="connectivity" format="ascii">
          0 1 1 2 2 3 3 4 4 5 5 6 6 7 7 8 8 9 9 10 10 11 11 12 12 13 13 14 14 15 15 16 16 17 17 18 18 19 19 20 20 21 21 22 22 23 23 24 24 25 25 26 26 27 27 28 28 29 29 30 30 31 31 32 32 33 33 34 34 35 35 36 36 37 37 38 38 39 39 40 40 41 41 42 42 43 43 44 44 45 45 46 46 47 47 48 48 49 49 50 50 51 51 52 52 53 53 54 54 55 55 56 56 57 57 58 58 59 59 60 60 61 61 62 62 63 63 64 64 65 65 66 66 67 67 68 68 69 69 70 70 71 71 72 72 73 73 74 74 75 75 76 76 77 77 78 78 79 79 80 80 81 81 82 82 83 83 84 84 85 85 86 86 87 87 88 88 89 89 90 90 91 91 92 92 93 93 94 94 95 95 96 96 97 97 98 98 99 99 100 100 101 101 102 102 103 103 104 104 105 105 106 106 107 107 108 108 109 109 110 110 111 111 112 112 113 113 114 114 115 115 116 116 117 117 118 118 119 119 120 120 121 121 122 122 123 123 124 124 125 125 126 126 127 
        </DataArray>
        <DataArray type="Int32" Name="offsets" format="ascii">
          2 4 6 8 10 12 14 16 18 20 22 24 26 28 30 32 34 36 38 40 42 44 46 48 50 52 54 56 58 60 62 64 66 68 70 72 74 76 78 80 82 84 86 88 90 92 94 96 98 100 102 104 106 108 110 112 114 116 118 120 122 124 126 128 130 132 134 136 138 140 142 144 146 148 150 152 154 156 158 160 162 164 166 168 170 172 174 176 178 180 182 184 186 188 190 192 194 196 198 200 202 204 206 208 210 212 214 216 218 220 222 224 226 228 230 232 234 236 238 240 242 244 246 248 250 252 254 
        </DataArray>
        <DataArray type="Int32" Name="types" format="ascii">
          3 3 3 3 3 3 3 3 3 3 3 3 3 3 3 3 3 3 3 3 3 3 3 3 3 3 3 3 3 3 3 3 3 3 3 3 3 3 3 3 3 3 3 3 3 3 3 3 3 3 3 3 3 3 3 3 3 3 3 3 3 3 3 3 3 3 3 3 3 3 3 3 3 3 3 3 3 3 3 3 3 3 3 3 3 3 3 3 3 3 3 3 3 3 3 3 3 3 3 3 3 3 3 3 3 3 3 3 3 3 3 3 3 3 3 3 3 3 3 3 3 3 3 3 3 3 3         </DataArray>
      </Cells>
    </Piece>
  </UnstructuredGrid>
</VTKFile>
