<?xml version="1.0"?>
<VTKFile type="UnstructuredGrid" version="0.1" byte_order="LittleEndian">
  <UnstructuredGrid>
    <Piece NumberOfPoints="128" NumberOfCells="127">
      <PointData Scalars="W">
        <DataArray type="Float32" Name="W" NumberOfComponents="2">
          0 0 -0.025294422026983298 -0.051359402344125837 -0.018342472961630191 -0.037207225233880453 -0.017428677036564717 -0.035325248398874382 -0.019959837678054652 -0.040421635858129926 -0.024927591798000772 -0.050431382082179732 -0.031935851882700067 -0.064527850739568599 -0.040833527076671074 -0.082372230169980978 -0.051558451151087807 -0.1037937764770841 -0.064043765238911921 -0.12859831085265827 -0.07826774969538991 -0.15666664559187612 -0.094221203421584673 -0.18788680534652624 -0.11190220265029668 -0.22214197357016735 -0.13128733477763888 -0.25925264520086605 -0.15232929228931785 -0.29897320323232546 -0.17500310610347733 -0.34108447676112624 -0.19932319948818369 -0.38542631396140525 -0.22527907035716765 -0.43177254778543017 -0.25286497179348177 -0.47989133015960728 -0.28210449247713099 -0.52959282582356071 -0.31300856368111613 -0.58065037370370942 -0.34557817861036288 -0.63280947143269639 -0.37983274670343192 -0.68584283761663611 -0.41580306000200074 -0.73953790559642252 -0.45348068200457237 -0.79360953720555927 -0.49290594091036916 -0.84785948339362271 -0.53408557977240445 -0.90203214590496539 -0.57697951736027431 -0.9558011970802216 -0.62157899106581527 -1.0089066401725251 -0.66807064936921001 -1.0614084058866471 -0.71624426356758242 -1.1127362549782283 -0.76606230425208932 -1.1626291909521094 -0.81747814701553612 -1.2108339116901929 -0.87043296317235441 -1.257102588815554 -0.9248374720443665 -1.3011700369223924 -0.98059929796991074 -1.3427969110063325 -1.037544267821584 -1.3816660911223337 -1.0955706072757372 -1.4175964541092434 -1.1545460866669 -1.4503974243525748 -1.2142187988974027 -1.4797666839428694 -1.2743396098121067 -1.505457008985067 -1.3346456356115002 -1.5272540936894325 5.1279187428234989 6.1547615593319671 4.6947872247332345 6.4149112796342846 4.2525483919675731 6.6430124207413197 3.8032569187969649 6.8386501660919272 2.288802326316663 4.6632267745332889 2.039537671770725 4.6172834047846969 1.801912124255248 4.5538511195907398 1.5766606058945731 4.4739086984680343 1.3644201971696683 4.3784389583965133 1.1905193997845571 4.3660049213871996 1.0239661608588808 4.3583345828409765 0.85936366597767888 4.3343164715295099 0.69901427121362347 4.2992035653425633 0.54381295304671662 4.2541134311169415 0.37873492798995217 3.9983585230624268 0.23824520576598171 3.7206450273596587 0.12249396329772441 3.421703871310577 0.031291511477390718 3.1019875444164495 -0.03590655992416393 2.7614899705437508 -0.080021642580384772 2.3999247489790987 -0.1024213996148183 2.0169150621226444 -0.11778879149143988 1.7889280558437379 -0.0922782610110785 1.1883000115768059 -0.09735974092375356 1.1211241302180965 -0.10004195366385346 1.0476999124103465 -0.080603568011186774 0.78403859327016412 -0.077203980316039478 0.70968822700448031 -0.050442021095101333 0.44475518348044452 -0.043134984850149251 0.36966834507480045 -0.035114676235786534 0.29420566030687856 -0.0019298186793923755 0.016001560569758145 0.0072255956401355856 -0.060000848655039414 0.015601046504832555 -0.13037911101326283 0.048891412476749371 -0.41623300660857665 0.056093049447680385 -0.49286366482505145 0.062392727382530683 -0.56954027089614512 0.089608479589581333 -0.86317752170053208 0.09080863983849527 -0.93998945415258306 0.089749968528582705 -1.0103778157264893 0.1043843337690718 -1.3115326739395676 0.095571877518386 -1.3876164760202001 0.084246923767885118 -1.4630204196411869 0.070302359732871023 -1.5375611416318451 0.059713494641542457 -1.8442407142472015 0.033650315168268774 -1.9166033267807363 0.0043408364601282591 -1.9873378599330591 -0.033588718060714867 -2.2909258139509636 -0.077742383057713624 -2.3573208647147781 -0.12551479351768269 -2.421000698470035 -0.17683568410313896 -2.4816286390806943 -0.25700016614052185 -2.7870383811096673 -0.32572755999528225 -2.8392376276891458 -0.39783354800760201 -2.8867793897439089 -0.51744347686412628 -3.1836533315676987 -0.60804930369962362 -3.2185667955116148 -0.69977862099989618 -3.2406958406138235 -0.86161874048706077 -3.5209442629691408 -0.97245589812480826 -3.5316997200084823 -1.0842672655069465 -3.5342586734975185 -1.2889904876005989 -3.7880840170740688 -1.4161343985818537 -3.7669900200227238 -1.5416064541523724 -3.7360155648632638 -1.7828977966720463 -3.9465406859633543 -1.917959259277016 -3.8863964561595923 -2.1915872898751863 -4.0722710970796268 -2.327942381061018 -3.9725835163712016 -2.4583905242121253 -3.8673217825500523 -2.7554573481853075 -3.9982552027884113 -2.8799729780737162 -3.8560332452108046 -3.1873223053795772 -3.9381785852982572 -3.2961100057379267 -3.7576881417569554 -3.6080388550460909 -3.7933481180026352 -3.9367958224382695 -3.803974343652166 -4.2747964337220203 -3.781098301603981 -4.6116292448297367 -3.7168252157309736 -4.9486497893666241 -3.6148424374419501 -5.2870503885757651 -3.477518359764288 -3.9588161239694157 -2.3659661344250957 -4.0910127101877238 -2.246187416013258 -4.0334807338979095 -2.0282480711732043 -3.962728921079016 -1.8218981942381045 -4.7138169501419513 -1.9576327068417794 -4.7195464505534286 -1.7423853606733415 -6.0643548704334229 -1.934034367680795 -5.3171577819443305 -1.4253379966977708 0 0
        </DataArray>
        <DataArray type="Float32" Name="u" NumberOfComponents="1">
          0 0.007874015748031496 0.015748031496062992 0.023622047244094488 0.031496062992125984 0.03937007874015748 0.047244094488188976 0.055118110236220472 0.062992125984251968 0.070866141732283464 0.07874015748031496 0.086614173228346455 0.094488188976377951 0.10236220472440945 0.11023622047244094 0.11811023622047244 0.12598425196850394 0.13385826771653545 0.14173228346456693 0.14960629921259844 0.15748031496062992 0.16535433070866143 0.17322834645669291 0.18110236220472442 0.1889763779527559 0.19685039370078741 0.20472440944881889 0.2125984251968504 0.22047244094488189 0.2283464566929134 0.23622047244094488 0.24409448818897639 0.25196850393700787 0.25984251968503935 0.26771653543307089 0.27559055118110237 0.28346456692913385 0.29133858267716534 0.29921259842519687 0.30708661417322836 0.31496062992125984 0.32283464566929132 0.33070866141732286 0.33858267716535434 0.34645669291338582 0.3543307086614173 0.36220472440944884 0.37007874015748032 0.37795275590551181 0.38582677165354329 0.39370078740157483 0.40157480314960631 0.40944881889763779 0.41732283464566927 0.42519685039370081 0.43307086614173229 0.44094488188976377 0.44881889763779526 0.45669291338582679 0.46456692913385828 0.47244094488188976 0.48031496062992124 0.48818897637795278 0.49606299212598426 0.50393700787401574 0.51181102362204722 0.51968503937007871 0.52755905511811019 0.53543307086614178 0.54330708661417326 0.55118110236220474 0.55905511811023623 0.56692913385826771 0.57480314960629919 0.58267716535433067 0.59055118110236215 0.59842519685039375 0.60629921259842523 0.61417322834645671 0.62204724409448819 0.62992125984251968 0.63779527559055116 0.64566929133858264 0.65354330708661412 0.66141732283464572 0.6692913385826772 0.67716535433070868 0.68503937007874016 0.69291338582677164 0.70078740157480313 0.70866141732283461 0.71653543307086609 0.72440944881889768 0.73228346456692917 0.74015748031496065 0.74803149606299213 0.75590551181102361 0.76377952755905509 0.77165354330708658 0.77952755905511806 0.78740157480314965 0.79527559055118113 0.80314960629921262 0.8110236220472441 0.81889763779527558 0.82677165354330706 0.83464566929133854 0.84251968503937003 0.85039370078740162 0.8582677165354331 0.86614173228346458 0.87401574803149606 0.88188976377952755 0.88976377952755903 0.89763779527559051 0.90551181102362199 0.91338582677165359 0.92125984251968507 0.92913385826771655 0.93700787401574803 0.94488188976377951 0.952755905511811 0.96062992125984248 0.96850393700787396 0.97637795275590555 0.98425196850393704 0.99212598425196852 1
        </DataArray>
      </PointData>
      <CellData Scalars="P">
        <DataArray type="Float32" Name="P" NumberOfComponents="1">
          0.016509767385328215 0.049521413733907407 0.08253810925577397 0.11556222527903577 0.14859797759273358 0.18165652529885171 0.21475958530133288 0.24794280750757974 0.28125895721013722 0.31478041949974406 0.34860159152517012 0.3828407496192574 0.41764138229201969 0.45317236107434117 0.48962696030827035 0.5272220040474711 0.56619722049503673 0.60681225122148175 0.6493436798377531 0.69408259834497466 0.74133007381494609 0.79139194226887022 0.84457453185124287 0.9011798947748525 0.96149763468811777 1.0258017442083032 1.0943422331459083 1.1673351778958689 1.2449581550252868 1.3273589231848661 1.4146187098095422 1.5067587616650742 1.6037337180614883 1.7054251301847865 1.8116339301426818 1.9220757338366499 2.0363704028716141 2.1540451998761445 2.2745300877708603 2.397147188279372 2.5211116981121009 2.6455327573407215 2.3031402730401185 1.9602041504690744 1.6146159283723889 1.264497836489078 1.0404172446335371 0.81840936756471339 0.59860971231734272 0.38126424401094 0.16672288732844626 -0.050324294925635442 -0.27058933227398202 -0.49347235493208924 -0.71861743247261023 -0.94566619692412546 -1.1613478613170836 -1.3639004361756524 -1.5513934526845061 -1.7217325991943424 -1.8726544866019244 -2.0017358097199494 -2.1064197636461199 -2.1969481249638201 -2.2450761573150055 -2.2894454223923968 -2.3293125777530239 -2.3498959178672814 -2.3653530099615647 -2.360795465063803 -2.3507346041133261 -2.3350792370052771 -2.2981038076795706 -2.2555280921117626 -2.2078589056037612 -2.1387837719298637 -2.0645365503670621 -1.9853245823115491 -1.8854320544662342 -1.7813363033587906 -1.6738349699248378 -1.5472184010272747 -1.4179043718410447 -1.2863948881947949 -1.1532162100992318 -1.0043813562561543 -0.85549942733981676 -0.7072185268843848 -0.54714964816383549 -0.38962750147979325 -0.23538929305314482 -0.085161504589456899 0.071512719788123763 0.22196150644200216 0.36544122445470179 0.51042300280373298 0.64615424382143072 0.77178085208282377 0.89373724458851589 1.0036718201107819 1.1011229988489633 1.1898885711110754 1.2644847713811349 1.3247977840396676 1.3721266394781482 1.4043221226835547 1.4210929034286752 1.4225948138308224 1.4096229180572877 1.3796856791234513 1.3365680924842172 1.2765998749369387 1.2058881555615439 1.1197417350279273 1.0187741898820524 0.90418090505814852 0.77786608737238716 0.64207592247529233 0.49941751611844126 0.40259025317142566 0.30831098263894519 0.22457297189125136 0.15396576758630687 0.082408298816373071 0.030682603435883849 -0.01269870134539885 -0.014127563636375656
        </DataArray>
      </CellData>
      <Points>
        <DataArray type="Float32" NumberOfComponents="3" format="ascii">
          6.2211842962378663 10.386421686359261 0
          6.2282491657728514 10.382944228103772 0
          6.2353124646087572 10.379463586445446 0
          6.2423746220892626 10.375980639739023 0
          6.2494356933858146 10.372495505416182 0
          6.2564955201888264 10.369007868157588 0
          6.2635537931994882 10.36551710795211 0
          6.2706100766803168 10.362022351360148 0
          6.2776638178250028 10.358522492524795 0
          6.2847143506198719 10.355016203759746 0
          6.2917608999993728 10.35150194758895 0
          6.2988025832047185 10.347977984135564 0
          6.3058384103675067 10.344442378063018 0
          6.3128672846427714 10.340893005815612 0
          6.3198880036747518 10.337327566745248 0
          6.3268992625441403 10.333743598336429 0
          6.3338996553298763 10.330138489790523 0
          6.3408876742279272 10.32650949194951 0
          6.3478617102146186 10.322853731311655 0
          6.3548200534139365 10.319168224398036 0
          6.3617608916445985 10.315449889512703 0
          6.3686823097502332 10.311695560784578 0
          6.3755822895437824 10.307902003933917 0
          6.3824587086078335 10.304065930349429 0
          6.3893093383867887 10.300184010251451 0
          6.3961318447084805 10.296252890353045 0
          6.4029237852793415 10.29226920613252 0
          6.4096826092586427 10.288229597660347 0
          6.4164056597323444 10.284130729810284 0
          6.4230901742414925 10.279969308357225 0
          6.4297332731912205 10.275742076239128 0
          6.4363319728621411 10.27144584888957 0
          6.4428831877102404 10.267077530397778 0
          6.4493837332264965 10.262634129192685 0
          6.455830329549026 10.258112773389321 0
          6.4622196069591791 10.253510727213742 0
          6.4685481115657035 10.248825405828857 0
          6.4748123160568776 10.244054394986343 0
          6.4810086259605635 10.2391954622511 0
          6.4871333877898048 10.234246568816953 0
          6.49318290460665 10.229205888256921 0
          6.4991534514128455 10.224071821864486 0
          6.5050412913927484 10.218843011961368 0
          6.5112471571401702 10.213995798376668 0
          6.517744204193213 10.209546320123584 0
          6.5245050228834298 10.205508730830566 0
          6.5315017655174712 10.201895172979111 0
          6.5386404572718186 10.198570785308114 0
          6.5459056395552846 10.195532721368213 0
          6.553282575101754 10.192777049903233 0
          6.5607572935884289 10.190298815508484 0
          6.5683166311898846 10.18809209954857 0
          6.57594980435353 10.186156131638935 0
          6.5836464855316343 10.18449043677675 0
          6.5913964678497923 10.183093526323296 0
          6.5991898080331621 10.181963223684507 0
          6.6070168819313784 10.181096733588104 0
          6.6148674463956523 10.180478197025682 0
          6.6227327825159783 10.18009039245686 0
          6.6306057050437532 10.179914781193277 0
          6.638480550736678 10.179931535556316 0
          6.6463531447007211 10.180119538639319 0
          6.6542207433580005 10.180456366728707 0
          6.6620819497549508 10.180918266161937 0
          6.6699358081941833 10.181491096959986 0
          6.6777838881106444 10.182137610802091 0
          6.6856258774879214 10.18285364083297 0
          6.6934616128813609 10.183634632969998 0
          6.7012922979529792 10.184464236625262 0
          6.7091181466870129 10.185337840917596 0
          6.7169408175866279 10.186239017328218 0
          6.72476076722206 10.187163109925921 0
          6.7325784962999835 10.188105439645447 0
          6.7403960622693893 10.18904875629392 0
          6.7482140365481449 10.189988347876094 0
          6.7560329421793615 10.190919851223832 0
          6.7638548440839044 10.191825542873124 0
          6.7716801927992609 10.192700672363236 0
          6.7795093828411348 10.19354048640532 0
          6.787344103608234 10.194326779706676 0
          6.7951844338797001 10.195054790774305 0
          6.8030303123236848 10.195720156305914 0
          6.8108826495899688 10.1963042052265 0
          6.8187409040736195 10.196802221011698 0
          6.8266043783002042 10.197209529097963 0
          6.8344722122843367 10.197521508232164 0
          6.8423437546566488 10.197719144288719 0
          6.8502173946522893 10.197797950508129 0
          6.8580913201240712 10.197753540731062 0
          6.8659631862496315 10.197567091249994 0
          6.873830261100327 10.197234483937049 0
          6.8816895882271467 10.196751768521834 0
          6.8895379910035572 10.196115183452902 0
          6.8973705080519512 10.19530578896609 0
          6.9051828839645921 10.194320344391492 0
          6.912970653586326 10.193155897173698 0
          6.9207264113538711 10.191794032939338 0
          6.928444545253833 10.190232579725249 0
          6.9361193730297348 10.18847015750193 0
          6.9437408716383278 10.186489377390318 0
          6.9513021738841365 10.184289561390694 0
          6.9587963515059119 10.181870538776481 0
          6.966210722406017 10.179216551964084 0
          6.9735374065280595 10.176328892947048 0
          6.9807686265143793 10.173209465340225 0
          6.9878894308434925 10.169845187872211 0
          6.9948914453690536 10.166239768406687 0
          7.0017577111995983 10.162381646098787 0
          7.008479770485442 10.158276976104293 0
          7.0150495302280351 10.153932258027771 0
          7.0214485717318817 10.149339326297939 0
          7.0276691651139096 10.144506967191216 0
          7.0336922471967114 10.139430031122739 0
          7.0395110573778084 10.134119672265994 0
          7.0451062396047277 10.128573613397506 0
          7.0504573871424325 10.122791120837356 0
          7.0555435110638705 10.116773529697504 0
          7.0603436841024223 10.110524734097863 0
          7.06483695471307 10.104050957664644 0
          7.0690022707735611 10.097360605696062 0
          7.0729220079073798 10.090522745367673 0
          7.0765879260347662 10.083544718131934 0
          7.0800035584129697 10.076439971241003 0
          7.0831732585770126 10.069221222256882 0
          7.0860503210905108 10.061879814339695 0
          7.0886343157778402 10.054428954551339 0
          7.0908415442570618 10.046856337170064 0
          7.092717768311684 10.039195896313469 0
        </DataArray>
      </Points>
      <Cells>
        <DataArray type="Int32" Name="connectivity" format="ascii">
          0 1 1 2 2 3 3 4 4 5 5 6 6 7 7 8 8 9 9 10 10 11 11 12 12 13 13 14 14 15 15 16 16 17 17 18 18 19 19 20 20 21 21 22 22 23 23 24 24 25 25 26 26 27 27 28 28 29 29 30 30 31 31 32 32 33 33 34 34 35 35 36 36 37 37 38 38 39 39 40 40 41 41 42 42 43 43 44 44 45 45 46 46 47 47 48 48 49 49 50 50 51 51 52 52 53 53 54 54 55 55 56 56 57 57 58 58 59 59 60 60 61 61 62 62 63 63 64 64 65 65 66 66 67 67 68 68 69 69 70 70 71 71 72 72 73 73 74 74 75 75 76 76 77 77 78 78 79 79 80 80 81 81 82 82 83 83 84 84 85 85 86 86 87 87 88 88 89 89 90 90 91 91 92 92 93 93 94 94 95 95 96 96 97 97 98 98 99 99 100 100 101 101 102 102 103 103 104 104 105 105 106 106 107 107 108 108 109 109 110 110 111 111 112 112 113 113 114 114 115 115 116 116 117 117 118 118 119 119 120 120 121 121 122 122 123 123 124 124 125 125 126 126 127 
        </DataArray>
        <DataArray type="Int32" Name="offsets" format="ascii">
          2 4 6 8 10 12 14 16 18 20 22 24 26 28 30 32 34 36 38 40 42 44 46 48 50 52 54 56 58 60 62 64 66 68 70 72 74 76 78 80 82 84 86 88 90 92 94 96 98 100 102 104 106 108 110 112 114 116 118 120 122 124 126 128 130 132 134 136 138 140 142 144 146 148 150 152 154 156 158 160 162 164 166 168 170 172 174 176 178 180 182 184 186 188 190 192 194 196 198 200 202 204 206 208 210 212 214 216 218 220 222 224 226 228 230 232 234 236 238 240 242 244 246 248 250 252 254 
        </DataArray>
        <DataArray type="Int32" Name="types" format="ascii">
          3 3 3 3 3 3 3 3 3 3 3 3 3 3 3 3 3 3 3 3 3 3 3 3 3 3 3 3 3 3 3 3 3 3 3 3 3 3 3 3 3 3 3 3 3 3 3 3 3 3 3 3 3 3 3 3 3 3 3 3 3 3 3 3 3 3 3 3 3 3 3 3 3 3 3 3 3 3 3 3 3 3 3 3 3 3 3 3 3 3 3 3 3 3 3 3 3 3 3 3 3 3 3 3 3 3 3 3 3 3 3 3 3 3 3 3 3 3 3 3 3 3 3 3 3 3 3         </DataArray>
      </Cells>
    </Piece>
  </UnstructuredGrid>
</VTKFile>
