<?xml version="1.0"?>
<VTKFile type="UnstructuredGrid" version="0.1" byte_order="LittleEndian">
  <UnstructuredGrid>
    <Piece NumberOfPoints="128" NumberOfCells="127">
      <PointData Scalars="W">
        <DataArray type="Float32" Name="W" NumberOfComponents="2">
          0 0 0.070138267968945456 -0.16861462228074298 0.10471105067112121 -0.25300995202668491 0.13579629324139775 -0.33044150752276263 0.16484902143548943 -0.40473271190982774 0.19238372546253388 -0.47744874663646641 0.21868351398422906 -0.54961188531184479 0.24389873984918953 -0.62194612146866923 0.26808752736689373 -0.69497830199033395 0.29120417216722599 -0.76900243645702482 0.31317214890520861 -0.84426140022040297 0.33387482979589383 -0.92092083197222518 0.35316139017801262 -0.99907970188013595 0.37083480221808945 -1.0787271727443675 0.38666894490577197 -1.1597757437752956 0.400429886472908 -1.2421113686564758 0.41190055001014059 -1.3256653894099124 0.42083907607437893 -1.4102804513080101 0.42700528723585102 -1.4957786995109539 0.43017719984244784 -1.5820135846790402 0.43012533905644112 -1.6687738444621294 0.42662350895619461 -1.7558017697907997 0.41946573125552289 -1.8428458370006302 0.4084660807358908 -1.9296569260215075 0.39344492494056843 -2.0159108953135121 0.37426391343905252 -2.1013647058033165 0.35079244749207922 -2.1856849445873414 0.32291735803489069 -2.2684430211537565 0.2905713762911396 -2.3492617604752568 0.25375829648490644 -2.4281280545692647 0.21243009147894212 -2.5043194881248243 0.16662941304404424 -2.5774567846694194 0.1164374352138426 -2.647127558964562 0.061979742773636701 -2.7129395255019539 0.0034254305946161655 -2.774476172772379 -0.059009982004988838 -2.8313471490559716 -0.12506021560618166 -2.8830733584635913 -0.1944137193927519 -2.9293369838101753 -0.26671890251379621 -2.9698321621373798 -0.34156500592962069 -3.0041125738696488 -0.41849276610090025 -3.0318128898466439 -0.49699721385456597 -3.0526136841846969 1.0099020801358563 6.85405547063933 0.63262068456119991 6.8679762188165325 0.25851670099030705 6.8628906318249303 -0.11164119572876326 6.8385129516381511 -0.47698604822163743 6.795223963376424 -0.83657397041128378 6.7328325263194353 -1.189451899347389 6.6518616334003529 -1.5345450695636809 6.5522767459202029 -1.8708672697960818 6.4347824332730461 -2.1972658739965003 6.2995313381580935 -2.5127822918633096 6.1474359150480593 -2.8162485592917452 5.9788619713948794 -3.106513326346533 5.7944313707522257 -2.4667787197679063 4.1433052360390965 -2.5701365135790697 3.9693361227942323 -2.6949754863115016 3.8418677607629763 -2.7353906695070709 3.6129043135978178 -2.7521132378384152 3.3821035609964993 -2.6950411580241358 3.0952656234293245 -2.6566346855983762 2.8635543908025824 -2.6569513513825851 2.6953868293838728 -2.6440895622542122 2.5295648477119963 -2.4749303854983093 2.240439652802793 -2.4976166497739278 2.145034339451704 -2.4365723421070249 1.9875598815770157 -2.3636059201912629 1.8347406440183631 -2.369430733292293 1.7520279958993519 -2.3684311004239849 1.6683831917097696 -2.2735515683083638 1.5272034133343075 -2.2627155270534653 1.4507379950878119 -2.1530869694503521 1.3188885964992161 -2.1340087824572871 1.2501236198191708 -2.0144968292792873 1.129702941908983 -1.9884736326759245 1.0685685776709115 -1.9604623648745134 1.0095298434942339 -1.8234125029250325 0.90077634296170994 -1.7904999791325336 0.84956754052833106 -1.6475959830685087 0.75182568205370548 -1.611232950303223 0.70803294968875907 -1.5742694436434035 0.66628301818290825 -1.4186324729476971 0.57917447482471152 -1.3800400069697463 0.54439113012228013 -1.3417479021986078 0.51154191696260298 -1.1798520769661573 0.43554422506401269 -1.1454026254208238 0.41019290489004184 -1.1081310374346061 0.38512042841370303 -0.94271429448597366 0.31863790969240119 -0.90747773594861891 0.29898244013552577 -0.87383167729850841 0.28076990231126908 -0.71148412377801473 0.22347573366999571 -0.6815153185786571 0.2097697808769223 -0.65417163207843065 0.19742287125807911 -0.48961595533479141 0.14525375857326361 -0.46761216417548634 0.13672939801174538 -0.45310541575865726 0.13063313554369763 -0.29318068755598042 0.083556007332355423 -0.28192990213233143 0.079632582996988638 -0.27498385867425573 0.076994787976668519 -0.12242732027937446 0.034064955536236105 -0.1292728034296064 0.035826484570227156 0.018101687478611034 -0.0050078244847611055 0.0044239272932762447 -0.0012243159525675532 -0.019895429255126065 0.0055046795901705116 0.11425397640562493 -0.031659283263768774 0.080547863037290821 -0.022388513568077448 0.20070037747357347 -0.05603388034350202 0.15107255008806691 -0.042412511211298479 0.2642614765369008 -0.074674086442479831 0.19167435774725208 -0.054549082260959336 0.29086890193679121 -0.08340080782388988 0.38493032604140237 -0.11152567267740933 0.27917009864485143 -0.081708611932242312 0.35476227316641251 -0.10483623867373554 0.41791506294290942 -0.12494249970880748 0.47210653616447745 -0.14302861695565977 0.75532530394309882 -0.23300793817595239 1.0323334908305608 -0.32682213615780109 1.5673469706498973 -0.51482485655236565 2.7400271691442075 -0.95476913873892111 3.0774918779500933 -1.1572534638771963 4.1366549866118092 -1.7016499499516118 6.6765961678386487 -3.1182095778098669 8.3661561621374645 -4.6099799380638276 6.9021803019933969 -4.460018595712457 1.2852288417032931 -0.90260973087272289 0 0
        </DataArray>
        <DataArray type="Float32" Name="u" NumberOfComponents="1">
          0 0.007874015748031496 0.015748031496062992 0.023622047244094488 0.031496062992125984 0.03937007874015748 0.047244094488188976 0.055118110236220472 0.062992125984251968 0.070866141732283464 0.07874015748031496 0.086614173228346455 0.094488188976377951 0.10236220472440945 0.11023622047244094 0.11811023622047244 0.12598425196850394 0.13385826771653545 0.14173228346456693 0.14960629921259844 0.15748031496062992 0.16535433070866143 0.17322834645669291 0.18110236220472442 0.1889763779527559 0.19685039370078741 0.20472440944881889 0.2125984251968504 0.22047244094488189 0.2283464566929134 0.23622047244094488 0.24409448818897639 0.25196850393700787 0.25984251968503935 0.26771653543307089 0.27559055118110237 0.28346456692913385 0.29133858267716534 0.29921259842519687 0.30708661417322836 0.31496062992125984 0.32283464566929132 0.33070866141732286 0.33858267716535434 0.34645669291338582 0.3543307086614173 0.36220472440944884 0.37007874015748032 0.37795275590551181 0.38582677165354329 0.39370078740157483 0.40157480314960631 0.40944881889763779 0.41732283464566927 0.42519685039370081 0.43307086614173229 0.44094488188976377 0.44881889763779526 0.45669291338582679 0.46456692913385828 0.47244094488188976 0.48031496062992124 0.48818897637795278 0.49606299212598426 0.50393700787401574 0.51181102362204722 0.51968503937007871 0.52755905511811019 0.53543307086614178 0.54330708661417326 0.55118110236220474 0.55905511811023623 0.56692913385826771 0.57480314960629919 0.58267716535433067 0.59055118110236215 0.59842519685039375 0.60629921259842523 0.61417322834645671 0.62204724409448819 0.62992125984251968 0.63779527559055116 0.64566929133858264 0.65354330708661412 0.66141732283464572 0.6692913385826772 0.67716535433070868 0.68503937007874016 0.69291338582677164 0.70078740157480313 0.70866141732283461 0.71653543307086609 0.72440944881889768 0.73228346456692917 0.74015748031496065 0.74803149606299213 0.75590551181102361 0.76377952755905509 0.77165354330708658 0.77952755905511806 0.78740157480314965 0.79527559055118113 0.80314960629921262 0.8110236220472441 0.81889763779527558 0.82677165354330706 0.83464566929133854 0.84251968503937003 0.85039370078740162 0.8582677165354331 0.86614173228346458 0.87401574803149606 0.88188976377952755 0.88976377952755903 0.89763779527559051 0.90551181102362199 0.91338582677165359 0.92125984251968507 0.92913385826771655 0.93700787401574803 0.94488188976377951 0.952755905511811 0.96062992125984248 0.96850393700787396 0.97637795275590555 0.98425196850393704 0.99212598425196852 1
        </DataArray>
      </PointData>
      <CellData Scalars="P">
        <DataArray type="Float32" Name="P" NumberOfComponents="1">
          0.016134352238212614 0.048498669716478912 0.081097388886861285 0.11409989512761605 0.14770759021746202 0.18215198883655712 0.21769347750976978 0.25461998038209382 0.29324527185499905 0.3339057350191359 0.37695758267002233 0.4227731337618007 0.47173634719655944 0.52423660390871074 0.58066178540600344 0.64139146303944938 0.70679142810830853 0.77720480835735317 0.85294419985704428 0.93428521988194879 1.0214571903332716 1.1146339977897883 1.2139267513299861 1.3193767023226135 1.4309455023295792 1.5485119217679921 1.6718623986054837 1.8006815880392322 1.9345498619345365 2.0729558131934653 2.2152623309124397 2.3607200105138801 2.5084654067505467 2.6575229691866844 2.8068064277638149 2.9551238966562696 3.1011798431359572 3.2435891093124316 3.3808858499508876 3.5115289639597846 3.6339182058117148 3.7464105115086213 3.6139482338266151 3.4917014153100294 3.3772300124612182 3.2681667398442773 3.1622156696447612 3.0571788937515256 2.9509565164326963 2.8415741193603443 2.7271824601262029 2.6060855897965531 2.4767379687440569 2.3377727622357689 2.1880112523468029 2.0796662588383308 1.9659281338135419 1.8450862936324224 1.7217436705141362 1.5969563347648594 1.4748645378070264 1.3542404435552995 1.2327828486957295 1.1113854440952415 0.99963514172565515 0.88602361027344456 0.77591016387529732 0.67024193976828783 0.56444522361316996 0.45922754470967131 0.36053767218362259 0.2634850566831341 0.17421469485613256 0.087487238680973634 0.0093843584398201115 -0.065428766486515327 -0.13663125637145623 -0.1980267930143336 -0.25536476191696544 -0.30272662024692232 -0.34578719369799005 -0.38442731841111621 -0.41292582643965559 -0.43707094360109233 -0.45686458834769339 -0.46716165195172304 -0.47359922861098647 -0.47611348283093274 -0.47032988997020198 -0.46120496082273588 -0.448897438428081 -0.4300729626658702 -0.40878999132268368 -0.38524318201902763 -0.35706543742366909 -0.32741563204401608 -0.2965171077110148 -0.26312808808744781 -0.2291635295056095 -0.19472155605460939 -0.15986752083054148 -0.12507246521386278 -0.091242896689761863 -0.057825460860349939 -0.024619984662578778 0.006204829126350073 0.036815799058237848 0.064394292487735177 0.092119371449057783 0.11636918350352535 0.1415582796467571 0.16333624025576449 0.18168820626687124 0.20246380367192907 0.22053951665047963 0.2364415433233267 0.25070210098107309 0.25695824446805343 0.25635332231132635 0.24337404600017093 0.20504746138501675 0.16638758916683469 0.11664697136084214 0.039658482056330845 -0.028042620959250388 -0.052526446597770532 -0.019324242016684704
        </DataArray>
      </CellData>
      <Points>
        <DataArray type="Float32" NumberOfComponents="3" format="ascii">
          4.356615153859817 9.9799567884060689 0
          4.3638835012389148 9.9829863196695037 0
          4.3711561902753679 9.9860053925909735 0
          4.3784353603869048 9.989008772351097 0
          4.3857229359317413 9.9919916565069293 0
          4.3930207159558883 9.9949494377226618 0
          4.4003304058981616 9.9978776066391823 0
          4.407653635039197 10.00077168844336 0
          4.414991965758805 10.003627197947626 0
          4.422346897095407 10.006439606901075 0
          4.4297198618796081 10.009204325741354 0
          4.4371122219644397 10.011916688518934 0
          4.4445252609742321 10.014571942611207 0
          4.4519601749369091 10.017165242570529 0
          4.4594180600543165 10.019691650780485 0
          4.466899898670861 10.022146142865012 0
          4.4744065447596286 10.024523614742765 0
          4.4819387104549184 10.02681888686662 0
          4.4894969510492952 10.02902671396191 0
          4.4970816500958044 10.031141796035053 0
          4.5046930056388339 10.033158787440589 0
          4.5123310159810082 10.03507230996002 0
          4.519995465653655 10.036876968759932 0
          4.5276859126409201 10.038567367966285 0
          4.5354016768472016 10.040138126089429 0
          4.5431418289546279 10.041583896100382 0
          4.5509051818398074 10.042899380478717 0
          4.5586902824708915 10.044079351863745 0
          4.5664954048849333 10.045118679606933 0
          4.5743185460106579 10.046012353136861 0
          4.5821574258967397 10.04675548275236 0
          4.5900094847267221 10.047343344393266 0
          4.5978718854556622 10.047771403137123 0
          4.605741518834825 10.048035338749255 0
          4.6136150111895819 10.048131069987326 0
          4.6214887348948333 10.048054780408643 0
          4.629358821728716 10.047802942556213 0
          4.6372211793736122 10.047372347647821 0
          4.6450715107243443 10.046760125266236 0
          4.6529053356793799 10.045963762308736 0
          4.6607180166013116 10.044981130645782 0
          4.6685047867856602 10.043810509758629 0
          4.676260781764821 10.042450606531128 0
          4.684079440708004 10.041515683448287 0
          4.6919373748243496 10.04100661087578 0
          4.6998113918675903 10.04092308151858 0
          4.7076785436913511 10.041263592693388 0
          4.7155161799055696 10.042025469917856 0
          4.7233020062837827 10.043204855020521 0
          4.7310141437530371 10.044796738517265 0
          4.7386311949144408 10.046794957394804 0
          4.7461323050939601 10.049192238710509 0
          4.7534972337012587 10.051980208941833 0
          4.7607064135865516 10.055149450440188 0
          4.7677410233752449 10.058689523958721 0
          4.7745830587944997 10.062589007038611 0
          4.7812721377030956 10.066745476013983 0
          4.7878018465414085 10.071148144186198 0
          4.7941644410486175 10.075789109700461 0
          4.8003574088873355 10.080654172512597 0
          4.8063797069843446 10.0857290173824 0
          4.8122348668966861 10.09099585020636 0
          4.8179252647383226 10.096440296357803 0
          4.8234508774901848 10.102051923742248 0
          4.8288124995960056 10.107820445128189 0
          4.8340206146093188 10.113727919210451 0
          4.839073815227442 10.11976842746671 0
          4.8439758848473042 10.125932198339193 0
          4.8487313465507906 10.13220974858897 0
          4.8533398394401654 10.138595946375691 0
          4.8578014258373843 10.145085601835962 0
          4.8621219884016318 10.151669953117258 0
          4.866302199869101 10.158344255446908 0
          4.870348858037028 10.165100325457683 0
          4.8742631471684064 10.171933895942161 0
          4.8780524784489723 10.178837492483959 0
          4.8817184671675742 10.185807321262711 0
          4.8852628519650025 10.192839718510317 0
          4.8886941319962238 10.199927933710427 0
          4.8920143501052396 10.207068789070345 0
          4.8952323687322652 10.214256217659269 0
          4.898350444866721 10.221487502160354 0
          4.9013708727427643 10.228760052167676 0
          4.9043033044381792 10.236068461255194 0
          4.9071501352692106 10.243410571847459 0
          4.9099137419062622 10.25078434661939 0
          4.9126041644496814 10.258185069800401 0
          4.9152235413068306 10.265611170145581 0
          4.9177741858090727 10.273061093983701 0
          4.9202663561802611 10.280530717642169 0
          4.9227022395096807 10.288018824623297 0
          4.9250839242268114 10.295524288354688 0
          4.9274214780695447 10.303043557462637 0
          4.9297167614259187 10.310575786282866 0
          4.9319714719024565 10.318120213940514 0
          4.9341958140571007 10.325673609660663 0
          4.9363911544719929 10.333235451266086 0
          4.9385583949398022 10.340805367725558 0
          4.9407074531046415 10.348380447232481 0
          4.9428390291041522 10.35596045529403 0
          4.9449535562612841 10.363545237745363 0
          4.947060496032444 10.371132143508252 0
          4.9491594270904633 10.378721293147793 0
          4.9512594904335838 10.386310168308157 0
          4.9533598417529312 10.39389901700889 0
          4.9554589770634516 10.401488270480453 0
          4.9575652189948816 10.409075641940191 0
          4.9596764823369321 10.416661722404477 0
          4.9618002234215997 10.424244446256957 0
          4.963933370640782 10.431824676439719 0
          4.9660829504597075 10.439400436435029 0
          4.9682444683287805 10.446972994553761 0
          4.9704240849908521 10.454540589023301 0
          4.9726276447048541 10.462101505456662 0
          4.9748485970756615 10.46965761714147 0
          4.9770916431822529 10.477207523191645 0
          4.9793607145440646 10.484750012439754 0
          4.9816591890049393 10.492284001655737 0
          4.9840046623841889 10.499803963956129 0
          4.9864143538442844 10.507304139462981 0
          4.9889215128584823 10.514772946156775 0
          4.9915990144236764 10.522183218124127 0
          4.9944679065384738 10.529522475070198 0
          4.9975941189002837 10.536757068768209 0
          5.0011357472262361 10.543799308142386 0
          5.0051971282368681 10.550554964348226 0
          5.0096872145694471 10.557033297258696 0
          5.0142566591014255 10.563454867982967 0
        </DataArray>
      </Points>
      <Cells>
        <DataArray type="Int32" Name="connectivity" format="ascii">
          0 1 1 2 2 3 3 4 4 5 5 6 6 7 7 8 8 9 9 10 10 11 11 12 12 13 13 14 14 15 15 16 16 17 17 18 18 19 19 20 20 21 21 22 22 23 23 24 24 25 25 26 26 27 27 28 28 29 29 30 30 31 31 32 32 33 33 34 34 35 35 36 36 37 37 38 38 39 39 40 40 41 41 42 42 43 43 44 44 45 45 46 46 47 47 48 48 49 49 50 50 51 51 52 52 53 53 54 54 55 55 56 56 57 57 58 58 59 59 60 60 61 61 62 62 63 63 64 64 65 65 66 66 67 67 68 68 69 69 70 70 71 71 72 72 73 73 74 74 75 75 76 76 77 77 78 78 79 79 80 80 81 81 82 82 83 83 84 84 85 85 86 86 87 87 88 88 89 89 90 90 91 91 92 92 93 93 94 94 95 95 96 96 97 97 98 98 99 99 100 100 101 101 102 102 103 103 104 104 105 105 106 106 107 107 108 108 109 109 110 110 111 111 112 112 113 113 114 114 115 115 116 116 117 117 118 118 119 119 120 120 121 121 122 122 123 123 124 124 125 125 126 126 127 
        </DataArray>
        <DataArray type="Int32" Name="offsets" format="ascii">
          2 4 6 8 10 12 14 16 18 20 22 24 26 28 30 32 34 36 38 40 42 44 46 48 50 52 54 56 58 60 62 64 66 68 70 72 74 76 78 80 82 84 86 88 90 92 94 96 98 100 102 104 106 108 110 112 114 116 118 120 122 124 126 128 130 132 134 136 138 140 142 144 146 148 150 152 154 156 158 160 162 164 166 168 170 172 174 176 178 180 182 184 186 188 190 192 194 196 198 200 202 204 206 208 210 212 214 216 218 220 222 224 226 228 230 232 234 236 238 240 242 244 246 248 250 252 254 
        </DataArray>
        <DataArray type="Int32" Name="types" format="ascii">
          3 3 3 3 3 3 3 3 3 3 3 3 3 3 3 3 3 3 3 3 3 3 3 3 3 3 3 3 3 3 3 3 3 3 3 3 3 3 3 3 3 3 3 3 3 3 3 3 3 3 3 3 3 3 3 3 3 3 3 3 3 3 3 3 3 3 3 3 3 3 3 3 3 3 3 3 3 3 3 3 3 3 3 3 3 3 3 3 3 3 3 3 3 3 3 3 3 3 3 3 3 3 3 3 3 3 3 3 3 3 3 3 3 3 3 3 3 3 3 3 3 3 3 3 3 3 3         </DataArray>
      </Cells>
    </Piece>
  </UnstructuredGrid>
</VTKFile>
