<?xml version="1.0"?>
<VTKFile type="UnstructuredGrid" version="0.1" byte_order="LittleEndian">
  <UnstructuredGrid>
    <Piece NumberOfPoints="128" NumberOfCells="127">
      <PointData Scalars="W">
        <DataArray type="Float32" Name="W" NumberOfComponents="2">
          0 0 0.021215425010236075 -0.0024029887279718616 5.8885767251998781e-05 -6.6747867406154429e-06 -0.0060269890190897861 0.00068302386784897546 -0.0022154855275316478 0.00025100224156337142 0.009332150613740927 -0.0010575475208012698 0.027582762109528397 -0.0031298484686690144 0.051898581732826174 -0.0059055495085861337 0.081844808096553645 -0.0093570773195006205 0.11700981221120089 -0.013470814133187662 0.15708824445195771 -0.018257803651722943 0.20176241394070954 -0.023741052297736417 0.25074121387014708 -0.029960479356402996 0.30374487769405162 -0.036971390502651878 0.36047011073779456 -0.044840072391691375 0.42061879113721456 -0.053646595280486278 0.48398332882789141 -0.063495432575241956 0.55027830721430548 -0.074493636298619575 0.61925775184136012 -0.08676469503994827 0.69070543437054954 -0.10044709699739096 0.76438806225316624 -0.11568709190148356 0.84004199680799274 -0.13263491347587783 0.91742009880005027 -0.151450166921242 0.99625344986934583 -0.17229436189532144 1.0762645927773138 -0.19533084380706706 1.157219424817328 -0.22073284228402262 1.2388169699002702 -0.24866177046238935 1.3207001176735591 -0.27926391180459559 1.4025845804050743 -0.31269403860371192 1.48446164313831 -0.34916739738711106 1.5656388823257086 -0.38873571845363941 1.6457773771256086 -0.43150975268298769 1.7245362611177404 -0.47758371958378387 1.8015534440291412 -0.5270271471572352 1.8764470343229649 -0.57988098331635507 1.9488023288821807 -0.63614863580982095 2.0181304229065877 -0.69577481185239087 2.0840647757593556 -0.7587068468546978 2.1462513980923568 -0.8248619422315453 2.2042029124199525 -0.89406490964155705 2.2574744991139828 -0.96610399849655881 2.3056474716806967 -1.0407236747669255 -4.9265687089102643 2.1575660656502822 -4.8110922888591539 1.8731223752896327 -4.7452432199963877 1.6316816587122167 -4.6646997192708968 1.4034569755138919 -4.5704692147349562 1.1888542398082167 -4.4635386620141313 0.98821010574050261 -4.3448548555402358 0.80178820300384923 -4.3056065875721083 0.64169255998307506 -4.2655064239591471 0.48796331122911885 -4.2180723351202696 0.33959126197581052 -4.1621077254442449 0.19687583914066403 -4.1021182010169666 0.060332706089391917 -4.0364989006917451 -0.070011797249532048 -3.9666891621283358 -0.19403126785902433 -3.7021516233403102 -0.29358778289147264 -3.4226933345697881 -0.3687182475911176 -3.132201138445486 -0.42004937329999936 -2.8271813992751929 -0.4476229046009409 -2.511486689918097 -0.45271667893532314 -2.1769565736860303 -0.43479455323342336 -1.9689553990509907 -0.42750802849262232 -1.615164501897943 -0.37522949435460778 -1.2443039648234002 -0.30429058025031053 -1.1784590405615321 -0.30049777159099222 -0.94680535952739564 -0.25016377433754639 -0.87685401503920923 -0.23866845473737688 -0.64101244521464773 -0.17875001723430342 -0.57656346076560838 -0.16387694205857273 -0.33603973222369987 -0.096871381199851683 -0.26700260438641871 -0.077685113261136626 -0.19811684480431002 -0.058052772755856068 0.042542158079906169 0.012495315476960129 0.11126954475749241 0.032605391340366725 0.17993095641547069 0.052492004635351981 0.43174483414149994 0.12478092005795847 0.50051173059622811 0.14258713869168305 0.56391133740212807 0.15799697330099013 0.82268697777216371 0.22548324942590206 0.89152922763344988 0.23766349613791171 0.96007316804726062 0.24820135637337434 1.0282121337707799 0.25697553965842251 1.2890170533174501 0.30932479024325571 1.3569105449769823 0.31030220489915189 1.424016339536067 0.30888212481869159 1.6971015268663385 0.34586542822768923 1.7631544329188185 0.33390097569116745 1.827790630254613 0.31900642344686275 2.1063568011800879 0.33363554930915779 2.1626316049724634 0.3049706587144676 2.2222959643925901 0.27400757044183538 2.5038693904176759 0.26122596794552921 2.5585576647777564 0.21525102139539304 2.6096386804776528 0.16600772116551363 2.6567340355801674 0.11367798964996235 2.9327259412693647 0.060843356200248409 2.9645281181644618 -0.0073472045677475863 3.2378437454520297 -0.087131610454183217 3.2633236221674919 -0.17156035641083348 3.2818680388902943 -0.25767102816709009 3.5407614296738283 -0.37434976056381714 3.53596409049889 -0.47452361318086367 3.7825151985116894 -0.62029643207338592 3.762746239910574 -0.73432231135279613 3.732819203226446 -0.84611345089017953 3.9493564504184824 -1.0254611783168122 4.1500028516944933 -1.2255530847874125 4.0757063847972246 -1.3556628820593839 4.2544046095985557 -1.5814873785055845 4.1404709791232754 -1.7088264841872789 4.2855934462571952 -1.9530763300300007 4.4110691022003961 -2.2163327295327 4.2351566519729236 -2.3362824778633602 4.318270027715303 -2.6062801757622336 4.3697560498997357 -2.8849720962719267 4.3991145920693882 -3.177444650996526 4.3912032178799958 -3.4715759316930241 4.6260659966704756 -4.0180065573108363 3.1830005519892142 -3.0045435583664686 3.013663259408661 -3.0457950638968674 2.8108078396611136 -3.0360043246726605 2.8767153053257766 -3.3248480792054131 3.2007597243182526 -3.9926326828323595 3.3219911854605892 -4.523316971314074 3.4235772485890941 -5.1471929341804392 2.7194575470020887 -4.5186864532267599 0 0
        </DataArray>
        <DataArray type="Float32" Name="u" NumberOfComponents="1">
          0 0.007874015748031496 0.015748031496062992 0.023622047244094488 0.031496062992125984 0.03937007874015748 0.047244094488188976 0.055118110236220472 0.062992125984251968 0.070866141732283464 0.07874015748031496 0.086614173228346455 0.094488188976377951 0.10236220472440945 0.11023622047244094 0.11811023622047244 0.12598425196850394 0.13385826771653545 0.14173228346456693 0.14960629921259844 0.15748031496062992 0.16535433070866143 0.17322834645669291 0.18110236220472442 0.1889763779527559 0.19685039370078741 0.20472440944881889 0.2125984251968504 0.22047244094488189 0.2283464566929134 0.23622047244094488 0.24409448818897639 0.25196850393700787 0.25984251968503935 0.26771653543307089 0.27559055118110237 0.28346456692913385 0.29133858267716534 0.29921259842519687 0.30708661417322836 0.31496062992125984 0.32283464566929132 0.33070866141732286 0.33858267716535434 0.34645669291338582 0.3543307086614173 0.36220472440944884 0.37007874015748032 0.37795275590551181 0.38582677165354329 0.39370078740157483 0.40157480314960631 0.40944881889763779 0.41732283464566927 0.42519685039370081 0.43307086614173229 0.44094488188976377 0.44881889763779526 0.45669291338582679 0.46456692913385828 0.47244094488188976 0.48031496062992124 0.48818897637795278 0.49606299212598426 0.50393700787401574 0.51181102362204722 0.51968503937007871 0.52755905511811019 0.53543307086614178 0.54330708661417326 0.55118110236220474 0.55905511811023623 0.56692913385826771 0.57480314960629919 0.58267716535433067 0.59055118110236215 0.59842519685039375 0.60629921259842523 0.61417322834645671 0.62204724409448819 0.62992125984251968 0.63779527559055116 0.64566929133858264 0.65354330708661412 0.66141732283464572 0.6692913385826772 0.67716535433070868 0.68503937007874016 0.69291338582677164 0.70078740157480313 0.70866141732283461 0.71653543307086609 0.72440944881889768 0.73228346456692917 0.74015748031496065 0.74803149606299213 0.75590551181102361 0.76377952755905509 0.77165354330708658 0.77952755905511806 0.78740157480314965 0.79527559055118113 0.80314960629921262 0.8110236220472441 0.81889763779527558 0.82677165354330706 0.83464566929133854 0.84251968503937003 0.85039370078740162 0.8582677165354331 0.86614173228346458 0.87401574803149606 0.88188976377952755 0.88976377952755903 0.89763779527559051 0.90551181102362199 0.91338582677165359 0.92125984251968507 0.92913385826771655 0.93700787401574803 0.94488188976377951 0.952755905511811 0.96062992125984248 0.96850393700787396 0.97637795275590555 0.98425196850393704 0.99212598425196852 1
        </DataArray>
      </PointData>
      <CellData Scalars="P">
        <DataArray type="Float32" Name="P" NumberOfComponents="1">
          0.015234943013989647 0.045706185217954276 0.07618210782259377 0.10665524042358694 0.13712140860816463 0.16758778112530492 0.19807930681736638 0.22864417694619929 0.25935852986880892 0.29032994423972208 0.32170049600346073 0.35364847602323318 0.38638940957166362 0.42017613012530397 0.4552975060006072 0.49207647588127068 0.53086885606701817 0.57205875238630999 0.61605507188374464 0.66328750804464365 0.71420086457601584 0.76924812302207568 0.82888412056877969 0.89355750795681854 0.96370248297201722 1.0397321669432955 1.1220273273757517 1.2109245109414939 1.3067096367335269 1.4096227166946083 1.5198144523266992 1.6373529149490069 1.7622139276712649 1.8942706048006912 2.0332832483630869 2.1788888662012389 2.3305886921662746 2.4877487599443744 2.6495950763804084 2.8152006910476324 2.9834853030006245 3.1532156859894345 2.882122716570751 2.6229490984231671 2.3711818986751121 2.126537928895551 1.8888269528020236 1.657948693060892 1.4338901789086373 1.211210695296727 0.98940168515054494 0.7684076084328626 0.54830887956692842 0.32896775007952178 0.11040619586301344 -0.10738578477128637 -0.31181229305366726 -0.50156852955929487 -0.67544078480941472 -0.83183694487611048 -0.96931212806589606 -1.0857616101658423 -1.1894983069446696 -1.2693396999696946 -1.323254372358921 -1.373253604628053 -1.4066898308458327 -1.4354101829648969 -1.4467132937207572 -1.4534025866713711 -1.4420725632137363 -1.42567833322142 -1.4042370202355685 -1.3649672097344729 -1.3208787439880894 -1.2721004904023145 -1.2055700318032652 -1.1348950699646991 -1.0606920492838923 -0.96986515039858112 -0.87600543003230158 -0.77948340954116735 -0.68069306742072511 -0.56822676361510915 -0.45473626561777375 -0.34071768739808878 -0.21539567076766677 -0.0910835540153382 0.031640162625850253 0.1622981872783715 0.28933954383784299 0.41241241898200981 0.53952080498374688 0.66074557642021292 0.77547917861191906 0.88316137394404948 0.98933972114376179 1.0865217483331622 1.1791276227757665 1.2611907545029086 1.3324063756813795 1.3949482453817292 1.445368454811754 1.4844820344939462 1.510730367105902 1.5244245506781033 1.5242568188759498 1.5091011193272188 1.4814947103584075 1.4381187007801814 1.3838687194977113 1.3142099019113704 1.2292774258277424 1.1373442610416504 1.0324665215771607 0.91616604289079728 0.79004346807840831 0.65659821208479119 0.50818921691940078 0.41059169714248606 0.32015760840434127 0.24078277924523275 0.16573414267909076 0.09080828467734238 0.028202017750199697 -0.014544948431244041 -0.014596496064873118
        </DataArray>
      </CellData>
      <Points>
        <DataArray type="Float32" NumberOfComponents="3" format="ascii">
          4.200363304382817 6.2784514481283473 0
          4.2012488831953512 6.2862758977143809 0
          4.2021357770276282 6.2941001941617083 0
          4.2030226737321188 6.3019244833221606 0
          4.2039091956952266 6.3097488057294937 0
          4.2047955790341538 6.3175731326574756 0
          4.205682539572746 6.3253973812466819 0
          4.2065712087698985 6.3332214214644882 0
          4.2074630941661537 6.3410450798332594 0
          4.2083600524161779 6.3488681411358234 0
          4.2092642637586932 6.3566903492610161 0
          4.2101782130768965 6.3645114065232473 0
          4.2111046701944144 6.372330972242346 0
          4.2120466718205227 6.3801486602759301 0
          4.2130075041996484 6.387964035598408 0
          4.2139906843034183 6.3957766101994995 0
          4.2149999413450692 6.4035858381281727 0
          4.2160392039088821 6.4113911090233087 0
          4.2171125822561288 6.419191741484144 0
          4.2182243530787238 6.4269869754210438 0
          4.2193789460995079 6.4347759634755031 0
          4.2205809296169585 6.4425577619579393 0
          4.2218349941709841 6.4503313215373499 0
          4.2231459372343663 6.4580954773485271 0
          4.2245186465565849 6.4658489389795299 0
          4.2259580829809202 6.4735902803435019 0
          4.2274692659521813 6.4813179289354617 0
          4.2290572548807726 6.489030155819278 0
          4.2307271270287696 6.4967250665499332 0
          4.232483959913103 6.5044005915664078 0
          4.2343328307960508 6.5120544728317826 0
          4.2362787737871281 6.5196842606077103 0
          4.2383267588630469 6.5272873065656425 0
          4.2404816707673669 6.5348607579188389 0
          4.2427482865939465 6.5424015530808894 0
          4.2451312521416655 6.5499064190917098 0
          4.2476350562329417 6.5573718713665103 0
          4.250264000428837 6.564794217079764 0
          4.2530221763272458 6.5721695583818454 0
          4.2559134436348502 6.5794937974799481 0
          4.258941399963021 6.5867626474436767 0
          4.2621093532557595 6.593971645274614 0
          4.2654202958303671 6.6011161676882084 0
          4.2684257657635767 6.6083944909342263 0
          4.2711329203905084 6.6157889760701858 0
          4.2735458406504838 6.6232846516618977 0
          4.2756695188176748 6.6308673654223824 0
          4.2775097960655115 6.6385238094072285 0
          4.2790733012953091 6.6462415409182221 0
          4.2803673924495556 6.6540089988807507 0
          4.2813945023286459 6.6618162566120862 0
          4.2821571165308026 6.6696537822723068 0
          4.2826581753659561 6.6775123761237651 0
          4.2829011480663226 6.6853831890590749 0
          4.2828897534156729 6.6932577546798422 0
          4.2826280592666768 6.7011279908832737 0
          4.2821203932942256 6.7089862077295175 0
          4.2813831586534059 6.7168262272140851 0
          4.2804336843947972 6.7246433855613645 0
          4.2792899843903207 6.7324344945261707 0
          4.2779709739111258 6.7401978387812207 0
          4.276496230616428 6.7479330968500904 0
          4.2748865004827561 6.7556413742237265 0
          4.2731546829931242 6.7633231203271169 0
          4.2713227185724651 6.770981571172932 0
          4.2694136059790928 6.7786211199615503 0
          4.2674314286582753 6.7862420037113784 0
          4.2653905521047717 6.7938473417129792 0
          4.2632953140314909 6.8014378486320783 0
          4.261160339030476 6.8090172383623413 0
          4.2589896232001436 6.8165864352629626 0
          4.2567980808230992 6.8241495930178822 0
          4.2545899920937229 6.8317079035109547 0
          4.2523696277266296 6.8392625862171927 0
          4.2501519094985065 6.8468180150820119 0
          4.2479410979272032 6.8543754394253513 0
          4.2457414493867072 6.8619360946535544 0
          4.2435685765126001 6.8695044632605891 0
          4.2414267419120142 6.8770816519737874 0
          4.2393198754018933 6.8846686189428086 0
          4.2372640206210042 6.8922695497828448 0
          4.2352634446715607 6.899885202765133 0
          4.2333223962241844 6.907516234317244 0
          4.2314450989185382 6.9151631915096967 0
          4.2296477218455095 6.9228293228905784 0
          4.2279344734915032 6.9305146926702283 0
          4.2263095136674496 6.9382192164322083 0
          4.2247897729993547 6.9459451915363983 0
          4.2233793463598035 6.9536918805061321 0
          4.2220822410558361 6.9614583642378056 0
          4.2209157283004535 6.9692455559749504 0
          4.2198832977177494 6.9770516836041523 0
          4.2189886494856532 6.9848748326065664 0
          4.2182492428706118 6.9927142188593399 0
          4.2176684707549308 7.0005669979835066 0
          4.2172495029352328 7.0084301229784884 0
          4.2169952626787905 7.0163003554895944 0
          4.2169228668397531 7.0241744307767116 0
          4.2170342924244792 7.0320481277654272 0
          4.2173464934247651 7.0399165125893202 0
          4.2178610574597268 7.0477743581745322 0
          4.2185791430702153 7.0556163329802315 0
          4.2195168157738987 7.063435217489995 0
          4.2206737901572415 7.0712248083012419 0
          4.2220653719551269 7.0789760831231039 0
          4.223690351676578 7.0866819796827807 0
          4.2255468912144725 7.094335573668948 0
          4.2276484445245046 7.1019257611139999 0
          4.2300074855750136 7.1094401516550398 0
          4.2326194342155548 7.1168706832888597 0
          4.2354954131332647 7.1242033686628545 0
          4.2386283901129209 7.1314303146191014 0
          4.2420274164855156 7.1385363880950363 0
          4.2457003336752877 7.1455052748060437 0
          4.2496362779520256 7.1523295328954664 0
          4.2538404763791702 7.158992423479595 0
          4.2583162039874534 7.1654766630864675 0
          4.2630653747836735 7.1717641072742415 0
          4.26808760179836 7.1778365004848519 0
          4.27339761274437 7.1836599324226267 0
          4.2789057873363632 7.1892972231464052 0
          4.2846016985931339 7.1947458029033342 0
          4.2904728408186745 7.2000062696719827 0
          4.2965234550575397 7.2050606893326554 0
          4.3027739030245282 7.2098675903361373 0
          4.3092319759018194 7.2143939801398549 0
          4.3159043156778303 7.2186010394220048 0
          4.3227450844828432 7.2225265253399717 0
        </DataArray>
      </Points>
      <Cells>
        <DataArray type="Int32" Name="connectivity" format="ascii">
          0 1 1 2 2 3 3 4 4 5 5 6 6 7 7 8 8 9 9 10 10 11 11 12 12 13 13 14 14 15 15 16 16 17 17 18 18 19 19 20 20 21 21 22 22 23 23 24 24 25 25 26 26 27 27 28 28 29 29 30 30 31 31 32 32 33 33 34 34 35 35 36 36 37 37 38 38 39 39 40 40 41 41 42 42 43 43 44 44 45 45 46 46 47 47 48 48 49 49 50 50 51 51 52 52 53 53 54 54 55 55 56 56 57 57 58 58 59 59 60 60 61 61 62 62 63 63 64 64 65 65 66 66 67 67 68 68 69 69 70 70 71 71 72 72 73 73 74 74 75 75 76 76 77 77 78 78 79 79 80 80 81 81 82 82 83 83 84 84 85 85 86 86 87 87 88 88 89 89 90 90 91 91 92 92 93 93 94 94 95 95 96 96 97 97 98 98 99 99 100 100 101 101 102 102 103 103 104 104 105 105 106 106 107 107 108 108 109 109 110 110 111 111 112 112 113 113 114 114 115 115 116 116 117 117 118 118 119 119 120 120 121 121 122 122 123 123 124 124 125 125 126 126 127 
        </DataArray>
        <DataArray type="Int32" Name="offsets" format="ascii">
          2 4 6 8 10 12 14 16 18 20 22 24 26 28 30 32 34 36 38 40 42 44 46 48 50 52 54 56 58 60 62 64 66 68 70 72 74 76 78 80 82 84 86 88 90 92 94 96 98 100 102 104 106 108 110 112 114 116 118 120 122 124 126 128 130 132 134 136 138 140 142 144 146 148 150 152 154 156 158 160 162 164 166 168 170 172 174 176 178 180 182 184 186 188 190 192 194 196 198 200 202 204 206 208 210 212 214 216 218 220 222 224 226 228 230 232 234 236 238 240 242 244 246 248 250 252 254 
        </DataArray>
        <DataArray type="Int32" Name="types" format="ascii">
          3 3 3 3 3 3 3 3 3 3 3 3 3 3 3 3 3 3 3 3 3 3 3 3 3 3 3 3 3 3 3 3 3 3 3 3 3 3 3 3 3 3 3 3 3 3 3 3 3 3 3 3 3 3 3 3 3 3 3 3 3 3 3 3 3 3 3 3 3 3 3 3 3 3 3 3 3 3 3 3 3 3 3 3 3 3 3 3 3 3 3 3 3 3 3 3 3 3 3 3 3 3 3 3 3 3 3 3 3 3 3 3 3 3 3 3 3 3 3 3 3 3 3 3 3 3 3         </DataArray>
      </Cells>
    </Piece>
  </UnstructuredGrid>
</VTKFile>
