<?xml version="1.0"?>
<VTKFile type="UnstructuredGrid" version="0.1" byte_order="LittleEndian">
  <UnstructuredGrid>
    <Piece NumberOfPoints="128" NumberOfCells="127">
      <PointData Scalars="W">
        <DataArray type="Float32" Name="W" NumberOfComponents="2">
          0 0 -0.014670755808546721 0.11309661160052416 -0.029952192023884373 0.22847169869495779 -0.04246860388608751 0.31857379825966642 -0.053965123223820771 0.39622044818700386 -0.065168508657424379 0.46650964517572852 -0.076439799659622623 0.53178039081556494 -0.087987383864582686 0.59324690996941831 -0.099943122879025001 0.65158673409905032 -0.11241395304457938 0.70731191354642842 -0.12547347285933796 0.76072249759115806 -0.13918037133258465 0.81203726445385904 -0.15358230463993333 0.86142065511558152 -0.16873109829226446 0.90906654719298685 -0.18468345122826169 0.95518778993277975 -0.20149236435187928 0.99996267973112651 -0.21919580890692777 1.0434833587564665 -0.23784265458102252 1.0858871262395351 -0.25748207275834095 1.1272965917981319 -0.27815298231238195 1.167775641788247 -0.29990322531820574 1.2074157559967356 -0.32278909437848552 1.2463251756537856 -0.34686441158492692 1.2845823118496649 -0.37217710020202593 1.3222278459223078 -0.3987926907679602 1.3593497856751375 -0.42675244384179067 1.3959359724836029 -0.45611738974058597 1.4320307578699607 -0.4869766967518056 1.467745292486494 -0.51940614459259526 1.5031216582238065 -0.55335225335900007 1.5378299485060634 -0.58899252674635427 1.572196431226073 -0.62639783848143671 1.6062053815270418 -0.66564784317067871 1.6398497625685178 -0.70681521033867345 1.6730908581322261 -0.74998562107400979 1.7059081655317248 -0.7952342526219619 1.7382430869889531 -0.84267818609946821 1.7701135045124394 -0.89237586233247423 1.8013952181980994 -0.94437925571477732 1.831950767601336 -0.99881517622727578 1.8617803774876114 -1.0557850270930398 1.8908129751957683 -1.1153824500123715 1.9189486007672292 -6.7862632946074912 10.273797244397707 -7.7794664755800413 9.6021341898528831 -8.7096868607799998 8.8316417517576884 -9.5650533701490676 7.9664910853655453 -10.336855613881273 7.0148478472509508 -11.013866721835313 5.9835396687905273 -11.588926896224427 4.8828445916856316 -12.05216871622495 3.7222301515455212 -12.398584836776312 2.5138186011710268 -12.620338530402977 1.2694549177331995 -12.715177148112447 0.002656159071768872 -12.678016135208422 -1.2728258064545304 -12.506298979545786 -2.5418707555059736 -1.8393524144028781 -0.48590908526592674 -1.50604832883438 -0.41992546924339946 -1.5358727894732116 -0.44893154510829208 -0.81778686964312208 -0.24763970455722584 -0.054741178823240463 -0.016791298405743331 1.2126741414505227 0.3656674360883746 2.123918042086506 0.60886004280285855 2.5644250906589399 0.68228598380848005 3.0243347483546592 0.73156465945501925 4.6912932647794383 0.98133085713250834 4.6545316464015061 0.79294098427420279 5.2373002501173884 0.68120459914583642 5.8348056983170711 0.49993117792329128 5.7405880746274836 0.22845463212348557 5.6542631578428173 -0.028977513663283688 5.5545471422195716 -0.27405952915709264 5.4430542263846506 -0.50620584233874477 5.3213746814070637 -0.72503077791581194 5.190185897180406 -0.93015890182697614 5.0296373513945714 -1.1162153042075629 4.8869889839912553 -1.2926429995121862 4.7400120509460946 -1.4559769770136888 4.5899469833501909 -1.6065924680661048 4.4379245304747874 -1.7449616060708675 4.261849983303259 -1.8610308443829382 4.1097276296601368 -1.9750074949929015 3.9585009533276105 -2.0786944763963087 3.8088938303932007 -2.1728149739771894 3.6615354162619385 -2.258124203018586 3.5162917287308 -2.3349373309573487 3.3749888154270673 -2.404927925024158 3.2173172981280849 -2.4527368190759709 3.0845378633714926 -2.5094155024163971 2.9559008500846908 -2.5613250382127251 2.8309692947738663 -2.6086962053880911 2.7110306473341339 -2.6533815911829222 2.5775059169051939 -2.6763909931537473 2.4674346906694322 -2.7158830325585055 2.3611544823970783 -2.7538600908705351 2.2595536963772869 -2.7921948271552388 2.16192245928548 -2.8310222022943408 2.0524154712325444 -2.8487042373847111 1.9627782123274107 -2.8890267863319106 1.8767325531953372 -2.9324719352420767 1.793458615493952 -2.9790694667738111 1.7125338092154572 -3.0294405909678619 1.620653178651968 -3.0591531580177764 1.5440201056375737 -3.1175577522227989 1.4685202054187796 -3.1822152148567731 1.3820700380347868 -3.2261798814184202 1.3076205904097313 -3.303219013595009 1.2318220509062445 -3.387681389658634 1.1447053447516313 -3.4514218992377801 1.06506621670165 -3.5518707091141315 0.98110178888821309 -3.6614459179721881 0.88501708408932178 -3.7509722855406591 0.79030855976947911 -3.8799526484341293 0.6870774010874463 -4.0196169560815456 0.56974421163364297 -4.1391613513189451 0.4459400132043379 -4.301135451208677 0.30590407995601654 -4.4424286730885196 0.15217332518018772 -4.5918934014022899 -0.020991973617529427 -4.9055937384766723 -0.22441453188586016 -5.1222263848804817 -0.45302058407557949 -5.3176158763876007 -0.71518778346661815 -5.5544725021502037 0.48439940694816747 3.5386415621368759 0.47666048522984689 4.5721999196627401 0.38233558624090508 6.2473463642798741 0.062331485309916362 6.9988956282215717 -0.26157654009475773 6.1134781337662902 -0.18366747612982998 2.4011373146628525 0 0
        </DataArray>
        <DataArray type="Float32" Name="u" NumberOfComponents="1">
          0 0.007874015748031496 0.015748031496062992 0.023622047244094488 0.031496062992125984 0.03937007874015748 0.047244094488188976 0.055118110236220472 0.062992125984251968 0.070866141732283464 0.07874015748031496 0.086614173228346455 0.094488188976377951 0.10236220472440945 0.11023622047244094 0.11811023622047244 0.12598425196850394 0.13385826771653545 0.14173228346456693 0.14960629921259844 0.15748031496062992 0.16535433070866143 0.17322834645669291 0.18110236220472442 0.1889763779527559 0.19685039370078741 0.20472440944881889 0.2125984251968504 0.22047244094488189 0.2283464566929134 0.23622047244094488 0.24409448818897639 0.25196850393700787 0.25984251968503935 0.26771653543307089 0.27559055118110237 0.28346456692913385 0.29133858267716534 0.29921259842519687 0.30708661417322836 0.31496062992125984 0.32283464566929132 0.33070866141732286 0.33858267716535434 0.34645669291338582 0.3543307086614173 0.36220472440944884 0.37007874015748032 0.37795275590551181 0.38582677165354329 0.39370078740157483 0.40157480314960631 0.40944881889763779 0.41732283464566927 0.42519685039370081 0.43307086614173229 0.44094488188976377 0.44881889763779526 0.45669291338582679 0.46456692913385828 0.47244094488188976 0.48031496062992124 0.48818897637795278 0.49606299212598426 0.50393700787401574 0.51181102362204722 0.51968503937007871 0.52755905511811019 0.53543307086614178 0.54330708661417326 0.55118110236220474 0.55905511811023623 0.56692913385826771 0.57480314960629919 0.58267716535433067 0.59055118110236215 0.59842519685039375 0.60629921259842523 0.61417322834645671 0.62204724409448819 0.62992125984251968 0.63779527559055116 0.64566929133858264 0.65354330708661412 0.66141732283464572 0.6692913385826772 0.67716535433070868 0.68503937007874016 0.69291338582677164 0.70078740157480313 0.70866141732283461 0.71653543307086609 0.72440944881889768 0.73228346456692917 0.74015748031496065 0.74803149606299213 0.75590551181102361 0.76377952755905509 0.77165354330708658 0.77952755905511806 0.78740157480314965 0.79527559055118113 0.80314960629921262 0.8110236220472441 0.81889763779527558 0.82677165354330706 0.83464566929133854 0.84251968503937003 0.85039370078740162 0.8582677165354331 0.86614173228346458 0.87401574803149606 0.88188976377952755 0.88976377952755903 0.89763779527559051 0.90551181102362199 0.91338582677165359 0.92125984251968507 0.92913385826771655 0.93700787401574803 0.94488188976377951 0.952755905511811 0.96062992125984248 0.96850393700787396 0.97637795275590555 0.98425196850393704 0.99212598425196852 1
        </DataArray>
      </PointData>
      <CellData Scalars="P">
        <DataArray type="Float32" Name="P" NumberOfComponents="1">
          -0.0026992479938158908 -0.0079993186030613249 -0.013000482827170515 -0.01756931699008259 -0.021594453571220265 -0.024975104505355231 -0.027617440133266315 -0.029433066365119668 -0.030338311713906458 -0.030252958963404603 -0.029100069489454865 -0.026805471779099206 -0.02329730197003314 -0.01850482965627849 -0.012357254207588236 -0.0047830652010303872 0.004289787162895178 0.01493528813999535 0.027230080687859353 0.04125345840676619 0.057088627518666543 0.074823957698943858 0.094553490389354358 0.11637721575302959 0.14040302790843354 0.16674573621128358 0.19552926252145497 0.22688947981244126 0.26097407540628836 0.29793400752899107 0.33794151338660705 0.38118314262351449 0.4278614706394081 0.47819568665551321 0.53242375379305718 0.59080283689807955 0.65361381907410021 0.72115809358568705 0.79375844356253689 0.87176640415297002 0.95556173505205122 1.0455533286436922 1.57315593383651 2.1150964418829385 2.6684761307066895 3.2299119374579952 3.7957248786685129 4.3617694975475967 4.9236472549586168 5.4765501673542207 6.0154936513290558 6.5351794111931891 7.0302450407466752 7.4951525710715909 7.9243302230578951 7.983997899230304 8.0354653494638679 8.0916969753828312 8.12067387454662 8.1155984255578062 8.0448341812314101 7.9167102752305265 7.7508452249188569 7.5421194755441139 7.2027836486397963 6.8430754438115091 6.4169839757547651 5.9744463005628452 5.5220936705799302 5.062448141230794 4.5995645197900474 4.1371737878463524 3.6786728173450882 3.2272023924141706 2.787597231311302 2.3600500223809342 1.9466147215889993 1.5490381513381271 1.1687775174902633 0.80915784575260929 0.46890555118700117 0.14871277582062775 -0.15093691328711936 -0.42974720519999249 -0.68753308422012005 -0.92436832738348218 -1.1388942318889448 -1.3329783708301748 -1.5069604514694381 -1.6612151091808864 -1.7962508261182548 -1.9116210583039654 -2.0089547379156358 -2.08878576875439 -2.1517015608302383 -2.1982639648781723 -2.2286672142244752 -2.243938286184807 -2.2446048358057027 -2.231163898860312 -2.2040911934099294 -2.1640592206932712 -2.1114116941826624 -2.0465556779366012 -1.9704255958348187 -1.882991737944413 -1.7846517095956747 -1.6766258835412817 -1.5586404219803984 -1.431184722198267 -1.295806874486543 -1.1522210794780572 -1.0011901958459819 -0.84473589596501719 -0.68286995597454603 -0.5180499781241964 -0.3519546956575289 -0.18142569117624296 -0.012566028937570153 0.15078875187720847 0.30615941969686178 0.23578177878662632 0.15850928550539201 0.072241037616094544 0.0094839100875087866 -0.019874702849899013 -0.0096327479421382915
        </DataArray>
      </CellData>
      <Points>
        <DataArray type="Float32" NumberOfComponents="3" format="ascii">
          4.5624028312649214 10.034600908571894 0
          4.57021187862592 10.03561032376267 0
          4.5780200164375975 10.03662675096434 0
          4.5858262972631305 10.037657343450567 0
          4.593629945089428 10.038707687565447 0
          4.6014302471308639 10.039782597412866 0
          4.609226508770873 10.040886430933007 0
          4.6170180311778557 10.042023234920702 0
          4.6248040983854715 10.043196820307447 0
          4.6325839691176673 10.044410804168345 0
          4.6403568701592297 10.045668641469229 0
          4.6481219917934817 10.0469736436697 0
          4.6558784841645942 10.048328992287418 0
          4.6636254543241575 10.049737749093556 0
          4.6713619630194962 10.05120286813341 0
          4.6790870211800426 10.052727208923388 0
          4.6867995866332279 10.054313547505847 0
          4.6944985617524093 10.055964582162531 0
          4.7021827904292719 10.057682941927924 0
          4.7098510550276993 10.059471194192083 0
          4.7175020739734226 10.061331848662832 0
          4.7251344987905206 10.063267363039026 0
          4.7327469106140496 10.065280149723298 0
          4.7403378168558437 10.067372580685616 0
          4.7479056482359949 10.069546989987925 0
          4.7554487547225923 10.071805679243345 0
          4.7629654029760227 10.074150916865378 0
          4.7704537725673202 10.076584940821071 0
          4.7779119504516609 10.079109965526102 0
          4.7853379262715556 10.081728184457887 0
          4.7927295956737126 10.084441749705666 0
          4.8000847493043288 10.087252792203795 0
          4.8074010684148236 10.090163420761691 0
          4.8146761199224297 10.093175721632646 0
          4.8219073519030431 10.096291756118655 0
          4.8290920882764521 10.099513559304594 0
          4.8362275241418011 10.102843136430463 0
          4.8433107185139077 10.106282464005332 0
          4.8503385906941459 10.109833482111917 0
          4.8573079170410001 10.11349808588861 0
          4.8642153230994598 10.117278125547585 0
          4.8710572773042848 10.121175401971751 0
          4.877830085163068 10.125191660519762 0
          4.8841821447126827 10.129844914360492 0
          4.8900518750343096 10.135093522972843 0
          4.8953815995224632 10.140889718435703 0
          4.9001182818135183 10.1471798639394 0
          4.9042140657811055 10.153904959975577 0
          4.9076269715372201 10.161001067511972 0
          4.9103213393042395 10.168399945121191 0
          4.9122684411563533 10.17602963578662 0
          4.9134467914641462 10.183815218338761 0
          4.9138426327783247 10.191679541615684 0
          4.9134500755265309 10.199544062342513 0
          4.9122714133350973 10.207329697476645 0
          4.9103172816775977 10.214957761388943 0
          4.9082491422106331 10.22255554239684 0
          4.9060876557884576 10.230127172655033 0
          4.9038309634770245 10.23767090081377 0
          4.9015235749035329 10.245199252851268 0
          4.8992127816603928 10.252726598684491 0
          4.8969771423409156 10.260276728724348 0
          4.8948731353197923 10.267864818754378 0
          4.8929280617387017 10.275495527077844 0
          4.8911704380160428 10.28317202723534 0
          4.8897036553664064 10.290909993417991 0
          4.8885254852066984 10.298697875377052 0
          4.8876721541522539 10.306528913916342 0
          4.8871809013624556 10.314390743995817 0
          4.8870458491165669 10.322266523888308 0
          4.8872616112878688 10.330140287834578 0
          4.8878219730888013 10.337996839090202 0
          4.8887199914294932 10.34582178584299 0
          4.8899480937198696 10.353601564732921 0
          4.8914981199704739 10.361323463708317 0
          4.8933600912874251 10.368975954109212 0
          4.8955251418398751 10.376548106693214 0
          4.8979841397366499 10.384029805111995 0
          4.9007277638777467 10.391411722351272 0
          4.9037465739756412 10.398685291192953 0
          4.907029639819374 10.405843326697742 0
          4.9105675189701028 10.412878774479648 0
          4.9143508263307227 10.419785218013034 0
          4.9183702788824935 10.426556833650192 0
          4.9226167345464455 10.433188343679316 0
          4.9270811837140709 10.439674996677363 0
          4.931754862355648 10.446012463702621 0
          4.9366279922430794 10.45219779019164 0
          4.9416923399228452 10.458227471416169 0
          4.9469399296182397 10.464098297680072 0
          4.9523630160137708 10.469807339992817 0
          4.9579541639944846 10.475351835222417 0
          4.9637050963920171 10.480730363327368 0
          4.9696089909166332 10.485940481912541 0
          4.9756592606866672 10.490979841866469 0
          4.981849609251916 10.495846071283776 0
          4.9881739865125185 10.500536767113974 0
          4.9946256061916197 10.505050836703424 0
          5.0011989142052284 10.509385783212029 0
          5.0078885792451082 10.513538915658065 0
          5.0146894419062091 10.517507347089921 0
          5.0215964884532047 10.521287956089193 0
          5.028604026005147 10.524878901653086 0
          5.0357073069575371 10.528276563359739 0
          5.0429016539066573 10.531476932636599 0
          5.0501817106958349 10.534477283533658 0
          5.0575428649592427 10.537272838912427 0
          5.0649804205725459 10.539858360925335 0
          5.0724889799166801 10.542229896197849 0
          5.0800636085471194 10.544381214782993 0
          5.0876991036739367 10.546305520397613 0
          5.0953895113422867 10.547997259502191 0
          5.1031289622872942 10.549448431637659 0
          5.1109110585790631 10.55065037336964 0
          5.1187285283055424 10.551595668362006 0
          5.1265736974572222 10.552274268712127 0
          5.1344378860159869 10.552677408323651 0
          5.1423115646525677 10.552795813721531 0
          5.1501839946586436 10.552610026688768 0
          5.158042563202879 10.552106607493883 0
          5.1658730961577328 10.551273432909005 0
          5.1736593366726051 10.550095807587191 0
          5.1814759905773622 10.549137581128607 0
          5.189322711144392 10.548462880394807 0
          5.1971938415527674 10.548175670857214 0
          5.2050686145996687 10.548322642726104 0
          5.2129269235020832 10.548848834300758 0
          5.2207734761395344 10.549523933434989 0
        </DataArray>
      </Points>
      <Cells>
        <DataArray type="Int32" Name="connectivity" format="ascii">
          0 1 1 2 2 3 3 4 4 5 5 6 6 7 7 8 8 9 9 10 10 11 11 12 12 13 13 14 14 15 15 16 16 17 17 18 18 19 19 20 20 21 21 22 22 23 23 24 24 25 25 26 26 27 27 28 28 29 29 30 30 31 31 32 32 33 33 34 34 35 35 36 36 37 37 38 38 39 39 40 40 41 41 42 42 43 43 44 44 45 45 46 46 47 47 48 48 49 49 50 50 51 51 52 52 53 53 54 54 55 55 56 56 57 57 58 58 59 59 60 60 61 61 62 62 63 63 64 64 65 65 66 66 67 67 68 68 69 69 70 70 71 71 72 72 73 73 74 74 75 75 76 76 77 77 78 78 79 79 80 80 81 81 82 82 83 83 84 84 85 85 86 86 87 87 88 88 89 89 90 90 91 91 92 92 93 93 94 94 95 95 96 96 97 97 98 98 99 99 100 100 101 101 102 102 103 103 104 104 105 105 106 106 107 107 108 108 109 109 110 110 111 111 112 112 113 113 114 114 115 115 116 116 117 117 118 118 119 119 120 120 121 121 122 122 123 123 124 124 125 125 126 126 127 
        </DataArray>
        <DataArray type="Int32" Name="offsets" format="ascii">
          2 4 6 8 10 12 14 16 18 20 22 24 26 28 30 32 34 36 38 40 42 44 46 48 50 52 54 56 58 60 62 64 66 68 70 72 74 76 78 80 82 84 86 88 90 92 94 96 98 100 102 104 106 108 110 112 114 116 118 120 122 124 126 128 130 132 134 136 138 140 142 144 146 148 150 152 154 156 158 160 162 164 166 168 170 172 174 176 178 180 182 184 186 188 190 192 194 196 198 200 202 204 206 208 210 212 214 216 218 220 222 224 226 228 230 232 234 236 238 240 242 244 246 248 250 252 254 
        </DataArray>
        <DataArray type="Int32" Name="types" format="ascii">
          3 3 3 3 3 3 3 3 3 3 3 3 3 3 3 3 3 3 3 3 3 3 3 3 3 3 3 3 3 3 3 3 3 3 3 3 3 3 3 3 3 3 3 3 3 3 3 3 3 3 3 3 3 3 3 3 3 3 3 3 3 3 3 3 3 3 3 3 3 3 3 3 3 3 3 3 3 3 3 3 3 3 3 3 3 3 3 3 3 3 3 3 3 3 3 3 3 3 3 3 3 3 3 3 3 3 3 3 3 3 3 3 3 3 3 3 3 3 3 3 3 3 3 3 3 3 3         </DataArray>
      </Cells>
    </Piece>
  </UnstructuredGrid>
</VTKFile>
