<?xml version="1.0"?>
<VTKFile type="UnstructuredGrid" version="0.1" byte_order="LittleEndian">
  <UnstructuredGrid>
    <Piece NumberOfPoints="128" NumberOfCells="127">
      <PointData Scalars="W">
        <DataArray type="Float32" Name="W" NumberOfComponents="2">
          0 0 0.56421669330686053 0.15867344882932299 0.85122972080235504 0.23408585247228367 1.0756025323385827 0.28671556875889448 1.2673564433758575 0.32492144581270044 1.4387529694017327 0.35207036446050433 1.5963475912323231 0.36991367567286415 1.7440639880523012 0.37944907294401992 1.8844421945363141 0.38127114885136826 2.0191421976890633 0.37572089505726441 2.1493531235578569 0.36299568150496631 2.2758692421945059 0.34318091306551468 2.3992133088035059 0.31628850095808103 2.5197309677178761 0.28228341047912953 2.6375846412369341 0.24109361034581431 2.7528186648453445 0.19262848914008257 2.8654725460120503 0.13679185016000531 2.9754217866201378 0.073474670574774456 3.0825127432765198 0.0025714551357895734 3.1865629886975735 -0.076019650197886146 3.2873254217300603 -0.16239433457574587 3.3844741485522856 -0.25663461458062775 3.4776509274661698 -0.35880481603578307 3.5664574087940504 -0.46894779686327448 3.6504533104511405 -0.58708023715407076 3.7292270483562002 -0.71320192921826542 3.8022703153715112 -0.84727339612490282 3.8689877661382126 -0.98920195402647604 3.9288561187266122 -1.1388736297385404 3.9816136149745618 -1.2962334202967882 4.026315396476245 -1.4609851419970721 4.062366388171216 -1.632871513923787 4.0891618822474287 -1.8115845399403778 4.1060976773984761 -1.9967659368786732 4.1125562221601273 -2.1879962422059336 4.1079162784048968 -2.3847921856623313 4.0914859455242363 -2.586554661835927 4.0627205744784192 -2.7926913496035422 4.021112457491288 -3.0025680995523274 3.9660637090317605 -3.2154040029757121 3.8970480219065595 -3.4303666330908911 3.8136157155969443 -3.6465823262480774 -3.0701024340547383 2.9591549830758401 -3.0929850991774535 2.7892687603984112 -3.1040282425629582 2.6220024691133101 -3.1172278267286022 2.4684251724241668 -3.1076421093929749 2.308293559432403 -3.102659967797389 2.1626555983046125 -3.0752162485628358 2.0120252297893977 -3.0548555434997824 1.8762602889869364 -3.0281059674408266 1.7455034790981585 -2.9956154364648797 1.6199868805200714 -2.9580179649818543 1.4998760314675368 -2.9159292579027083 1.3852762668779512 -2.8861007732291823 1.2831846893768728 -2.837475617540242 1.1790753087136963 -2.8017808041062557 1.0863818232511333 -2.7154476840460324 0.98107351752457272 -2.6423785596944676 0.88845188963982114 -2.5668509123295795 0.80188367349472167 -2.4895361225266348 0.72127405120525934 -2.4108606029345832 0.64642758890757368 -2.3314870688288734 0.57719546852818115 -2.2512472493920104 0.51321506242897075 -2.1484632751439459 0.44986228365941089 -2.0670666755214571 0.39641761844542667 -2.0099014733292933 0.35155024134464746 -1.9542558053038332 0.31003342750290819 -1.9006507337879277 0.27169168456490994 -1.8242082026191651 0.23327158325823003 -1.7742034581941215 0.20118978482440492 -1.7267989295803927 0.17160630884336328 -1.6814685254182768 0.14424692941632086 -1.6386754063436866 0.11895316024066199 -1.5731351690981459 0.094171364697840598 -1.5361053721365856 0.073068830640555069 -1.5016203555637739 0.053422485915415166 -1.4701327371749313 0.035078565613374552 -1.441730717461164 0.017864111514751153 -1.4164969328708941 0.0016101777468596414 -1.3685617381660322 -0.013451208820207939 -1.3499293151027763 -0.027721427773268983 -1.3347121405403046 -0.041530660353653652 -1.3229785037821564 -0.055036229183637431 -1.3148077020657303 -0.068395917145676624 -1.3106349399403172 -0.081793105475216815 -1.3097827646109839 -0.095345641148548266 -1.3126983497492137 -0.10923553283260982 -1.2923529673905008 -0.12095315701102644 -1.3030420011504256 -0.13546405988479812 -1.3180842881031634 -0.15087439512998216 -1.3367775303333176 -0.16728900486879728 -1.3595643380854727 -0.18494466679416782 -1.386519421862705 -0.20405561297978966 -1.4177022701380346 -0.22484964027774854 -1.453567083996347 -0.24764184641431211 -1.4933874358732944 -0.2725693555911029 -1.5376254163416423 -0.29998375005768707 -1.5588022385648921 -0.32428955821498201 -1.6125806429532707 -0.35702234843034053 -1.6705445964397323 -0.39316214261594035 -1.7331345277161991 -0.43320142924974686 -1.8003963025312266 -0.47759790852414363 -1.8727516197068321 -0.52696957682556711 -1.9215734512657494 -0.57310866795897986 -2.003203527112249 -0.63289461835667549 -2.0899589362079967 -0.69947637518878802 -2.1809689010509952 -0.77334110471492834 -2.2485085182061231 -0.84460708900113746 -2.3494742291458399 -0.93496925563532041 -2.4544440401092591 -1.0353553797764352 -2.5357999885067617 -1.1342694053648823 -2.6496051367350417 -1.2574124622276919 -2.7390741534198337 -1.3800684415855733 -2.8608649848877188 -1.5317373440885118 -2.9574960622388589 -1.684535274106876 -3.0863746201116604 -1.8726637821044787 -3.1887436204155479 -2.0643772474342068 -3.2912631969000001 -2.2771756468098165 -3.3977684143953413 -2.5175026071902717 -3.6455312471369177 -2.9040919600429467 4.0135084122179787 3.1852793788443217 4.9941800592284951 3.6138337060234433 6.4891757127308987 4.1751896839155833 6.3177396254457268 3.5569983201057358 5.3434924507276325 2.6523273811506893 1.6284504042712731 0.74721340512352319 0 0
        </DataArray>
        <DataArray type="Float32" Name="u" NumberOfComponents="1">
          0 0.007874015748031496 0.015748031496062992 0.023622047244094488 0.031496062992125984 0.03937007874015748 0.047244094488188976 0.055118110236220472 0.062992125984251968 0.070866141732283464 0.07874015748031496 0.086614173228346455 0.094488188976377951 0.10236220472440945 0.11023622047244094 0.11811023622047244 0.12598425196850394 0.13385826771653545 0.14173228346456693 0.14960629921259844 0.15748031496062992 0.16535433070866143 0.17322834645669291 0.18110236220472442 0.1889763779527559 0.19685039370078741 0.20472440944881889 0.2125984251968504 0.22047244094488189 0.2283464566929134 0.23622047244094488 0.24409448818897639 0.25196850393700787 0.25984251968503935 0.26771653543307089 0.27559055118110237 0.28346456692913385 0.29133858267716534 0.29921259842519687 0.30708661417322836 0.31496062992125984 0.32283464566929132 0.33070866141732286 0.33858267716535434 0.34645669291338582 0.3543307086614173 0.36220472440944884 0.37007874015748032 0.37795275590551181 0.38582677165354329 0.39370078740157483 0.40157480314960631 0.40944881889763779 0.41732283464566927 0.42519685039370081 0.43307086614173229 0.44094488188976377 0.44881889763779526 0.45669291338582679 0.46456692913385828 0.47244094488188976 0.48031496062992124 0.48818897637795278 0.49606299212598426 0.50393700787401574 0.51181102362204722 0.51968503937007871 0.52755905511811019 0.53543307086614178 0.54330708661417326 0.55118110236220474 0.55905511811023623 0.56692913385826771 0.57480314960629919 0.58267716535433067 0.59055118110236215 0.59842519685039375 0.60629921259842523 0.61417322834645671 0.62204724409448819 0.62992125984251968 0.63779527559055116 0.64566929133858264 0.65354330708661412 0.66141732283464572 0.6692913385826772 0.67716535433070868 0.68503937007874016 0.69291338582677164 0.70078740157480313 0.70866141732283461 0.71653543307086609 0.72440944881889768 0.73228346456692917 0.74015748031496065 0.74803149606299213 0.75590551181102361 0.76377952755905509 0.77165354330708658 0.77952755905511806 0.78740157480314965 0.79527559055118113 0.80314960629921262 0.8110236220472441 0.81889763779527558 0.82677165354330706 0.83464566929133854 0.84251968503937003 0.85039370078740162 0.8582677165354331 0.86614173228346458 0.87401574803149606 0.88188976377952755 0.88976377952755903 0.89763779527559051 0.90551181102362199 0.91338582677165359 0.92125984251968507 0.92913385826771655 0.93700787401574803 0.94488188976377951 0.952755905511811 0.96062992125984248 0.96850393700787396 0.97637795275590555 0.98425196850393704 0.99212598425196852 1
        </DataArray>
      </PointData>
      <CellData Scalars="P">
        <DataArray type="Float32" Name="P" NumberOfComponents="1">
          -0.0086607677732163484 -0.024758182697583567 -0.038424819949602347 -0.048890215197755896 -0.055542446275638799 -0.05785467043434258 -0.055350101007608329 -0.047583287161052756 -0.034128813023730296 -0.014575334341637918 0.011479505495240176 0.044430967686253299 0.0846680874394901 0.13257428686217174 0.1885261021966044 0.25289209483538516 0.32603420842140041 0.4083038469770211 0.50004118517703866 0.60157427413586873 0.71321655253200911 0.83526324290622433 0.96798904235616734 1.111645219227708 1.2664562933727106 1.4326197837346675 1.6102999560438718 1.799621130319139 2.0006687951623392 2.2135022936077053 2.4381145031410485 2.6744473153860775 2.9223879813920957 3.181765894757981 3.4523482654808766 3.7338360949287233 4.025854810560265 4.3279603111735314 4.6396378593606427 4.9602904267446783 5.2892389248454741 5.6257232316882657 5.3277551114618573 5.0232976470521962 4.7146644665862834 4.4026937591375059 4.0906378906346319 3.7789173678808607 3.4705928487353606 3.1656702735999795 2.8654414489423372 2.5710571456581319 2.2835306963296262 2.0037427244910764 1.7309249366713693 1.4672063175092129 1.2116859182850095 0.96914961546238798 0.73845952063119491 0.51985005094070136 0.3134372871884003 0.11924602089643022 -0.062802922511743617 -0.23282228255199275 -0.38941827852729977 -0.53445781890780131 -0.66983742066928265 -0.79583203830919425 -0.91275906227219428 -1.019536557451767 -1.1179554884239218 -1.2083733312956544 -1.2911158661390958 -1.3665252909617405 -1.4339308340801249 -1.4947757892469726 -1.5493645431559935 -1.5980004866772588 -1.6409691290825887 -1.6785358178490619 -1.7104583230008032 -1.7375392234734817 -1.7599731630473177 -1.7779282949572242 -1.7915455635942787 -1.8009385874372454 -1.8061904085137936 -1.8073578832973007 -1.8046927485203306 -1.7980655420271774 -1.7874450992630875 -1.7727850500552635 -1.7540114197377137 -1.7310284479558515 -1.7037210298848859 -1.6719460929058125 -1.6355677068820531 -1.5944287954496172 -1.5493358381724538 -1.4991966799913161 -1.443855773653927 -1.3831497290460362 -1.3169260301397661 -1.2450316948964808 -1.1686378500892189 -1.0864290784733375 -0.99833771670845117 -0.9043812148208763 -0.80598825468114332 -0.70188685445705512 -0.59228529768829596 -0.47884094327747723 -0.36053050759913413 -0.23921413269063196 -0.11409222919119058 0.012744938686832342 0.1417930803540621 0.27067556395091852 0.39810592143346452 0.52277697527385525 0.64840403032792426 0.49894075384237158 0.34173801875625337 0.19058144170991462 0.0783954524806105 0.013613578674377241 0.0018623537320677176
        </DataArray>
      </CellData>
      <Points>
        <DataArray type="Float32" NumberOfComponents="3" format="ascii">
          4.1197077673385563 5.885019386906019 0
          4.1175585688484126 5.8925944693411259 0
          4.1154443520139505 5.9001793907738538 0
          4.1133829117599969 5.9077788274979861 0
          4.1113881593329209 5.9153960431150203 0
          4.1094719836302689 5.9230334068645716 0
          4.1076450114189074 5.9306926024023667 0
          4.1059170137778844 5.9383747363986599 0
          4.1042971493689366 5.9460804004023968 0
          4.1027941219205912 5.9538097077091638 0
          4.1014162831488559 5.9615623145035075 0
          4.1001717064842209 5.9693374320952124 0
          4.0990682363171471 5.9771338322126777 0
          4.0981135204091865 5.9849498477389398 0
          4.0973150313227764 5.9927833705364941 0
          4.0966800764907196 6.0006318469779343 0
          4.0962158009637317 6.0084922723243332 0
          4.0959291898582579 6.0163611847571898 0
          4.0958270606352043 6.0242346586150468 0
          4.095916053571135 6.0321082978488247 0
          4.096202620444326 6.0399772297029948 0
          4.0966930092104032 6.0478360987791335 0
          4.0973932437921565 6.0556790619474361 0
          4.0983091018632063 6.0634997843553817 0
          4.0994460901443972 6.0712914367678463 0
          4.1008094170998151 6.079046694530736 0
          4.1024039674117567 6.0867577375822473 0
          4.1042342704582522 6.0944162528994861 0
          4.1063044633936734 6.1020134402447281 0
          4.1086182586972377 6.1095400192323819 0
          4.111178927936681 6.1169862327403672 0
          4.1139892431776177 6.1243418652762198 0
          4.1170514400805507 6.131596258931939 0
          4.120367180400808 6.1387383324841869 0
          4.1239375145201942 6.1457566036132665 0
          4.1277628431513289 6.1526392149162552 0
          4.1318428788139538 6.1593739638771901 0
          4.1361766029306075 6.1659483400201616 0
          4.1407622320532083 6.1723495616423811 0
          4.1455971863810701 6.1785646151412834 0
          4.1506780526885958 6.1845803034416305 0
          4.1560005516921885 6.1903832976172 0
          4.1615595101694893 6.1959601910694166 0
          4.1669281066130184 6.2017205586630517 0
          4.172104922325663 6.2076538660099336 0
          4.1770892727714006 6.2137497411814362 0
          4.1818803399264315 6.2199986612426033 0
          4.1864787184232259 6.2263906967075568 0
          4.1908847176543915 6.232916816994825 0
          4.1951000395944797 6.2395676818208097 0
          4.1991259472222415 6.2463348728715111 0
          4.2029640996597788 6.2532102824116151 0
          4.2066165119942456 6.2601861276750093 0
          4.210085515961782 6.2672549611290034 0
          4.2133737217670202 6.2744096770053339 0
          4.2164829795325272 6.2816439453302912 0
          4.2194163047120501 6.2889513108861257 0
          4.2221759111075565 6.2963260265016956 0
          4.2247671519769225 6.3037615623837322 0
          4.2271945582587218 6.3112521755959152 0
          4.2294628133162631 6.3187924985985591 0
          4.2315767113064826 6.326377533374056 0
          4.2335411307367412 6.3340026393114721 0
          4.2353609933714864 6.3416635239834669 0
          4.237041274659739 6.3493562206598542 0
          4.2385883477477266 6.3570768014578611 0
          4.2400072597513958 6.364821953076957 0
          4.2413015554095344 6.3725888942483335 0
          4.2424746851999995 6.3803750514955944 0
          4.2435299730339588 6.3881780482524375 0
          4.2444721586933714 6.3959955030520534 0
          4.2453043427752597 6.4038254275761677 0
          4.2460294646133949 6.4116659884491281 0
          4.2466503348966613 6.4195154902308111 0
          4.2471696069539151 6.4273723655886563 0
          4.247591344390834 6.4352350789663717 0
          4.2479178431173166 6.4431023229961557 0
          4.2481512412196532 6.4509728806246036 0
          4.2482934908987833 6.4588456155762506 0
          4.2483463530023036 6.4667194616267016 0
          4.2483113919012512 6.4745934121243982 0
          4.2481915794157361 6.4824665344906052 0
          4.2479880705393072 6.4903379451353098 0
          4.2477018084727156 6.4982067890585409 0
          4.2473335203892315 6.5060722300918279 0
          4.2468837125171497 6.5139334411107459 0
          4.2463526431555447 6.5217895926568801 0
          4.245740364675016 6.5296398456316238 0
          4.2450466957906601 6.5374833400030239 0
          4.2442728973573649 6.5453193507010905 0
          4.2434183060161725 6.5531469791833219 0
          4.2424819884425879 6.5609652710998585 0
          4.2414627848862159 6.5687732097948421 0
          4.2403592817248841 6.5765697016136899 0
          4.2391698068286079 6.5843535626117999 0
          4.2378924258671438 6.5921235044218847 0
          4.2365249141448578 6.5998781147011858 0
          4.2350648016356853 6.6076158486324914 0
          4.233509344328632 6.6153350071086408 0
          4.2318572279331192 6.6230340842011293 0
          4.2301051167203862 6.6307110508587943 0
          4.2282494153507004 6.6383636666634533 0
          4.2262862415622493 6.645989449274218 0
          4.224211423323883 6.6535856460355083 0
          4.2220204726865553 6.6611491956362308 0
          4.2197103606680537 6.6686772377266319 0
          4.2172760240135698 6.676166064948398 0
          4.2147120815696386 6.6836115483565566 0
          4.2120128882724925 6.6910091072197053 0
          4.2091742540727051 6.6983543225122988 0
          4.2061899163529883 6.705641590123264 0
          4.2030533641120433 6.7128646841513904 0
          4.1997595502221117 6.7200174705690214 0
          4.1963014155830844 6.7270923118735402 0
          4.1926734097112082 6.7340816013855083 0
          4.1888679780761224 6.7409759322036997 0
          4.1848791257785809 6.7477658280587285 0
          4.1806988585209828 6.7544396205788102 0
          4.17632082525604 6.7609854197524228 0
          4.1717386653091397 6.7673900278364192 0
          4.1669457706012327 6.7736385395805625 0
          4.1619267765069878 6.7797069741351006 0
          4.1571564449908891 6.7859732763698508 0
          4.1526955712053111 6.7924641693336509 0
          4.1486373571252075 6.7992138236153696 0
          4.1449711201841293 6.8061838890498185 0
          4.141636403364692 6.8133182320549377 0
          4.1384028166358746 6.8204986112911268 0
        </DataArray>
      </Points>
      <Cells>
        <DataArray type="Int32" Name="connectivity" format="ascii">
          0 1 1 2 2 3 3 4 4 5 5 6 6 7 7 8 8 9 9 10 10 11 11 12 12 13 13 14 14 15 15 16 16 17 17 18 18 19 19 20 20 21 21 22 22 23 23 24 24 25 25 26 26 27 27 28 28 29 29 30 30 31 31 32 32 33 33 34 34 35 35 36 36 37 37 38 38 39 39 40 40 41 41 42 42 43 43 44 44 45 45 46 46 47 47 48 48 49 49 50 50 51 51 52 52 53 53 54 54 55 55 56 56 57 57 58 58 59 59 60 60 61 61 62 62 63 63 64 64 65 65 66 66 67 67 68 68 69 69 70 70 71 71 72 72 73 73 74 74 75 75 76 76 77 77 78 78 79 79 80 80 81 81 82 82 83 83 84 84 85 85 86 86 87 87 88 88 89 89 90 90 91 91 92 92 93 93 94 94 95 95 96 96 97 97 98 98 99 99 100 100 101 101 102 102 103 103 104 104 105 105 106 106 107 107 108 108 109 109 110 110 111 111 112 112 113 113 114 114 115 115 116 116 117 117 118 118 119 119 120 120 121 121 122 122 123 123 124 124 125 125 126 126 127 
        </DataArray>
        <DataArray type="Int32" Name="offsets" format="ascii">
          2 4 6 8 10 12 14 16 18 20 22 24 26 28 30 32 34 36 38 40 42 44 46 48 50 52 54 56 58 60 62 64 66 68 70 72 74 76 78 80 82 84 86 88 90 92 94 96 98 100 102 104 106 108 110 112 114 116 118 120 122 124 126 128 130 132 134 136 138 140 142 144 146 148 150 152 154 156 158 160 162 164 166 168 170 172 174 176 178 180 182 184 186 188 190 192 194 196 198 200 202 204 206 208 210 212 214 216 218 220 222 224 226 228 230 232 234 236 238 240 242 244 246 248 250 252 254 
        </DataArray>
        <DataArray type="Int32" Name="types" format="ascii">
          3 3 3 3 3 3 3 3 3 3 3 3 3 3 3 3 3 3 3 3 3 3 3 3 3 3 3 3 3 3 3 3 3 3 3 3 3 3 3 3 3 3 3 3 3 3 3 3 3 3 3 3 3 3 3 3 3 3 3 3 3 3 3 3 3 3 3 3 3 3 3 3 3 3 3 3 3 3 3 3 3 3 3 3 3 3 3 3 3 3 3 3 3 3 3 3 3 3 3 3 3 3 3 3 3 3 3 3 3 3 3 3 3 3 3 3 3 3 3 3 3 3 3 3 3 3 3         </DataArray>
      </Cells>
    </Piece>
  </UnstructuredGrid>
</VTKFile>
