<?xml version="1.0"?>
<VTKFile type="UnstructuredGrid" version="0.1" byte_order="LittleEndian">
  <UnstructuredGrid>
    <Piece NumberOfPoints="128" NumberOfCells="127">
      <PointData Scalars="W">
        <DataArray type="Float32" Name="W" NumberOfComponents="2">
          0 0 0.83228408799443709 0.35038894258763015 1.2344513554180463 0.50694046735866194 1.5347337603713123 0.60926408393708931 1.7811907448407132 0.67837373082274044 1.99336742893781 0.72319947435987086 2.1815834630377862 0.74870672844293373 2.3519863330146435 0.75803025122137624 2.508549804384407 0.75332194957826804 2.6539132549820699 0.73612232136273925 2.789965533458644 0.7076031583293354 2.9180335460385964 0.6686636482259628 3.0390731712913683 0.62001520691196155 3.1537280202301861 0.56222379164718372 3.2624208122905713 0.49575450932122783 3.3654520155538443 0.42100593419042248 3.4630823682227887 0.33832812087484398 3.5553978185854964 0.24801464379458263 3.6424430559298817 0.15033016811828195 3.7242433436356901 0.04551330366376951 3.8007554926254499 -0.066222103788231443 3.8718757272649329 -0.18467846268924826 3.9374771934314361 -0.30966956341436591 3.9974245228459164 -0.44102043434365079 4.0515111667019479 -0.57855803758782554 4.0995913372442772 -0.72212481072380663 4.1414315578910017 -0.87155933027867249 4.1767209443638666 -1.0266832042359113 4.2052079899246095 -1.1873270880959947 4.226932128030418 -1.3534239903121412 4.241265738488277 -1.5247180142820453 4.2479049924237833 -1.7010252418926737 4.2465124805169818 -1.8821467144960455 4.2367565365761584 -2.0678823616364923 4.2182660629623427 -2.2580101601035696 4.1906625407853175 -2.4522974710780816 4.1534782894841662 -2.6504475296875745 4.1063462393617982 -2.8522097869747549 4.0488905243666364 -3.0573316405103039 3.9805954789693212 -3.2654505948056114 3.9009529954202464 -3.4761794422949159 3.8094722505032532 -3.6891198456224301 -1.4806132477045697 1.4706367787085279 -1.3837767768631177 1.3317326276959822 -1.2780478349172466 1.1948830842266438 -1.2363509408742077 1.1250670069337811 -1.1197341362611417 0.99368866979870019 -0.99641874684270959 0.86469169494711084 -0.94757153892191426 0.80568041550945135 -0.81900632648522531 0.68362553680928162 -0.68611304845967835 0.56379496630745951 -0.55022939768014045 0.44637101746741292 -0.50210591377661684 0.40291688070137782 -0.27178764602848271 0.21635874031376703 11.955541661531266 -10.795030200051119 10.543349490316059 -12.288816217378955 -0.6449719956300688 0.84930050882188513 -0.72853814252709759 0.94184299523167614 -0.7069821967892248 0.89683299146615181 -0.684776756400446 0.85310851311448832 -0.66168540612775129 0.81025969899819417 -0.6390167509229906 0.76975659085980197 -0.56138769460602167 0.66619445672319366 -0.53847293600900648 0.63038919913791369 -0.45909268498310996 0.53094498121495537 -0.43656557156982545 0.4994408046097924 -0.41522249020804675 0.4701807204584712 -0.39525091028305631 0.44325230051110742 -0.37679909036286346 0.41870374602584925 -0.36000912348363728 0.3965823765732811 -0.34566540631886467 0.37764011310196571 -0.33257553222779207 0.36047267834915414 -0.3816358998734336 0.41023014400357816 -0.3731575975762198 0.39763182116476298 -0.3668444971916005 0.38759185471593338 -0.36277376700282482 0.38010364376640221 -0.3617462851362529 0.37591194380939086 -0.36241666655653904 0.37352895165553879 -0.36554659404173623 0.37367171583445669 -0.37119195283064871 0.3763138846898379 -0.37939360549083551 0.38141185600076394 -0.45072395779800928 0.44895159773356264 -0.46478055346688157 0.45827789532760221 -0.48156464524804415 0.46989577892417611 -0.50112923261490061 0.48373955160497434 -0.52352568266447119 0.49973369236212012 -0.54879501649677831 0.51778367942121417 -0.63748567075329665 0.59379590416165418 -0.66946015948345061 0.61487207336396865 -0.70453289168948907 0.63763999900336554 -0.74277403218593741 0.66197238889697407 -0.78425629107291916 0.68772984896060085 -0.88965424104677149 0.76651850554935108 -0.93882248571385374 0.79352504970576054 -0.99154981688918264 0.82138457019790534 -1.0479268645155935 0.84989534950620893 -1.1687209417961235 0.92638519528899943 -1.2338818332950288 0.95412324825570471 -1.3031011858594606 0.98173206869561258 -1.3765070056754707 1.008946855581516 -1.5144651183520521 1.0777107657156388 -1.5980321115744707 1.1015361862541662 -1.6863477948442112 1.1239590106178245 -1.7796180616616926 1.1446446135997976 -1.8789275512085981 1.163755378308811 -1.9828418626078881 1.1798387807105515 -2.0924911740285288 1.1930329166770497 -2.2082012325297367 1.2028896105747702 -2.3313360904956988 1.209422267300772 -2.4605052825900589 1.2111175601021771 -2.5292699675912593 1.1772281319481805 -2.6737601188048785 1.1720890613342478 -2.8264057586224913 1.1605183669797317 -2.9180222652076218 1.1159593936915781 -3.091262838170223 1.0936989364968357 -3.2031387800170883 1.0397890209230558 -3.4061298576290557 1.0039754744726783 3.2642353311270775 -0.96007486594974312 3.5085751044029192 -1.1392990222445618 3.2397323979753989 -1.1534668904483749 3.5054679238030224 -1.3612160870408747 2.8951016221401606 -1.2157084389659125 2.2165888239830775 -0.98847824835538534 1.9937174805533244 -0.93300502032312715 1.2514248681447828 -0.60735248518842189 0.14181579743901174 -0.069899141985481902 -5.4727448772117677 2.541803752359113 0 0
        </DataArray>
        <DataArray type="Float32" Name="u" NumberOfComponents="1">
          0 0.007874015748031496 0.015748031496062992 0.023622047244094488 0.031496062992125984 0.03937007874015748 0.047244094488188976 0.055118110236220472 0.062992125984251968 0.070866141732283464 0.07874015748031496 0.086614173228346455 0.094488188976377951 0.10236220472440945 0.11023622047244094 0.11811023622047244 0.12598425196850394 0.13385826771653545 0.14173228346456693 0.14960629921259844 0.15748031496062992 0.16535433070866143 0.17322834645669291 0.18110236220472442 0.1889763779527559 0.19685039370078741 0.20472440944881889 0.2125984251968504 0.22047244094488189 0.2283464566929134 0.23622047244094488 0.24409448818897639 0.25196850393700787 0.25984251968503935 0.26771653543307089 0.27559055118110237 0.28346456692913385 0.29133858267716534 0.29921259842519687 0.30708661417322836 0.31496062992125984 0.32283464566929132 0.33070866141732286 0.33858267716535434 0.34645669291338582 0.3543307086614173 0.36220472440944884 0.37007874015748032 0.37795275590551181 0.38582677165354329 0.39370078740157483 0.40157480314960631 0.40944881889763779 0.41732283464566927 0.42519685039370081 0.43307086614173229 0.44094488188976377 0.44881889763779526 0.45669291338582679 0.46456692913385828 0.47244094488188976 0.48031496062992124 0.48818897637795278 0.49606299212598426 0.50393700787401574 0.51181102362204722 0.51968503937007871 0.52755905511811019 0.53543307086614178 0.54330708661417326 0.55118110236220474 0.55905511811023623 0.56692913385826771 0.57480314960629919 0.58267716535433067 0.59055118110236215 0.59842519685039375 0.60629921259842523 0.61417322834645671 0.62204724409448819 0.62992125984251968 0.63779527559055116 0.64566929133858264 0.65354330708661412 0.66141732283464572 0.6692913385826772 0.67716535433070868 0.68503937007874016 0.69291338582677164 0.70078740157480313 0.70866141732283461 0.71653543307086609 0.72440944881889768 0.73228346456692917 0.74015748031496065 0.74803149606299213 0.75590551181102361 0.76377952755905509 0.77165354330708658 0.77952755905511806 0.78740157480314965 0.79527559055118113 0.80314960629921262 0.8110236220472441 0.81889763779527558 0.82677165354330706 0.83464566929133854 0.84251968503937003 0.85039370078740162 0.8582677165354331 0.86614173228346458 0.87401574803149606 0.88188976377952755 0.88976377952755903 0.89763779527559051 0.90551181102362199 0.91338582677165359 0.92125984251968507 0.92913385826771655 0.93700787401574803 0.94488188976377951 0.952755905511811 0.96062992125984248 0.96850393700787396 0.97637795275590555 0.98425196850393704 0.99212598425196852 1
        </DataArray>
      </PointData>
      <CellData Scalars="P">
        <DataArray type="Float32" Name="P" NumberOfComponents="1">
          -0.031500346246286552 -0.091728151590069196 -0.14705129341613532 -0.19664871688585825 -0.2401818508708049 -0.27755997252221365 -0.30882845498671191 -0.33410742553106759 -0.35355440744697292 -0.36734156714048638 -0.37563914244993885 -0.37860517921218828 -0.37637804824096482 -0.36907209491912951 -0.35677443311088769 -0.33954164889001848 -0.31739593165104368 -0.29032537205522768 -0.25828197883594112 -0.22117961700820454 -0.17889356339841037 -0.1312602543059439 -0.078076300331396634 -0.019097215653735525 0.045961876283316924 0.11742940817277638 0.19567601917777971 0.28111307855421919 0.37419563329028888 0.47543475331578039 0.58537461040483652 0.70460480777287848 0.83376009677158192 0.97352168014086893 1.1246165024844637 1.2878178287525548 1.4639412276794079 1.6538504017832372 1.8584581437261565 2.0787184387126376 2.3156262105253997 2.5702178853373656 2.3924787357023121 2.2199764686296932 2.0553269831186602 1.8938473557062072 1.7436450120761187 1.6059868890975064 1.4743282757962519 1.3561590837025954 1.251562579706208 1.1602142450651129 1.0743495574139463 1.0073686521139436 1.8009245178773801 2.5441743436132698 2.4413556767703946 2.3320530489680529 2.2254035573372239 2.1217398445556452 2.0213378845526271 1.9243060530776548 1.8345834480556109 1.748128919520717 1.668440311541197 1.5916241327796088 1.5174999919395211 1.4458693218621057 1.3765254801321849 1.3092611827774492 1.2438528097873773 1.180138182953514 1.1164721049419508 1.0544936281150343 0.99408633374923228 0.93515972553686511 0.87764794691028247 0.82152373878891005 0.76678247721992876 0.71344818928823661 0.661572139160857 0.61238500276207042 0.56510174005919811 0.51983897961552039 0.47673000914130609 0.43592121979011811 0.39756782889896597 0.364286278191154 0.33397627564890647 0.30679286875683853 0.28288475551596726 0.26239015402211774 0.24855103889229252 0.23847616086585433 0.2322504301689452 0.22993578228736852 0.23492024409361192 0.24392975881566745 0.2569506048887944 0.27394171853485255 0.29815568843329032 0.32619986887691738 0.35796635866434212 0.39332789226487885 0.43218534709303524 0.47433784776208127 0.51962194062550693 0.56787214647770379 0.6189745834097089 0.67274110222834405 0.72605163696432284 0.7819214951934168 0.84025181821849237 0.89821071107471073 0.9587947088276112 1.0193934658216786 1.0832138429113098 0.93020048171921599 0.77111561879709534 0.62595355993195823 0.47947254465747491 0.35922337108853197 0.26404007873744628 0.18069903134695961 0.11487353905382518 0.062639253630326089 0.027440071289867925
        </DataArray>
      </CellData>
      <Points>
        <DataArray type="Float32" NumberOfComponents="3" format="ascii">
          3.8514285574035627 7.2990744958142626 0
          3.8483464005909194 7.306323388145052 0
          3.845315884162396 7.3135940198406635 0
          3.8423619608047805 7.3208961048211378 0
          3.8395032615222733 7.3282359927432186 0
          3.8367550776668295 7.3356179726080395 0
          3.8341305736953522 7.3430448267474064 0
          3.8316414274958879 7.3505181388602319 0
          3.8292982118333385 7.358038488481081 0
          3.8271106409156235 7.3656055844749737 0
          3.8250877341603 7.3732183606011148 0
          3.8232379333893105 7.3808750482026149 0
          3.8215691851539129 7.3885732319839574 0
          3.8200890000359338 7.3963098941392706 0
          3.8188044925715929 7.4040814494565472 0
          3.8177224074677203 7.4118837741655161 0
          3.8168491382308818 7.4197122306584804 0
          3.8161907433298325 7.4275616892018022 0
          3.8157529515113282 7.4354265461442264 0
          3.8155411645546242 7.443300740332746 0
          3.8155604588194905 7.4511777679133644 0
          3.8158155825458748 7.4590506955969227 0
          3.8163109493933822 7.466912172918124 0
          3.8170506305479668 7.4747544437902329 0
          3.8180383462996703 7.4825693573644951 0
          3.8192774532031808 7.4903483787717029 0
          3.8207709350081331 7.4980825989059072 0
          3.8225213881482354 7.5057627444501778 0
          3.8245310024272876 7.513379188957872 0
          3.8268015453896522 7.520921963375284 0
          3.8293343647435454 7.5283807602161952 0
          3.8321303493950949 7.5357449494609989 0
          3.8351899105741234 7.543003589992832 0
          3.8385129608775128 7.5501454419703222 0
          3.8420988936704266 7.5571589792727378 0
          3.8459465600428109 7.5640324033109643 0
          3.8500542453077715 7.5707536575008785 0
          3.8544196399704558 7.5773104457194398 0
          3.8590398169430045 7.5836902478969233 0
          3.863911208217619 7.5898803357404985 0
          3.8690295728699367 7.5958677952802951 0
          3.87438996553669 7.6016395509524814 0
          3.879986705971918 7.6071823903764333 0
          3.8854914561160641 7.612816349470636 0
          3.8909102290027122 7.6185328030411688 0
          3.8962495891298157 7.6243232547162831 0
          3.9015121316863821 7.6301833717105145 0
          3.9067050960505019 7.6361049996584347 0
          3.9118361367770929 7.6420801333848383 0
          3.916908291934933 7.6481051138642258 0
          3.9219295410519623 7.6541723692169121 0
          3.926908131719161 7.6602744670196437 0
          3.931852496637656 7.6664041256423587 0
          3.9367656280107983 7.6725586555842566 0
          3.9416618118912958 7.6787264872325851 0
          3.9472993948369397 7.6842248495610539 0
          3.9535907913097481 7.6889611125887756 0
          3.9598421029049877 7.693749976265579 0
          3.9660481588444316 7.6985971845236412 0
          3.9722103027369728 7.7034999483324418 0
          3.9783299182717027 7.7084555587549719 0
          3.9844084438716387 7.7134613614979122 0
          3.9904472915874911 7.7185148480628429 0
          3.9964512799610832 7.7236095993331562 0
          4.002421836164447 7.7287433989726777 0
          4.0083638873459098 7.7339100843182091 0
          4.0142788365310089 7.7391077064466742 0
          4.0201680131822242 7.7443344557425595 0
          4.0260326615760382 7.7495886672937155 0
          4.0318739316091428 7.7548688238465173 0
          4.0376928699852543 7.7601735587074989 0
          4.0434903715779464 7.7655017023324033 0
          4.0492672533486465 7.7708521952273548 0
          4.0550204785607304 7.7762281270648117 0
          4.0607505776204329 7.7816287213626119 0
          4.0664579464830242 7.7870533602072607 0
          4.0721428418547401 7.7925015838230625 0
          4.0778053315141891 7.7979731367207377 0
          4.083445377724237 7.803467875446505 0
          4.089062789984534 7.8089858130191825 0
          4.0946572215483288 7.8145271172825481 0
          4.1002281668703597 7.8200921081901944 0
          4.1057712046074109 7.8256849760490477 0
          4.1112854652598667 7.8313063024990877 0
          4.1167699098603405 7.83695681108955 0
          4.1222233266705137 7.84263736319848 0
          4.1276443279801311 7.8483489533441713 0
          4.1330313475490676 7.8540927033195356 0
          4.1383788842758342 7.8598733272662926 0
          4.1436849551054076 7.8656921340921588 0
          4.1489473844558322 7.8715505373916628 0
          4.154163799861931 7.8774500475479785 0
          4.1593316274638958 7.8833922630843469 0
          4.1644443273153202 7.889382068972604 0
          4.1694988479644826 7.8954211406087511 0
          4.1744919168752652 7.9015112060328985 0
          4.1794200348189454 7.9076540334140697 0
          4.1842757051530555 7.9138543639776078 0
          4.1890548831704164 7.9201139173198545 0
          4.1937532722035566 7.9264344047397497 0
          4.198366315714865 7.9328175128117087 0
          4.2028854513790197 7.9392675023309938 0
          4.2073054921104074 7.9457858489606892 0
          4.2116209562192424 7.9523739410764449 0
          4.2158260546860591 7.9590330590149829 0
          4.2199146239108165 7.9657643851159055 0
          4.2238802147828602 7.972568913712375 0
          4.2277160226100534 7.9794474596768579 0
          4.231414866970221 7.9864006306448472 0
          4.2349691071378652 7.9934288278314582 0
          4.238370728435644 8.0005321522826929 0
          4.2416154647096151 8.0077085007613533 0
          4.2446943515344433 8.014957550271431 0
          4.2475979190988875 8.022278578917172 0
          4.2503204847668066 8.0296688219039165 0
          4.2528513020595433 8.0371268945914771 0
          4.2551834323678008 8.0446494528297681 0
          4.2573042846837597 8.0522342719825151 0
          4.259627443917541 8.0597590286800465 0
          4.2621680590985473 8.0672127281950736 0
          4.2649094581130322 8.074594589277277 0
          4.2678681315872975 8.0818918333476155 0
          4.2710062502705819 8.0891135628256805 0
          4.2742817728422828 8.096273947506651 0
          4.2776809165799792 8.1033765069233841 0
          4.2811576984860116 8.1104415087056179 0
          4.2846433639146726 8.1175023598674017 0
          4.2877896735351024 8.1247207785029243 0
        </DataArray>
      </Points>
      <Cells>
        <DataArray type="Int32" Name="connectivity" format="ascii">
          0 1 1 2 2 3 3 4 4 5 5 6 6 7 7 8 8 9 9 10 10 11 11 12 12 13 13 14 14 15 15 16 16 17 17 18 18 19 19 20 20 21 21 22 22 23 23 24 24 25 25 26 26 27 27 28 28 29 29 30 30 31 31 32 32 33 33 34 34 35 35 36 36 37 37 38 38 39 39 40 40 41 41 42 42 43 43 44 44 45 45 46 46 47 47 48 48 49 49 50 50 51 51 52 52 53 53 54 54 55 55 56 56 57 57 58 58 59 59 60 60 61 61 62 62 63 63 64 64 65 65 66 66 67 67 68 68 69 69 70 70 71 71 72 72 73 73 74 74 75 75 76 76 77 77 78 78 79 79 80 80 81 81 82 82 83 83 84 84 85 85 86 86 87 87 88 88 89 89 90 90 91 91 92 92 93 93 94 94 95 95 96 96 97 97 98 98 99 99 100 100 101 101 102 102 103 103 104 104 105 105 106 106 107 107 108 108 109 109 110 110 111 111 112 112 113 113 114 114 115 115 116 116 117 117 118 118 119 119 120 120 121 121 122 122 123 123 124 124 125 125 126 126 127 
        </DataArray>
        <DataArray type="Int32" Name="offsets" format="ascii">
          2 4 6 8 10 12 14 16 18 20 22 24 26 28 30 32 34 36 38 40 42 44 46 48 50 52 54 56 58 60 62 64 66 68 70 72 74 76 78 80 82 84 86 88 90 92 94 96 98 100 102 104 106 108 110 112 114 116 118 120 122 124 126 128 130 132 134 136 138 140 142 144 146 148 150 152 154 156 158 160 162 164 166 168 170 172 174 176 178 180 182 184 186 188 190 192 194 196 198 200 202 204 206 208 210 212 214 216 218 220 222 224 226 228 230 232 234 236 238 240 242 244 246 248 250 252 254 
        </DataArray>
        <DataArray type="Int32" Name="types" format="ascii">
          3 3 3 3 3 3 3 3 3 3 3 3 3 3 3 3 3 3 3 3 3 3 3 3 3 3 3 3 3 3 3 3 3 3 3 3 3 3 3 3 3 3 3 3 3 3 3 3 3 3 3 3 3 3 3 3 3 3 3 3 3 3 3 3 3 3 3 3 3 3 3 3 3 3 3 3 3 3 3 3 3 3 3 3 3 3 3 3 3 3 3 3 3 3 3 3 3 3 3 3 3 3 3 3 3 3 3 3 3 3 3 3 3 3 3 3 3 3 3 3 3 3 3 3 3 3 3         </DataArray>
      </Cells>
    </Piece>
  </UnstructuredGrid>
</VTKFile>
