<?xml version="1.0"?>
<VTKFile type="UnstructuredGrid" version="0.1" byte_order="LittleEndian">
  <UnstructuredGrid>
    <Piece NumberOfPoints="128" NumberOfCells="127">
      <PointData Scalars="W">
        <DataArray type="Float32" Name="W" NumberOfComponents="2">
          0 0 0.54970031917460094 -0.50878934324600622 0.81928315324409418 -0.76960411128002815 1.0185924871383127 -0.97614593861622856 1.176882514158984 -1.1553598427066156 1.3062181337593974 -1.3182167930822764 1.4131264819801992 -1.4705431011723893 1.5016281364605408 -1.6158513066125526 1.5744016316363003 -1.7564302182703375 1.6332455670336223 -1.8937582549996863 1.6794857203422411 -2.0288968746377263 1.7140862992401329 -2.1625847026460359 1.7377461084083157 -2.2953189475994225 1.7509489765204167 -2.4273852422965345 1.7540225393684707 -2.5589011325129687 1.7472100825136163 -2.6898908683017639 1.7307326718523004 -2.8203710378442968 1.7047124063402064 -2.9502234680438102 1.6692370176082221 -3.0792745404408315 1.6243912285547715 -3.2073454337073684 1.5702219454237432 -3.3341825645731413 1.5067553540711291 -3.4594696489621781 1.4340253979259161 -3.5828764942539113 1.3520811574123397 -3.7040808657277524 1.2609517123921408 -3.8226704335136583 1.1607062410234568 -3.9383002122888184 1.0514030719884238 -4.0505503045958919 0.9330950772930372 -4.1588855371977633 0.80588280515833244 -4.2628334321607566 0.66993985321574723 -4.362279352262318 0.5253294804458174 -4.4564136480931387 0.37221759004755339 -4.5447476192979979 0.21079342578715121 -4.6267580347650936 0.041276104264109818 -4.701961014166339 -0.13609052773946986 -4.769835639138071 -0.32103409144596912 -4.829879923860755 -0.51324325216104749 -4.881497778425147 -0.71238408852896296 -4.9242410732371988 -0.91810719111310779 -4.9576805542290678 -1.1300047055341949 -4.9812175861503905 -1.3476364158324772 -4.9943287911174048 -1.5705331721410514 -4.9965307512823189 1.3250637068240025 4.1658727337235817 1.1558922713518405 4.1137352106511802 0.99756566178350092 4.0655888024398035 0.84907860500541843 4.0242827161715775 0.70388539845480469 3.9600425767416652 0.56838237625658861 3.9050158316381776 0.43765464130794351 3.8282086528806851 0.31602802883364922 3.7627455095560114 0.20029355393313569 3.6762119603321035 0.092575103600269978 3.5856458722913858 -0.007471169874515112 3.5099156935617293 -0.10037789657338748 3.4138763008641466 -0.18558527643339776 3.3155728489145404 -0.27924362940385783 3.3830741857603388 -0.3622562759493142 3.3149206636929791 -0.4404753525955632 3.2459877388506104 -0.5094901982277521 3.1503627892300234 -0.57483343803535036 3.0684289148015997 -0.63515216655938533 2.9871773211999901 -0.69070673845030872 2.9067776182589151 -0.73817594722161817 2.8143606701752533 -0.78460344995269926 2.7370283356908929 -0.82286818743808354 2.647885239866445 -0.86139038525535738 2.574244769621036 -0.89674293467894517 2.5026831971170571 -0.92928498583762809 2.4334875077870737 -0.95919890605288893 2.3664680466483357 -0.98682612344085952 2.3018699135647624 -1.0124485084622994 2.2397670072883824 -1.0363438713242377 2.1802226450039037 -1.0588561083882035 2.123427377589989 -1.0801021881779707 2.0691141813283576 -1.1004072950161792 2.0174523829717139 -1.1200190203267604 1.9684478088881776 -1.139181509605264 1.9221014323201393 -1.1657863593800573 1.8905780832236332 -1.1851703267849889 1.8492351709769415 -1.2048802433586279 1.8106245339893658 -1.2249492098083745 1.7744207929420919 -1.245688975707431 1.7407289657117977 -1.2673129912924532 1.7094962794702773 -1.2900332560871435 1.680664783649088 -1.3140597820260593 1.6541694261761661 -1.3485242806048554 1.6406115709429634 -1.3761452022842136 1.6182667207618826 -1.4056962975816742 1.5980137929387577 -1.4373880444623615 1.5797549947725209 -1.4714345717619637 1.5633852919260658 -1.5175205063367068 1.5583478157312232 -1.5572634222683444 1.5450766858105485 -1.6000255924609303 1.5333058662914512 -1.6460390892784151 1.522882205297305 -1.6955481761031945 1.5136425138460423 -1.7587367211128366 1.5137989765833659 -1.8163030504920885 1.50598999483801 -1.8781402758307957 1.4987397775826703 -1.9445293250253513 1.4918008083276939 -2.0157617534756134 1.4848974475322458 -2.1024972456640856 1.4848814949394773 -2.184658806083061 1.47667968417538 -2.2726366725673266 1.4674713668481791 -2.3667888105151111 1.4568337222651646 -2.4674910056637565 1.444292953258586 -2.5751473300418994 1.4293223840957558 -2.6901794200517526 1.4113266733892385 -2.8130355565926655 1.3896367087738668 -2.9328811771941301 1.3584333329179399 -3.0725983578511995 1.3275978964854696 -3.2218668431563073 1.290607628642052 -3.3809561552287013 1.2462291181874741 -3.5384814498839607 1.189381322695912 -3.7193538091482226 1.1271864419268658 -3.8995987155418357 1.0501507780166337 -4.1056613066534551 0.963689978375879 -2.1912168035560322 0.45589698012722041 -2.2563372744126577 0.42756517571171854 -2.2469922523830719 0.38399064918930254 -2.3267605249506476 0.35406474407708322 -2.353852300350753 0.31346884363681171 -2.5353508532435933 0.2877068362398516 -2.5161721328109343 0.23466814595625943 -2.3918319596101392 0.17635330457579274 -2.0340731002137691 0.11429270349133928 -1.1643888831321503 0.050702199293961268 -0.63330021557951588 0.023081584845171154 0 0
        </DataArray>
        <DataArray type="Float32" Name="u" NumberOfComponents="1">
          0 0.007874015748031496 0.015748031496062992 0.023622047244094488 0.031496062992125984 0.03937007874015748 0.047244094488188976 0.055118110236220472 0.062992125984251968 0.070866141732283464 0.07874015748031496 0.086614173228346455 0.094488188976377951 0.10236220472440945 0.11023622047244094 0.11811023622047244 0.12598425196850394 0.13385826771653545 0.14173228346456693 0.14960629921259844 0.15748031496062992 0.16535433070866143 0.17322834645669291 0.18110236220472442 0.1889763779527559 0.19685039370078741 0.20472440944881889 0.2125984251968504 0.22047244094488189 0.2283464566929134 0.23622047244094488 0.24409448818897639 0.25196850393700787 0.25984251968503935 0.26771653543307089 0.27559055118110237 0.28346456692913385 0.29133858267716534 0.29921259842519687 0.30708661417322836 0.31496062992125984 0.32283464566929132 0.33070866141732286 0.33858267716535434 0.34645669291338582 0.3543307086614173 0.36220472440944884 0.37007874015748032 0.37795275590551181 0.38582677165354329 0.39370078740157483 0.40157480314960631 0.40944881889763779 0.41732283464566927 0.42519685039370081 0.43307086614173229 0.44094488188976377 0.44881889763779526 0.45669291338582679 0.46456692913385828 0.47244094488188976 0.48031496062992124 0.48818897637795278 0.49606299212598426 0.50393700787401574 0.51181102362204722 0.51968503937007871 0.52755905511811019 0.53543307086614178 0.54330708661417326 0.55118110236220474 0.55905511811023623 0.56692913385826771 0.57480314960629919 0.58267716535433067 0.59055118110236215 0.59842519685039375 0.60629921259842523 0.61417322834645671 0.62204724409448819 0.62992125984251968 0.63779527559055116 0.64566929133858264 0.65354330708661412 0.66141732283464572 0.6692913385826772 0.67716535433070868 0.68503937007874016 0.69291338582677164 0.70078740157480313 0.70866141732283461 0.71653543307086609 0.72440944881889768 0.73228346456692917 0.74015748031496065 0.74803149606299213 0.75590551181102361 0.76377952755905509 0.77165354330708658 0.77952755905511806 0.78740157480314965 0.79527559055118113 0.80314960629921262 0.8110236220472441 0.81889763779527558 0.82677165354330706 0.83464566929133854 0.84251968503937003 0.85039370078740162 0.8582677165354331 0.86614173228346458 0.87401574803149606 0.88188976377952755 0.88976377952755903 0.89763779527559051 0.90551181102362199 0.91338582677165359 0.92125984251968507 0.92913385826771655 0.93700787401574803 0.94488188976377951 0.952755905511811 0.96062992125984248 0.96850393700787396 0.97637795275590555 0.98425196850393704 0.99212598425196852 1
        </DataArray>
      </PointData>
      <CellData Scalars="P">
        <DataArray type="Float32" Name="P" NumberOfComponents="1">
          -0.01024440438566861 -0.028813408974985692 -0.043699881001715631 -0.053927557982003028 -0.058837677418096562 -0.057957402972265044 -0.050934491151100242 -0.037499119931978096 -0.017439293273256239 0.0094137916454326339 0.043198200993392291 0.084029434059114519 0.13200607163948913 0.18721291392870801 0.24972290555423673 0.3195996393216316 0.39690158316937252 0.48168130661469782 0.57398649947665326 0.67386226233154078 0.78135049824514824 0.89648925556349779 1.0193135546383443 1.1498568576505201 1.2881484417073845 1.4342168104784065 1.5880872172064353 1.7497771068385097 1.9192987645079032 2.0966750016879976 2.2819086791998959 2.4749962027457468 2.675925365937736 2.8846764032902472 3.1012193365689664 3.3255137588283863 3.5575028422164245 3.7971191182133945 4.0442839644697504 4.298896948699964 4.5608374479741238 4.8299644010751797 4.5726471259387926 4.3073369077634851 4.0354094575328636 3.757872790365981 3.4776602101564644 3.1954123113568014 2.9138770572275576 2.6333341894334179 2.3563479488411527 2.0841562577652151 1.8164831094242813 1.5556042796326539 1.3023593399846296 1.0448951530087962 0.79394491460849215 0.55008092421350807 0.3157124379132813 0.09021574985270199 -0.12613197300070167 -0.33311725647012969 -0.52970146905467963 -0.71674885398235555 -0.89336732003911157 -1.0604836049840574 -1.2181694860554904 -1.3665407680406538 -1.505725100397606 -1.6358839899081516 -1.7571988742251985 -1.8698670232157519 -1.9741038503965074 -2.0701186781316459 -2.1581324330274185 -2.238367245312499 -2.3110438307874324 -2.3767409053171278 -2.4352556225282398 -2.4867919618137346 -2.5315367392395749 -2.5696692493641478 -2.6013560723127678 -2.6267501442822998 -2.6459900200991906 -2.6592123932459364 -2.6664658203128817 -2.6678432461455484 -2.6634224522137808 -2.6532664176025071 -2.6372500570453012 -2.6155414941111399 -2.5881636883182435 -2.5551283292106164 -2.5164371472758065 -2.4717605309926771 -2.4213755631954719 -2.3652658984553332 -2.3034134126782955 -2.2358010029483517 -2.1619866139025912 -2.0823687821795862 -1.9969532951559594 -1.9057607985744662 -1.8088313148060093 -1.7062288043984637 -1.5980467690670641 -1.4844140687378753 -1.3660146531266852 -1.2425603763451127 -1.1143173933969923 -0.98163144130688584 -0.84543754192364007 -0.70570342810014208 -0.56353712154709723 -0.41910057563345143 -0.3531761928096806 -0.28886006749038379 -0.22945062470670669 -0.17267834307790758 -0.12107665779037412 -0.071482405394211135 -0.030302948811357363 -0.00016572814148534815 0.015654444785847418 0.014234925125639468 0.0053593774501512394
        </DataArray>
      </CellData>
      <Points>
        <DataArray type="Float32" NumberOfComponents="3" format="ascii">
          3.8726647076735401 9.3531281619054241 0
          3.8779964773972284 9.3589228378326439 0
          3.8833623309076413 9.3646859647324536 0
          3.8887789834967301 9.3704013700780706 0
          3.8942587931561432 9.376056246739898 0
          3.8998115744640951 9.381639482176821 0
          3.9054453466627046 9.3871409781475261 0
          3.911166738370695 9.3925512894326229 0
          3.9169812368789421 9.3978614060296035 0
          3.922893354233743 9.4030626112292417 0
          3.9289067387603649 9.4081463899426527 0
          3.9350242572697689 9.4131043628834643 0
          3.9412480548465205 9.4179282407681519 0
          3.947579598180635 9.4226097934860498 0
          3.9540197055700514 9.4271408323885204 0
          3.9605685672385706 9.4315132030005717 0
          3.967225760423863 9.4357187835173839 0
          3.9739902630879564 9.4397494837759162 0
          3.9808604614914329 9.4435972525823484 0
          3.9878341556368522 9.4472540884773135 0
          3.9949085645257747 9.4507120508235811 0
          4.0020803290711067 9.4539632755291745 0
          4.009345513724794 9.4569999946579983 0
          4.016699608586638 9.4598145569026197 0
          4.0241375324517437 9.4623994475633335 0
          4.0316536346179017 9.4647473141132359 0
          4.0392416991792732 9.4668509875873124 0
          4.0468949486473438 9.4687035086160698 0
          4.0546060472335235 9.4702981606063705 0
          4.0623671070878 9.4716284990345017 0
          4.0701696990666436 9.4726883585513821 0
          4.0780048566593381 9.4734719031808616 0
          4.0858630862784926 9.4739736566174937 0
          4.0937343789975316 9.4741885346649486 0
          4.101608224140147 9.4741118752341684 0
          4.1094736244028303 9.4737394706376516 0
          4.1173191127461344 9.4730675987095037 0
          4.1251327717009643 9.4720930597599065 0
          4.1329022540748994 9.4708132043552862 0
          4.1406148046183864 9.4692259599279094 0
          4.1482572853142203 9.4673298678873703 0
          4.1558162026730416 9.4651241160656827 0
          4.1632777368222698 9.4626085686846064 0
          4.1708214171257394 9.4603513188104884 0
          4.1784367543095646 9.4583491326543534 0
          4.1861139317847735 9.4565990238749489 0
          4.1938437433049636 9.4550984302672969 0
          4.2016171867632881 9.4538433677797151 0
          4.2094258611102733 9.4528304236503722 0
          4.2172616612862646 9.4520548347978881 0
          4.2251170467385695 9.4515125415480359 0
          4.2329848421476228 9.4511981779293208 0
          4.2408583692650144 9.4511061280251045 0
          4.248731425715115 9.4512316958396916 0
          4.2565982516972909 9.451568926273195 0
          4.2644535648309416 9.4521117239333385 0
          4.2722915596811122 9.4528642735843906 0
          4.2801070900006817 9.453822349348405 0
          4.2878953067349403 9.454981677089993 0
          4.2956519313861312 9.456336327802914 0
          4.3033729131644209 9.4578812213990329 0
          4.311054512803346 9.4596113201484684 0
          4.3186932864147796 9.4615216391929504 0
          4.3262862913825435 9.4636064486493385 0
          4.3338306497065915 9.4658609539417657 0
          4.3413239894675808 9.4682796282722332 0
          4.3487639227960591 9.4708579060605516 0
          4.3561482583319551 9.4735913506636571 0
          4.3634749789558684 9.4764756721666412 0
          4.3707422304815058 9.4795067156223318 0
          4.3779483004862154 9.4826804762458128 0
          4.385091600834242 9.4859931039946552 0
          4.3921706504517957 9.4894409074932753 0
          4.3991840540042144 9.4930203658457231 0
          4.4061304946443629 9.4967281120797153 0
          4.4130087138501279 9.5005609436440341 0
          4.4198174960730858 9.5045158227692692 0
          4.4265556536007322 9.5085898765278554 0
          4.4332215371870705 9.5127811510089977 0
          4.4398139453392123 9.5170870835553814 0
          4.4463316563349515 9.5215052809433409 0
          4.4527734261716061 9.5260334992110227 0
          4.4591379692349653 9.5306696501696759 0
          4.465423945063689 9.5354117981326265 0
          4.4716299452033708 9.5402581563234037 0
          4.4777544801835392 9.5452070828437545 0
          4.4837954132085622 9.5502577378757039 0
          4.4897510318808047 9.5554087369173644 0
          4.4956195040953952 9.56065882520749 0
          4.50139886498678 9.5660068716640971 0
          4.5070870036483992 9.5714518623741771 0
          4.512681062513578 9.5769934859589636 0
          4.5181785773861778 9.5826309206962996 0
          4.5235768968156398 9.5883634379332943 0
          4.5288731677016445 9.5941903925927772 0
          4.5340643201420248 9.600111213057307 0
          4.5391464358331799 9.6061259101855505 0
          4.544115945140069 9.6122340011570415 0
          4.5489690135289154 9.6184350378513486 0
          4.5537015241379573 9.6247285915026186 0
          4.5583090596880496 9.6311142356099655 0
          4.5627862413566964 9.6375919705735775 0
          4.5671279739546922 9.6441612894783457 0
          4.5713288015073852 9.6508216230567783 0
          4.5753828850416136 9.6575723134700056 0
          4.5792839792658784 9.6644125849266374 0
          4.5830254074945351 9.6713415110209713 0
          4.586600035480882 9.6783579778116025 0
          4.590000243595858 9.6854606423232124 0
          4.5932185987793979 9.6926475719934544 0
          4.5962464353345434 9.6999168568208347 0
          4.5990744949855085 9.7072662051466097 0
          4.601692910134962 9.7146928671576163 0
          4.604091909931749 9.7221933201298683 0
          4.6062602752160622 9.7297637093619169 0
          4.6081868254152294 9.7373992601375079 0
          4.6098587783485083 9.7450946127451523 0
          4.6113948666004143 9.752818348874456 0
          4.6127910477631353 9.7605687246816775 0
          4.6140478971852055 9.7683430552480424 0
          4.6151604619493991 9.7761395006949297 0
          4.6161270552439069 9.7839555634573863 0
          4.6169364107870363 9.7917896616779156 0
          4.6175897087241777 9.7996385330690838 0
          4.6180946514282999 9.8074985974408211 0
          4.6184734216228875 9.8153660610344726 0
          4.6187799665414788 9.8232370758801775 0
          4.6190472330801748 9.8311100284506487 0
        </DataArray>
      </Points>
      <Cells>
        <DataArray type="Int32" Name="connectivity" format="ascii">
          0 1 1 2 2 3 3 4 4 5 5 6 6 7 7 8 8 9 9 10 10 11 11 12 12 13 13 14 14 15 15 16 16 17 17 18 18 19 19 20 20 21 21 22 22 23 23 24 24 25 25 26 26 27 27 28 28 29 29 30 30 31 31 32 32 33 33 34 34 35 35 36 36 37 37 38 38 39 39 40 40 41 41 42 42 43 43 44 44 45 45 46 46 47 47 48 48 49 49 50 50 51 51 52 52 53 53 54 54 55 55 56 56 57 57 58 58 59 59 60 60 61 61 62 62 63 63 64 64 65 65 66 66 67 67 68 68 69 69 70 70 71 71 72 72 73 73 74 74 75 75 76 76 77 77 78 78 79 79 80 80 81 81 82 82 83 83 84 84 85 85 86 86 87 87 88 88 89 89 90 90 91 91 92 92 93 93 94 94 95 95 96 96 97 97 98 98 99 99 100 100 101 101 102 102 103 103 104 104 105 105 106 106 107 107 108 108 109 109 110 110 111 111 112 112 113 113 114 114 115 115 116 116 117 117 118 118 119 119 120 120 121 121 122 122 123 123 124 124 125 125 126 126 127 
        </DataArray>
        <DataArray type="Int32" Name="offsets" format="ascii">
          2 4 6 8 10 12 14 16 18 20 22 24 26 28 30 32 34 36 38 40 42 44 46 48 50 52 54 56 58 60 62 64 66 68 70 72 74 76 78 80 82 84 86 88 90 92 94 96 98 100 102 104 106 108 110 112 114 116 118 120 122 124 126 128 130 132 134 136 138 140 142 144 146 148 150 152 154 156 158 160 162 164 166 168 170 172 174 176 178 180 182 184 186 188 190 192 194 196 198 200 202 204 206 208 210 212 214 216 218 220 222 224 226 228 230 232 234 236 238 240 242 244 246 248 250 252 254 
        </DataArray>
        <DataArray type="Int32" Name="types" format="ascii">
          3 3 3 3 3 3 3 3 3 3 3 3 3 3 3 3 3 3 3 3 3 3 3 3 3 3 3 3 3 3 3 3 3 3 3 3 3 3 3 3 3 3 3 3 3 3 3 3 3 3 3 3 3 3 3 3 3 3 3 3 3 3 3 3 3 3 3 3 3 3 3 3 3 3 3 3 3 3 3 3 3 3 3 3 3 3 3 3 3 3 3 3 3 3 3 3 3 3 3 3 3 3 3 3 3 3 3 3 3 3 3 3 3 3 3 3 3 3 3 3 3 3 3 3 3 3 3         </DataArray>
      </Cells>
    </Piece>
  </UnstructuredGrid>
</VTKFile>
