<?xml version="1.0"?>
<VTKFile type="UnstructuredGrid" version="0.1" byte_order="LittleEndian">
  <UnstructuredGrid>
    <Piece NumberOfPoints="128" NumberOfCells="127">
      <PointData Scalars="W">
        <DataArray type="Float32" Name="W" NumberOfComponents="2">
          0 0 0.22677502320479831 0.25375794836381782 0.39516049311725171 0.44547124752971368 0.52538507134470891 0.59885540713391838 0.63506054894156494 0.73410917934596065 0.73113991959979585 0.85942614759990432 0.81690567562585858 0.97885730062034082 0.89407423518490758 1.0946713729144015 0.96361756754810257 1.2082776777536548 1.0261494563044735 1.3206684394132273 1.0820061544187878 1.4325015138382038 1.1313758379652603 1.5442493334368605 1.1743382214583169 1.656240956653642 1.2109414491922506 1.7687627787727949 1.241215048293312 1.8820828373108269 1.2651241883469126 1.9963854126011991 1.2825546950351427 2.1117353255882221 1.2933999271674128 2.2282073699018827 1.2975245971208373 2.3458311857749718 1.2947521651073644 2.4645610329029597 1.2849005493403221 2.5843321783502038 1.2677830918703517 2.7050644576121372 1.2431820672356735 2.8266028001420973 1.2108650037561335 2.9487349612584013 1.1706269839968422 3.0712891808639702 1.1222150527211461 3.1939416529882561 1.0654039576292809 3.3163864508218941 0.99999375788009015 3.4383509496660758 0.92576309431742687 3.5594448932965079 0.84242443597291661 3.6788659263915764 0.74989424336154176 3.7964749630437438 0.6480064636236863 3.9117427515330419 0.53662226721637862 4.0240824393160732 0.41563952348979316 4.1328626115089691 0.28500097462181573 4.2374433898108474 0.1446925713689349 4.3371022484404271 -0.0052440754992345287 4.4311879294788303 -0.16471346931968586 4.5188559150564682 -0.33354245334547034 4.5992576458402077 -0.51149429878278307 4.6716700377029241 -0.69826266474015852 4.7353016090930469 -0.89346211908348394 4.7893339386550347 0.82584689823342239 -4.3878629200135073 0.65809030682628045 -4.3174857481596502 0.49930191838926147 -4.2385001097729882 0.34979958350339935 -4.1518654818821119 0.21068246745156508 -4.0834192757758636 0.078742555197498856 -3.9851075327926133 -0.044077081626194385 -3.901219673266441 -0.15907559589525605 -3.8137106293997016 -0.26467005752622258 -3.7038897759252243 -0.36320734956574668 -3.6110357006780798 -0.45435554643771242 -3.5164995745455228 -0.54163094852481919 -3.4400575647379763 -0.619736149014534 -3.3436744378479597 -0.68244030682877754 -3.2085651952774144 -0.73532354561980473 -3.0722636857406487 -0.78470698526080385 -2.956860956087723 -0.82688999363763416 -2.8423381523028874 -0.85457406221801591 -2.7056616574176942 -0.88220035869700153 -2.5934395367162693 -0.90376831536679991 -2.4830039220275255 -0.90923557572237523 -2.3484355774767547 -0.9182882897454594 -2.2413351578855201 -0.91013711238612049 -2.1088832404836881 -0.90803782768229691 -2.0056192362246814 -0.91616182164104898 -1.9348296695947504 -0.9225069394504003 -1.8673078683147901 -0.91150302138682826 -1.7728115883029876 -0.91383904155347984 -1.7116390406721775 -0.91484962914759638 -1.6530507191359056 -0.89767181218474978 -1.567727558443835 -0.89661319795067462 -1.5160875469391539 -0.89496959218013683 -1.4670579860027819 -0.87405911071529951 -1.3910354722789047 -0.87190531887005385 -1.3489901171155394 -0.86983254675719435 -1.3095438417703213 -0.86831051763692391 -1.2731161944136629 -0.84655598422658973 -1.2100799635476736 -0.84604919434446468 -1.1801463019326766 -0.84669695539114731 -1.1531830190715542 -0.84903009480461566 -1.1296285504381696 -0.82921394984419461 -1.078538037468058 -0.83384902861578547 -1.0609472599589056 -0.84040886190738173 -1.0462815974928992 -0.84943456647303539 -1.0349520938156844 -0.8604162724197002 -1.0260787030930243 -0.84812267362130622 -0.9903039518568133 -0.86403952105878934 -0.98810305746987026 -0.88249426001570586 -0.98830647857321552 -0.90406041164758166 -0.9913110243811315 -0.92896043368098991 -0.99708130906676717 -0.9296047237675672 -0.97666045328623208 -0.96124790444041153 -0.98843393784732425 -0.99695121572627143 -1.0028451708213004 -1.0374320837703319 -1.0202525554536297 -1.08211640075775 -1.039704662315758 -1.1008556855901594 -1.0328997660371462 -1.1555350719272508 -1.0581806877623325 -1.215383918276157 -1.0851860976506009 -1.281256930755825 -1.1141837379763575 -1.3206449315055697 -1.1174941546164761 -1.399079671354315 -1.1507750000325379 -1.484882971926359 -1.1854003607579293 -1.5432860264264516 -1.1941633616564213 -1.6445951018884528 -1.231580341073915 -1.7555463177891406 -1.2696833943810228 -1.8372313799716153 -1.2808122870762941 -1.9668575888152204 -1.3188113256832679 -2.0675633773486788 -1.3300888477015973 -2.2194379922818741 -1.366000762000235 -2.3849001448421676 -1.3991773640552814 -2.5198908870075249 -1.4039814386124703 -2.7131705667817543 -1.4294116945649464 -2.8761540177007401 -1.4256112604375188 -3.0530670090091072 -1.4160545451944209 -3.2450190000811703 -1.3992673291790476 -3.5064851280290403 -1.3937907818180579 -3.9486764395143017 -1.42773261927854 4.0150136553214306 1.4529860626110034 4.0143033071548757 1.6083391883195528 3.6918861099456604 1.622086384196517 3.4087444028121365 1.6244722758828796 3.0418968039579122 1.5568408219860239 2.4220539343594889 1.3148432465959079 1.4169710905285597 0.80118667519678088 -3.540148578374898 -1.9574458943222268 0 0
        </DataArray>
        <DataArray type="Float32" Name="u" NumberOfComponents="1">
          0 0.007874015748031496 0.015748031496062992 0.023622047244094488 0.031496062992125984 0.03937007874015748 0.047244094488188976 0.055118110236220472 0.062992125984251968 0.070866141732283464 0.07874015748031496 0.086614173228346455 0.094488188976377951 0.10236220472440945 0.11023622047244094 0.11811023622047244 0.12598425196850394 0.13385826771653545 0.14173228346456693 0.14960629921259844 0.15748031496062992 0.16535433070866143 0.17322834645669291 0.18110236220472442 0.1889763779527559 0.19685039370078741 0.20472440944881889 0.2125984251968504 0.22047244094488189 0.2283464566929134 0.23622047244094488 0.24409448818897639 0.25196850393700787 0.25984251968503935 0.26771653543307089 0.27559055118110237 0.28346456692913385 0.29133858267716534 0.29921259842519687 0.30708661417322836 0.31496062992125984 0.32283464566929132 0.33070866141732286 0.33858267716535434 0.34645669291338582 0.3543307086614173 0.36220472440944884 0.37007874015748032 0.37795275590551181 0.38582677165354329 0.39370078740157483 0.40157480314960631 0.40944881889763779 0.41732283464566927 0.42519685039370081 0.43307086614173229 0.44094488188976377 0.44881889763779526 0.45669291338582679 0.46456692913385828 0.47244094488188976 0.48031496062992124 0.48818897637795278 0.49606299212598426 0.50393700787401574 0.51181102362204722 0.51968503937007871 0.52755905511811019 0.53543307086614178 0.54330708661417326 0.55118110236220474 0.55905511811023623 0.56692913385826771 0.57480314960629919 0.58267716535433067 0.59055118110236215 0.59842519685039375 0.60629921259842523 0.61417322834645671 0.62204724409448819 0.62992125984251968 0.63779527559055116 0.64566929133858264 0.65354330708661412 0.66141732283464572 0.6692913385826772 0.67716535433070868 0.68503937007874016 0.69291338582677164 0.70078740157480313 0.70866141732283461 0.71653543307086609 0.72440944881889768 0.73228346456692917 0.74015748031496065 0.74803149606299213 0.75590551181102361 0.76377952755905509 0.77165354330708658 0.77952755905511806 0.78740157480314965 0.79527559055118113 0.80314960629921262 0.8110236220472441 0.81889763779527558 0.82677165354330706 0.83464566929133854 0.84251968503937003 0.85039370078740162 0.8582677165354331 0.86614173228346458 0.87401574803149606 0.88188976377952755 0.88976377952755903 0.89763779527559051 0.90551181102362199 0.91338582677165359 0.92125984251968507 0.92913385826771655 0.93700787401574803 0.94488188976377951 0.952755905511811 0.96062992125984248 0.96850393700787396 0.97637795275590555 0.98425196850393704 0.99212598425196852 1
        </DataArray>
      </PointData>
      <CellData Scalars="P">
        <DataArray type="Float32" Name="P" NumberOfComponents="1">
          -0.0054128865181600786 -0.015623767662176267 -0.024285831445352086 -0.030748541879767572 -0.034451051377961721 -0.034873186701372676 -0.031517884323881175 -0.023903830425554398 -0.011561762495415896 0.0059685170150533652 0.02913817821673894 0.058389423836058767 0.094154656863474309 0.1368571335641724 0.18691194367343647 0.24472455234916493 0.31068722591112774 0.38517925667936587 0.46856512291069391 0.56119102635929841 0.66338327936342134 0.77544675968374077 0.89766054372948512 1.030273904870566 1.1735068278560878 1.3275411042660945 1.4925194183448367 1.6685454984034331 1.8556763054761387 2.0538972478192257 2.2631567821919067 2.4833432580248873 2.7142796863673246 2.955719229948464 3.2073429083111833 3.4687529060850415 3.7394754127357932 4.01894721842348 4.3065140921661982 4.6014377457498865 4.9028907653204037 5.2099543861545161 4.9120724590070433 4.6094114206721253 4.3038805571127634 3.9972776088928859 3.6893611078426605 3.3834867772783332 3.0795463934959049 2.778754377098287 2.4837935231108204 2.19412221921983 1.9106300651924191 1.6325199047347356 1.3620644170514886 1.1030444367064691 0.85609289560404755 0.61996429918911355 0.39498396535080077 0.18325165312668612 -0.016924184773334898 -0.20547788668146352 -0.38043371738781412 -0.54381649304619495 -0.69376777651865085 -0.83247022200965914 -0.96222574746974809 -1.0832542933755651 -1.193877111770719 -1.2963178188161637 -1.3908009415426772 -1.4759532209205877 -1.5538069779099846 -1.6246089420166745 -1.6872697129552054 -1.7435518381196324 -1.7936940081868684 -1.8379434512210233 -1.8756265524158588 -1.908000574614293 -1.935266758965636 -1.9576148940622431 -1.9747566580721689 -1.9874047294857307 -1.9956704159933925 -1.9996396469867146 -1.9993676548125521 -1.9950888334198664 -1.9867334811529449 -1.9742763149077642 -1.9576608451979143 -1.9368025634503412 -1.9124227505241451 -1.8836764561075638 -1.8503983796832084 -1.8123828151559627 -1.7694381064034124 -1.7227782306552086 -1.670811194394672 -1.6133066732281869 -1.5500088694897207 -1.482486708362897 -1.4087538901229815 -1.3285746226543333 -1.2438210348367262 -1.1522924150253839 -1.0538171953315989 -0.95065630636242915 -0.84052814712474655 -0.72587834560833109 -0.60452536050031436 -0.47673942735744662 -0.34543568804610264 -0.20875899622172595 -0.069922814868080038 0.070080031891681258 0.21003290130023972 0.35071395242400205 0.49626159834296019 0.36640674769204284 0.2480302149396377 0.1520844301411601 0.076571664269006454 0.022030627261616333 -0.0099649659826901993 -0.020794350562562458 -8.920241778035319e-05
        </DataArray>
      </CellData>
      <Points>
        <DataArray type="Float32" NumberOfComponents="3" format="ascii">
          5.9111562703549971 10.535682901843481 0
          5.9170203980759668 10.530428177268593 0
          5.9228985859117937 10.525189185686726 0
          5.9288012738458153 10.519977813291598 0
          5.9347365359192388 10.514803569836117 0
          5.9407111721640895 10.509674840961525 0
          5.9467311396877705 10.504599396206668 0
          5.9528017561856243 10.499584640176563 0
          5.9589278063565567 10.49463775321118 0
          5.9651136021626439 10.489765778769963 0
          5.9713630208811157 10.484975684956584 0
          5.9776795259492754 10.480274405312516 0
          5.9840661786285176 10.475668868113964 0
          5.9905256429435427 10.471166016779149 0
          5.997060188664026 10.466772827630013 0
          6.0036716931318574 10.462496326515247 0
          6.0103616390979893 10.458343600239855 0
          6.0171311076397709 10.454321800587632 0
          6.0239807715451308 10.450438148961396 0
          6.0309108869205499 10.446699938223126 0
          6.0379212822412152 10.443114529859857 0
          6.0450113470574767 10.439689349971443 0
          6.052180020417504 10.436431884300957 0
          6.0594257773637166 10.433349668620247 0
          6.0667466145149342 10.430450275570063 0
          6.0741400373569947 10.427741304009686 0
          6.0816030445550791 10.425230358938984 0
          6.089132113983811 10.422925032528459 0
          6.096723190326907 10.420832887213562 0
          6.1043716713491367 10.41896143149525 0
          6.1120723900658165 10.417318070189289 0
          6.1198196095604462 10.415910095798916 0
          6.1276070126867896 10.414744655696326 0
          6.1354276934592651 10.413828715732571 0
          6.1432741507191855 10.413169021084297 0
          6.1511382845836682 10.41277205657566 0
          6.1590113955740335 10.412644001875879 0
          6.1668841871957021 10.412790691115637 0
          6.1747467718595912 10.413217560521067 0
          6.1825886816190536 10.413929595797379 0
          6.1903988828487941 10.414931287292559 0
          6.198165795240242 10.41622658092068 0
          6.205877315701037 10.417818827415351 0
          6.2136400393712448 10.419139013892897 0
          6.2214435644763695 10.420191504056417 0
          6.2292780453113474 10.420981195403638 0
          6.2371342119500595 10.421513459731766 0
          6.2450034387322395 10.421792541151804 0
          6.2528775446952976 10.421824535513029 0
          6.2607489146332815 10.42161464436648 0
          6.2686104182896729 10.421168293783712 0
          6.2764555082515967 10.420492293244418 0
          6.2842780749382596 10.419592400236343 0
          6.2920724669256538 10.418474476531546 0
          6.2998332731633502 10.417143261974621 0
          6.3075556509406336 10.415604732824484 0
          6.3152357119926537 10.413867266546848 0
          6.3228701769892357 10.411939314564474 0
          6.3304559838668855 10.409828032489157 0
          6.3379905170267667 10.407540521377346 0
          6.3454720595994223 10.405085255940495 0
          6.3528988985911221 10.402469194591976 0
          6.3602696966656582 10.399699184965982 0
          6.3675841145261325 10.396783571052705 0
          6.3748415908789546 10.393728993666681 0
          6.3820426308799654 10.390543665532656 0
          6.389187364770871 10.387233989536822 0
          6.396275289232138 10.383804354946077 0
          6.4033060112494757 10.380258948378742 0
          6.4102802132575585 10.376603628968072 0
          6.4171977508627762 10.372842189577645 0
          6.4240585618576125 10.368978262803534 0
          6.4308637115710106 10.36501713887095 0
          6.4376132661495582 10.360962019466337 0
          6.4443073280208543 10.356815944379125 0
          6.4509471940642031 10.35258362699598 0
          6.4575329984085004 10.34826767395783 0
          6.4640648701741217 10.343870530708548 0
          6.4705429043526754 10.339394455480479 0
          6.4769684503349474 10.334843356211472 0
          6.4833415402450889 10.330219088359796 0
          6.4896621346442114 10.325523323156915 0
          6.4959300896187235 10.32075752042274 0
          6.5021466345826475 10.315924847110287 0
          6.5083114829851345 10.311026393116746 0
          6.5144242289581591 10.306063066907562 0
          6.5204843137637054 10.301035570030077 0
          6.5264910574062753 10.295944451671122 0
          6.5324452231540304 10.290791928685021 0
          6.5383458250985376 10.285578136348944 0
          6.5441917199862507 10.280303060776811 0
          6.5499815716516991 10.274966514314327 0
          6.5557138372176214 10.269568137728287 0
          6.5613884779807981 10.26410919528392 0
          6.5670035329944119 10.2585889552756 0
          6.5725567895404255 10.253006522336539 0
          6.5780457386279805 10.247360815217217 0
          6.5834676105840666 10.241650625759874 0
          6.5888212447726966 10.235876373221121 0
          6.5941032516748983 10.23003648771871 0
          6.5993099211329644 10.224129292296974 0
          6.6044371693229023 10.218152986328001 0
          6.6094825550048908 10.212107361129185 0
          6.6144412151603191 10.20599035012016 0
          6.6193078296433434 10.199799803196935 0
          6.6240787776775587 10.19353517293629 0
          6.6287477771355965 10.187194135743598 0
          6.6333079476336909 10.180774325344577 0
          6.6377542238840457 10.174275046936739 0
          6.642078566689106 10.167693940310292 0
          6.6462747304759464 10.161030301002214 0
          6.6503332953594079 10.154281897902795 0
          6.6542439982003474 10.147446669471966 0
          6.6579984656187632 10.140524312179164 0
          6.6615847079356092 10.133513244721122 0
          6.6649926142852536 10.126413697003553 0
          6.6682112090793169 10.119226255803428 0
          6.6712285830842095 10.111951956259471 0
          6.6740285139340889 10.104591134104973 0
          6.6765835670181826 10.097141687109628 0
          6.6793875111464347 10.089782683626206 0
          6.6824402926426849 10.082523691902523 0
          6.6857219108245829 10.075365511904726 0
          6.6892148094729924 10.068308240009992 0
          6.6928962487807642 10.061347635167332 0
          6.6967278083546926 10.054468649758713 0
          6.7006471901912548 10.04763939350368 0
          6.7043470869739208 10.040688764866214 0
        </DataArray>
      </Points>
      <Cells>
        <DataArray type="Int32" Name="connectivity" format="ascii">
          0 1 1 2 2 3 3 4 4 5 5 6 6 7 7 8 8 9 9 10 10 11 11 12 12 13 13 14 14 15 15 16 16 17 17 18 18 19 19 20 20 21 21 22 22 23 23 24 24 25 25 26 26 27 27 28 28 29 29 30 30 31 31 32 32 33 33 34 34 35 35 36 36 37 37 38 38 39 39 40 40 41 41 42 42 43 43 44 44 45 45 46 46 47 47 48 48 49 49 50 50 51 51 52 52 53 53 54 54 55 55 56 56 57 57 58 58 59 59 60 60 61 61 62 62 63 63 64 64 65 65 66 66 67 67 68 68 69 69 70 70 71 71 72 72 73 73 74 74 75 75 76 76 77 77 78 78 79 79 80 80 81 81 82 82 83 83 84 84 85 85 86 86 87 87 88 88 89 89 90 90 91 91 92 92 93 93 94 94 95 95 96 96 97 97 98 98 99 99 100 100 101 101 102 102 103 103 104 104 105 105 106 106 107 107 108 108 109 109 110 110 111 111 112 112 113 113 114 114 115 115 116 116 117 117 118 118 119 119 120 120 121 121 122 122 123 123 124 124 125 125 126 126 127 
        </DataArray>
        <DataArray type="Int32" Name="offsets" format="ascii">
          2 4 6 8 10 12 14 16 18 20 22 24 26 28 30 32 34 36 38 40 42 44 46 48 50 52 54 56 58 60 62 64 66 68 70 72 74 76 78 80 82 84 86 88 90 92 94 96 98 100 102 104 106 108 110 112 114 116 118 120 122 124 126 128 130 132 134 136 138 140 142 144 146 148 150 152 154 156 158 160 162 164 166 168 170 172 174 176 178 180 182 184 186 188 190 192 194 196 198 200 202 204 206 208 210 212 214 216 218 220 222 224 226 228 230 232 234 236 238 240 242 244 246 248 250 252 254 
        </DataArray>
        <DataArray type="Int32" Name="types" format="ascii">
          3 3 3 3 3 3 3 3 3 3 3 3 3 3 3 3 3 3 3 3 3 3 3 3 3 3 3 3 3 3 3 3 3 3 3 3 3 3 3 3 3 3 3 3 3 3 3 3 3 3 3 3 3 3 3 3 3 3 3 3 3 3 3 3 3 3 3 3 3 3 3 3 3 3 3 3 3 3 3 3 3 3 3 3 3 3 3 3 3 3 3 3 3 3 3 3 3 3 3 3 3 3 3 3 3 3 3 3 3 3 3 3 3 3 3 3 3 3 3 3 3 3 3 3 3 3 3         </DataArray>
      </Cells>
    </Piece>
  </UnstructuredGrid>
</VTKFile>
