<?xml version="1.0"?>
<VTKFile type="UnstructuredGrid" version="0.1" byte_order="LittleEndian">
  <UnstructuredGrid>
    <Piece NumberOfPoints="128" NumberOfCells="127">
      <PointData Scalars="W">
        <DataArray type="Float32" Name="W" NumberOfComponents="2">
          0 0 0.24037360441908107 0.5983527828955163 0.38407246413964163 0.97478715275058148 0.48397344869862402 1.2632162909615672 0.55715001602045899 1.5065194448433012 0.61052550243047998 1.7220484878281119 0.64759520861634223 1.9185065865538313 0.67037145777481433 2.1008135368055045 0.68013744960913791 2.2719955330855077 0.67779320578438695 2.4340757040239334 0.66398325230653199 2.5883755474884738 0.63920263190556603 2.7357902066553108 0.60384413237496293 2.8768967921670359 0.5582503047768852 3.0121293478667788 0.5027231421478463 3.1418234202327753 0.43752012438447357 3.2661796577842579 0.36285994869682031 3.3852245832512486 0.27895239061605936 3.4989750838040221 0.18599107483879218 3.6074006873978948 0.084154351804059058 3.7103543963245387 -0.026381603916010948 3.8076548530752352 -0.1454426753969171 3.8991172406855612 -0.27285395684538111 3.9844786624384905 -0.40843160672550316 4.0634238267259333 -0.55199308846159223 4.1357024401083837 -0.70333150975213066 4.2009043771779284 -0.86222888237266415 4.2586585474762888 -1.0284663378146608 4.3086349787206286 -1.2017989580970261 4.3504217025811966 -1.3818329627215022 4.3832082565000379 -1.5683414294894171 4.4068836104192624 -1.7609873510189338 4.4209672215537141 -1.9593955178013751 4.424959829813794 -2.1631448197720715 4.4183412572388461 -2.3717794063368385 4.4006056930420163 -2.5847809962426003 4.3712161690696405 -2.8016370317607753 4.3297283615237596 -3.0217047232497465 4.2755711849690261 -3.2442817450859942 4.2082034007305174 -3.4686877710456319 4.1272112164361978 -3.694167462796996 4.0321653737664747 -3.9199024018257971 3.9226541219089559 2.6039514310826104 -2.5673027134162831 2.4628827180478261 -2.5702368039653791 2.3075980425289813 -2.5449185951879412 2.1878957651823066 -2.546562310696932 2.0543291160648618 -2.5209427385224639 1.9246968310434813 -2.4872407277772703 1.7991781990866857 -2.4457637505637981 1.6778726945952769 -2.3967473131087789 1.5615258749102903 -2.3414479079166832 1.4500754306255701 -2.2801000800132596 1.32721573254868 -2.1855680657999907 1.2096310775151045 -2.0826427533841394 1.6189566004718177 -2.9389788087757851 1.5046834284300998 -2.9086889629648538 1.2478322197809752 -2.5616917500639942 1.152982677094655 -2.5060447801808796 1.0634680162337171 -2.4479221088501162 0.97894061148148548 -2.3871601700307821 0.90429023056238256 -2.3373893684673845 0.82947290763037407 -2.2741307101662716 0.7595130962631611 -2.2100620963360345 0.69402825860704664 -2.1448900769235189 0.63306501545988769 -2.0795801959858951 0.58034879819648899 -2.0285988299511697 0.52724047103736416 -1.9635232913334795 0.48176701310132763 -1.9142486592174344 0.43939842988665712 -1.8662446162308608 0.39995405154478036 -1.8197081656734264 0.36325454784347261 -1.7748248003448877 0.32912177579116325 -1.7317658204875201 0.29732173299573916 -1.6903475054167545 0.26780466953842907 -1.6513951624090064 0.23809174391806792 -1.5989599341367478 0.21289260598524193 -1.5646129998574327 0.18939463586174859 -1.5327822694942268 0.16743776835967303 -1.503576360302143 0.14686502980226651 -1.4770971793416967 0.12752230006696025 -1.4534411097431725 0.10925790763809413 -1.4326996280136342 0.091902026616999449 -1.414621023987005 0.07535410606240299 -1.3999670711088268 0.05943886799761619 -1.3884806084001096 0.044008733205179534 -1.3802407894954187 0.028915232511349368 -1.375325440744384 0.01400803757069446 -1.3738113804592373 -0.00086413284895726558 -1.375450456817388 -0.015855463852090038 -1.3809679880503147 -0.03113365731982758 -1.390116224519709 -0.046868110426205464 -1.4029726253888739 -0.063220788413126297 -1.41930211046435 -0.080403920609991478 -1.4398157061115546 -0.098607794880100241 -1.4642727379186433 -0.11804587460658265 -1.4927602118339489 -0.13891821909480204 -1.5250607204385438 -0.16152405199917447 -1.5618653608066826 -0.18611056200243944 -1.6029597107350484 -0.21297149409787672 -1.6484333467692025 -0.24242850914282307 -1.6983773625278138 -0.27478757783556634 -1.7525942387228135 -0.3105249003487105 -1.8117570044039519 -0.35003181068727474 -1.8756675852076092 -0.39378607446899633 -1.9444176089379037 -0.43866629572897203 -2.0020513327565848 -0.49202719743591322 -2.0808662784113796 -0.55138838723082884 -2.1647991221615235 -0.6174905981545683 -2.2539287778126513 -0.68620611075230908 -2.3320444203307256 -0.76774531101395083 -2.4319694552970752 -0.85301307007279847 -2.5206957586483734 -0.95423259310256636 -2.6320212133512491 -1.0606967387499862 -2.7317093680108138 -1.1869766892387248 -2.8544373986458753 -1.3208489179636611 -2.9654052195570548 -1.4796234394497501 -3.0998040162323197 -1.649583738095175 -3.2224389273404341 -0.59666789429651035 -1.1123294262660737 -0.58867663170507156 -1.0721097232581691 -0.62646547219155546 -1.1147577786220073 -0.64088187427427534 -1.1139269851772435 -0.59694282117038167 -1.0146651044970021 -0.56996396471725708 -0.94916490419011246 -0.41071773855398264 -0.67254585849821313 -0.13300339317495627 -0.21579651153566506 0.66670595045420655 1.0915708868692082 1.0163231980076786 1.7132262062311989 0 0
        </DataArray>
        <DataArray type="Float32" Name="u" NumberOfComponents="1">
          0 0.007874015748031496 0.015748031496062992 0.023622047244094488 0.031496062992125984 0.03937007874015748 0.047244094488188976 0.055118110236220472 0.062992125984251968 0.070866141732283464 0.07874015748031496 0.086614173228346455 0.094488188976377951 0.10236220472440945 0.11023622047244094 0.11811023622047244 0.12598425196850394 0.13385826771653545 0.14173228346456693 0.14960629921259844 0.15748031496062992 0.16535433070866143 0.17322834645669291 0.18110236220472442 0.1889763779527559 0.19685039370078741 0.20472440944881889 0.2125984251968504 0.22047244094488189 0.2283464566929134 0.23622047244094488 0.24409448818897639 0.25196850393700787 0.25984251968503935 0.26771653543307089 0.27559055118110237 0.28346456692913385 0.29133858267716534 0.29921259842519687 0.30708661417322836 0.31496062992125984 0.32283464566929132 0.33070866141732286 0.33858267716535434 0.34645669291338582 0.3543307086614173 0.36220472440944884 0.37007874015748032 0.37795275590551181 0.38582677165354329 0.39370078740157483 0.40157480314960631 0.40944881889763779 0.41732283464566927 0.42519685039370081 0.43307086614173229 0.44094488188976377 0.44881889763779526 0.45669291338582679 0.46456692913385828 0.47244094488188976 0.48031496062992124 0.48818897637795278 0.49606299212598426 0.50393700787401574 0.51181102362204722 0.51968503937007871 0.52755905511811019 0.53543307086614178 0.54330708661417326 0.55118110236220474 0.55905511811023623 0.56692913385826771 0.57480314960629919 0.58267716535433067 0.59055118110236215 0.59842519685039375 0.60629921259842523 0.61417322834645671 0.62204724409448819 0.62992125984251968 0.63779527559055116 0.64566929133858264 0.65354330708661412 0.66141732283464572 0.6692913385826772 0.67716535433070868 0.68503937007874016 0.69291338582677164 0.70078740157480313 0.70866141732283461 0.71653543307086609 0.72440944881889768 0.73228346456692917 0.74015748031496065 0.74803149606299213 0.75590551181102361 0.76377952755905509 0.77165354330708658 0.77952755905511806 0.78740157480314965 0.79527559055118113 0.80314960629921262 0.8110236220472441 0.81889763779527558 0.82677165354330706 0.83464566929133854 0.84251968503937003 0.85039370078740162 0.8582677165354331 0.86614173228346458 0.87401574803149606 0.88188976377952755 0.88976377952755903 0.89763779527559051 0.90551181102362199 0.91338582677165359 0.92125984251968507 0.92913385826771655 0.93700787401574803 0.94488188976377951 0.952755905511811 0.96062992125984248 0.96850393700787396 0.97637795275590555 0.98425196850393704 0.99212598425196852 1
        </DataArray>
      </PointData>
      <CellData Scalars="P">
        <DataArray type="Float32" Name="P" NumberOfComponents="1">
          -0.012888454979008986 -0.036780475032726835 -0.056643941350303602 -0.071342798662131557 -0.080129024132823051 -0.082471488925009495 -0.077980561878180657 -0.066366879518624994 -0.047414964259645094 -0.020963633077020486 0.0131066527031647 0.054883950529322434 0.10443210061323255 0.16179865026928536 0.22702172072297791 0.30013409359438109 0.38116440137840468 0.47014187934512425 0.56709929640220025 0.67207280817198467 0.78510371826555136 0.90624089748276659 1.0355401120534857 1.1730636942682879 1.3188844700660183 1.4730805262137152 1.6357373805306485 1.8069503372812192 1.9868213205281036 2.1754398015671308 2.3729145147661148 2.5793560148713754 2.7948745364297403 3.0195772419820188 3.2535669080606007 3.4969375978846404 3.7497772058583241 4.0121562762021492 4.2841249951715543 4.5657167148444904 4.856941839887603 5.1577830111652512 4.9230049277063905 4.6818633047433922 4.4382779653883935 4.1909624122544136 3.9435404838272272 3.6977382755824082 3.4551366883018888 3.2171790587343252 2.9850752172073611 2.759902778966695 2.54518112203914 2.3419243644705481 2.0621840848275204 1.7895908092342898 1.5526119180202993 1.3249905625314378 1.1071027949144878 0.89927078825964835 0.70065629341722357 0.51236779402229049 0.3344119182935083 0.16677031142051377 0.0093103764783341262 -0.13910851821390324 -0.2777013702897041 -0.40767493762969009 -0.52926690689681599 -0.64273655651698924 -0.74835969753485265 -0.84642373032936413 -0.93720746060218019 -1.021024712587008 -1.0975564108445315 -1.167764884602285 -1.2319356618185393 -1.2903434779243319 -1.3432497375712831 -1.3909002889460562 -1.4335234843185594 -1.4713231442812202 -1.5044945143944077 -1.533204630940153 -1.5575980222547836 -1.5777961027427934 -1.5938968085511174 -1.6059754835477391 -1.6140830134585902 -1.6182470881126063 -1.6184728187669761 -1.6147481256508112 -1.6070318638331456 -1.59526718813701 -1.5793792044809747 -1.5592842592697018 -1.5348701987498443 -1.5060195381478383 -1.4726052481489351 -1.4344935206466962 -1.3915570231735932 -1.3436482405301651 -1.2906326230733169 -1.232383017069262 -1.1694460443908972 -1.1010815962110061 -1.0272117834192298 -0.9477867165206123 -0.86352336868855428 -0.77372338121087803 -0.67922218796811795 -0.5793765211388695 -0.47517267369177829 -0.36608477976883513 -0.25326184611258284 -0.13635362920877842 -0.016700721783044662 0.0088856872179678241 0.030792933259126735 0.052010695766963704 0.070363936999888216 0.082204312686618833 0.088776958636579972 0.085022765808984574 0.069776355471538903 0.036380606132735825 0.0072677135752282369
        </DataArray>
      </CellData>
      <Points>
        <DataArray type="Float32" NumberOfComponents="3" format="ascii">
          6.7217791710245036 9.7130910229032068 0
          6.7290787646117582 9.7101370436912156 0
          6.7363932615916911 9.7072201692374733 0
          6.7437315716251902 9.7043637426216502 0
          6.7510998887285769 9.7015856495303705 0
          6.758502749868617 9.6989009772554784 0
          6.7659434642273375 9.6963230907072315 0
          6.7734243299208421 9.6938641721102528 0
          6.7809467587706349 9.6915355260878258 0
          6.7885113558683585 9.6893477673215234 0
          6.7961179753833987 9.6873109460093616 0
          6.8037657605295765 9.6854346298150933 0
          6.8114531742639732 9.6837279593788708 0
          6.8191780236460069 9.6821996841065765 0
          6.8269374810821137 9.6808581890874841 0
          6.8347281030559879 9.6797115159040956 0
          6.8425458460989903 9.6787673750770651 0
          6.8503860803559791 9.6780331477128811 0
          6.8582436025981375 9.6775158865541897 0
          6.8661126482344566 9.6772223140936138 0
          6.8739869023761795 9.6771588134622224 0
          6.8818595107663718 9.6773314171876965 0
          6.8897230905819162 9.6777457957382627 0
          6.8975697412843804 9.678407241225397 0
          6.9053910560248832 9.6793206478580203 0
          6.9131781329679498 9.6804904964274225 0
          6.9209215881254185 9.6819208288818501 0
          6.9286115688781829 9.6836152253219652 0
          6.9362377675522646 9.6855767835463435 0
          6.9437894366098512 9.6878080935130555 0
          6.9512554130704372 9.6903111870925329 0
          6.9586241325852267 9.6930875311902742 0
          6.9658836503371271 9.6961379979577256 0
          6.9730216643090026 9.6994628338430076 0
          6.9800255413974872 9.7030616273450434 0
          6.9868823456802964 9.7069332776589388 0
          6.9935788705539288 9.7110759613897919 0
          7.0001016705157699 9.7154871050112881 0
          7.006437101020496 9.7201633494646753 0
          7.0125713620271766 9.7251005166086575 0
          7.0184905401814239 9.7302935835717648 0
          7.0241806556477746 9.7357366561458178 0
          7.0296277128524141 9.7414229432649613 0
          7.0352362110670672 9.7469500320790061 0
          7.0409974025690545 9.7523177422548546 0
          7.0469016581013886 9.7575276449499597 0
          7.0529415553899826 9.7625796400794762 0
          7.0591088124114325 9.7674753176685574 0
          7.0653953912660681 9.772216768839435 0
          7.0717935092862092 9.7768065667337201 0
          7.0782956451958281 9.7812477518989773 0
          7.0848945853408054 9.7855437543820596 0
          7.0915834198171934 9.7896983791778123 0
          7.0983545312533058 9.7937174885335221 0
          7.1052006295520975 9.7976074650558971 0
          7.1121471007653518 9.8013152199567202 0
          7.1191868598516725 9.804842631623055 0
          7.1263039797192267 9.8082112135500985 0
          7.1334925798141695 9.8114244164384807 0
          7.1407471104056119 9.8144858444467431 0
          7.1480623310269529 9.8173992653305202 0
          7.1554336137018453 9.8201677653735278 0
          7.1628563200858597 9.8227952670473151 0
          7.1703261130519387 9.825285743004299 0
          7.1778389329696868 9.8276432342713491 0
          7.1853910005976092 9.8298717903871076 0
          7.1929790480815035 9.8319745724905925 0
          7.2005997832643507 9.8339556155162366 0
          7.208250387404731 9.8358179747083749 0
          7.2159282342832221 9.837564626495821 0
          7.2236308789996402 9.8391984562794192 0
          7.2313560468535929 9.8407222469331206 0
          7.239101622298838 9.8421386681848393 0
          7.2468656344355011 9.843450288008647 0
          7.2546462539237631 9.8446595214564177 0
          7.2624416393590625 9.8457696195019544 0
          7.2702502291645654 9.8467827116025539 0
          7.2780705672515946 9.8477007711804632 0
          7.2859012930957077 9.8485256088887407 0
          7.2937411320045245 9.8492588662928284 0
          7.3015888855625288 9.8499020098942811 0
          7.3094434222277549 9.8504563254583566 0
          7.3173036668058273 9.850922933619346 0
          7.3251685942107638 9.8513027426479027 0
          7.3330372186005093 9.8515964643934808 0
          7.340908584227309 9.8518046093742875 0
          7.348781756232813 9.8519274819490352 0
          7.3566558113278271 9.8519651755506814 0
          7.364529828417024 9.8519175880684724 0
          7.3724028790314033 9.8517843768720947 0
          7.3802740169340542 9.8515649741675553 0
          7.3881422676168675 9.8512585821887306 0
          7.3960066182626605 9.8508641877664349 0
          7.4038660045760247 9.8503805182355944 0
          7.4117192989882499 9.8498060563495962 0
          7.4195652974201014 9.8491390348766803 0
          7.4274027068808595 9.8483774500699042 0
          7.4352301269014314 9.8475190188060449 0
          7.4430460342091243 9.846561191868437 0
          7.450848764509483 9.8455011483797676 0
          7.4586364925360096 9.8443357901395814 0
          7.4664072130780079 9.8430617538554444 0
          7.4741587114321328 9.8416753693957535 0
          7.4818885391331325 9.8401726720526455 0
          7.4895939843168469 9.8385493968408291 0
          7.4972722656794026 9.8368019677835772 0
          7.5049200755906913 9.8349254953253968 0
          7.5125337342727194 9.8329147722964301 0
          7.5201091438425074 9.8307642689932369 0
          7.5276420447325894 9.8284691382667244 0
          7.5351273815566895 9.8260231803293347 0
          7.5425598680586772 9.8234208893296628 0
          7.5499332280376263 9.8206553577480804 0
          7.5572408603599204 9.8177203991145507 0
          7.5644749341435764 9.8146083979043031 0
          7.571627147886872 9.8113124671800733 0
          7.5786876546601505 9.807824266652899 0
          7.5856459138944263 9.8041361847741246 0
          7.5925673148729871 9.8003790364118952 0
          7.5994523705533625 9.7965553007057498 0
          7.6062987527814681 9.7926623169076947 0
          7.6131055867786683 9.7887001176777453 0
          7.619875625255415 9.7846748361014182 0
          7.626610571376121 9.7805905088658918 0
          7.6333203521004878 9.7764642603549898 0
          7.6400222678318492 9.7723243824127195 0
          7.6467660918476046 9.7682519208907816 0
          7.6535736664839851 9.7642854038828322 0
        </DataArray>
      </Points>
      <Cells>
        <DataArray type="Int32" Name="connectivity" format="ascii">
          0 1 1 2 2 3 3 4 4 5 5 6 6 7 7 8 8 9 9 10 10 11 11 12 12 13 13 14 14 15 15 16 16 17 17 18 18 19 19 20 20 21 21 22 22 23 23 24 24 25 25 26 26 27 27 28 28 29 29 30 30 31 31 32 32 33 33 34 34 35 35 36 36 37 37 38 38 39 39 40 40 41 41 42 42 43 43 44 44 45 45 46 46 47 47 48 48 49 49 50 50 51 51 52 52 53 53 54 54 55 55 56 56 57 57 58 58 59 59 60 60 61 61 62 62 63 63 64 64 65 65 66 66 67 67 68 68 69 69 70 70 71 71 72 72 73 73 74 74 75 75 76 76 77 77 78 78 79 79 80 80 81 81 82 82 83 83 84 84 85 85 86 86 87 87 88 88 89 89 90 90 91 91 92 92 93 93 94 94 95 95 96 96 97 97 98 98 99 99 100 100 101 101 102 102 103 103 104 104 105 105 106 106 107 107 108 108 109 109 110 110 111 111 112 112 113 113 114 114 115 115 116 116 117 117 118 118 119 119 120 120 121 121 122 122 123 123 124 124 125 125 126 126 127 
        </DataArray>
        <DataArray type="Int32" Name="offsets" format="ascii">
          2 4 6 8 10 12 14 16 18 20 22 24 26 28 30 32 34 36 38 40 42 44 46 48 50 52 54 56 58 60 62 64 66 68 70 72 74 76 78 80 82 84 86 88 90 92 94 96 98 100 102 104 106 108 110 112 114 116 118 120 122 124 126 128 130 132 134 136 138 140 142 144 146 148 150 152 154 156 158 160 162 164 166 168 170 172 174 176 178 180 182 184 186 188 190 192 194 196 198 200 202 204 206 208 210 212 214 216 218 220 222 224 226 228 230 232 234 236 238 240 242 244 246 248 250 252 254 
        </DataArray>
        <DataArray type="Int32" Name="types" format="ascii">
          3 3 3 3 3 3 3 3 3 3 3 3 3 3 3 3 3 3 3 3 3 3 3 3 3 3 3 3 3 3 3 3 3 3 3 3 3 3 3 3 3 3 3 3 3 3 3 3 3 3 3 3 3 3 3 3 3 3 3 3 3 3 3 3 3 3 3 3 3 3 3 3 3 3 3 3 3 3 3 3 3 3 3 3 3 3 3 3 3 3 3 3 3 3 3 3 3 3 3 3 3 3 3 3 3 3 3 3 3 3 3 3 3 3 3 3 3 3 3 3 3 3 3 3 3 3 3         </DataArray>
      </Cells>
    </Piece>
  </UnstructuredGrid>
</VTKFile>
