<?xml version="1.0"?>
<VTKFile type="UnstructuredGrid" version="0.1" byte_order="LittleEndian">
  <UnstructuredGrid>
    <Piece NumberOfPoints="128" NumberOfCells="127">
      <PointData Scalars="W">
        <DataArray type="Float32" Name="W" NumberOfComponents="2">
          0 0 0.50128725322328749 0.46243448343524174 0.78960391938195196 0.7386192835689791 0.99527828171380328 0.94923294172632555 1.154880039030689 1.1277115212747846 1.283389254159367 1.2875396697774972 1.3884826529402612 1.4354747441511755 1.474643911582507 1.5753371352425911 1.5447502208331509 1.7094719018620312 1.6008365053486449 1.8394677698045214 1.6443300714071216 1.9663558201873041 1.6762916399871677 2.0908343697255498 1.697537935996722 2.2133831131539958 1.7087413500597555 2.3343688796015458 1.7104748952087376 2.4540991149499347 1.7031839480296329 2.5727753122338237 1.6871845673727783 2.6904663929235784 1.6627589993565182 2.8072364167485078 1.6301402790428106 2.9231222347678312 1.5894829448413259 3.0380710618549172 1.5409201010905611 3.1520279815677568 1.4845602205045967 3.2649330693487997 1.4204666607830774 3.3766732484349666 1.3486669019817499 3.4870832140879697 1.2691942264248608 3.5960436606883617 1.1820245409861387 3.703309687479476 1.0871428834395904 3.8086712180886275 0.98453816568447805 3.911969776594574 0.87415975182043415 4.0129459282680404 0.75588606209272469 4.1109432483532924 0.62974693433855344 4.2059899816442634 0.49567517271445094 4.2977267962167263 0.35360631992532621 4.3857713865700481 0.20347972613831514 4.4696960969739656 0.04524470129932915 4.5490544121271919 -0.12113757416950734 4.6233537473258774 -0.29569610855039946 4.6921616954324339 -0.47843668314575455 4.7548489446790319 -0.66933015796198092 4.8107744467529745 -0.86833653823810841 4.8594069852225807 -1.0753890379379214 4.9001339116169298 -1.2903803744780031 4.932267570622078 0.33085789701528912 -1.1903674737838275 0.2698399265448776 -1.0057087521056058 0.21173455782970721 -0.81317959973580178 0.18916674774897724 -0.74587005640513726 0.13617258856512959 -0.54901853442190707 0.085755881331284575 -0.35123406309680461 0.035955126115866536 -0.14856866879081193 -0.012997088474608849 0.053795089264697366 -0.063166408272751204 0.25999759996603794 -0.15333255470210327 0.62143695231826968 -4.7804215918196968 15.089440402371611 -6.6639756100222058 14.457472699761539 -8.4701828526527123 13.579058697617549 2.1825190761044921 -3.151591539878448 0.34879157524330762 -0.52306514052106778 0.34888173439849252 -0.5288771785778994 0.31943629417500924 -0.48933009695235247 0.29040621792802729 -0.44917279190524229 0.26194662958418102 -0.40874688249319363 0.23424927530969777 -0.36846559234858633 0.20845382147076999 -0.33026126120424631 0.18270532716925031 -0.29133009071584398 0.10214334275862699 -0.16363854652795626 0.079124808739763033 -0.12714331699990106 0.057381900724306545 -0.092414856444057766 0.037000755439420357 -0.05968438353211309 0.018063116536625536 -0.029163658382628552 0.00064643295613688576 -0.0010440193373217755 -0.015155083403873334 0.024470234153577238 -0.029309747568349 0.047290015516697294 -0.041728390084819808 0.067247243332411222 -0.052344093222598913 0.084222914933986356 -0.061092406878540527 0.098114042139477747 -0.067911674924382187 0.10883273376465223 -0.01557167456718464 0.024920132412518916 -0.019255079311157351 0.030797139303069297 -0.019817274982630473 0.031675885105101366 -0.01823279667398026 0.029124964216481027 -0.014444263280896975 0.023060751701394017 -0.0084594598675568969 0.013500713923251379 -0.00023583341512905056 0.00037631995453623305 0.010241687089667127 -0.016345378570394177 0.022977545294358845 -0.03669145752330813 0.03796548611821101 -0.060685796098522496 0.10937169518109716 -0.17525136445321265 0.12853469007297944 -0.2067719421327073 0.14978241499101438 -0.24207405466160783 0.1730544991370164 -0.28120486982833226 0.19827400349053764 -0.32421293800136369 0.22536499296026427 -0.37117991781295867 0.30597503872682646 -0.50857382670624462 0.33466836198288208 -0.56250534829141086 0.36562877705273411 -0.62219120998188149 0.39776906364516668 -0.68622234114936009 0.4308596044216087 -0.75465026668054036 0.51206915354318538 -0.91281118922222249 0.54496922417592841 -0.99128627543636361 0.577924559761409 -1.0746834421315308 0.61064615592775984 -1.1632086648757642 0.64276900516203139 -1.2569978490228666 0.67394094045437181 -1.356289917441428 0.70375811997410065 -1.4613138866977251 0.73177842366217571 -1.5723219803735689 0.75751708699200415 -1.6895916171319638 0.78044379669958541 -1.8134332168330791 0.79997702336097276 -1.9441960100744 0.81547811144581472 -2.0822785869776861 0.82685278947551588 -2.2298344574577675 0.80077983885166604 -2.2916595216237221 0.80338554618661961 -2.4535028890898656 0.77117858557462704 -2.5300958871601238 0.76300090316500313 -2.7110171373583007 0.74641514360282146 -2.9057332065202832 0.69673120599050598 -3.0101378840188069 -0.36962753021381228 1.638297494046407 -0.4485447495246388 1.8646401180746794 -0.41043584751257139 1.6064018728736353 -0.35617214562894012 1.327711448850694 -0.44997702851564669 1.6006492858321444 -0.38109861668037748 1.29638978123585 -0.32461377379896567 1.0658967067662304 -0.10761591508993407 0.34613244285442857 0.12975216588810701 -0.41776574754894563 0.50425233928197355 -1.6742900083390908 1.5056049229883126 -5.5958966835297961 0 0
        </DataArray>
        <DataArray type="Float32" Name="u" NumberOfComponents="1">
          0 0.007874015748031496 0.015748031496062992 0.023622047244094488 0.031496062992125984 0.03937007874015748 0.047244094488188976 0.055118110236220472 0.062992125984251968 0.070866141732283464 0.07874015748031496 0.086614173228346455 0.094488188976377951 0.10236220472440945 0.11023622047244094 0.11811023622047244 0.12598425196850394 0.13385826771653545 0.14173228346456693 0.14960629921259844 0.15748031496062992 0.16535433070866143 0.17322834645669291 0.18110236220472442 0.1889763779527559 0.19685039370078741 0.20472440944881889 0.2125984251968504 0.22047244094488189 0.2283464566929134 0.23622047244094488 0.24409448818897639 0.25196850393700787 0.25984251968503935 0.26771653543307089 0.27559055118110237 0.28346456692913385 0.29133858267716534 0.29921259842519687 0.30708661417322836 0.31496062992125984 0.32283464566929132 0.33070866141732286 0.33858267716535434 0.34645669291338582 0.3543307086614173 0.36220472440944884 0.37007874015748032 0.37795275590551181 0.38582677165354329 0.39370078740157483 0.40157480314960631 0.40944881889763779 0.41732283464566927 0.42519685039370081 0.43307086614173229 0.44094488188976377 0.44881889763779526 0.45669291338582679 0.46456692913385828 0.47244094488188976 0.48031496062992124 0.48818897637795278 0.49606299212598426 0.50393700787401574 0.51181102362204722 0.51968503937007871 0.52755905511811019 0.53543307086614178 0.54330708661417326 0.55118110236220474 0.55905511811023623 0.56692913385826771 0.57480314960629919 0.58267716535433067 0.59055118110236215 0.59842519685039375 0.60629921259842523 0.61417322834645671 0.62204724409448819 0.62992125984251968 0.63779527559055116 0.64566929133858264 0.65354330708661412 0.66141732283464572 0.6692913385826772 0.67716535433070868 0.68503937007874016 0.69291338582677164 0.70078740157480313 0.70866141732283461 0.71653543307086609 0.72440944881889768 0.73228346456692917 0.74015748031496065 0.74803149606299213 0.75590551181102361 0.76377952755905509 0.77165354330708658 0.77952755905511806 0.78740157480314965 0.79527559055118113 0.80314960629921262 0.8110236220472441 0.81889763779527558 0.82677165354330706 0.83464566929133854 0.84251968503937003 0.85039370078740162 0.8582677165354331 0.86614173228346458 0.87401574803149606 0.88188976377952755 0.88976377952755903 0.89763779527559051 0.90551181102362199 0.91338582677165359 0.92125984251968507 0.92913385826771655 0.93700787401574803 0.94488188976377951 0.952755905511811 0.96062992125984248 0.96850393700787396 0.97637795275590555 0.98425196850393704 0.99212598425196852 1
        </DataArray>
      </PointData>
      <CellData Scalars="P">
        <DataArray type="Float32" Name="P" NumberOfComponents="1">
          -0.035248456027061198 -0.10380790529512761 -0.16853067022314722 -0.22861651714492151 -0.28365707137745494 -0.33343984049751335 -0.37786273360102374 -0.41688859517084875 -0.45051771347961861 -0.47876842757544852 -0.50166611836651176 -0.51923511400646682 -0.53149287290698943 -0.53844476992506518 -0.54007959059158972 -0.53636779928670608 -0.52726183099790369 -0.51269361646246625 -0.49257320707549229 -0.46678969431419071 -0.43520977651067994 -0.39767650098764529 -0.35400962508370359 -0.30400607681939562 -0.24743711264072193 -0.18405130469078429 -0.11357204917352572 -0.03569418257298046 0.04991399075115107 0.14359675130193403 0.24573866413979981 0.35675157583366313 0.47707537518844689 0.6071777840416529 0.74755520066965886 0.89873225588108274 1.0612663219125029 1.235739705360215 1.4227598553683103 1.6229660117730131 1.8370262044208789 2.0656338337406464 1.9339021419213553 1.8123869647821413 1.7028894821496003 1.5977312448765335 1.5060388358378165 1.4278328878400275 1.3629783721499602 1.3106260201777371 1.2698523623164319 1.2478574003988534 1.9463837970743321 2.5964317674808979 3.22045253613777 2.9853786740734165 2.8969694588872472 2.8076434502690502 2.72038461705599 2.6354903144235329 2.5531549747278182 2.4734716023648859 2.3963518142601754 2.3218112444015482 2.2545311552301763 2.1892463349281961 2.1256751997911576 2.0635087414928415 2.0024218893057464 1.9420844531494983 1.8821702854267697 1.8223701606194278 1.7623967682970447 1.7019934788950482 1.6409408099243619 1.5790617633584501 1.5155017629140699 1.4513340231138467 1.3865107976659368 1.3210476473913417 1.2550109869760981 1.1885165840085072 1.1217284913888681 1.0548561916540231 0.98815095112280626 0.92190134449052052 0.85943801624401628 0.79841230779117467 0.73917656474859539 0.68209820268079702 0.62755312895513837 0.5759203582235588 0.53207754920215178 0.49199511295085618 0.45608482854241128 0.42465781286582582 0.39799378418041403 0.38141680443163833 0.37015789064817989 0.36438173248373379 0.36421266226064308 0.36972644584559194 0.38095328170045467 0.39787465829173702 0.4204230695074489 0.44848277890603433 0.48189206368169651 0.52044689183817228 0.56390637516729392 0.61208981770953719 0.6598769692417733 0.71180956198907441 0.76302696681887117 0.81786452484111294 0.87607974983574111 0.93303801897173178 0.82288267394392789 0.70613001733654079 0.60207195457742657 0.51046291133302657 0.41387380989829453 0.32916867755511825 0.25255925460022199 0.18971856817229585 0.13448300699736057 0.083372112808854773 0.032494281793798666
        </DataArray>
      </CellData>
      <Points>
        <DataArray type="Float32" NumberOfComponents="3" format="ascii">
          5.9797868460995884 10.03543496730191 0
          5.9851117688978412 10.029631456809478 0
          5.9904678023006968 10.023856619767917 0
          5.995872839595358 10.018127582412953 0
          6.0013396459360688 10.01245740562017 0
          6.0068781277492675 10.006857158254624 0
          6.0124962623251523 10.001336753341707 0
          6.0182005741801428 9.9959053670783984 0
          6.0239964132640207 9.9905716757234657 0
          6.0298881334694174 9.985344001003039 0
          6.0358792188686055 9.9802304086183593 0
          6.0419723722418883 9.9752387721719238 0
          6.0481695808551423 9.970376816457474 0
          6.0544721670944526 9.9656521471914843 0
          6.0608808301426889 9.9610722737451454 0
          6.0673956814886987 9.9566446281935139 0
          6.0740162725165101 9.9523765777912701 0
          6.0807416140705888 9.9482754292223365 0
          6.0875701939234057 9.9443484325466205 0
          6.0944999911903972 9.9406027834570239 0
          6.1015284858754075 9.937045619972583 0
          6.1086526670876697 9.9336840189971642 0
          6.1158690397322788 9.9305249925651768 0
          6.1231736284033476 9.9275754807866523 0
          6.1305619790531658 9.9248423415488567 0
          6.1380291610242903 9.9223323430699661 0
          6.1455697655240993 9.9200521486562412 0
          6.1531779046692412 9.9180083036178708 0
          6.1608472107741283 9.9162072253850937 0
          6.1685708331888911 9.91465518735688 0
          6.1763414307382893 9.9133582781090013 0
          6.1841511735623804 9.9123224030927641 0
          6.191991738939655 9.9115532622786127 0
          6.1998543072848875 9.9110563263726164 0
          6.2077295583882668 9.9108368102173063 0
          6.2156076682778378 9.9108996450213773 0
          6.2234783068242487 9.9112494477297162 0
          6.2313306359600666 9.9118904941289099 0
          6.2391533093466167 9.9128266797317846 0
          6.2469344742143464 9.9140614799344746 0
          6.2546617738830639 9.9155979169926542 0
          6.2623223519512736 9.9174385219458028 0
          6.2699028590054029 9.9195852918888185 0
          6.2775036807067668 9.9216581129562638 0
          6.2851210228857912 9.9236684513737181 0
          6.2927512732594186 9.9256282604330845 0
          6.3003930347438244 9.9275417230513749 0
          6.3080430145402131 9.9294210582439657 0
          6.3156980813179651 9.9312785413731479 0
          6.3233551432627078 9.9331267489934589 0
          6.3310111628491113 9.9349782372975195 0
          6.338663028476736 9.9368457989351455 0
          6.3463051411905163 9.9387518532082737 0
          6.3536507001553701 9.9415939795641748 0
          6.3605828551204668 9.9453329710664899 0
          6.3669895554542002 9.9499143304247895 0
          6.3735316336970635 9.9543001728305569 0
          6.3800952053450741 9.9586534724245102 0
          6.3866802814008388 9.9629738752709009 0
          6.393285038827492 9.9672638394703252 0
          6.3999076807295516 9.9715258607274428 0
          6.4065464459733601 9.9757624511793015 0
          6.4131996210786477 9.9799761137879894 0
          6.4198656109483601 9.9841692225578029 0
          6.4265428236970887 9.9883441963756283 0
          6.4332262657634214 9.9925089566350387 0
          6.4399145157876916 9.9966657709156816 0
          6.4466062318310602 10.000816797162269 0
          6.453300156693575 10.004964069373459 0
          6.459995122957678 10.009109484496555 0
          6.466690057763536 10.013254790587109 0
          6.4733839886227598 10.017401574163276 0
          6.4800760453519803 10.021551254700311 0
          6.486765465571894 10.025705074225099 0
          6.4934515988251897 10.029864089949921 0
          6.5001339105411722 10.034029167895254 0
          6.5068119858271602 10.038200977444392 0
          6.513489078110088 10.04237432108769 0
          6.5201649665445371 10.04654956789178 0
          6.5268396238146575 10.050726777047458 0
          6.5335131556743429 10.054905795102387 0
          6.5401858044779715 10.059086250756806 0
          6.5468579486722778 10.063267555922369 0
          6.553530105410279 10.067448901444411 0
          6.5602029314627099 10.071629255025925 0
          6.5668772234720372 10.075807359511497 0
          6.5735539175446558 10.079981731365661 0
          6.5802374462054338 10.084145270048131 0
          6.5869290037467065 10.088296024521219 0
          6.5936299135105365 10.092431808951954 0
          6.6003416241284079 10.096550199738354 0
          6.6070657047338743 10.100648532448819 0
          6.6138038402367769 10.10472389670754 0
          6.6205610314914125 10.108767772524466 0
          6.627339061994193 10.112776816277448 0
          6.6341398554606323 10.116747326898423 0
          6.6409654084250151 10.12067533323598 0
          6.6478177759790089 10.12455659082374 0
          6.6547019938715106 10.12838128744785 0
          6.661620104354065 10.132144553896783 0
          6.668574152643675 10.135841215010954 0
          6.675566168963762 10.139465776898088 0
          6.6825981458733477 10.143012418505222 0
          6.6896720163884362 10.146474976808983 0
          6.6967896288997908 10.149846932631629 0
          6.7039527197180355 10.153121395029281 0
          6.7111628829770407 10.156291084129919 0
          6.7184215377174237 10.159348311937451 0
          6.7257298918013459 10.162284960741868 0
          6.7330889022952531 10.16509245848105 0
          6.7404992695518846 10.167761645213352 0
          6.7479593751509386 10.170288681258711 0
          6.7554693745977179 10.172663520254966 0
          6.7630272683876376 10.174881406462738 0
          6.7706325425627174 10.176931110193335 0
          6.778284161399192 10.178800546270422 0
          6.7859790417798518 10.180483234374895 0
          6.7936502670723247 10.182267393688758 0
          6.8012930798085405 10.184167067239194 0
          6.8089099571817151 10.186166242770424 0
          6.8165043777623353 10.18824765099988 0
          6.8240706467940511 10.190428237755729 0
          6.8316131379432186 10.192689159697453 0
          6.8391354532671418 10.195016152697637 0
          6.8466511439303401 10.19736462088167 0
          6.8541750279527003 10.199687232804189 0
          6.8617304398357266 10.201906108264449 0
          6.8693791494892373 10.203777981761524 0
        </DataArray>
      </Points>
      <Cells>
        <DataArray type="Int32" Name="connectivity" format="ascii">
          0 1 1 2 2 3 3 4 4 5 5 6 6 7 7 8 8 9 9 10 10 11 11 12 12 13 13 14 14 15 15 16 16 17 17 18 18 19 19 20 20 21 21 22 22 23 23 24 24 25 25 26 26 27 27 28 28 29 29 30 30 31 31 32 32 33 33 34 34 35 35 36 36 37 37 38 38 39 39 40 40 41 41 42 42 43 43 44 44 45 45 46 46 47 47 48 48 49 49 50 50 51 51 52 52 53 53 54 54 55 55 56 56 57 57 58 58 59 59 60 60 61 61 62 62 63 63 64 64 65 65 66 66 67 67 68 68 69 69 70 70 71 71 72 72 73 73 74 74 75 75 76 76 77 77 78 78 79 79 80 80 81 81 82 82 83 83 84 84 85 85 86 86 87 87 88 88 89 89 90 90 91 91 92 92 93 93 94 94 95 95 96 96 97 97 98 98 99 99 100 100 101 101 102 102 103 103 104 104 105 105 106 106 107 107 108 108 109 109 110 110 111 111 112 112 113 113 114 114 115 115 116 116 117 117 118 118 119 119 120 120 121 121 122 122 123 123 124 124 125 125 126 126 127 
        </DataArray>
        <DataArray type="Int32" Name="offsets" format="ascii">
          2 4 6 8 10 12 14 16 18 20 22 24 26 28 30 32 34 36 38 40 42 44 46 48 50 52 54 56 58 60 62 64 66 68 70 72 74 76 78 80 82 84 86 88 90 92 94 96 98 100 102 104 106 108 110 112 114 116 118 120 122 124 126 128 130 132 134 136 138 140 142 144 146 148 150 152 154 156 158 160 162 164 166 168 170 172 174 176 178 180 182 184 186 188 190 192 194 196 198 200 202 204 206 208 210 212 214 216 218 220 222 224 226 228 230 232 234 236 238 240 242 244 246 248 250 252 254 
        </DataArray>
        <DataArray type="Int32" Name="types" format="ascii">
          3 3 3 3 3 3 3 3 3 3 3 3 3 3 3 3 3 3 3 3 3 3 3 3 3 3 3 3 3 3 3 3 3 3 3 3 3 3 3 3 3 3 3 3 3 3 3 3 3 3 3 3 3 3 3 3 3 3 3 3 3 3 3 3 3 3 3 3 3 3 3 3 3 3 3 3 3 3 3 3 3 3 3 3 3 3 3 3 3 3 3 3 3 3 3 3 3 3 3 3 3 3 3 3 3 3 3 3 3 3 3 3 3 3 3 3 3 3 3 3 3 3 3 3 3 3 3         </DataArray>
      </Cells>
    </Piece>
  </UnstructuredGrid>
</VTKFile>
