<?xml version="1.0"?>
<VTKFile type="UnstructuredGrid" version="0.1" byte_order="LittleEndian">
  <UnstructuredGrid>
    <Piece NumberOfPoints="128" NumberOfCells="127">
      <PointData Scalars="W">
        <DataArray type="Float32" Name="W" NumberOfComponents="2">
          0 0 0.72716520616592872 0.29694427821808683 1.0921239460881056 0.43616613818274186 1.3656839544018433 0.52901937733015814 1.591051859476261 0.59363611127400762 1.7858204450514297 0.63765629252769729 1.9593438366761535 0.66530318274937361 2.1172439837482271 0.6792208579337804 2.2631883933953705 0.68120185047769433 2.399621156304415 0.67250093089434382 2.5283075875570873 0.6540531464787801 2.6505117012666544 0.62655746007069035 2.7671407869548705 0.59054331104073143 2.878795759553975 0.54640818334850239 2.9858721303773756 0.49446200964900677 3.0886390886873545 0.43495671571855038 3.1873382316850005 0.36810721202275665 3.2820364815587877 0.29407769391894956 3.3727549048930388 0.21300996436364683 3.45948553424099 0.12502692047911448 3.5421570609517987 0.030233694122485874 3.620626732024796 -0.071274886190669573 3.6947373145931444 -0.17940852939644877 3.7643212581260292 -0.29408183788771591 3.8291260592933938 -0.41520573374982356 3.8889704603539119 -0.54269832109180072 3.9435915404145998 -0.67647187310433132 3.9926267155922197 -0.81641554830131302 4.0357694502650538 -0.96241682805451534 4.0730341392427656 -1.114451607521566 4.1037520774552574 -1.2723276470840472 4.1275754161244995 -1.4359046836950946 4.1441218973719014 -1.6050221354823566 4.1530273260390969 -1.7795164346855226 4.153890423180095 -1.9592005541698507 4.1463059952568218 -2.1438747058647367 4.1297612008251381 -2.3332665718399928 4.1038692499202174 -2.5271507985456947 4.068246047865224 -2.7253038069325051 4.0223499204370778 -2.9273891411865605 3.965659549126515 -3.1330511176293272 3.8976672008894799 -3.3419161725388533 -0.86076299866556027 0.76180197923860327 -0.71542456749345951 0.62270470491222285 -0.66403523377103002 0.5696439789821337 -0.51065820002089946 0.43270455061600316 -0.35285230826641889 0.29629975536207226 -0.29937263004494202 0.24968583029070984 -0.13968844135748693 0.11597229575045016 0.022457456002144268 -0.018621895489460992 0.069430502686759363 -0.05762743342471769 0.34865195064074622 -0.2906459015253684 0.51080204089122572 -0.42965655654474633 1.0779159374534764 -0.92190461793436584 11.347212846118705 -11.130731477721755 9.9171599662353369 -12.532865412003586 8.302444441111744 -13.753125464661439 -0.17696902992535651 0.33883669127180149 -0.16172646392262968 0.30749565632413112 -0.14619579628768778 0.27622182425141645 -0.12942598764659693 0.24317346475294457 -0.11289070249593755 0.21107308494109317 -0.096158633408847824 0.17903793482998639 -0.078830393372258709 0.14626368608269932 -0.0062811799806328766 0.01163455870545926 0.010490163342386867 -0.01943243290419408 0.026657782256315193 -0.049418441913480327 0.04204749999290068 -0.078054520687824286 0.055799357928640582 -0.10378467413754244 0.069221842970546149 -0.1290718386818927 0.081543119344300988 -0.15250638691927842 0.092608332637938134 -0.17380941663078012 0.045841597297827968 -0.086277574535520304 0.054529783659887469 -0.10283855999779036 0.06185958696012428 -0.11693845378558265 0.0676989877545216 -0.12831599446949202 0.072027443565509483 -0.13691139775436276 0.074105074108086186 -0.14128454196411447 0.075286397824621085 -0.14398024753064689 0.074845189533030931 -0.14358275065948997 0.019651510774206682 -0.037773553902508465 0.016042664611392157 -0.030859688658706901 0.010710890493864813 -0.0206149848841659 0.0029069445097980686 -0.0055965145644732081 -0.0059818560926815081 0.011515663832858377 -0.016703426260386026 0.03214052531694838 -0.080769697725962361 0.15510089038656866 -0.095517479230716087 0.18275101571214458 -0.11232590305644578 0.2139900826860294 -0.13123410908656385 0.24876583169821503 -0.15240925925460858 0.28724126284115675 -0.22686882791012777 0.42431401368865623 -0.25348000000796927 0.46956338650774176 -0.28282720641483305 0.51842547656305815 -0.36566689407024799 0.66189898393906121 -0.4019753164936104 0.71705759087994836 -0.44172081482961489 0.77563339194429026 -0.4851031998913018 0.83748346617071334 -0.58394505809540254 0.98902831122131663 -0.63705396976498807 1.0562232499806135 -0.69486480990729971 1.1262744300313834 -0.75770036811702479 1.1989588430676599 -0.8260700358568589 1.2742689426648435 -0.95398790669178191 1.4312625542384507 -1.0369541790601495 1.5095541986825347 -1.1270717703232891 1.5895146773434381 -1.2248823491000684 1.6707513690961484 -1.3311617272128284 1.7530687206685673 -1.4465062557723611 1.8358880963804538 -1.5093396953970166 1.844051516774422 -1.642293565482523 1.9290351168504891 -1.7867617293376694 2.0132659834778477 -1.8744828858754516 2.0229215899396884 -2.0417295781322728 2.1066446638188556 -2.2249629991825493 2.1887445715823133 -2.3462762572550431 2.1956069692085758 -2.5601042219405676 2.273111602182059 -0.77631525898123577 0.66533997093394148 -0.43227016959763526 0.36580897293695741 -0.53643962420828806 0.44939071764578231 -0.21963597289034387 0.18254935306577161 -0.76975451747651036 0.63323252661671503 -0.95494566213604204 0.77165244328406424 -1.5061567254324897 1.1865351192297113 -2.2647923459253763 1.71639557036366 -3.9085411054456856 2.7811236237367822 -4.2315136085274077 2.7701433282121686 0 0
        </DataArray>
        <DataArray type="Float32" Name="u" NumberOfComponents="1">
          0 0.007874015748031496 0.015748031496062992 0.023622047244094488 0.031496062992125984 0.03937007874015748 0.047244094488188976 0.055118110236220472 0.062992125984251968 0.070866141732283464 0.07874015748031496 0.086614173228346455 0.094488188976377951 0.10236220472440945 0.11023622047244094 0.11811023622047244 0.12598425196850394 0.13385826771653545 0.14173228346456693 0.14960629921259844 0.15748031496062992 0.16535433070866143 0.17322834645669291 0.18110236220472442 0.1889763779527559 0.19685039370078741 0.20472440944881889 0.2125984251968504 0.22047244094488189 0.2283464566929134 0.23622047244094488 0.24409448818897639 0.25196850393700787 0.25984251968503935 0.26771653543307089 0.27559055118110237 0.28346456692913385 0.29133858267716534 0.29921259842519687 0.30708661417322836 0.31496062992125984 0.32283464566929132 0.33070866141732286 0.33858267716535434 0.34645669291338582 0.3543307086614173 0.36220472440944884 0.37007874015748032 0.37795275590551181 0.38582677165354329 0.39370078740157483 0.40157480314960631 0.40944881889763779 0.41732283464566927 0.42519685039370081 0.43307086614173229 0.44094488188976377 0.44881889763779526 0.45669291338582679 0.46456692913385828 0.47244094488188976 0.48031496062992124 0.48818897637795278 0.49606299212598426 0.50393700787401574 0.51181102362204722 0.51968503937007871 0.52755905511811019 0.53543307086614178 0.54330708661417326 0.55118110236220474 0.55905511811023623 0.56692913385826771 0.57480314960629919 0.58267716535433067 0.59055118110236215 0.59842519685039375 0.60629921259842523 0.61417322834645671 0.62204724409448819 0.62992125984251968 0.63779527559055116 0.64566929133858264 0.65354330708661412 0.66141732283464572 0.6692913385826772 0.67716535433070868 0.68503937007874016 0.69291338582677164 0.70078740157480313 0.70866141732283461 0.71653543307086609 0.72440944881889768 0.73228346456692917 0.74015748031496065 0.74803149606299213 0.75590551181102361 0.76377952755905509 0.77165354330708658 0.77952755905511806 0.78740157480314965 0.79527559055118113 0.80314960629921262 0.8110236220472441 0.81889763779527558 0.82677165354330706 0.83464566929133854 0.84251968503937003 0.85039370078740162 0.8582677165354331 0.86614173228346458 0.87401574803149606 0.88188976377952755 0.88976377952755903 0.89763779527559051 0.90551181102362199 0.91338582677165359 0.92125984251968507 0.92913385826771655 0.93700787401574803 0.94488188976377951 0.952755905511811 0.96062992125984248 0.96850393700787396 0.97637795275590555 0.98425196850393704 0.99212598425196852 1
        </DataArray>
      </PointData>
      <CellData Scalars="P">
        <DataArray type="Float32" Name="P" NumberOfComponents="1">
          -0.037566475978814233 -0.11060109576643612 -0.1798214629986537 -0.24450034193855891 -0.3042649539086732 -0.35892053685876102 -0.40836756937277846 -0.45255746922823142 -0.49146645122246796 -0.52508070734664081 -0.55338561511952511 -0.57635940611276826 -0.59396915939462247 -0.60616922602185508 -0.61289999281631147 -0.61408648197076465 -0.60963555022755278 -0.59943725605797282 -0.5833637875892097 -0.56126820453036341 -0.53298430424211862 -0.49832701492215853 -0.45709133981705063 -0.40905115617337412 -0.35396047812190279 -0.29154968139825344 -0.22152666266542914 -0.14357912618212201 -0.05737142542390631 0.037470127449625995 0.14133192055253388 0.25462652801547336 0.37779252960256038 0.51129665120397094 0.65563336410061879 0.81132594300567196 0.97892152231997609 1.1589987289089239 1.3521695589883995 1.5590705581268807 1.7803637816293461 2.0167374432684793 1.8838793416430677 1.7622467788824674 1.6446048234177379 1.5405703388639322 1.450703829437697 1.3658345209572571 1.2946465714461419 1.2363651016159318 1.1810224943204457 1.1444470789956074 1.1159807158669395 1.1177457703230724 1.662143508274418 2.1450613014922228 2.5948428019763696 2.5160599682714544 2.4380676068038416 2.3610839741469838 2.285351563713176 2.2109437584517933 2.1379206948401008 2.0663299447497754 2.0004265781013109 1.9356405923840325 1.8717905943686119 1.8086651317480293 1.7459863426796045 1.6835598455716778 1.6211414134900457 1.5584870047110719 1.4929357457150549 1.4270632402076915 1.3606855289056072 1.2936403693496101 1.225795734465766 1.1570461254752815 1.0873408084044545 1.0166562424495083 0.94565509816196269 0.87413880198455485 0.80219782579945742 0.72998572969537268 0.6576513991565589 0.58539863652110125 0.51622699341590128 0.44797442997009701 0.38092372145523212 0.31537787672511447 0.25166382411896693 0.19422897513647414 0.13955813651298946 0.087993289059664553 0.044496207890807576 0.004965744141467332 -0.030281677097266139 -0.060950197465538314 -0.081700658246618249 -0.097230168144467846 -0.10732701649179549 -0.11182174566626524 -0.11057839657851111 -0.09839035804655244 -0.080322025220467344 -0.056394380745403525 -0.026693295642748523 0.0086419951762735543 0.049393189922964965 0.090316184132658878 0.13607822295134495 0.1862120497947837 0.23543513063231492 0.28795591640192281 0.34307126566693463 0.39554815090102086 0.4489645718247221 0.43086824517137673 0.39305276470156342 0.35569240187882223 0.30296320843937385 0.26305467630588558 0.22107003662436545 0.181225609724187 0.140062233117204 0.096820004138031518 0.036099056332534837
        </DataArray>
      </CellData>
      <Points>
        <DataArray type="Float32" NumberOfComponents="3" format="ascii">
          3.8164799988208356 8.5144436853942906 0
          3.813479804055949 8.5217261990137594 0
          3.8105247086391203 8.529027161835673 0
          3.8076373484891457 8.5363552252424206 0
          3.8048346920392899 8.543716160346488 0
          3.8021307198045782 8.5511139846544975 0
          3.7995375154191713 8.5585514367131275 0
          3.7970658457305992 8.5660302384283309 0
          3.7947255094313292 8.5735512592572558 0
          3.7925255644788276 8.5811146274917487 0
          3.7904744796380956 8.5887198081349148 0
          3.7885802439265031 8.596365660916053 0
          3.7868504449655767 8.6040504836429488 0
          3.785292325205571 8.6117720450271253 0
          3.7839128191436049 8.6195276093167124 0
          3.7827185777981067 8.6273139554946106 0
          3.7817159853451323 8.6351273928770453 0
          3.7809111740424126 8.6429637744164758 0
          3.7803100283135005 8.6508185068597072 0
          3.77991818598526 8.6586865595197171 0
          3.7797410377226992 8.6665624718781835 0
          3.7797837225321818 8.6744403600899957 0
          3.7800511188300865 8.6823139228532753 0
          3.7805478346124324 8.6901764470030951 0
          3.7812781969842875 8.6980208128069592 0
          3.7822462364170479 8.7058394994945782 0
          3.7834556754288209 8.7136245903477096 0
          3.7849099121978877 8.7213677781577115 0
          3.7866119979920274 8.7290603721236479 0
          3.7885646180792723 8.7366933048601059 0
          3.7907700925639096 8.744257133922213 0
          3.7932303348237983 8.7517420537724409 0
          3.7959468298683317 8.759137904525744 0
          3.7989206105654407 8.7664341819604079 0
          3.8021522349954022 8.7736200477179036 0
          3.8056417615085381 8.780684340962102 0
          3.8093887235462027 8.7876155908329565 0
          3.8133920977854721 8.7944020334046389 0
          3.8176502801161498 8.8010316257288785 0
          3.8221610617924022 8.8074920597678545 0
          3.8269215958084741 8.8137707833337995 0
          3.8319283645449893 8.8198550222203718 0
          3.8371771482656301 8.8257318034412506 0
          3.8423723224974107 8.8316556888996764 0
          3.8475229112915481 8.8376180346719035 0
          3.8526321122141476 8.8436155468816064 0
          3.8577094468406607 8.8496397188439975 0
          3.862764710643285 8.8556820790310713 0
          3.8678012292523323 8.8617397378337674 0
          3.8728289129915754 8.8678043940811353 0
          3.8778578238328762 8.8738676939306558 0
          3.8828908819207686 8.8799272239026497 0
          3.8879454059600458 8.885968519641386 0
          3.8930314550756964 8.8919829596749729 0
          3.8981841924477925 8.8979399895448772 0
          3.904040883298844 8.9032065091929127 0
          3.9105128110605736 8.9076955300782572 0
          3.9174998018503451 8.9113313474714051 0
          3.9244756591109882 8.9149881038692911 0
          3.9314413347424138 8.918663856695451 0
          3.9383977984255196 8.9223566678352295 0
          3.9453460965169316 8.9260644893302814 0
          3.9522872607571835 8.9297853323040162 0
          3.9592223349805273 8.9335172121619166 0
          3.9661523998571426 8.9372580986731709 0
          3.9730819570138896 8.940999642952395 0
          3.9800120527055789 8.9447399216138184 0
          3.9869436957194351 8.9484770784887413 0
          3.9938778465976328 8.952209341287455 0
          4.0008153643705153 8.9559351180900588 0
          4.0077570876437099 8.9596528445533945 0
          4.0147037867976509 8.9633610713302705 0
          4.0216561544122102 8.9670584813481469 0
          4.0286112993007022 8.9707505070427018 0
          4.0355697665233716 8.9744361251183715 0
          4.0425320170415446 8.9781144649668594 0
          4.0494984195553343 8.9817848248569412 0
          4.0564692492489236 8.9854466756316409 0
          4.0634446419466528 8.989099749996404 0
          4.0704246780847217 8.9927438847171377 0
          4.0774093377155607 8.9963791084070408 0
          4.0843952066144755 9.0000119853775171 0
          4.0913820684510407 9.0036429481539582 0
          4.0983696002969277 9.0072726358797546 0
          4.1053573261705614 9.0109019837856561 0
          4.1123447030603728 9.0145320570440592 0
          4.11933107455115 9.0181641387632983 0
          4.1263124758047471 9.0218058566005137 0
          4.1332880007004631 9.025458929477157 0
          4.1402566155331737 9.0291252990801194 0
          4.1472171565669038 9.0328071266560457 0
          4.1541683196404948 9.036506803154726 0
          4.1611054944566463 9.0402328324272556 0
          4.1680270394117462 9.0439880261398837 0
          4.1749311432478606 9.0477754204232497 0
          4.1818126747072739 9.0516039174308212 0
          4.1886693901533931 9.0554769447641306 0
          4.1954988326036577 9.0593981425328529 0
          4.2022983192517769 9.0633713545474528 0
          4.2090617238457808 9.0674059862284366 0
          4.2157857589539685 9.0715062142968801 0
          4.2224668449181157 9.0756763934019116 0
          4.2291010896988777 9.0799210423339698 0
          4.2356842571219087 9.0842448435901559 0
          4.2422084118696297 9.0886575450491662 0
          4.2486684096113043 9.0931640158743612 0
          4.2550586610361893 9.0977692296185086 0
          4.2613730980598312 9.1024782398614867 0
          4.2676051254810803 9.1072961680509206 0
          4.273747583787336 9.1122281675740098 0
          4.2797965750237159 9.1172747636976634 0
          4.2857438432534405 9.1224412456826443 0
          4.2915804156529784 9.1277328567782501 0
          4.2973008445227672 9.133150217061317 0
          4.3028947387905516 9.1386985398650893 0
          4.3083507124156135 9.1443829385396231 0
          4.3136612267040659 9.1502038627263005 0
          4.3188129918332061 9.1561661433821318 0
          4.323915884231492 9.1621689379826119 0
          4.328991371495615 9.1681937564333342 0
          4.3340330654433634 9.1742458571423953 0
          4.3390607132341037 9.1803087785958724 0
          4.3440402378488878 9.1864105257900626 0
          4.3489602229119715 9.1925597485375743 0
          4.3537865441686261 9.1987822276763094 0
          4.3584722205949111 9.2051108696877133 0
          4.3629153915073466 9.2116117367321575 0
          4.3670962404743214 9.2182844357894957 0
        </DataArray>
      </Points>
      <Cells>
        <DataArray type="Int32" Name="connectivity" format="ascii">
          0 1 1 2 2 3 3 4 4 5 5 6 6 7 7 8 8 9 9 10 10 11 11 12 12 13 13 14 14 15 15 16 16 17 17 18 18 19 19 20 20 21 21 22 22 23 23 24 24 25 25 26 26 27 27 28 28 29 29 30 30 31 31 32 32 33 33 34 34 35 35 36 36 37 37 38 38 39 39 40 40 41 41 42 42 43 43 44 44 45 45 46 46 47 47 48 48 49 49 50 50 51 51 52 52 53 53 54 54 55 55 56 56 57 57 58 58 59 59 60 60 61 61 62 62 63 63 64 64 65 65 66 66 67 67 68 68 69 69 70 70 71 71 72 72 73 73 74 74 75 75 76 76 77 77 78 78 79 79 80 80 81 81 82 82 83 83 84 84 85 85 86 86 87 87 88 88 89 89 90 90 91 91 92 92 93 93 94 94 95 95 96 96 97 97 98 98 99 99 100 100 101 101 102 102 103 103 104 104 105 105 106 106 107 107 108 108 109 109 110 110 111 111 112 112 113 113 114 114 115 115 116 116 117 117 118 118 119 119 120 120 121 121 122 122 123 123 124 124 125 125 126 126 127 
        </DataArray>
        <DataArray type="Int32" Name="offsets" format="ascii">
          2 4 6 8 10 12 14 16 18 20 22 24 26 28 30 32 34 36 38 40 42 44 46 48 50 52 54 56 58 60 62 64 66 68 70 72 74 76 78 80 82 84 86 88 90 92 94 96 98 100 102 104 106 108 110 112 114 116 118 120 122 124 126 128 130 132 134 136 138 140 142 144 146 148 150 152 154 156 158 160 162 164 166 168 170 172 174 176 178 180 182 184 186 188 190 192 194 196 198 200 202 204 206 208 210 212 214 216 218 220 222 224 226 228 230 232 234 236 238 240 242 244 246 248 250 252 254 
        </DataArray>
        <DataArray type="Int32" Name="types" format="ascii">
          3 3 3 3 3 3 3 3 3 3 3 3 3 3 3 3 3 3 3 3 3 3 3 3 3 3 3 3 3 3 3 3 3 3 3 3 3 3 3 3 3 3 3 3 3 3 3 3 3 3 3 3 3 3 3 3 3 3 3 3 3 3 3 3 3 3 3 3 3 3 3 3 3 3 3 3 3 3 3 3 3 3 3 3 3 3 3 3 3 3 3 3 3 3 3 3 3 3 3 3 3 3 3 3 3 3 3 3 3 3 3 3 3 3 3 3 3 3 3 3 3 3 3 3 3 3 3         </DataArray>
      </Cells>
    </Piece>
  </UnstructuredGrid>
</VTKFile>
