<?xml version="1.0"?>
<VTKFile type="UnstructuredGrid" version="0.1" byte_order="LittleEndian">
  <UnstructuredGrid>
    <Piece NumberOfPoints="128" NumberOfCells="127">
      <PointData Scalars="W">
        <DataArray type="Float32" Name="W" NumberOfComponents="2">
          0 0 -0.0076913113529476383 -0.013205597722865926 0.025685686732184212 0.044115325045811754 0.056429180475303577 0.097060941454891345 0.086937163885755842 0.14992385409801059 0.11799989192847693 0.20424933966833364 0.14976733457886712 0.26050499832995355 0.18213428359002365 0.31873994578492132 0.21491413997040976 0.37888021480749884 0.24794373492549193 0.44090938822594622 0.28101826772092886 0.50475259694651775 0.31393056999298341 0.57034273179327921 0.34647948348690277 0.63763403412530262 0.37849120271008679 0.7066416809319559 0.40982146403096104 0.77745001279208525 0.44030685925747476 0.8501245035142605 0.46974128393436776 0.92466322676116219 0.49794329885894906 1.0011250394568401 0.52472617176516301 1.0795749554938781 0.54986739680528696 1.1600203331316812 0.57315124062114076 1.2424951593722717 0.59436236092913319 1.3270501118642224 0.61326164576926745 1.4136997489231948 0.62958799541333399 1.502420064912976 0.64310023207494116 1.5932458487183518 0.65350855551928455 1.686105409628522 0.66053511588806191 1.7809599762603558 0.66391827811196757 1.8778262000069159 0.66335699432118389 1.9766260965927009 0.65843169747056363 2.0768993328437806 0.64895049684343031 2.1788520880407827 0.63459413466823078 2.2823230606593041 0.61504045364146587 2.3871180360259094 0.58996505133489741 2.4929981703460293 0.55905285749634348 2.5997126418007808 0.52199091164817923 2.7069549569586182 0.47849282381611907 2.8144758549893738 0.42825553338365274 2.921830331284835 0.37100583858817526 3.0285570137864148 0.3065129660794243 3.1343012007355719 0.23455991722608058 3.2386184738423949 0.15495694113952285 3.3410082187362731 -0.26851232819072679 13.47788118249486 -1.7121200947583239 13.464352005932 -3.1641683776343252 13.289032148811325 -4.6041318995767684 12.946323659122694 1.9905077388202397 -5.0661183150468316 1.9477999999453706 -5.7010708070865315 1.6544954725724088 -5.7086057953265206 1.3680485100653412 -5.6983837251520013 1.0895955449292027 -5.6716115699539742 0.8200963500785049 -5.6295171688873857 0.49107559590341476 -4.7252397374055972 0.30843369246893998 -4.6242344582734649 0.13843509412276822 -4.5451459678686934 -0.022890891925841893 -4.4827170620803951 -0.1743176295099538 -4.3617042024569264 -0.31350591528394373 -4.236909449043651 -0.44062745593796926 -4.1079230145527887 -0.55577954432079402 -3.9748371539012353 -0.65929339415672661 -3.8392915224305408 -0.75168105263915286 -3.70286634226265 -0.83321753742650639 -3.5654633665423408 -0.89350829436666956 -3.3889529564280032 -0.95210696739459877 -3.2507156806553863 -1.0011591785074843 -3.1132579667176388 -1.0556810916254893 -3.0170001359604464 -1.1050067674493396 -2.9225591312562664 -1.1495261309796521 -2.8301876896815581 -1.1718338947830642 -2.7003851926812161 -1.2061069107258104 -2.6136262648894082 -1.2368205169653206 -2.5295390870683812 -1.2643489632839378 -2.4482553627569077 -1.2890603436770434 -2.3698839557417455 -1.2890608499162182 -2.2564799654662466 -1.3076877526290209 -2.1850974070120364 -1.3246400519860932 -2.1168674152737155 -1.3402304268265659 -2.0517883484569994 -1.3547970510051577 -1.9898989928701645 -1.3686602118416744 -1.9312068901006287 -1.3541806865388566 -1.838478298190023 -1.3662486863121572 -1.7871705826707707 -1.3785879780628192 -1.739027883129304 -1.3914925664599347 -1.694018475572425 -1.4052531188144664 -1.6521024125274877 -1.420157941456696 -1.6132317487207 -1.4365073950581821 -1.5773650139779045 -1.4545620197377236 -1.5444088788219312 -1.4407510277174747 -1.4800840311521681 -1.4619858285807252 -1.4538678471760498 -1.4858304450500084 -1.4303536143265985 -1.5125789887753811 -1.409444006549059 -1.5425463370880783 -1.3910427715798368 -1.5760118074925014 -1.37500107822189 -1.6125764926275843 -1.360588756877289 -1.6540093190192093 -1.34888753252539 -1.6999401036965716 -1.3390922238025178 -1.7108431861148465 -1.3012149426634374 -1.765805576134444 -1.2960002096377812 -1.826371089746152 -1.2920792116823208 -1.8929421623043925 -1.2891711851656522 -1.9659409140339879 -1.2869550866379911 -2.0458102756639081 -1.2850634449034046 -2.1338332669957309 -1.2835567475864806 -2.1839775551053489 -1.2557401640170653 -2.2863048538627431 -1.2538656530106442 -2.3974892884110575 -1.2503544584786861 -2.4700888952498996 -1.2214182553597408 -2.6005104262248571 -1.2149865811525657 -2.7406383495470177 -1.204177628737652 -2.891936864531687 -1.1883701084870968 -3.0043030137032543 -1.1477202575112988 -3.1787918244961433 -1.1208135677750657 -3.3128573573225779 -1.0685230645783119 -3.5129512246146759 -1.0249707867765183 -3.7281357449755634 -0.96909127873713319 -3.8964285722668102 -0.88528051038595412 -4.0783749783141889 -0.78993128580249439 -4.3340991813932597 -0.68912121103833235 4.2465373387946377 0.67367374469020935 3.9486977954673961 0.75979661236910345 4.0283476585472755 0.9100769094050708 3.721794409065752 0.96456516897495426 3.3876687503106782 0.98373525643624726 3.0575129629288313 0.97650847849290556 1.649553925868168 0.56250595577373308 -2.4754809968646647 -0.83470122454107154 0 0
        </DataArray>
        <DataArray type="Float32" Name="u" NumberOfComponents="1">
          0 0.007874015748031496 0.015748031496062992 0.023622047244094488 0.031496062992125984 0.03937007874015748 0.047244094488188976 0.055118110236220472 0.062992125984251968 0.070866141732283464 0.07874015748031496 0.086614173228346455 0.094488188976377951 0.10236220472440945 0.11023622047244094 0.11811023622047244 0.12598425196850394 0.13385826771653545 0.14173228346456693 0.14960629921259844 0.15748031496062992 0.16535433070866143 0.17322834645669291 0.18110236220472442 0.1889763779527559 0.19685039370078741 0.20472440944881889 0.2125984251968504 0.22047244094488189 0.2283464566929134 0.23622047244094488 0.24409448818897639 0.25196850393700787 0.25984251968503935 0.26771653543307089 0.27559055118110237 0.28346456692913385 0.29133858267716534 0.29921259842519687 0.30708661417322836 0.31496062992125984 0.32283464566929132 0.33070866141732286 0.33858267716535434 0.34645669291338582 0.3543307086614173 0.36220472440944884 0.37007874015748032 0.37795275590551181 0.38582677165354329 0.39370078740157483 0.40157480314960631 0.40944881889763779 0.41732283464566927 0.42519685039370081 0.43307086614173229 0.44094488188976377 0.44881889763779526 0.45669291338582679 0.46456692913385828 0.47244094488188976 0.48031496062992124 0.48818897637795278 0.49606299212598426 0.50393700787401574 0.51181102362204722 0.51968503937007871 0.52755905511811019 0.53543307086614178 0.54330708661417326 0.55118110236220474 0.55905511811023623 0.56692913385826771 0.57480314960629919 0.58267716535433067 0.59055118110236215 0.59842519685039375 0.60629921259842523 0.61417322834645671 0.62204724409448819 0.62992125984251968 0.63779527559055116 0.64566929133858264 0.65354330708661412 0.66141732283464572 0.6692913385826772 0.67716535433070868 0.68503937007874016 0.69291338582677164 0.70078740157480313 0.70866141732283461 0.71653543307086609 0.72440944881889768 0.73228346456692917 0.74015748031496065 0.74803149606299213 0.75590551181102361 0.76377952755905509 0.77165354330708658 0.77952755905511806 0.78740157480314965 0.79527559055118113 0.80314960629921262 0.8110236220472441 0.81889763779527558 0.82677165354330706 0.83464566929133854 0.84251968503937003 0.85039370078740162 0.8582677165354331 0.86614173228346458 0.87401574803149606 0.88188976377952755 0.88976377952755903 0.89763779527559051 0.90551181102362199 0.91338582677165359 0.92125984251968507 0.92913385826771655 0.93700787401574803 0.94488188976377951 0.952755905511811 0.96062992125984248 0.96850393700787396 0.97637795275590555 0.98425196850393704 0.99212598425196852 1
        </DataArray>
      </PointData>
      <CellData Scalars="P">
        <DataArray type="Float32" Name="P" NumberOfComponents="1">
          -0.0017138469009711128 -0.0051548548708595151 -0.008546134778312944 -0.011803542450320342 -0.014814079333357402 -0.01743251896410419 -0.019480658435255271 -0.020747923310616295 -0.020992463811154143 -0.019941663387330017 -0.017294029214789147 -0.012721017384270755 -0.0058689044674537132 0.0036400267828880363 0.016206914656542382 0.032254263725203403 0.052222265447699152 0.076567862926813349 0.10576273322941333 0.14028911502862795 0.18063790003496796 0.22730661614521164 0.28079541805414138 0.3416025212771604 0.41022364700081798 0.48714423538495438 0.57283752151326317 0.6677642644064673 0.77236493772428472 0.88703463522802461 1.0121562522028882 1.1480774110239225 1.2951050224031992 1.4534990542124147 1.6234683831116827 1.8051639113494504 1.9986794521091666 2.2040354439701226 2.4211747359033593 2.6499677917819318 2.8902042910463992 3.1415872122996236 4.156848159217053 5.152658795138942 6.114853857730723 7.0288416172846278 6.6286157742043867 6.2126540866440054 5.7838285038654256 5.3449368337872372 4.8986836106938725 4.447666342853613 4.0662996460884422 3.6894163023068671 3.3161833290509044 2.9460806234693155 2.5850288951890712 2.2341937831969947 1.8946966380671513 1.5675718496840667 1.2536331664825617 0.95348041564478936 0.66764522381121061 0.39976861875988018 0.14693240126105936 -0.09070954856247386 -0.31628336499283538 -0.52974029399621292 -0.73109031268265612 -0.91746495480974088 -1.0920306405066904 -1.2549419529741495 -1.4063869072421946 -1.546581389831917 -1.6734385671974323 -1.7896954833841303 -1.8956259262465187 -1.9915100783028137 -2.0776334508807159 -2.1542819278093055 -2.2202156151276009 -2.2774138139210347 -2.326143672851738 -2.3666599254118204 -2.3992023102995912 -2.4239932554996311 -2.4412360580497632 -2.4511123583351675 -2.4535645841220295 -2.4491295155506272 -2.4379150105088376 -2.4200038522012464 -2.3954534265332987 -2.3642964482232665 -2.3265558920028231 -2.2822057591669793 -2.2312100792764746 -2.1747192715299657 -2.1116089086696803 -2.0417882837527701 -1.965159297423918 -1.8816221141159148 -1.7910819136105844 -1.6934206318871374 -1.5906663284432452 -1.4808296639438516 -1.3639158710575952 -1.2423124627301994 -1.1138456758039683 -0.97877748418392896 -0.83744553111620479 -0.69275238052143717 -0.54290511779331807 -0.39116706910267451 -0.23610969054745914 -0.079014856414453827 0.076030874464768111 0.2273089028121027 0.37477827952658055 0.26512229947776106 0.17614214491902086 0.097666656874449448 0.038888506878244411 -0.0014182512547784448 -0.025456276115322269 -0.026523655776785563 -0.0048219422674952387
        </DataArray>
      </CellData>
      <Points>
        <DataArray type="Float32" NumberOfComponents="3" format="ascii">
          6.3603422257917197 10.316367672863741 0
          6.36714676554144 10.312405065905962 0
          6.3739508221264547 10.308441643802405 0
          6.3807564617315826 10.304480962601149 0
          6.3875655883792231 10.300526306372847 0
          6.3943800921810734 10.296580953612207 0
          6.4012018981471392 10.292648273155795 0
          6.4080329753752503 10.288731753235455 0
          6.4148753304547101 10.284835004565657 0
          6.4217309958427631 10.280961755790404 0
          6.4286020197054121 10.277115852493633 0
          6.435490453184582 10.273301252582758 0
          6.4423983375238336 10.269522022151696 0
          6.4493276915706375 10.265782332666532 0
          6.4562805009775079 10.262086461928384 0
          6.4632587092370173 10.258438799323608 0
          6.4702642075315815 10.25484384990337 0
          6.4772988219374588 10.251306234283438 0
          6.4843643021591522 10.2478306923116 0
          6.4914623099365842 10.244422087115677 0
          6.4985944052350595 10.241085405575623 0
          6.505762032855813 10.237825760445249 0
          6.5129665090713962 10.234648393507225 0
          6.5202090067879253 10.231558676487024 0
          6.5274905393446447 10.228562109574115 0
          6.5348119455492801 10.225664323586518 0
          6.5421738716994708 10.222871075531621 0
          6.5495767543459014 10.220188246205916 0
          6.5570208040616444 10.217621841228876 0
          6.5645059867689399 10.215177986207271 0
          6.5720319977189314 10.212862898191622 0
          6.5795982495887628 10.210682898454632 0
          6.5872038526834169 10.208644402483822 0
          6.5948475949594894 10.206753907931827 0
          6.6025279219116095 10.205017979798157 0
          6.6102429170394625 10.203443234867118 0
          6.6179902824477015 10.202036322693141 0
          6.6257673210954238 10.200803910134107 0
          6.6335709180142022 10.199752653748256 0
          6.6413975233795313 10.198889171176612 0
          6.6492431382148958 10.19822001913993 0
          6.6571033009517233 10.197751665874391 0
          6.6649730756803471 10.197490460084843 0
          6.6728262064998951 10.198064904802044 0
          6.6805731861435644 10.199474162300175 0
          6.6881239838214661 10.201707363044733 0
          6.6953893179970549 10.204743258579706 0
          6.7027783641440797 10.207465148198608 0
          6.7102881854883218 10.209833532896958 0
          6.7179005954797333 10.211847945738597 0
          6.725597832890478 10.213509020793451 0
          6.7333626322546971 10.214818418276058 0
          6.7411782833544063 10.215778748397685 0
          6.7490243670004668 10.216446081145879 0
          6.7568895583318982 10.216826681423097 0
          6.7647633171786481 10.216925455051889 0
          6.7726356416505951 10.216746274674456 0
          6.7804971426499572 10.216296645320854 0
          6.7883391900107313 10.215584306424061 0
          6.7961539018102206 10.214617257232046 0
          6.8039341383106224 10.213403751093587 0
          6.8116734814292377 10.21195219379433 0
          6.8193662029967923 10.210271045576041 0
          6.8270072476857875 10.20836882723321 0
          6.8345928768828079 10.20625648448239 0
          6.8421194575697957 10.203942589733987 0
          6.8495839486718157 10.201435666983523 0
          6.8569829705883851 10.19874168540457 0
          6.8643134658748988 10.195866501424288 0
          6.8715726750665107 10.19281584306086 0
          6.8787592153400778 10.189597759302259 0
          6.8858709625411469 10.186217630015637 0
          6.8929060131871323 10.182680669334502 0
          6.8998626612653009 10.178991917496921 0
          6.9067393754126849 10.175156234098967 0
          6.9135361559924844 10.171180650964292 0
          6.9202518489251679 10.167069594212576 0
          6.9268854039530154 10.162827294426103 0
          6.9334358552558193 10.1584577867522 0
          6.9399023004862448 10.15396490849815 0
          6.9462838809138452 10.149352298662867 0
          6.9525814948561138 10.144625706620394 0
          6.9587943949487041 10.139788313339576 0
          6.9649218170124447 10.134843103470121 0
          6.970962961825812 10.12979286730693 0
          6.9769169771038833 10.124640203263882 0
          6.9827829396231484 10.119387520843082 0
          6.9885598365983723 10.114037043202284 0
          6.994246549527583 10.108590812937297 0
          6.9998439355935718 10.103052817388548 0
          7.0053506791821114 10.097424680991416 0
          7.0107653028641908 10.091707860537094 0
          7.0160861491557842 10.085903651201471 0
          7.0213113609887916 10.080013192507282 0
          7.0264388643853399 10.074037477545792 0
          7.0314663931842265 10.067977398237421 0
          7.0363913793490962 10.061833678265272 0
          7.0412109759088857 10.055606922987835 0
          7.0459245078438819 10.049299478357169 0
          7.0505285681108063 10.042911665312637 0
          7.0550194021535138 10.036443724401948 0
          7.0593928829268826 10.029895833183714 0
          7.0636444846966713 10.023268126128274 0
          7.0677692555451683 10.016560717398363 0
          7.0717617377767468 10.009773697109397 0
          7.0756188224986527 10.002908785724165 0
          7.0793341645968901 9.9959660956526992 0
          7.0829008694257931 9.9889458405935549 0
          7.0863144349013583 9.9818498095577244 0
          7.0895667727484257 9.9746783968560138 0
          7.0926491923125035 9.9674322680383121 0
          7.095552309684769 9.9601123984633677 0
          7.0982691549379267 9.952721302503706 0
          7.100788904762477 9.945260643442138 0
          7.1031032421744467 9.9377336570730037 0
          7.1051997542904557 9.9301430387647596 0
          7.1070650913618989 9.9224922485095739 0
          7.1086888109074655 9.9147864766737506 0
          7.1100596224715469 9.9070316293463563 0
          7.1111616584317749 9.8992339538096434 0
          7.1125270025697915 9.8914783401132595 0
          7.1141371657457446 9.8837700853102959 0
          7.1159970761434277 9.8761184558001887 0
          7.1180877178533688 9.868526789633389 0
          7.1203883718405301 9.8609962355717489 0
          7.1228785711516727 9.8535263060049427 0
          7.1254710285368423 9.8460912967266108 0
          7.1279100115340892 9.8386045169645744 0
        </DataArray>
      </Points>
      <Cells>
        <DataArray type="Int32" Name="connectivity" format="ascii">
          0 1 1 2 2 3 3 4 4 5 5 6 6 7 7 8 8 9 9 10 10 11 11 12 12 13 13 14 14 15 15 16 16 17 17 18 18 19 19 20 20 21 21 22 22 23 23 24 24 25 25 26 26 27 27 28 28 29 29 30 30 31 31 32 32 33 33 34 34 35 35 36 36 37 37 38 38 39 39 40 40 41 41 42 42 43 43 44 44 45 45 46 46 47 47 48 48 49 49 50 50 51 51 52 52 53 53 54 54 55 55 56 56 57 57 58 58 59 59 60 60 61 61 62 62 63 63 64 64 65 65 66 66 67 67 68 68 69 69 70 70 71 71 72 72 73 73 74 74 75 75 76 76 77 77 78 78 79 79 80 80 81 81 82 82 83 83 84 84 85 85 86 86 87 87 88 88 89 89 90 90 91 91 92 92 93 93 94 94 95 95 96 96 97 97 98 98 99 99 100 100 101 101 102 102 103 103 104 104 105 105 106 106 107 107 108 108 109 109 110 110 111 111 112 112 113 113 114 114 115 115 116 116 117 117 118 118 119 119 120 120 121 121 122 122 123 123 124 124 125 125 126 126 127 
        </DataArray>
        <DataArray type="Int32" Name="offsets" format="ascii">
          2 4 6 8 10 12 14 16 18 20 22 24 26 28 30 32 34 36 38 40 42 44 46 48 50 52 54 56 58 60 62 64 66 68 70 72 74 76 78 80 82 84 86 88 90 92 94 96 98 100 102 104 106 108 110 112 114 116 118 120 122 124 126 128 130 132 134 136 138 140 142 144 146 148 150 152 154 156 158 160 162 164 166 168 170 172 174 176 178 180 182 184 186 188 190 192 194 196 198 200 202 204 206 208 210 212 214 216 218 220 222 224 226 228 230 232 234 236 238 240 242 244 246 248 250 252 254 
        </DataArray>
        <DataArray type="Int32" Name="types" format="ascii">
          3 3 3 3 3 3 3 3 3 3 3 3 3 3 3 3 3 3 3 3 3 3 3 3 3 3 3 3 3 3 3 3 3 3 3 3 3 3 3 3 3 3 3 3 3 3 3 3 3 3 3 3 3 3 3 3 3 3 3 3 3 3 3 3 3 3 3 3 3 3 3 3 3 3 3 3 3 3 3 3 3 3 3 3 3 3 3 3 3 3 3 3 3 3 3 3 3 3 3 3 3 3 3 3 3 3 3 3 3 3 3 3 3 3 3 3 3 3 3 3 3 3 3 3 3 3 3         </DataArray>
      </Cells>
    </Piece>
  </UnstructuredGrid>
</VTKFile>
