<?xml version="1.0"?>
<VTKFile type="UnstructuredGrid" version="0.1" byte_order="LittleEndian">
  <UnstructuredGrid>
    <Piece NumberOfPoints="128" NumberOfCells="127">
      <PointData Scalars="W">
        <DataArray type="Float32" Name="W" NumberOfComponents="2">
          0 0 -0.073232497530234947 0.20926222163633743 -0.12072807047829918 0.34245004400375678 -0.1607472362127641 0.45119013948544523 -0.19776207567095619 0.54783248416817498 -0.23366871742787165 0.63737162578322071 -0.26945407025409673 0.72220106214511881 -0.30574296905935699 0.80367175985702355 -0.34296686773428542 0.88257599495664596 -0.38147463522511915 0.95945601095465582 -0.42153348009525604 1.0346169302233907 -0.46338974143713307 1.1082888551173216 -0.50726154051355643 1.1806107143078415 -0.55335433650176447 1.2516709605780199 -0.60187284937674701 1.3215350384621851 -0.65301228706555614 1.3902249690944068 -0.70693204284193378 1.4576682051260355 -0.76381625758805527 1.5238297832460965 -0.82382733994913115 1.5886135076411694 -0.88710704407847252 1.6518719583346237 -0.95380037322441491 1.7134561444093703 -1.0240547215210156 1.7732119409577305 -1.0979973444688376 1.8309414241882147 -1.1757576667275709 1.8864446069486545 -1.2574516821174129 1.9394937294423245 -1.3431538903835929 1.9897959905270286 -1.4329536218204866 2.0370850012781521 -1.526952029731504 2.0811090409748574 -1.625188777829975 2.1215309638400477 -1.7274983882739174 2.1577710091460029 -1.834108835194848 2.1897691105638413 -1.9450054964253101 2.2171434617645001 -2.0601407932962115 2.2394889155318829 -2.1794459746954358 2.256394618454189 -2.3028145891112097 2.2674296258489126 -2.4301350604085288 2.2721785340079887 -2.5613081888477645 2.2702524415061678 -2.6960980617002703 2.2611583221516569 -2.8342116232710164 2.2443929464118311 -2.9754052781351281 2.2195286710301105 -3.119372362926061 2.1861164256287871 -3.2657340672613162 2.1436900992756569 -0.61655091567936637 0.38879164311804082 -0.8934363538199811 0.55467146581897475 -0.97345201602949127 0.59276530712627185 -1.2611710766044761 0.75031775227931286 -1.5637674844176113 0.90324535179978227 -2.109605388329149 1.1722006370879492 -2.4479965398768111 1.2955351336387866 -3.0683058605547324 1.5291249809089906 -13.489560536462635 5.5657237189421336 -14.1577299147734 4.0069318966290242 -14.652604503816855 2.35435058512159 4.8658730205265401 -0.58736210357797514 -0.75670955396524497 0.10388329456062943 -0.74390546587470729 0.097608193818267103 -1.0122181282160114 0.12563929079550537 -1.0924412695127628 0.12634315195713394 -1.1698841048504236 0.12467962282061658 -1.2505663898015915 0.12116851719226451 -1.3308414366453731 0.11524195007296825 -1.4103013481671531 0.10674346456321152 -1.4852687956385875 0.095351774805022299 -1.5619313205935292 0.08142960793283191 -1.830644727254475 0.070898894189652936 -1.9033287185314014 0.045677313083612225 -1.9732492845305767 0.017211454489914048 -2.0400229971049653 -0.014455622934850299 -2.1034819578307289 -0.049248586579031778 -2.1632723123423157 -0.087060666134376033 -2.21912400158585 -0.12775191111676365 -2.2707853490219505 -0.17115131193079552 -2.3180247247558921 -0.2170581532579845 -2.3606322841409493 -0.26524370402770925 -2.2029034566538255 -0.28799530305291604 -2.2366654363840786 -0.33266957811290737 -2.2655568893977223 -0.37865223187296276 -2.2894410931129876 -0.42565068116611166 -2.3082068404795373 -0.47335406918919687 -2.3217063037346604 -0.52142119849615687 -2.3300092962667458 -0.56954037548405179 -2.3363054061638642 -0.6182528516725595 -2.3339961316939735 -0.6655257413269875 -2.3264222542360713 -0.71177784685681711 -2.1327546806210127 -0.69572128167788017 -2.1170199298472454 -0.7321841372845862 -2.0965159104944533 -0.76668763664749318 -2.0712654416340666 -0.79889183821170628 -2.0413720837926745 -0.82848407347022746 -2.0099750478100216 -0.85647870542656113 -1.8031735032552627 -0.80349557126925475 -1.7625747344751395 -0.81821700000316211 -1.717980080118293 -0.8294047401527006 -1.6695032993490084 -0.83682434661707339 -1.6172117728819437 -0.84022989303185414 -1.4047354696719323 -0.75400567548498099 -1.3475460175463767 -0.74487089362714221 -1.2896457501767489 -0.73303980154671988 -1.2255218550999214 -0.7152421406426358 -1.1579414044789424 -0.69282925250494787 -1.0870079036365323 -0.66573345972335762 -1.0126570905726653 -0.63381680953560737 -0.93484864657191458 -0.59698583434821062 -0.8535124450595013 -0.55516350173988438 -0.76854347325211458 -0.50828941025832453 -0.67716153059944095 -0.45453909965646194 -0.58446322157143837 -0.39741802647099506 -0.48754081973891311 -0.33517093502596879 -0.38608189621952255 -0.26780365575667708 -0.27969937934824018 -0.19533773229531995 -0.16523110554391224 -0.11592116282470311 -0.19330366700428081 -0.13611433625037278 -0.066113386281750813 -0.046677261588863095 -0.085334353889576373 -0.060341026638400984 0.053680330533455632 0.037970346205888031 0.047964956529108482 0.033892363662010157 0.19679156135337281 0.13870661108008861 0.76708628164551695 0.53537297985783827 0.97497383321508646 0.66844443734561987 1.0382182625906373 0.69727945805461911 1.292697331918601 0.84768515747325346 1.4193379100806558 0.90513142020812731 1.7438307090545366 1.0763393213183774 1.9287506626152724 1.1459083237119183 2.2108245461130323 1.2577183551617968 2.5319183799315979 1.3696638240276358 2.1574007236645962 1.1094416411469477 0 0
        </DataArray>
        <DataArray type="Float32" Name="u" NumberOfComponents="1">
          0 0.007874015748031496 0.015748031496062992 0.023622047244094488 0.031496062992125984 0.03937007874015748 0.047244094488188976 0.055118110236220472 0.062992125984251968 0.070866141732283464 0.07874015748031496 0.086614173228346455 0.094488188976377951 0.10236220472440945 0.11023622047244094 0.11811023622047244 0.12598425196850394 0.13385826771653545 0.14173228346456693 0.14960629921259844 0.15748031496062992 0.16535433070866143 0.17322834645669291 0.18110236220472442 0.1889763779527559 0.19685039370078741 0.20472440944881889 0.2125984251968504 0.22047244094488189 0.2283464566929134 0.23622047244094488 0.24409448818897639 0.25196850393700787 0.25984251968503935 0.26771653543307089 0.27559055118110237 0.28346456692913385 0.29133858267716534 0.29921259842519687 0.30708661417322836 0.31496062992125984 0.32283464566929132 0.33070866141732286 0.33858267716535434 0.34645669291338582 0.3543307086614173 0.36220472440944884 0.37007874015748032 0.37795275590551181 0.38582677165354329 0.39370078740157483 0.40157480314960631 0.40944881889763779 0.41732283464566927 0.42519685039370081 0.43307086614173229 0.44094488188976377 0.44881889763779526 0.45669291338582679 0.46456692913385828 0.47244094488188976 0.48031496062992124 0.48818897637795278 0.49606299212598426 0.50393700787401574 0.51181102362204722 0.51968503937007871 0.52755905511811019 0.53543307086614178 0.54330708661417326 0.55118110236220474 0.55905511811023623 0.56692913385826771 0.57480314960629919 0.58267716535433067 0.59055118110236215 0.59842519685039375 0.60629921259842523 0.61417322834645671 0.62204724409448819 0.62992125984251968 0.63779527559055116 0.64566929133858264 0.65354330708661412 0.66141732283464572 0.6692913385826772 0.67716535433070868 0.68503937007874016 0.69291338582677164 0.70078740157480313 0.70866141732283461 0.71653543307086609 0.72440944881889768 0.73228346456692917 0.74015748031496065 0.74803149606299213 0.75590551181102361 0.76377952755905509 0.77165354330708658 0.77952755905511806 0.78740157480314965 0.79527559055118113 0.80314960629921262 0.8110236220472441 0.81889763779527558 0.82677165354330706 0.83464566929133854 0.84251968503937003 0.85039370078740162 0.8582677165354331 0.86614173228346458 0.87401574803149606 0.88188976377952755 0.88976377952755903 0.89763779527559051 0.90551181102362199 0.91338582677165359 0.92125984251968507 0.92913385826771655 0.93700787401574803 0.94488188976377951 0.952755905511811 0.96062992125984248 0.96850393700787396 0.97637795275590555 0.98425196850393704 0.99212598425196852 1
        </DataArray>
      </PointData>
      <CellData Scalars="P">
        <DataArray type="Float32" Name="P" NumberOfComponents="1">
          -0.038933912659689533 -0.11663614549509335 -0.1939319481329973 -0.2706078041603292 -0.34644081118458664 -0.42118935765868631 -0.4945904738238176 -0.56635882218807132 -0.63618697016224901 -0.70374553800756368 -0.76868471596882459 -0.8306349830239268 -0.88920854117606418 -0.94400060978013833 -0.99459042004098241 -1.0405427439896049 -1.0814111217048379 -1.1167381294576295 -1.1460581917329544 -1.1689006738171204 -1.1847916235878566 -1.1932555017213715 -1.1938185160338179 -1.186010442572371 -1.1693675809802955 -1.1434380135554962 -1.1077825054755084 -1.0619754300838813 -1.0056117636313138 -0.93832670658729356 -0.8597638030993332 -0.76959754918733658 -0.66753807283426581 -0.55333472242380521 -0.42678106394910353 -0.28771685633672694 -0.1360283532654086 0.028337871019445644 0.20536854347914318 0.39498715814824742 0.59704714775159107 0.81132440742240064 0.80187009782687768 0.81885174532509508 0.84287365428656313 0.89249533861198982 0.96736105178662535 1.0869450745655553 1.2295131236598642 1.4158000486644253 2.3511728441157369 3.2706369962124802 4.1909376485645593 3.7631861420144976 3.7517052425354289 3.7407286373235848 3.7523648184044176 3.7713029565710032 3.7968253526268252 3.8286213688597339 3.866006190555848 3.9081949189180043 3.9540581060618907 4.0029125829236243 4.0681482435895644 4.13380609360203 4.1988087247477859 4.2620740479949424 4.3225427959536811 4.3791783224148855 4.4309841935703016 4.4770163910855683 4.5163946637892405 4.5483129219195924 4.5642176052124643 4.5721919547661507 4.5716236246820641 4.5619910631558147 4.5428692690444654 4.5139331267065872 4.4749645998486685 4.4258848852320778 4.3666382641556929 4.2973270685601817 4.2185405270760983 4.1309846587978578 4.0349445735307485 3.9307916234455997 3.8189787537361073 3.699969929524233 3.5786363212226373 3.4519881101426715 3.3206252355034405 3.1851944131799805 3.0463839556427259 2.9112815111338333 2.7746232925598986 2.6369417744130339 2.4990291464456624 2.3615675194134389 2.2252334805708895 2.0906979399716357 1.9586164377776567 1.8296216993369958 1.7043161560873057 1.583415461651887 1.467288048918943 1.3563997948703383 1.2511571524757055 1.1519001908717303 1.0590459625960313 0.96465170269279665 0.87716564152343501 0.78871205272788247 0.70728175825912332 0.62549216977919031 0.55027092675342337 0.49795880667914239 0.45091866117619922 0.40265468166744584 0.35824389482930391 0.31225188832244566 0.26775343871806739 0.21954264433127879 0.16727720485958544 0.1089356848357034 0.039051803186950056
        </DataArray>
      </CellData>
      <Points>
        <DataArray type="Float32" NumberOfComponents="3" format="ascii">
          4.1525483379864827 6.1602796723076523 0
          4.1599826739639827 6.1628740785800469 0
          4.1674124656618332 6.1654814578195083 0
          4.1748347680957023 6.1681100675837754 0
          4.1822471019365688 6.1707666504031682 0
          4.189647175767921 6.1734571993680287 0
          4.1970327682132949 6.1761872677436749 0
          4.2044016664978336 6.1789621173477389 0
          4.2117516274932409 6.1817868023065516 0
          4.2190803507759451 6.1846662181832102 0
          4.2263854568233263 6.1876051356109105 0
          4.2336644702871338 6.1906082192296639 0
          4.2409148045725216 6.1936800419750444 0
          4.2481337481764747 6.1968250937160336 0
          4.2553184518196145 6.2000477867641521 0
          4.2624659156308216 6.2033524599560748 0
          4.2695729769275115 6.2067433800431422 0
          4.2766363002216154 6.2102247372154693 0
          4.2836523656951613 6.2138006429544141 0
          4.2906174590268025 6.2174751240854391 0
          4.2975276625019845 6.221252113651099 0
          4.3043788459239005 6.2251354416826974 0
          4.3111666573778136 6.2291288256493234 0
          4.317886515245676 6.2332358581859939 0
          4.3245336000871299 6.2374599946888427 0
          4.3311028473540434 6.2418045391824828 0
          4.3375889426791971 6.2462726261472268 0
          4.343986316245303 6.2508672039783884 0
          4.3502891364202041 6.2555910193495068 0
          4.356491307206281 6.2604465962699321 0
          4.3625864784177377 6.265436200082064 0
          4.3685680314469293 6.2705618336947531 0
          4.3744290800803167 6.2758252138493642 0
          4.3801624733586415 6.2812277459299581 0
          4.3857607997503329 6.2867704984118236 0
          4.3912163936636608 6.2924541760554051 0
          4.3965213422757854 6.2982790940569782 0
          4.4016674915916001 6.304245153836983 0
          4.4066464609865106 6.3103518123573465 0
          4.4114496612954399 6.3165980507961974 0
          4.4160683098294626 6.3229823479061782 0
          4.4204934493048267 6.3295026520340354 0
          4.424715971248399 6.3361563520729085 0
          4.4289000761513062 6.3428339904595514 0
          4.433028566591724 6.349545852360218 0
          4.4370964824828523 6.3562943041430788 0
          4.4410859593685377 6.3630891124437179 0
          4.4449782129752569 6.3699397552405026 0
          4.4487393544675866 6.3768628947605759 0
          4.4523483900261844 6.3838661689265876 0
          4.4557668250393663 6.3909640396581429 0
          4.4583481006813859 6.3984076190497534 0
          4.460050654752937 6.4061001972364409 0
          4.4608436694985691 6.4139392253188454 0
          4.4619388012270766 6.4217420859786705 0
          4.4629869362339436 6.4295512649437114 0
          4.4639888726758423 6.4373663795860354 0
          4.464927954714482 6.4451891558527592 0
          4.465799205820085 6.4530196377901623 0
          4.4665978224860368 6.4608577227843185 0
          4.4673188004884841 6.4687031933458741 0
          4.4679571612812445 6.4765556820982688 0
          4.4685079773030356 6.4844146620693168 0
          4.4689666002123092 6.4922794269816313 0
          4.4693282767981621 6.5001491133187903 0
          4.4695763349847875 6.5080230552444389 0
          4.4697062703600885 6.5158996885156668 0
          4.4697137503380642 6.5237772476796492 0
          4.469594637926348 6.5316537687723164 0
          4.4693450021165289 6.5395270940084105 0
          4.4689611398118343 6.5473948784361555 0
          4.4684395925520173 6.5552545986469815 0
          4.4677771620948983 6.5631035634125396 0
          4.4669709247512825 6.570938926164577 0
          4.4660182443653653 6.5787576992123702 0
          4.4649289120994435 6.5865584833837252 0
          4.4637008397264291 6.5943385086914539 0
          4.4623322412730717 6.6020949242292701 0
          4.4608216414600559 6.6098248163455624 0
          4.4591678825561845 6.6175252279488319 0
          4.4573701335003868 6.6251931796958425 0
          4.4554278855224538 6.6328256893380395 0
          4.4533407542928316 6.6404197380285055 0
          4.4511088890810786 6.6479723967242155 0
          4.4487327655082005 6.655480800064268 0
          4.446224398253797 6.6629459544152265 0
          4.4435847679521645 6.6703656014536419 0
          4.440815150768004 6.6777376047139585 0
          4.4379171169247424 6.685059970677016 0
          4.4348925242253596 6.6923308681613021 0
          4.4317433233637464 6.6995485653272198 0
          4.4284823394538213 6.7067163571081982 0
          4.4251120925382041 6.7138333347198804 0
          4.4216353499781311 6.72089880882963 0
          4.4180551193500976 6.7279123240898659 0
          4.4143746442198131 6.7348736743827313 0
          4.410607098234701 6.7417882144616836 0
          4.4067560274340298 6.7486565156315379 0
          4.4028250213767723 6.755479316654708 0
          4.3988180548731615 6.7622577266179746 0
          4.3947393164143493 6.768993141089914 0
          4.3905932017348936 6.7756872463189088 0
          4.386384317782829 6.7823420277931277 0
          4.3821174852132607 6.7889597760450098 0
          4.3777977427388199 6.7955430914410293 0
          4.3734303536529326 6.8020948879454837 0
          4.3690209782301004 6.8086185062565505 0
          4.36457535777354 6.8151174964980488 0
          4.3600994949401795 6.8215957270916316 0
          4.3555996731769122 6.8280573844424461 0
          4.3510824808025355 6.8345069716590201 0
          4.3465550072018271 6.8409494234071015 0
          4.342015501627027 6.8473835014467186 0
          4.3374718412082149 6.8538147638171667 0
          4.3329228220427289 6.8602423799833039 0
          4.328377053704763 6.866672460679963 0
          4.3238341680218841 6.8731047728711445 0
          4.3193033827372487 6.8795458335048743 0
          4.314820065187158 6.8860202458489059 0
          4.3103971025253136 6.8925362793366167 0
          4.3060384083079235 6.8990957463865188 0
          4.3017597635897635 6.9057079942928343 0
          4.2975690182580131 6.912376612652122 0
          4.2934863035981206 6.9191122414253998 0
          4.2895230912915396 6.9259192257290287 0
          4.285696886494053 6.9328045301881804 0
          4.2820276204524319 6.9397751307297506 0
          4.2784920377715636 6.9468149614185597 0
        </DataArray>
      </Points>
      <Cells>
        <DataArray type="Int32" Name="connectivity" format="ascii">
          0 1 1 2 2 3 3 4 4 5 5 6 6 7 7 8 8 9 9 10 10 11 11 12 12 13 13 14 14 15 15 16 16 17 17 18 18 19 19 20 20 21 21 22 22 23 23 24 24 25 25 26 26 27 27 28 28 29 29 30 30 31 31 32 32 33 33 34 34 35 35 36 36 37 37 38 38 39 39 40 40 41 41 42 42 43 43 44 44 45 45 46 46 47 47 48 48 49 49 50 50 51 51 52 52 53 53 54 54 55 55 56 56 57 57 58 58 59 59 60 60 61 61 62 62 63 63 64 64 65 65 66 66 67 67 68 68 69 69 70 70 71 71 72 72 73 73 74 74 75 75 76 76 77 77 78 78 79 79 80 80 81 81 82 82 83 83 84 84 85 85 86 86 87 87 88 88 89 89 90 90 91 91 92 92 93 93 94 94 95 95 96 96 97 97 98 98 99 99 100 100 101 101 102 102 103 103 104 104 105 105 106 106 107 107 108 108 109 109 110 110 111 111 112 112 113 113 114 114 115 115 116 116 117 117 118 118 119 119 120 120 121 121 122 122 123 123 124 124 125 125 126 126 127 
        </DataArray>
        <DataArray type="Int32" Name="offsets" format="ascii">
          2 4 6 8 10 12 14 16 18 20 22 24 26 28 30 32 34 36 38 40 42 44 46 48 50 52 54 56 58 60 62 64 66 68 70 72 74 76 78 80 82 84 86 88 90 92 94 96 98 100 102 104 106 108 110 112 114 116 118 120 122 124 126 128 130 132 134 136 138 140 142 144 146 148 150 152 154 156 158 160 162 164 166 168 170 172 174 176 178 180 182 184 186 188 190 192 194 196 198 200 202 204 206 208 210 212 214 216 218 220 222 224 226 228 230 232 234 236 238 240 242 244 246 248 250 252 254 
        </DataArray>
        <DataArray type="Int32" Name="types" format="ascii">
          3 3 3 3 3 3 3 3 3 3 3 3 3 3 3 3 3 3 3 3 3 3 3 3 3 3 3 3 3 3 3 3 3 3 3 3 3 3 3 3 3 3 3 3 3 3 3 3 3 3 3 3 3 3 3 3 3 3 3 3 3 3 3 3 3 3 3 3 3 3 3 3 3 3 3 3 3 3 3 3 3 3 3 3 3 3 3 3 3 3 3 3 3 3 3 3 3 3 3 3 3 3 3 3 3 3 3 3 3 3 3 3 3 3 3 3 3 3 3 3 3 3 3 3 3 3 3         </DataArray>
      </Cells>
    </Piece>
  </UnstructuredGrid>
</VTKFile>
