<?xml version="1.0"?>
<VTKFile type="UnstructuredGrid" version="0.1" byte_order="LittleEndian">
  <UnstructuredGrid>
    <Piece NumberOfPoints="128" NumberOfCells="127">
      <PointData Scalars="W">
        <DataArray type="Float32" Name="W" NumberOfComponents="2">
          0 0 -0.64015448861910806 0.11536325799927677 -1.0187575003615275 0.17662413127243953 -1.30628073083444 0.2140017632597766 -1.5454742784479318 0.23518152672846157 -1.7537589328325749 0.24336884563397451 -1.9399620438777463 0.24026154265161387 -2.1092138403270795 0.22691747909582369 -2.2647296013319775 0.20407129215948308 -2.4087100257543481 0.1722850717383009 -2.5426378620612735 0.13200801713999449 -2.6675595174678155 0.083623199430252579 -2.7842373853994675 0.027471231166698234 -2.8932809462150959 -0.036138026188148507 -2.9951633955668728 -0.10692246331219321 -3.0902234479017561 -0.18462215921669567 -3.1786245826408011 -0.26898648242677092 -3.2605469684260266 -0.35977934266750589 -3.3360936035304154 -0.45677410302640586 -3.4052787734070153 -0.55974481677853238 -3.4680913834240568 -0.6684690152768713 -3.5245156578239558 -0.78273175191369337 -3.574485492259031 -0.90231575635690009 -3.6178910685721859 -1.0269969721768948 -3.6546541829569965 -1.1565634108372698 -3.6845852845214875 -1.2907708863160074 -3.7075357389719339 -1.4293829613860449 -3.7234161738608873 -1.5721884655012228 -3.7320531236682104 -1.7189477205902215 -3.7329471229401934 -1.8692485996909491 -3.7262187159348845 -2.0229571271898412 -3.7116531137808741 -2.1797936469867514 -3.6890439961985448 -2.3394733786114745 -3.6581491579667444 -2.501677054005754 -3.6187424814751603 -2.6660786979386448 -3.5705866077640276 -2.832326504745172 -3.5135223867655818 -3.0001159140978717 -3.4472663344905166 -3.1690249818598519 -3.3715307151587552 -3.3385850885755977 -3.2861476464022283 -3.5084071365709883 -3.1909247392283167 -3.6780591274935994 -3.0856526772078277 -3.8470595911150824 2.5216871483811691 3.1664462109031195 2.5588376417345775 3.0132257438216219 2.5845873046969601 2.8604739195010342 2.6000277703067978 2.709739406096451 2.605454969168203 2.5614728932819797 2.5728855484223199 2.3905220334957873 2.5577437059627246 2.2498113201744383 2.501791589552155 2.0867647374315292 2.395706720081114 1.8993030230167711 -11.723299648976866 -10.276125257198172 -10.418517007476122 -11.689212826368623 -8.9337708385286554 -12.937063840304678 2.2219549918785551 3.5525924302411047 2.3049861976314121 3.4300187357182748 2.3798221759953644 3.3054988569296917 2.2398750388962618 2.9189423763529501 2.276143833048176 2.796355608070356 2.3049314961710405 2.674596796118843 2.3265874871611101 2.5541828619587301 2.3414757567997611 2.4355613057528607 2.3499885028049836 2.3191351127495761 2.3525316482103422 2.205254053122327 2.3385826682001398 2.0847082457894719 2.341422161803151 1.986773823048106 2.3406239631233481 1.8916241436562709 2.3242770583905248 1.7901586845506232 2.3169304930317156 1.7015330192395979 2.3071142061227103 1.6160210506615791 2.2951862332817838 1.5336678030790638 2.2814984835348069 1.4544952930648813 2.266047738345371 1.3782975403527709 2.2360073199044668 1.2976336133333035 2.2187292960697302 1.2284864877335337 2.2010141512472146 1.1623905033243189 2.1831544048406508 1.0992719971078466 2.1654258787619254 1.0390417339108524 2.1481061075791268 0.98160508160819393 2.1314478802908723 0.92685009696054221 2.1153417959036109 0.87451425572084174 2.0853630057030141 0.81889159549198176 2.0719168246965927 0.7719823891826858 2.0600675772655408 0.72722175345693563 2.0500309236189675 0.68446377756651977 2.0420002548172653 0.64355066024777496 2.0358103222589117 0.60421740021390535 2.0323551302331144 0.56651178377582712 2.0314611489725065 0.53014340446552355 2.0333028691257509 0.49492894192422165 2.0380497950727285 0.46067683697234796 2.0455169720039246 0.42711642577001602 2.0565698795356333 0.39419007742339601 2.0542342481716314 0.35880542472359134 2.0718045770115716 0.32681188241714065 2.0934431547613199 0.29473828740945451 2.1189659166204442 0.26225984606554209 2.1485311313345732 0.22909609498015357 2.1819633419727289 0.19491870720410809 2.2200897687961518 0.15946810041923384 2.2627390197257329 0.12235358188313659 2.2924833557865156 0.08271730334623939 2.3446490864519238 0.04174144553560552 2.4015301209720157 -0.002132477324751672 2.4639354517116474 -0.049401589471845225 2.5135447677434377 -0.099727803789447081 2.5869218271192329 -0.15478961848209707 2.6660608344746617 -0.21508272525904826 2.7324502130008512 -0.27925763309063401 2.8240972628882464 -0.35161502026232183 2.9217997241948743 -0.43174005974927282 3.0069558444007209 -0.51724011681756032 3.1185770400243564 -0.61555571806469644 3.2174079477684678 -0.7207536873967102 3.3434784071018115 -0.84283828179180054 3.457752524452947 -0.97434283272995681 3.6002378766943424 -1.1281630493309946 3.7877188874426491 -1.3156683074965569 3.9537985703094156 -1.5189144704513715 0.6332531201814644 -0.2574588073360683 0.65007386008538182 -0.26844406016026273 0.36934351802995341 -0.15440051548907366 0.18420051686255548 -0.077515219770296434 -0.25724787556734563 0.10816052051365045 -1.2834869520817442 0.52975205913389833 -3.6416228043413721 1.4149033287917425 -4.5695971333937155 1.5965350747053284 0 0
        </DataArray>
        <DataArray type="Float32" Name="u" NumberOfComponents="1">
          0 0.007874015748031496 0.015748031496062992 0.023622047244094488 0.031496062992125984 0.03937007874015748 0.047244094488188976 0.055118110236220472 0.062992125984251968 0.070866141732283464 0.07874015748031496 0.086614173228346455 0.094488188976377951 0.10236220472440945 0.11023622047244094 0.11811023622047244 0.12598425196850394 0.13385826771653545 0.14173228346456693 0.14960629921259844 0.15748031496062992 0.16535433070866143 0.17322834645669291 0.18110236220472442 0.1889763779527559 0.19685039370078741 0.20472440944881889 0.2125984251968504 0.22047244094488189 0.2283464566929134 0.23622047244094488 0.24409448818897639 0.25196850393700787 0.25984251968503935 0.26771653543307089 0.27559055118110237 0.28346456692913385 0.29133858267716534 0.29921259842519687 0.30708661417322836 0.31496062992125984 0.32283464566929132 0.33070866141732286 0.33858267716535434 0.34645669291338582 0.3543307086614173 0.36220472440944884 0.37007874015748032 0.37795275590551181 0.38582677165354329 0.39370078740157483 0.40157480314960631 0.40944881889763779 0.41732283464566927 0.42519685039370081 0.43307086614173229 0.44094488188976377 0.44881889763779526 0.45669291338582679 0.46456692913385828 0.47244094488188976 0.48031496062992124 0.48818897637795278 0.49606299212598426 0.50393700787401574 0.51181102362204722 0.51968503937007871 0.52755905511811019 0.53543307086614178 0.54330708661417326 0.55118110236220474 0.55905511811023623 0.56692913385826771 0.57480314960629919 0.58267716535433067 0.59055118110236215 0.59842519685039375 0.60629921259842523 0.61417322834645671 0.62204724409448819 0.62992125984251968 0.63779527559055116 0.64566929133858264 0.65354330708661412 0.66141732283464572 0.6692913385826772 0.67716535433070868 0.68503937007874016 0.69291338582677164 0.70078740157480313 0.70866141732283461 0.71653543307086609 0.72440944881889768 0.73228346456692917 0.74015748031496065 0.74803149606299213 0.75590551181102361 0.76377952755905509 0.77165354330708658 0.77952755905511806 0.78740157480314965 0.79527559055118113 0.80314960629921262 0.8110236220472441 0.81889763779527558 0.82677165354330706 0.83464566929133854 0.84251968503937003 0.85039370078740162 0.8582677165354331 0.86614173228346458 0.87401574803149606 0.88188976377952755 0.88976377952755903 0.89763779527559051 0.90551181102362199 0.91338582677165359 0.92125984251968507 0.92913385826771655 0.93700787401574803 0.94488188976377951 0.952755905511811 0.96062992125984248 0.96850393700787396 0.97637795275590555 0.98425196850393704 0.99212598425196852 1
        </DataArray>
      </PointData>
      <CellData Scalars="P">
        <DataArray type="Float32" Name="P" NumberOfComponents="1">
          -0.013610268361740776 -0.039065107204324004 -0.060889196158048838 -0.078130155393841424 -0.090195613023834456 -0.09669754025631809 -0.097381998906608327 -0.092088813889711199 -0.080726042541488754 -0.063250969114308567 -0.039657756043478549 -0.0099675786443375082 0.025779379155721923 0.067531482598468431 0.1152313871401906 0.16882002550773509 0.22823796593890897 0.29343052862880181 0.36434980629905506 0.44095553997771808 0.52321716364406912 0.61111611496683371 0.70464640027998504 0.80381493016606798 0.9086441152616056 1.0191692870410025 1.1354410625503417 1.2575285720869775 1.3855171981871497 1.5194953554710582 1.6595799647242822 1.8059034269608225 1.9586139950785941 2.1178738780649509 2.2838594877248886 2.4567601624405704 2.6367816853716861 2.8241384480223393 3.0190509890306942 3.2217513429099811 3.4324798567567254 3.6514816688565088 3.4265311629232684 3.1960222260563245 2.9623454855397271 2.7276505182374238 2.4939115870561701 2.2652880496740386 2.0410781493042678 1.8252719318588437 1.6222378101086476 2.5195154602050391 3.3836013106201861 4.2130702001710514 3.9646233532581858 3.7095228615551692 3.4496752539205837 3.2077508444769745 2.9659135100737846 2.7255544143942299 2.4879380778496993 2.2542033764737419 2.0253639760566085 1.8023108854862888 1.5867539730941833 1.377452923218172 1.1749477754165554 0.98063834101818348 0.79392392443630611 0.61509118865535239 0.44435731830613523 0.281875937347769 0.12776433028699574 -0.017155643234970031 -0.15372547306128298 -0.28199005532979221 -0.40202797618371855 -0.51394596863713593 -0.61787445785821282 -0.71396215288042286 -0.80235976581863799 -0.8827868390531447 -0.9559429251722994 -1.0220115854842611 -1.0811757325851055 -1.1336143951386517 -1.1794954482107245 -1.2189892715447976 -1.252249794490893 -1.2794190248620512 -1.3006258091420473 -1.3159855419009148 -1.3255988406997654 -1.3296755536900478 -1.3282163352628646 -1.321274960754151 -1.3088939111980487 -1.2911029525574795 -1.267927175050614 -1.2393695974530816 -1.2054315045729875 -1.1665674115583449 -1.1223503761554994 -1.0727842075943845 -1.0178592656663759 -0.95817195033988611 -0.89318234244282624 -0.82292951203320164 -0.74814129167894317 -0.66825265145204982 -0.58340492538514788 -0.49448492160513641 -0.40100173487103719 -0.30398832583288626 -0.2030687496779181 -0.09940619774873731 0.0072014941630716518 0.11739497306833917 0.22929282894070155 0.22658319984535183 0.22326918683456851 0.2106511948821819 0.19264197401260322 0.1649751580723457 0.12133009615488118 0.056002231327593223 0.00774419401666599
        </DataArray>
      </CellData>
      <Points>
        <DataArray type="Float32" NumberOfComponents="3" format="ascii">
          4.3632147029883708 9.1056571041495715 0
          4.3646311626431391 9.1134033692998599 0
          4.3660079252472386 9.1211567857101716 0
          4.367321513112417 9.1289211509468267 0
          4.3685540966339316 9.1366987818855794 0
          4.3696908432849249 9.1444909911319598 0
          4.370718837322439 9.1522982857304598 0
          4.3716265323865393 9.1601204724176384 0
          4.3724034333639716 9.167956723204842 0
          4.3730398970009086 9.1758056209248728 0
          4.3735269954314875 9.1836651940831153 0
          4.3738564242274558 9.1915329447108149 0
          4.3740204375058962 9.199405872119387 0
          4.3740118006489697 9.207280494022962 0
          4.3738237525059933 9.2151528657547903 0
          4.3734499760466408 9.2230185977632644 0
          4.37288457735335 9.2308728717324318 0
          4.3721220754799672 9.2387104561266913 0
          4.3711573912754504 9.2465257208339722 0
          4.3699858409927801 9.2543126512228486 0
          4.3686031353987662 9.2620648621568407 0
          4.3670053804574813 9.269775611793083 0
          4.3651890783038247 9.2774378149144958 0
          4.3631511313377027 9.2850440564059742 0
          4.3608888490286333 9.2925866051512642 0
          4.3583999527597905 9.3000574271813647 0
          4.3556825875762257 9.3074482008192696 0
          4.352735331395678 9.3147503313440083 0
          4.3495572005444876 9.3219549640876842 0
          4.3461476605076843 9.3290529992999858 0
          4.3425066568930983 9.3360351177053964 0
          4.3386346079501834 9.3428917888126808 0
          4.3345324178817251 9.3496132882572649 0
          4.3302014896302046 9.3561897154609568 0
          4.3256437398890517 9.3626110134296905 0
          4.320861613116147 9.3688669889666656 0
          4.3158580962441819 9.3749473344866541 0
          4.3106367285414526 9.3808416469002776 0
          4.3052016191819877 9.3865394537762281 0
          4.2995574650791522 9.3920302423969986 0
          4.2937095612876375 9.3973034838831833 0
          4.2876638129250155 9.4023486599772532 0
          4.2814267481429225 9.4071552928941813 0
          4.27534606065145 9.4121582426364121 0
          4.2694240517295796 9.4173480074003724 0
          4.2636623157344227 9.4227151147240065 0
          4.2580618077975769 9.4282502175217466 0
          4.2526228621997122 9.4339441220246325 0
          4.2473434576746856 9.4397862279096092 0
          4.2422226531656779 9.4457678105094711 0
          4.2372569776264992 9.4518787602527627 0
          4.2324398519611366 9.458107453821702 0
          4.226895870549324 9.4636990101487264 0
          4.2207059329036873 9.4685658176580692 0
          4.2139620960959343 9.4726305098891341 0
          4.2073560272790518 9.4769154636298758 0
          4.2008928739791624 9.4814130788987434 0
          4.1945772756169175 9.4861156350978764 0
          4.1884005566074984 9.4909991638189357 0
          4.1823649649091079 9.4960560644560061 0
          4.1764722846579811 9.5012787878230274 0
          4.1707238578384773 9.5066598682021759 0
          4.1651206068514277 9.5121919510879849 0
          4.1596630588334333 9.5178678181715135 0
          4.1543513708268165 9.5236804090251876 0
          4.1491846774046284 9.5296222500621006 0
          4.1441631540052892 9.5356872697439599 0
          4.1392867505772042 9.5418695692466926 0
          4.1345544530979828 9.5481628582188875 0
          4.1299658056007935 9.5545616424509312 0
          4.1255201990451971 9.5610606208328495 0
          4.1212168935153466 9.5676546881426656 0
          4.1170550400382364 9.5743389364085694 0
          4.1130336803832916 9.5811086421365097 0
          4.1091509517767735 9.5879588050176299 0
          4.1054057827856649 9.5948851387934688 0
          4.1017970749248285 9.6018835464125392 0
          4.0983237207931911 9.6089501154615533 0
          4.0949846211748282 9.6160811126314076 0
          4.0917787022464633 9.623272977848691 0
          4.0887049312509474 9.6305223173341492 0
          4.0857623097136262 9.6378258873281926 0
          4.082948979032329 9.645180240451996 0
          4.0802641057489382 9.6525824694771583 0
          4.0777069554718661 9.6600298004151544 0
          4.0752769062493899 9.6675195834702485 0
          4.0729734605626984 9.6750492832553778 0
          4.0707962350816658 9.6826164623660027 0
          4.0687450161013512 9.6902187843340286 0
          4.0668197487856474 9.6978539956258345 0
          4.065020547990966 9.7055199142756123 0
          4.0633477087815022 9.7132144180077393 0
          4.0618016949662668 9.7209354274601036 0
          4.0603831927716181 9.7286809025985992 0
          4.0590920583118262 9.7364486512937294 0
          4.0579293821167619 9.7442366914190117 0
          4.0568965070800678 9.7520430358933243 0
          4.0559950170562926 9.7598656725457005 0
          4.0552267466866985 9.7677025467219298 0
          4.0545937705324402 9.7755515409300404 0
          4.0540984543841487 9.7834104587249939 0
          4.053743444650026 9.7912770004841185 0
          4.0535305876892123 9.7991487106548423 0
          4.0534631204035119 9.8070230501862756 0
          4.0535445723078913 9.8148973003050006 0
          4.0537788157192525 9.8227685316591042 0
          4.0541689297396255 9.8306336258070619 0
          4.0547194676156249 9.8384891700874491 0
          4.0554353402180441 9.8463314273553735 0
          4.0563206681687465 9.8541564202434628 0
          4.0573811387347911 9.8619596632566431 0
          4.0586228151131909 9.8697361890449713 0
          4.0600509829772964 9.877480697403783 0
          4.0616725696469311 9.8851870924703622 0
          4.0634937098905608 9.89284885200696 0
          4.0655222282462038 9.9004584054507259 0
          4.0677652184498569 9.9080075983615874 0
          4.0702315243594533 9.9154868910097989 0
          4.0729327806961155 9.9228846523182934 0
          4.0758792958280079 9.9301882753207984 0
          4.0788651825266955 9.9374761574766985 0
          4.0818914993282629 9.9447476430954165 0
          4.0849408544420704 9.9520098514012592 0
          4.0880017844189895 9.9592675995033524 0
          4.0910469295039 9.9665324791567222 0
          4.0940126513336583 9.973830777877934 0
          4.0967526562898984 9.981217691701449 0
          4.0992093195218482 9.9887047248837018 0
        </DataArray>
      </Points>
      <Cells>
        <DataArray type="Int32" Name="connectivity" format="ascii">
          0 1 1 2 2 3 3 4 4 5 5 6 6 7 7 8 8 9 9 10 10 11 11 12 12 13 13 14 14 15 15 16 16 17 17 18 18 19 19 20 20 21 21 22 22 23 23 24 24 25 25 26 26 27 27 28 28 29 29 30 30 31 31 32 32 33 33 34 34 35 35 36 36 37 37 38 38 39 39 40 40 41 41 42 42 43 43 44 44 45 45 46 46 47 47 48 48 49 49 50 50 51 51 52 52 53 53 54 54 55 55 56 56 57 57 58 58 59 59 60 60 61 61 62 62 63 63 64 64 65 65 66 66 67 67 68 68 69 69 70 70 71 71 72 72 73 73 74 74 75 75 76 76 77 77 78 78 79 79 80 80 81 81 82 82 83 83 84 84 85 85 86 86 87 87 88 88 89 89 90 90 91 91 92 92 93 93 94 94 95 95 96 96 97 97 98 98 99 99 100 100 101 101 102 102 103 103 104 104 105 105 106 106 107 107 108 108 109 109 110 110 111 111 112 112 113 113 114 114 115 115 116 116 117 117 118 118 119 119 120 120 121 121 122 122 123 123 124 124 125 125 126 126 127 
        </DataArray>
        <DataArray type="Int32" Name="offsets" format="ascii">
          2 4 6 8 10 12 14 16 18 20 22 24 26 28 30 32 34 36 38 40 42 44 46 48 50 52 54 56 58 60 62 64 66 68 70 72 74 76 78 80 82 84 86 88 90 92 94 96 98 100 102 104 106 108 110 112 114 116 118 120 122 124 126 128 130 132 134 136 138 140 142 144 146 148 150 152 154 156 158 160 162 164 166 168 170 172 174 176 178 180 182 184 186 188 190 192 194 196 198 200 202 204 206 208 210 212 214 216 218 220 222 224 226 228 230 232 234 236 238 240 242 244 246 248 250 252 254 
        </DataArray>
        <DataArray type="Int32" Name="types" format="ascii">
          3 3 3 3 3 3 3 3 3 3 3 3 3 3 3 3 3 3 3 3 3 3 3 3 3 3 3 3 3 3 3 3 3 3 3 3 3 3 3 3 3 3 3 3 3 3 3 3 3 3 3 3 3 3 3 3 3 3 3 3 3 3 3 3 3 3 3 3 3 3 3 3 3 3 3 3 3 3 3 3 3 3 3 3 3 3 3 3 3 3 3 3 3 3 3 3 3 3 3 3 3 3 3 3 3 3 3 3 3 3 3 3 3 3 3 3 3 3 3 3 3 3 3 3 3 3 3         </DataArray>
      </Cells>
    </Piece>
  </UnstructuredGrid>
</VTKFile>
