<?xml version="1.0"?>
<VTKFile type="UnstructuredGrid" version="0.1" byte_order="LittleEndian">
  <UnstructuredGrid>
    <Piece NumberOfPoints="128" NumberOfCells="127">
      <PointData Scalars="W">
        <DataArray type="Float32" Name="W" NumberOfComponents="2">
          0 0 -0.035535734770085245 0.39304259949093689 -0.059419233004326652 0.62884944424766021 -0.078395272773322894 0.78294419091544543 -0.095233857285192541 0.89145186540370158 -0.1107809551126003 0.96926661212705689 -0.12525332936473837 1.0240659881016998 -0.13861131959751502 1.0603906072477531 -0.15070685681590046 1.0812390840457873 -0.16135824808245433 1.0888163446240091 -0.17036944893936129 1.0847645762887304 -0.17755234734716743 1.0703819063327316 -0.1827361851592865 1.0467225546965002 -0.1857886730700071 1.0147429477254286 -0.1866209674390015 0.9753312947080689 -0.18517731943933766 0.92926168095182538 -0.18142154272970537 0.87715066543818854 -0.1753648588501423 0.81961641338920876 -0.16705544246208945 0.75723342178453235 -0.15656166283075684 0.69047236439061188 -0.14398430265058471 0.61977456025463507 -0.12946086539060875 0.54558122761329531 -0.11314558205058349 0.46826079033390994 -0.095211301947241755 0.38813416942937695 -0.075873786298786897 0.30558597650968772 -0.055336947616056321 0.22085450157108083 -0.033835938042306467 0.13422124495991664 -0.011635966764274079 0.046015742058880205 0.011002215139889658 -0.04350763567683745 0.033905498677965468 -0.13448624502525605 0.056712140238788421 -0.22634700535541133 0.079145682081782409 -0.31887342092297771 0.10093090932868994 -0.41186101854128865 0.12179556760597057 -0.50511271108191214 0.14146556979591046 -0.59840663794827065 0.15968022457228426 -0.69154693000405165 0.17616348067806659 -0.78422518628835591 0.19068582810860102 -0.87627493985630844 0.20302540562906829 -0.96749922433081648 0.21294806919450082 -1.0575524690861515 0.22024937919958582 -1.1461095098633651 0.22475216569567455 -1.2328415993791004 0.29204093315428686 -1.7164400114121636 0.28050113085282607 -1.8011787883664552 0.31250989834544451 -2.243789006846908 0.32165669002805625 -2.6954353541057894 0.27047586406123503 -2.7770546560762268 0.23774961790510768 -3.2369336219226867 0.1704472494494895 -3.7104467724998957 0.061946858785024567 -3.7804892573480355 -0.065023868578029456 -4.2568686056959075 -0.24062936826019329 -4.7392848367867266 -0.47189270961163532 -5.2245395922724418 -0.84043253509257654 -6.1746528981950073 -2.4652768380272563 -11.735480361850382 -3.5879084407480919 -11.523353948968332 -0.82853316199938165 -2.2099804515387644 -0.76032437026681809 -1.9251784949640542 -0.81004994558542387 -1.9560514767590442 -0.73093563174162435 -1.6899941956767794 -0.77506743909548692 -1.7221545252206962 -0.82086954453282535 -1.7529004043230798 -1.0154490074098654 -2.0772126433869178 -1.0747256986449838 -2.0996820473547406 -1.2965418139651992 -2.4123857702317317 -1.3729496874733005 -2.426391820052646 -1.4511852564430519 -2.4370948228541374 -1.5290972892476147 -2.4411905095341124 -1.6105083826545572 -2.4450161744359624 -1.6933524129841 -2.445127690981717 -1.7775189442193231 -2.4414594330251447 -1.8628693405640286 -2.4339170503407694 -1.7347695374881558 -2.1617370296449168 -1.8071864123199033 -2.1532386569921798 -1.8828385016608375 -2.1443620537988406 -1.9591881886921685 -2.1319709399587246 -2.0360928233784135 -2.1159960858220921 -2.1134426158347166 -2.0964132754238807 -2.1910197445870168 -2.073102654431854 -2.268710108600394 -2.0460627511484786 -2.3463640490741922 -2.0152647534083519 -2.1656076557238522 -1.774381258866728 -2.2329040093877883 -1.7481655737145394 -2.3000200447030528 -1.7187635559436945 -2.3667268539346349 -1.6860890792382062 -2.4329167460528849 -1.6501610304184831 -2.4984423728586904 -1.6109765698865062 -2.2921307502943264 -1.4066060376384542 -2.3484671547995739 -1.3731853574246637 -2.4040049352524555 -1.3370095588811861 -2.4586347304053584 -1.2981051457121426 -2.237727978335716 -1.1225696938391243 -2.2878402395924238 -1.0914459073087757 -2.3332211126044058 -1.0561549081307684 -2.3772585302223095 -1.0185485538773458 -2.1450916765796375 -0.8704697241035434 -2.1815541700113834 -0.83905651526960034 -2.216381775661703 -0.80573358137476048 -2.2492223499141715 -0.77049758156271653 -2.2798635216835734 -0.73342109763344554 -2.0340131973211375 -0.614607812270072 -2.0564863738684296 -0.58391473217779133 -2.0761692621017036 -0.55181533494294988 -2.0925637741128371 -0.51836882914608928 -2.105304124949305 -0.48370517980570732 -2.1139369203889111 -0.4479655079507962 -2.1180232022232812 -0.41132951161712095 -2.1169034121385897 -0.37397331402923706 -2.1060569848215382 -0.33554224918317915 -2.0928096145377486 -0.29764232720284817 -2.0681985600452379 -0.25934077203101674 -2.323652018646488 -0.25036929589053747 -2.2871108064369938 -0.20430162661272838 -2.5304050030592689 -0.17757680271259063 -2.4681261204492504 -0.12436248280035518 -2.702180136915759 -0.0810111226677145 -2.6122041840657948 -0.02361992296331317 -2.8210245338992102 0.034843986413968374 -2.7003729550175151 0.092108778591534657 -2.8791562549626684 0.1616547695265651 -3.0619692703282064 0.24404734238610715 -1.9468954414239099 0.19402589377793136 -1.8992257972703213 0.21853381899477256 -1.7591017481066502 0.22831911702677987 -1.8739839938211542 0.27079729096985961 -2.0170033918178185 0.32345004073796718 -3.1786713667216087 0.57767164585372777 0 0
        </DataArray>
        <DataArray type="Float32" Name="u" NumberOfComponents="1">
          0 0.007874015748031496 0.015748031496062992 0.023622047244094488 0.031496062992125984 0.03937007874015748 0.047244094488188976 0.055118110236220472 0.062992125984251968 0.070866141732283464 0.07874015748031496 0.086614173228346455 0.094488188976377951 0.10236220472440945 0.11023622047244094 0.11811023622047244 0.12598425196850394 0.13385826771653545 0.14173228346456693 0.14960629921259844 0.15748031496062992 0.16535433070866143 0.17322834645669291 0.18110236220472442 0.1889763779527559 0.19685039370078741 0.20472440944881889 0.2125984251968504 0.22047244094488189 0.2283464566929134 0.23622047244094488 0.24409448818897639 0.25196850393700787 0.25984251968503935 0.26771653543307089 0.27559055118110237 0.28346456692913385 0.29133858267716534 0.29921259842519687 0.30708661417322836 0.31496062992125984 0.32283464566929132 0.33070866141732286 0.33858267716535434 0.34645669291338582 0.3543307086614173 0.36220472440944884 0.37007874015748032 0.37795275590551181 0.38582677165354329 0.39370078740157483 0.40157480314960631 0.40944881889763779 0.41732283464566927 0.42519685039370081 0.43307086614173229 0.44094488188976377 0.44881889763779526 0.45669291338582679 0.46456692913385828 0.47244094488188976 0.48031496062992124 0.48818897637795278 0.49606299212598426 0.50393700787401574 0.51181102362204722 0.51968503937007871 0.52755905511811019 0.53543307086614178 0.54330708661417326 0.55118110236220474 0.55905511811023623 0.56692913385826771 0.57480314960629919 0.58267716535433067 0.59055118110236215 0.59842519685039375 0.60629921259842523 0.61417322834645671 0.62204724409448819 0.62992125984251968 0.63779527559055116 0.64566929133858264 0.65354330708661412 0.66141732283464572 0.6692913385826772 0.67716535433070868 0.68503937007874016 0.69291338582677164 0.70078740157480313 0.70866141732283461 0.71653543307086609 0.72440944881889768 0.73228346456692917 0.74015748031496065 0.74803149606299213 0.75590551181102361 0.76377952755905509 0.77165354330708658 0.77952755905511806 0.78740157480314965 0.79527559055118113 0.80314960629921262 0.8110236220472441 0.81889763779527558 0.82677165354330706 0.83464566929133854 0.84251968503937003 0.85039370078740162 0.8582677165354331 0.86614173228346458 0.87401574803149606 0.88188976377952755 0.88976377952755903 0.89763779527559051 0.90551181102362199 0.91338582677165359 0.92125984251968507 0.92913385826771655 0.93700787401574803 0.94488188976377951 0.952755905511811 0.96062992125984248 0.96850393700787396 0.97637795275590555 0.98425196850393704 0.99212598425196852 1
        </DataArray>
      </PointData>
      <CellData Scalars="P">
        <DataArray type="Float32" Name="P" NumberOfComponents="1">
          -0.026665786897513595 -0.07918636699561607 -0.13032549417616271 -0.18021861744469014 -0.22926271296199818 -0.27797316453734661 -0.32691042517003754 -0.37663387218073391 -0.42766954143290037 -0.48048672236608497 -0.53548126294650289 -0.59296358019869644 -0.65315048390147357 -0.71616073609232289 -0.78201407933046319 -0.85063247258996877 -0.92184218765123094 -0.99537935111235454 -1.07089673045901 -1.1479702288565199 -1.2261075455175889 -1.3047587223715251 -1.3833252480323421 -1.4611699268597171 -1.5376315534103864 -1.6120315456549075 -1.683688059873139 -1.7519314282029215 -1.8161136216880513 -1.8755980000424777 -1.9298114521393179 -1.9782377060027065 -2.0204284124193652 -2.0560140568323857 -2.0847165920016408 -2.1063580880374939 -2.1208786134168025 -2.1283351603635339 -2.1289118539904806 -2.1229381849109448 -2.1108936317584472 -2.0934125336890963 -2.0171277210757501 -1.9378555239529789 -1.8311259179301322 -1.6986604727318224 -1.5675118309833032 -1.4142087409944397 -1.2402929876233157 -1.0718006464301393 -0.88572257232516327 -0.68316874473788181 -0.46471426102498609 -0.20628768566069997 0.29411037152535169 0.79259275584872269 0.85104427604764743 0.89643147525117672 0.94510368289818658 0.98027964400263023 1.0179456190303109 1.0577039689904382 1.1158259620583044 1.17510038654981 1.2516622311201515 1.3285752884922237 1.4055376800958697 1.4820898722213041 1.5581537877153415 1.6334892216846431 1.7078835504945158 1.7811513156576351 1.8388716712510202 1.8953422667582058 1.9504948854699145 2.0041128813751583 2.0559983941164997 2.1059758013237024 2.1538877873216502 2.199602644501804 2.2430139569009104 2.2734753765390727 2.3018884300545781 2.3280876367713539 2.3519217778111963 2.3732606003253189 2.3919952746012094 2.4002055393219925 2.4060542059436347 2.4093736937321886 2.4100145101381369 2.4017569507628629 2.3910495923747259 2.3776083153996694 2.3612466081683858 2.3374546751657017 2.3108466237800704 2.2811979793152606 2.2483005955690891 2.2119686138712602 2.1699539811794106 2.1246701789010198 2.0759250613218487 2.0235545380023288 1.9674285232391031 1.9074557600038102 1.8435888837042944 1.7758300737224413 1.704261620386879 1.6289803197296371 1.5502063815810221 1.4648876338962482 1.3761904792598401 1.2804474294918062 1.1822091318348922 1.0771508572570963 0.97119622274142847 0.85982789216807676 0.74987927094669404 0.63699264245289755 0.52252569822233219 0.42960964272310126 0.34042568647707067 0.25690004516043713 0.17667790405102457 0.10129209401235083 0.028822337611933743
        </DataArray>
      </CellData>
      <Points>
        <DataArray type="Float32" NumberOfComponents="3" format="ascii">
          6.0228077103230753 10.371825884622224 0
          6.0306544168832641 10.372523025290358 0
          6.0384988385781329 10.37324454947875 0
          6.0463394509050605 10.37400508511673 0
          6.0541750468418529 10.374814189135247 0
          6.0620045599291394 10.375678589051182 0
          6.069827009677069 10.376603107328567 0
          6.0776414869740769 10.377591137994724 0
          6.0854471558224903 10.378644928621519 0
          6.0932432620116588 10.37976576662299 0
          6.1010291439962199 10.380954116291974 0
          6.1088042447364916 10.382209720901061 0
          6.1165681230933977 10.383531683432762 0
          6.1243204641791449 10.384918532150866 0
          6.1320610873458241 10.386368280075288 0
          6.139789951498857 10.387878480193864 0
          6.1475071583749994 10.389446273564069 0
          6.1552129546228747 10.391068427614643 0
          6.1629077309588007 10.392741374517282 0
          6.1705920190464747 10.394461246821765 0
          6.1782664871396324 10.396223906626306 0
          6.1859319337303589 10.398024972903006 0
          6.1935892789361837 10.39985984879406 0
          6.2012395548656425 10.401723744373495 0
          6.2088838948448792 10.403611696444804 0
          6.2165235199987512 10.405518592270498 0
          6.2241597265810729 10.407439184214612 0
          6.231793871381873 10.409368107051051 0
          6.2394273552841213 10.411299898238662 0
          6.2470616071088561 10.413229013526317 0
          6.2546980729055317 10.415149818260799 0
          6.2623381935565305 10.417056622736025 0
          6.2699833876782138 10.418943695427554 0
          6.2776350346065106 10.420805275476544 0
          6.2852944575726184 10.422635584711392 0
          6.2929629067704305 10.424428841202111 0
          6.300641543259105 10.426179271199915 0
          6.3083314219163933 10.427881128054272 0
          6.3160334772811613 10.429528702325232 0
          6.3237485098730533 10.431116333785027 0
          6.3314771717520175 10.432638432637717 0
          6.3392199539220879 10.43408949947446 0
          6.3469771754289317 10.43546414545289 0
          6.3547523329106559 10.436732232521566 0
          6.3625447191282776 10.437888511103287 0
          6.3703563063910345 10.438905520685516 0
          6.3781876488734568 10.439755244423834 0
          6.3860355807213409 10.440432631876329 0
          6.3938980591722068 10.440909161376016 0
          6.4017708972594169 10.441155470207057 0
          6.4096473756586123 10.441167231706386 0
          6.4175196085430848 10.440914911449088 0
          6.4253766956700913 10.440368605530177 0
          6.4332042877179463 10.439498238971407 0
          6.4409795053007395 10.438244911902981 0
          6.4486021903634212 10.436263576757286 0
          6.456002723574735 10.433567264590245 0
          6.4633517954196487 10.430733873781307 0
          6.4706536580221927 10.427781067732539 0
          6.4779052304821398 10.424706931906082 0
          6.485111439197321 10.421527965115114 0
          6.4922695494603282 10.418242171921417 0
          6.499376722821677 10.414847644539947 0
          6.5064208767683223 10.411324271295246 0
          6.5133983372384598 10.407670658490344 0
          6.5202953328907052 10.40386741612252 0
          6.5271071272736432 10.399913676427069 0
          6.5338288703903773 10.395808776481484 0
          6.5404557322908534 10.391552463091132 0
          6.5469826656390024 10.387144499879385 0
          6.553404534043433 10.382584880860376 0
          6.5597161189102131 10.377873834529217 0
          6.5659121280489865 10.373011829733727 0
          6.5720005211348722 10.368015740727856 0
          6.5779768071553413 10.362886094838903 0
          6.5838362941089734 10.357623443090645 0
          6.589574246566448 10.352228554659233 0
          6.5951858945334525 10.346702421190427 0
          6.6006664402768092 10.341046258326021 0
          6.6060110718596015 10.335261513157038 0
          6.6112149702410257 10.329349864337315 0
          6.6162733185868952 10.323313223889665 0
          6.621197337738975 10.317166523629535 0
          6.6259828523680735 10.310911391295056 0
          6.6306256983080614 10.304549652605742 0
          6.6351217367933586 10.298083336615536 0
          6.639466861176655 10.291514674553619 0
          6.6436570061110265 10.284846100006357 0
          6.6477049746595016 10.278090280925065 0
          6.6516072708287091 10.271249293690529 0
          6.6553604483186506 10.264325385984199 0
          6.6589611173538188 10.257320975137734 0
          6.662422984663638 10.250246941602054 0
          6.6657429402370738 10.243105220719022 0
          6.6689181678896192 10.235898006549645 0
          6.6719459350899175 10.228627637135428 0
          6.6748406458548217 10.221303291192545 0
          6.6776000373465063 10.213926923109499 0
          6.680221948513176 10.206500606037681 0
          6.6827043419762031 10.199026532037417 0
          6.6850453172409212 10.19150700751065 0
          6.6872601262633449 10.183949397413366 0
          6.6893473751853332 10.176355612474042 0
          6.6913058436916444 10.168727650683431 0
          6.6931345159205877 10.161067593518734 0
          6.6948326031564473 10.153377597775034 0
          6.6963995719439566 10.14565988669225 0
          6.6978351712932573 10.137916738681595 0
          6.6991394735517451 10.130150476258322 0
          6.7003131547159853 10.122363487760024 0
          6.7013570400084008 10.114558127865029 0
          6.7022726596532873 10.106736775013491 0
          6.7030441763226456 10.09889999556732 0
          6.7036738614261999 10.091050646055763 0
          6.7041466339986293 10.083190388469138 0
          6.7044663620485601 10.075322517369457 0
          6.7046185389078499 10.067449718844474 0
          6.7046087493308013 10.059575540004598 0
          6.7044240509085471 10.051703595093448 0
          6.7040719279873153 10.043837415678063 0
          6.7035412978165612 10.035981292581312 0
          6.7028208253848094 10.028140305896397 0
          6.7019796424149014 10.020311325214053 0
          6.7010206992279917 10.012495838381943 0
          6.6999526759664425 10.004694415363701 0
          6.6987684378256924 9.9969096418161154 0
          6.69745909924836 9.9891447208868325 0
          6.6959525908637509 9.981415305284445 0
        </DataArray>
      </Points>
      <Cells>
        <DataArray type="Int32" Name="connectivity" format="ascii">
          0 1 1 2 2 3 3 4 4 5 5 6 6 7 7 8 8 9 9 10 10 11 11 12 12 13 13 14 14 15 15 16 16 17 17 18 18 19 19 20 20 21 21 22 22 23 23 24 24 25 25 26 26 27 27 28 28 29 29 30 30 31 31 32 32 33 33 34 34 35 35 36 36 37 37 38 38 39 39 40 40 41 41 42 42 43 43 44 44 45 45 46 46 47 47 48 48 49 49 50 50 51 51 52 52 53 53 54 54 55 55 56 56 57 57 58 58 59 59 60 60 61 61 62 62 63 63 64 64 65 65 66 66 67 67 68 68 69 69 70 70 71 71 72 72 73 73 74 74 75 75 76 76 77 77 78 78 79 79 80 80 81 81 82 82 83 83 84 84 85 85 86 86 87 87 88 88 89 89 90 90 91 91 92 92 93 93 94 94 95 95 96 96 97 97 98 98 99 99 100 100 101 101 102 102 103 103 104 104 105 105 106 106 107 107 108 108 109 109 110 110 111 111 112 112 113 113 114 114 115 115 116 116 117 117 118 118 119 119 120 120 121 121 122 122 123 123 124 124 125 125 126 126 127 
        </DataArray>
        <DataArray type="Int32" Name="offsets" format="ascii">
          2 4 6 8 10 12 14 16 18 20 22 24 26 28 30 32 34 36 38 40 42 44 46 48 50 52 54 56 58 60 62 64 66 68 70 72 74 76 78 80 82 84 86 88 90 92 94 96 98 100 102 104 106 108 110 112 114 116 118 120 122 124 126 128 130 132 134 136 138 140 142 144 146 148 150 152 154 156 158 160 162 164 166 168 170 172 174 176 178 180 182 184 186 188 190 192 194 196 198 200 202 204 206 208 210 212 214 216 218 220 222 224 226 228 230 232 234 236 238 240 242 244 246 248 250 252 254 
        </DataArray>
        <DataArray type="Int32" Name="types" format="ascii">
          3 3 3 3 3 3 3 3 3 3 3 3 3 3 3 3 3 3 3 3 3 3 3 3 3 3 3 3 3 3 3 3 3 3 3 3 3 3 3 3 3 3 3 3 3 3 3 3 3 3 3 3 3 3 3 3 3 3 3 3 3 3 3 3 3 3 3 3 3 3 3 3 3 3 3 3 3 3 3 3 3 3 3 3 3 3 3 3 3 3 3 3 3 3 3 3 3 3 3 3 3 3 3 3 3 3 3 3 3 3 3 3 3 3 3 3 3 3 3 3 3 3 3 3 3 3 3         </DataArray>
      </Cells>
    </Piece>
  </UnstructuredGrid>
</VTKFile>
