<?xml version="1.0"?>
<VTKFile type="UnstructuredGrid" version="0.1" byte_order="LittleEndian">
  <UnstructuredGrid>
    <Piece NumberOfPoints="128" NumberOfCells="127">
      <PointData Scalars="W">
        <DataArray type="Float32" Name="W" NumberOfComponents="2">
          0 0 -0.15314228762081245 0.017906523967900004 -0.30780646130279654 0.035421091804928702 -0.43966491058663004 0.049275848505060428 -0.56104501270322304 0.060628919881901132 -0.67681880759963353 0.069786121464246662 -0.78922607619712193 0.076752242083894404 -0.89947789087308283 0.081414781872506892 -1.0082681841815389 0.083603134615517022 -1.1160670241257817 0.083120255337977497 -1.2231309866690274 0.079746818214440227 -1.3296387057164691 0.073254811848308302 -1.4357037717481462 0.063409273572538741 -1.5414060159047751 0.049970600394240047 -1.646813764720932 0.032694819436406987 -1.7519291380996569 0.011332091332820596 -1.8566425041542747 -0.014369391911494283 -1.960904892233321 -0.044660376905686396 -2.0645848426568429 -0.079790769529613323 -2.1674889933727211 -0.12000455198563063 -2.2694118350133965 -0.1655385649053798 -2.3701340476836457 -0.21662191237350428 -2.4693937474278393 -0.27347200512559039 -2.5668857715624269 -0.33629051333693555 -2.6622960853254498 -0.40526448923085889 -2.755204967110898 -0.48054806959366919 -2.8452263102704314 -0.56227774640271622 -2.9320003827808052 -0.65057547831426155 -3.0150580624542958 -0.74551806127179521 -3.0935833311700822 -0.84705240158380668 -3.1674076329573215 -0.95525006813620739 -3.2359838036795541 -1.0700610118129523 -3.2987597711805994 -1.1913891229642162 -3.3551385666162532 -1.3190726919575 -3.4045424361082799 -1.4529008724277006 -3.4463747939437623 -1.5925950385629464 -3.4801249592302925 -1.7378537371466416 -3.5051546534894062 -1.8882472131794514 -3.5208230099916125 -2.0432541216358615 -3.5266386458030814 -2.2023467584084533 -3.5221156744144251 -2.3649180736492212 -3.506768827452539 -2.5302660142243583 3.7593606327920099 2.7056060145864231 3.7637320488131012 2.5079464483620244 3.7910419492074783 2.3370436635064862 3.7745169618809058 2.1501310671012557 3.7754964884582622 1.9843326489182755 3.7685821005575728 1.8233447363975435 3.7542937236320002 1.6674266794336412 3.7031570233085316 1.5051562147024582 3.6746033788346408 1.3617268605005235 3.6708546673825411 1.2336631582972886 3.6318003841474522 1.0997078284728345 3.491087933356273 0.94682409490484554 3.3708567615147711 0.81400084362868053 3.2408126171775624 0.69158538367479194 3.1436403963658002 0.58702117724801461 2.9991258275281965 0.4841651274898508 2.8920808603501196 0.3975327786922086 2.7816425156495486 0.31871984485706339 2.6186268207870786 0.24345533609217251 2.5007791376049275 0.18156858440774498 2.3256166551411463 0.12439050294764055 2.201546054735855 0.078393491850446306 2.0147777655329624 0.038257217627082132 1.884555858428171 0.0068451770089210948 1.8171782725152683 -0.019885354126568906 1.6854966962420017 -0.041700208672780396 1.6206860609856688 -0.061224666458841663 1.5561694310124281 -0.078308741693376399 1.4264633156776287 -0.08861243189974731 1.3645323965597289 -0.099862719114025472 1.3048327944595932 -0.10933399958884829 1.1764750084693625 -0.11020786706879862 1.1191594015509514 -0.11510078305932889 1.0644026383204741 -0.11877811178956657 1.0105228471700645 -0.12118721626229659 0.88703248617101149 -0.11315714388014389 0.83796993870156466 -0.11273658515370795 0.79000501984629679 -0.11149205469122916 0.67045526358400509 -0.098595843422424681 0.62782667680357152 -0.095644496249829708 0.58652659601631862 -0.092258314261336627 0.54756463502687514 -0.088668611758608434 0.43607900713578929 -0.072372708119851956 0.40227283788914797 -0.068146283795162702 0.37114461585429664 -0.064053102763860018 0.26534492677240978 -0.046489199994228597 0.24000293530001734 -0.042549126977695674 0.21771890268233635 -0.039009664500416472 0.19964740979243278 -0.036115847055939072 0.10287215272810424 -0.018738006128473282 0.09072215119564328 -0.016597533388930604 0.083350435897513814 -0.015308910107848756 0.078816051477226701 -0.014528980435204739 -0.0054060424476192583 0.00099819473279296519 -0.00037912508832552448 6.9994204962989554e-05 0.0080888678880659415 -0.0014936275136588123 -0.065248865569124875 0.012032908912496651 -0.045666718868736897 0.0084006903846935675 -0.021810703957020706 0.0040061305911780832 0.0077868506724020625 -0.0014298155911846313 -0.044986626114675764 0.0082534859237719249 -0.0028579308183206177 0.00052376543668320829 -0.045297189063498618 0.0082924732495089585 0.011098172482485364 -0.002030152023814874 0.076605429484492796 -0.014040972317567985 0.053353535509442503 -0.0098078343424184439 0.13632072961903577 -0.025166498439692181 0.12991892904077948 -0.02412789735994883 0.2317035892965881 -0.043378108100240842 0.24380201925357778 -0.046124018975134559 0.37067921364933681 -0.071073580424934252 0.40515447540979066 -0.078991557142787952 0.449404949538734 -0.089219763083768763 0.5078371354363912 -0.10285102573907699 1.1464390004476237 -0.24013587962389088 1.2683698502889638 -0.27857969193652921 1.5409682619637051 -0.35681975741543343 1.6978112983917972 -0.41666729353221921 1.8910768783310001 -0.49343834226002936 2.1151116578986873 -0.58897764624608429 2.4135200666482759 -0.72061372274895341 2.6529219941024142 -0.85285343984926665 2.8503125555724811 -0.98873714482974706 3.2739128839987583 -1.2306543831846339 3.2901864145663513 -1.3421849055157844 0 0
        </DataArray>
        <DataArray type="Float32" Name="u" NumberOfComponents="1">
          0 0.007874015748031496 0.015748031496062992 0.023622047244094488 0.031496062992125984 0.03937007874015748 0.047244094488188976 0.055118110236220472 0.062992125984251968 0.070866141732283464 0.07874015748031496 0.086614173228346455 0.094488188976377951 0.10236220472440945 0.11023622047244094 0.11811023622047244 0.12598425196850394 0.13385826771653545 0.14173228346456693 0.14960629921259844 0.15748031496062992 0.16535433070866143 0.17322834645669291 0.18110236220472442 0.1889763779527559 0.19685039370078741 0.20472440944881889 0.2125984251968504 0.22047244094488189 0.2283464566929134 0.23622047244094488 0.24409448818897639 0.25196850393700787 0.25984251968503935 0.26771653543307089 0.27559055118110237 0.28346456692913385 0.29133858267716534 0.29921259842519687 0.30708661417322836 0.31496062992125984 0.32283464566929132 0.33070866141732286 0.33858267716535434 0.34645669291338582 0.3543307086614173 0.36220472440944884 0.37007874015748032 0.37795275590551181 0.38582677165354329 0.39370078740157483 0.40157480314960631 0.40944881889763779 0.41732283464566927 0.42519685039370081 0.43307086614173229 0.44094488188976377 0.44881889763779526 0.45669291338582679 0.46456692913385828 0.47244094488188976 0.48031496062992124 0.48818897637795278 0.49606299212598426 0.50393700787401574 0.51181102362204722 0.51968503937007871 0.52755905511811019 0.53543307086614178 0.54330708661417326 0.55118110236220474 0.55905511811023623 0.56692913385826771 0.57480314960629919 0.58267716535433067 0.59055118110236215 0.59842519685039375 0.60629921259842523 0.61417322834645671 0.62204724409448819 0.62992125984251968 0.63779527559055116 0.64566929133858264 0.65354330708661412 0.66141732283464572 0.6692913385826772 0.67716535433070868 0.68503937007874016 0.69291338582677164 0.70078740157480313 0.70866141732283461 0.71653543307086609 0.72440944881889768 0.73228346456692917 0.74015748031496065 0.74803149606299213 0.75590551181102361 0.76377952755905509 0.77165354330708658 0.77952755905511806 0.78740157480314965 0.79527559055118113 0.80314960629921262 0.8110236220472441 0.81889763779527558 0.82677165354330706 0.83464566929133854 0.84251968503937003 0.85039370078740162 0.8582677165354331 0.86614173228346458 0.87401574803149606 0.88188976377952755 0.88976377952755903 0.89763779527559051 0.90551181102362199 0.91338582677165359 0.92125984251968507 0.92913385826771655 0.93700787401574803 0.94488188976377951 0.952755905511811 0.96062992125984248 0.96850393700787396 0.97637795275590555 0.98425196850393704 0.99212598425196852 1
        </DataArray>
      </PointData>
      <CellData Scalars="P">
        <DataArray type="Float32" Name="P" NumberOfComponents="1">
          0.0036261923015820526 0.011026901986114076 0.018928148408318458 0.027674681661028728 0.037638789463025166 0.049226982401574311 0.062879575015047984 0.079068685048712797 0.098295139489330316 0.12108561682380478 0.14798828955728846 0.1795690749375419 0.21640751121562937 0.25909277498864336 0.30821999572537662 0.36438499441221478 0.42817688595038988 0.50017509119838255 0.5809420495130615 0.67101574435569489 0.77090356468627119 0.88107604189389044 1.0019592081946114 1.1339265196928014 1.2772921671808604 1.4322992696120984 1.5991148324279727 1.777824964189427 1.9684224088114952 2.17077814694288 2.3846745347658205 2.6097767376100269 2.845626459916117 3.0916332970358638 3.347070903683413 3.6110711172461021 3.8826265514682961 4.1605780324258017 4.4436117746735642 4.7302695686063387 5.0189491882567419 5.3079054234159662 5.0183404747401692 4.7299242597624351 4.4406381598526901 4.1539577632454003 3.8683726482274441 3.5844720502757998 3.3028213376052822 3.0263629542067325 2.7532849624466693 2.4816457589816663 2.2143011736894493 1.9593001349093186 1.7150245427197082 1.482253530739011 1.2584610179365543 1.0473303495394914 0.8460053851944167 0.65477969581286299 0.47760505931831465 0.31107595650755793 0.15936414035949062 0.018651321943541188 -0.10667654642903719 -0.22079914870358883 -0.32816243097272724 -0.42443896009885973 -0.51423435016828922 -0.59759985156481044 -0.67049153260005034 -0.73734069148693338 -0.79836208151430821 -0.84970283975164695 -0.89568850779055253 -0.93658009230282835 -0.97255384172955228 -1.0003366969094405 -1.0238966370573961 -1.0434415791867206 -1.0561389883142238 -1.0655704349470214 -1.0719588274573499 -1.0755633674533478 -1.0742891413580851 -1.0709538215508119 -1.0657988611241291 -1.0572881395920457 -1.0476361059958801 -1.037041232812659 -1.0256952701772128 -1.012856005678948 -0.99978328956500562 -0.98658140678588446 -0.97330901347464216 -0.96010286350014407 -0.9471058722218455 -0.93427318514930813 -0.9223884338321241 -0.91068572595994945 -0.89899493702549782 -0.88708836369119548 -0.87654300789752859 -0.86541424737214112 -0.85568230117570387 -0.84478349992699386 -0.83221036871005138 -0.82054986869241087 -0.8063341080282751 -0.79245758234647723 -0.77503520247135815 -0.7572303877222909 -0.73469988158496635 -0.7109383792072782 -0.68564672818442274 -0.65839485052326918 -0.60721795502068598 -0.55260834607970388 -0.48985583879183237 -0.42436444304312065 -0.35630643075610846 -0.28659326895691195 -0.21565430500061933 -0.14824807830633724 -0.088707600153554292 -0.037883570398718515 -0.0056452475099143537
        </DataArray>
      </CellData>
      <Points>
        <DataArray type="Float32" NumberOfComponents="3" format="ascii">
          4.0207238300449815 6.8753133146143277 0
          4.0216430666191663 6.8831337587945933 0
          4.0225528069169219 6.8909553064333213 0
          4.0234434607339455 6.898779039880707 0
          4.0243068521408194 6.9066058157654648 0
          4.0251354550821627 6.9144363363364869 0
          4.0259220912653699 6.9222711682231095 0
          4.0266597912678925 6.930110742618413 0
          4.0273417194310808 6.9379553482293472 0
          4.0279611308194392 6.9458051206448843 0
          4.0285113420604803 6.9536600300772706 0
          4.0289857154217117 6.9615198677298356 0
          4.0293776477201932 6.9693842316318282 0
          4.0296805632649582 6.9772525120462792 0
          4.0298879088926913 6.9851238765931427 0
          4.0299931497169581 6.9929972551037869 0
          4.0299897689826878 7.0008713241135689 0
          4.0298712748498042 7.0087444912337675 0
          4.0296312034162982 7.0166148795904411 0
          4.0292631268563053 7.0244803123163404 0
          4.02876066539684 7.0323382974108126 0
          4.0281175000484239 7.0401860130430682 0
          4.0273273861927992 7.0480202933356022 0
          4.0263841698105258 7.0558376148729973 0
          4.0252818063928109 7.0636340841869716 0
          4.0240143804043926 7.0714054261480328 0
          4.0225761313000392 7.0791469743981539 0
          4.0209614774579494 7.0868536628776608 0
          4.0191650384789641 7.0945200182534354 0
          4.0171816642690139 7.1021401551474552 0
          4.0150064856302334 7.1097077794187902 0
          4.0126349247102633 7.1172161837167671 0
          4.0100627289262611 7.1246582505747762 0
          4.0072860051940706 7.1320264583601869 0
          4.0043012569418144 7.1393128912918051 0
          4.0011054199328555 7.1465092525042042 0
          3.9976958992569549 7.1536068813147864 0
          3.994070600995729 7.1605967719064747 0
          3.9902279717996603 7.1674695999655693 0
          3.9861670386259078 7.1742157549985999 0
          3.9818874392080326 7.1808253730436942 0
          3.9773894521849158 7.1872883743016285 0
          3.9726740271912138 7.193594506657317 0
          3.9681916888461521 7.2000683983386011 0
          3.9639427088525081 7.2066977940627872 0
          3.959928780849459 7.2134720979731055 0
          3.9561488808753418 7.2203797210712057 0
          3.9526030700729429 7.2274103838489365 0
          3.9492909201544366 7.2345541050623376 0
          3.9462115456408506 7.241801217809182 0
          3.9433617765275915 7.2491416608514658 0
          3.9407398428469786 7.2565665415672083 0
          3.9383455125001929 7.2640679205210805 0
          3.9361763645307981 7.2716374925059544 0
          3.9342236751987492 7.2792657770870761 0
          3.9324799904234968 7.2869445379491893 0
          3.9309372475826074 7.2946661839193245 0
          3.9295894220199026 7.3024242311971976 0
          3.9284275537091169 7.3102123010976472 0
          3.9274450056824888 7.3180250214746998 0
          3.9266349305094002 7.3258575049475523 0
          3.9259872207509918 7.3337050832530366 0
          3.9254945693982735 7.3415639183449031 0
          3.9251461156721161 7.3494304631658576 0
          3.9249341665631765 7.3573018647804993 0
          3.9248471415230544 7.3651756326168751 0
          3.9248769660176275 7.3730498179908057 0
          3.9250194620867296 7.3809227634979884 0
          3.9252664646762754 7.3887931154964042 0
          3.9256139549921159 7.396659663400392 0
          3.9260579324871818 7.4045213479112801 0
          3.9265903546100138 7.412377529157669 0
          3.9272073811542847 7.4202275095812409 0
          3.9279053102828567 7.4280707019344856 0
          3.9286761830910519 7.4359070510884431 0
          3.9295164455906102 7.4437362537130118 0
          3.9304227024728378 7.4515580818660938 0
          3.9313916128257365 7.4593723862380488 0
          3.9324155196540325 7.4671796639586292 0
          3.9334913807850977 7.4749799412825668 0
          3.9346162221283052 7.4827732955696442 0
          3.9357826311428648 7.4905605259083776 0
          3.9369879646797137 7.4983418156549622 0
          3.9382296619902561 7.5061173751657382 0
          3.9395053073253106 7.5138874274716416 0
          3.9408079883479088 7.5216529829256213 0
          3.942135609070252 7.5294143042798698 0
          3.9434862395750487 7.5371716461087264 0
          3.9448533202502638 7.5449260979016293 0
          3.9462352800339708 7.5526779050633799 0
          3.9476307374948436 7.5604272882752381 0
          3.949038572416407 7.5681744283135153 0
          3.9504527849580851 7.5759204040146937 0
          3.9518726221413645 7.5836653498817075 0
          3.9532976272766436 7.5914093477585878 0
          3.9547275196248255 7.5991524481148911 0
          3.9561570778781765 7.606895616214608 0
          3.9575866141989056 7.6146387971756404 0
          3.9590166541366369 7.6223818969200456 0
          3.9604426513796254 7.6301257578016015 0
          3.9618658206613437 7.6378701581305535 0
          3.963287641753368 7.6456148291823194 0
          3.9647099504744432 7.6533594378926759 0
          3.9661294757350007 7.6611045899962926 0
          3.9675488304625088 7.6688498109503174 0
          3.9689653844493749 7.6765955888757906 0
          3.9703826354079141 7.6843412892467953 0
          3.9718046461883647 7.692086173072564 0
          3.9732299766160715 7.6998305108604503 0
          3.9746637725446061 7.7075733568208857 0
          3.9761056389659979 7.7153147845847618 0
          3.9775618891589515 7.7230536078502015 0
          3.9790332758563687 7.7307896668204883 0
          3.9805276692244536 7.7385214224196046 0
          3.9820472105120528 7.7462483953108636 0
          3.9835946477097011 7.7539699638115778 0
          3.9851736089464027 7.7616852960155311 0
          3.9868237011281837 7.769385869327496 0
          3.9885524932140939 7.7770693102313251 0
          3.9903768993885316 7.7847307713307803 0
          3.9923066572648556 7.7923665514791169 0
          3.9943537655176682 7.7999718991639995 0
          3.9965321338097901 7.8075408981786172 0
          3.9988602877969952 7.8150653902505614 0
          4.0013530975229017 7.8225371838701427 0
          4.0040228323655063 7.8299478661586486 0
          4.0068957989929812 7.8372824359064879 0
          4.0099730496519639 7.8445340145875671 0
        </DataArray>
      </Points>
      <Cells>
        <DataArray type="Int32" Name="connectivity" format="ascii">
          0 1 1 2 2 3 3 4 4 5 5 6 6 7 7 8 8 9 9 10 10 11 11 12 12 13 13 14 14 15 15 16 16 17 17 18 18 19 19 20 20 21 21 22 22 23 23 24 24 25 25 26 26 27 27 28 28 29 29 30 30 31 31 32 32 33 33 34 34 35 35 36 36 37 37 38 38 39 39 40 40 41 41 42 42 43 43 44 44 45 45 46 46 47 47 48 48 49 49 50 50 51 51 52 52 53 53 54 54 55 55 56 56 57 57 58 58 59 59 60 60 61 61 62 62 63 63 64 64 65 65 66 66 67 67 68 68 69 69 70 70 71 71 72 72 73 73 74 74 75 75 76 76 77 77 78 78 79 79 80 80 81 81 82 82 83 83 84 84 85 85 86 86 87 87 88 88 89 89 90 90 91 91 92 92 93 93 94 94 95 95 96 96 97 97 98 98 99 99 100 100 101 101 102 102 103 103 104 104 105 105 106 106 107 107 108 108 109 109 110 110 111 111 112 112 113 113 114 114 115 115 116 116 117 117 118 118 119 119 120 120 121 121 122 122 123 123 124 124 125 125 126 126 127 
        </DataArray>
        <DataArray type="Int32" Name="offsets" format="ascii">
          2 4 6 8 10 12 14 16 18 20 22 24 26 28 30 32 34 36 38 40 42 44 46 48 50 52 54 56 58 60 62 64 66 68 70 72 74 76 78 80 82 84 86 88 90 92 94 96 98 100 102 104 106 108 110 112 114 116 118 120 122 124 126 128 130 132 134 136 138 140 142 144 146 148 150 152 154 156 158 160 162 164 166 168 170 172 174 176 178 180 182 184 186 188 190 192 194 196 198 200 202 204 206 208 210 212 214 216 218 220 222 224 226 228 230 232 234 236 238 240 242 244 246 248 250 252 254 
        </DataArray>
        <DataArray type="Int32" Name="types" format="ascii">
          3 3 3 3 3 3 3 3 3 3 3 3 3 3 3 3 3 3 3 3 3 3 3 3 3 3 3 3 3 3 3 3 3 3 3 3 3 3 3 3 3 3 3 3 3 3 3 3 3 3 3 3 3 3 3 3 3 3 3 3 3 3 3 3 3 3 3 3 3 3 3 3 3 3 3 3 3 3 3 3 3 3 3 3 3 3 3 3 3 3 3 3 3 3 3 3 3 3 3 3 3 3 3 3 3 3 3 3 3 3 3 3 3 3 3 3 3 3 3 3 3 3 3 3 3 3 3         </DataArray>
      </Cells>
    </Piece>
  </UnstructuredGrid>
</VTKFile>
