<?xml version="1.0"?>
<VTKFile type="UnstructuredGrid" version="0.1" byte_order="LittleEndian">
  <UnstructuredGrid>
    <Piece NumberOfPoints="128" NumberOfCells="127">
      <PointData Scalars="W">
        <DataArray type="Float32" Name="W" NumberOfComponents="2">
          0 0 0.19203858798721002 0.063807062019737307 0.26511118127885575 0.087528500119971819 0.3335774308461471 0.10921601679268156 0.4011911622640898 0.13000321916624397 0.46946723100467858 0.15026160130826499 0.53933956163056962 0.17015089231155012 0.61137504636122597 0.1896903768065272 0.68592551889002817 0.20880972239404935 0.76315243343763928 0.22735974626618449 0.8431825117624232 0.24516225624694299 0.92604118442294903 0.26199159520438708 1.0116974632591322 0.27759083263501738 1.1000663755721209 0.29167532428462234 1.1910107087053783 0.30393671933173344 1.2843827989554444 0.31405716361941988 1.3800891663059305 0.32172597317073043 1.4779320657812556 0.32660280032353772 1.5777284370376337 0.3283503929461033 1.6793046897335744 0.32663386210379391 1.7824447717595686 0.32111196744817944 1.8868965779508866 0.31144280324163537 1.9923843889230566 0.29728998787589311 2.098616192234886 0.27832699715780973 2.205254800430672 0.25423677847486903 2.3119999692396451 0.22472477614557815 2.4184564977946441 0.18950655979965775 2.5241375707663498 0.14831956021997356 2.6286175261303026 0.10093968995103104 2.7317622110927888 0.047176634935870584 2.8327134023782938 -0.013148402103751643 2.9309506729830934 -0.080146638076590809 3.0259219025414139 -0.15388148404142543 3.1170706761187943 -0.23436484470543548 3.2037927972765923 -0.3215497202638814 3.2854926453734246 -0.41532847066510409 3.3614575920126613 -0.5155103167055074 3.4311204507662412 -0.62184947388484324 3.4939396068593522 -0.73403822526437612 3.5492490700047843 -0.85166901046485999 3.5964192304611644 -0.97425215277283939 3.6348976012882428 -1.1012278208758381 -5.9853128248199097 1.7507504734854737 -5.9981741070271113 1.4407020723936488 -4.7446326912139547 0.92431298693420805 -4.6243582599740307 0.72229327623087114 -4.5375566713860653 0.54032562825930264 -4.4423715596581106 0.3694610405350337 -4.3394858739896138 0.20984224911256777 -4.2295746398453611 0.061576898536575497 -4.1664717227870343 -0.077110249240657305 -4.1101150559592003 -0.21028039730653569 -4.0387788286652579 -0.33712419157109214 -3.965997106974025 -0.45793234982775022 -3.8860250385835089 -0.57198337346139883 -3.8047783254892784 -0.67987761518074163 -3.6115922314116395 -0.75684782684505647 -3.4108596482450406 -0.81631446061879365 -3.2051443599689073 -0.85876138412926761 -2.9947881457061793 -0.88437419530481565 -2.7754185913707712 -0.89184811933977992 -2.5494192120608878 -0.88183937302867721 -2.3191672338047393 -0.85543015391445543 -2.0793295293146312 -0.81102063581326123 -1.837800655988634 -0.75220919720767054 -1.675148382745794 -0.71513616247068212 -1.6067227233574166 -0.71285722216013414 -1.5391922367833626 -0.7080872063800433 -1.3817153366080528 -0.65702026913856071 -1.3171374750504201 -0.64547606523193091 -1.157591174807034 -0.58298984291632139 -1.0960911235165716 -0.56577191088550771 -0.94033120268984183 -0.49619231217044923 -0.8817920912812014 -0.47450574090903319 -0.82440969326463842 -0.45178750051572614 -0.66765216211719092 -0.37172914883762948 -0.61324879620596207 -0.34609821839829619 -0.56302406065407651 -0.32171832661981786 -0.40781544785057489 -0.23542047268230729 -0.35735988946598873 -0.20795612934559637 -0.30808630087704986 -0.18053604292409567 -0.15389655594157398 -0.090618683566054778 -0.10732707200454777 -0.063369922984511745 -0.065161374633645686 -0.038543064240640627 0.088512918859482356 0.052342784003304908 0.13112082872571529 0.077361675341082486 0.17227445504079697 0.10132075282158198 0.32572594914829406 0.19057607119730413 0.36400808341023266 0.21144126822453185 0.40053146661921962 0.23079763953596405 0.55043501891965074 0.3140204827216484 0.58358202131993986 0.32897223836067452 0.61449585602338708 0.34203418922931433 0.76678989757093852 0.42058491317578645 0.79345592366729745 0.42802121741437388 0.81720679646683758 0.43327600076475203 0.96738234306859583 0.50310542346351217 0.98196254268279726 0.49996809752788324 0.99620867278251379 0.49633039443592181 1.1421415915633908 0.55572242403376493 1.148789776361518 0.54480879352949596 1.1503777713577445 0.53154375155018652 1.2890196526594342 0.57917664685556591 1.2766689843400987 0.55675891409584477 1.4102708367161818 0.59579692518830374 1.3891974009497743 0.56744997450597245 1.515656341921314 0.59741950350862638 1.475469750804574 0.56015669316560435 1.5920614898859717 0.58105878227854468 1.706096271347429 0.59615044695904496 1.6374216432963002 0.54671175940147554 1.736324368639967 0.55289119194491942 1.8297347494339218 0.5531415587694255 1.9122301511641333 0.54617257326946467 1.7933450536675135 0.48296392253955417 1.8493863074326986 0.46876010834751097 1.8977553761454153 0.45044540753401768 2.14746455677993 0.47278352532592044 2.1674572570417783 0.43785716479173103 0.95508906306547514 0.18050836920531363 1.0032020200403913 0.18146254565283548 0.89145557991024915 0.15428055725941817 0.91972758523800113 0.15232662226193483 1.1283667648028568 0.17741898617406748 1.6063708801237448 0.23467020930320431 1.7816317287038124 0.23579298285457584 3.155006365244605 0.35480209004003366 0 0
        </DataArray>
        <DataArray type="Float32" Name="u" NumberOfComponents="1">
          0 0.007874015748031496 0.015748031496062992 0.023622047244094488 0.031496062992125984 0.03937007874015748 0.047244094488188976 0.055118110236220472 0.062992125984251968 0.070866141732283464 0.07874015748031496 0.086614173228346455 0.094488188976377951 0.10236220472440945 0.11023622047244094 0.11811023622047244 0.12598425196850394 0.13385826771653545 0.14173228346456693 0.14960629921259844 0.15748031496062992 0.16535433070866143 0.17322834645669291 0.18110236220472442 0.1889763779527559 0.19685039370078741 0.20472440944881889 0.2125984251968504 0.22047244094488189 0.2283464566929134 0.23622047244094488 0.24409448818897639 0.25196850393700787 0.25984251968503935 0.26771653543307089 0.27559055118110237 0.28346456692913385 0.29133858267716534 0.29921259842519687 0.30708661417322836 0.31496062992125984 0.32283464566929132 0.33070866141732286 0.33858267716535434 0.34645669291338582 0.3543307086614173 0.36220472440944884 0.37007874015748032 0.37795275590551181 0.38582677165354329 0.39370078740157483 0.40157480314960631 0.40944881889763779 0.41732283464566927 0.42519685039370081 0.43307086614173229 0.44094488188976377 0.44881889763779526 0.45669291338582679 0.46456692913385828 0.47244094488188976 0.48031496062992124 0.48818897637795278 0.49606299212598426 0.50393700787401574 0.51181102362204722 0.51968503937007871 0.52755905511811019 0.53543307086614178 0.54330708661417326 0.55118110236220474 0.55905511811023623 0.56692913385826771 0.57480314960629919 0.58267716535433067 0.59055118110236215 0.59842519685039375 0.60629921259842523 0.61417322834645671 0.62204724409448819 0.62992125984251968 0.63779527559055116 0.64566929133858264 0.65354330708661412 0.66141732283464572 0.6692913385826772 0.67716535433070868 0.68503937007874016 0.69291338582677164 0.70078740157480313 0.70866141732283461 0.71653543307086609 0.72440944881889768 0.73228346456692917 0.74015748031496065 0.74803149606299213 0.75590551181102361 0.76377952755905509 0.77165354330708658 0.77952755905511806 0.78740157480314965 0.79527559055118113 0.80314960629921262 0.8110236220472441 0.81889763779527558 0.82677165354330706 0.83464566929133854 0.84251968503937003 0.85039370078740162 0.8582677165354331 0.86614173228346458 0.87401574803149606 0.88188976377952755 0.88976377952755903 0.89763779527559051 0.90551181102362199 0.91338582677165359 0.92125984251968507 0.92913385826771655 0.93700787401574803 0.94488188976377951 0.952755905511811 0.96062992125984248 0.96850393700787396 0.97637795275590555 0.98425196850393704 0.99212598425196852 1
        </DataArray>
      </PointData>
      <CellData Scalars="P">
        <DataArray type="Float32" Name="P" NumberOfComponents="1">
          0.011683251786878361 0.035158484615931948 0.058872957073257258 0.082989269035914748 0.10770744398671084 0.13326660662902501 0.15994683736243895 0.18807011594484127 0.2180004568205012 0.25014254552619014 0.28494048876610567 0.32287473422878904 0.36445821904717207 0.4102313613590361 0.46075586836549298 0.51660841711851524 0.57837552361547118 0.64664372188822816 0.7219920143136036 0.8049839989055797 0.89615784863862236 0.99601583793336479 1.1050138824170121 1.2235511299420765 1.3519580543884284 1.490488380206116 1.6393047307144457 1.7984638648275346 1.9679102009656784 2.1474837736468744 2.3368707810613838 2.5356141616980796 2.7431047623210363 2.9585751342792448 3.181091807235414 3.4095523486692239 3.6426760750881786 3.879013035447096 4.1169471996532545 4.3546922839486735 4.590300041821445 4.8216732804949558 4.5071143610467725 4.1932993399019969 3.9525769059167248 3.7190485700330029 3.4901602565532297 3.2658577363377934 3.0461403412862489 2.8310582276253733 2.6175359387857724 2.4048497387220764 2.193619140396784 1.9837112709061639 1.7753960280070438 1.5686314378795878 1.3705431727395905 1.1819105727679664 1.0034353248613845 0.83586746935271761 0.68031171888212683 0.53776492950354582 0.40908829034415906 0.29552083084854291 0.19773419495155287 0.11060360377717346 0.027725903744292176 -0.050745530538230631 -0.11814621868131404 -0.18093270379172974 -0.23215488308887028 -0.27868762102299555 -0.31377336524792931 -0.34422904586799807 -0.37009018178744429 -0.38458292070902994 -0.39476359000283162 -0.40094761706071547 -0.39649071910002387 -0.38832843083466062 -0.37665741395364122 -0.35551747077956664 -0.33156472163003964 -0.30523364007828457 -0.27101810203281135 -0.23511714892297778 -0.19784846232994399 -0.15465965574861643 -0.11109899570405114 -0.067507860302993772 -0.020361903182281486 0.02576951681837519 0.070560203660671963 0.11660305384019293 0.16028246677009936 0.20133615857188344 0.24122028986684996 0.27757150780229911 0.31029636494573654 0.33965825838540847 0.36480650119323504 0.38578716576489075 0.40166446621999574 0.4132566713488377 0.41880471851433754 0.42024092215019948 0.41506385035270948 0.40648116404478929 0.39119603571196981 0.36908504582815221 0.34522698378639921 0.31528889092094325 0.27963089332145835 0.23893250613885511 0.20034114535973496 0.15877922732413804 0.11521324785057054 0.063763409730546158 0.013159153271943849 0.0031747664281614333 -0.0065783466894643074 -0.010800061568755567 -0.012803387274685352 -0.01539448339858385 -0.020433272071315466 -0.018494860010695689 -0.013470618227474212
        </DataArray>
      </CellData>
      <Points>
        <DataArray type="Float32" NumberOfComponents="3" format="ascii">
          4.018987596461038 7.1525111832642709 0
          4.0164987161691235 7.159982009041185 0
          4.0140217462133858 7.1674567839291941 0
          4.0115612190182359 7.1749369745296718 0
          4.0091213809297193 7.182423922468903 0
          4.0067064251288338 7.1899189142288975 0
          4.0043205856220929 7.1974232039926536 0
          4.0019681951811847 7.2049380234474638 0
          3.9996537205119131 7.2124645829185878 0
          3.9973817840823549 7.2200040669663181 0
          3.9951571741436394 7.227557625105586 0
          3.9929848525960039 7.2351263607343537 0
          3.9908699565740862 7.2427113171240451 0
          3.9888177965344167 7.2503134614745335 0
          3.9868338509964514 7.2579336672535986 0
          3.9849237580456087 7.2655726950686716 0
          3.9830933061895677 7.2732311729509957 0
          3.9813484285753868 7.2809095770857795 0
          3.979695190743183 7.2886082107041306 0
          3.9781397792916309 7.2963271831676879 0
          3.9766884911318718 7.3040663892003366 0
          3.975347720109899 7.3118254877264111 0
          3.9741239413947262 7.3196038806677084 0
          3.9730236944034809 7.327400692082878 0
          3.9720535647172253 7.3352147479176288 0
          3.9712201631966662 7.3430445563416074 0
          3.9705301073889792 7.3508882894793501 0
          3.9699899970477097 7.3587437657680672 0
          3.9696063839728422 7.3666084336696862 0
          3.9693857456424544 7.3744793577675098 0
          3.9693344769178167 7.382353206955413 0
          3.9694588368556594 7.3902262433395451 0
          3.9697649164632525 7.3980943153284215 0
          3.9702586044876145 7.405952853685311 0
          3.9709455529373416 7.4137968707723436 0
          3.9718311396406065 7.4216209634450649 0
          3.9729204313332516 7.4294193197050831 0
          3.9742181394904628 7.4371857305059459 0
          3.9757285851738704 7.4449136049680069 0
          3.9774556654619522 7.4525959894320053 0
          3.9794028121666036 7.4602255927021588 0
          3.981572952802745 7.4677948163799295 0
          3.9839684763370502 7.4752957895472196 0
          3.9859928994094247 7.4829053467173567 0
          3.9876454204396778 7.490604267735419 0
          3.9890037566678016 7.4983605154917221 0
          3.9900753638127462 7.5061615632958096 0
          3.9908656223697028 7.5139961283377641 0
          3.991380432727925 7.5218536160855614 0
          3.991626172839942 7.5297241291390575 0
          3.9916096563818666 7.5375984739091848 0
          3.9913347947051201 7.5454680516242938 0
          3.990805080789102 7.5533246057558978 0
          3.9900249363881408 7.5611602717502118 0
          3.98899887284401 7.5689675592620391 0
          3.9877318473270527 7.5767393967575813 0
          3.9862288960216343 7.5844690944027784 0
          3.984501996756741 7.5921518772836638 0
          3.9825635957299421 7.5997840555156957 0
          3.9804264485396175 7.6073629943177634 0
          3.9781035989944424 7.6148871025341167 0
          3.975608650267509 7.6223559134617904 0
          3.9729556170737093 7.6297700442431049 0
          3.9701587782111742 7.6371311288478987 0
          3.96723300725517 7.6444419171834044 0
          3.9641932828927007 7.651706052190967 0
          3.9610496922166205 7.6589258307516781 0
          3.9578064786551463 7.6661013944093526 0
          3.9544678301083147 7.6732330391372479 0
          3.9510435127111965 7.6803239296233468 0
          3.9475375312447496 7.6873747819128839 0
          3.943959780128528 7.6943894687467402 0
          3.9403140732153723 7.7013690580243006 0
          3.9366100699736051 7.7083178624579736 0
          3.9328514005243802 7.7152372270927581 0
          3.9290416232130032 7.7221285609284189 0
          3.9251904590640332 7.7289968265121596 0
          3.9213012815025698 7.73584361355298 0
          3.9173772047647262 7.7426704342418411 0
          3.9134278533676312 7.7494826382487885 0
          3.9094563556189947 7.7562819291236949 0
          3.9054657664582866 7.7630700076977446 0
          3.9014656466285431 7.7698524484443574 0
          3.8974588830741048 7.7766309418189206 0
          3.8934480895829475 7.7834070282087708 0
          3.889442794233922 7.7901863426981111 0
          3.8854456378838078 7.796970437901761 0
          3.8814591711277413 7.8037608008316015 0
          3.8774929074532576 7.8105629662961613 0
          3.8735492190326148 7.8173782299972014 0
          3.8696303689112526 7.8242077942553703 0
          3.865745649818793 7.8310568210188389 0
          3.8618971151130506 7.8379262402169338 0
          3.8580866796395394 7.8448168648481253 0
          3.8543237836585313 7.8517335687215652 0
          3.8506100783808686 7.8586768169746799 0
          3.8469470342692142 7.8656469398038693 0
          3.8433439597496539 7.8726482723142608 0
          3.8398017565931446 7.8796806255311029 0
          3.8363213059034029 7.8867437798587732 0
          3.8329116529063323 7.893841425784335 0
          3.8295732077109852 7.9009728940099722 0
          3.8263060668113531 7.9081373698847441 0
          3.8231188236601659 7.9153378178283287 0
          3.8200107108634573 7.9225728572348375 0
          3.8169900098785696 7.9298449221726717 0
          3.8140554129591027 7.9371522662193259 0
          3.8112147595001526 7.944496764004092 0
          3.8084655573505457 7.9518761179900102 0
          3.8058150352247342 7.9592916436205163 0
          3.8032702642387317 7.9667442983328796 0
          3.8008269872750606 7.9742310329286301 0
          3.7984913388090273 7.9817522555862821 0
          3.7962691141080249 7.9893080093783375 0
          3.7941654331426005 7.9968978921509457 0
          3.7921729276285858 8.0045180058780847 0
          3.7902950789260745 8.0121675032756148 0
          3.7885348942651884 8.0198452851665625 0
          3.7869078737054958 8.027552791336241 0
          3.785415270481864 8.0352879002943975 0
          3.7839818686525417 8.0430346048638661 0
          3.7826106558685533 8.0507930110559052 0
          3.7812946991351315 8.0585614727174253 0
          3.7800357550017796 8.0663399271497891 0
          3.7788467787216402 8.0741300165011864 0
          3.7777574579458277 8.0819354210756451 0
          3.7767786941940433 8.0897563342590146 0
          3.7759958344532718 8.0976004328581546 0
        </DataArray>
      </Points>
      <Cells>
        <DataArray type="Int32" Name="connectivity" format="ascii">
          0 1 1 2 2 3 3 4 4 5 5 6 6 7 7 8 8 9 9 10 10 11 11 12 12 13 13 14 14 15 15 16 16 17 17 18 18 19 19 20 20 21 21 22 22 23 23 24 24 25 25 26 26 27 27 28 28 29 29 30 30 31 31 32 32 33 33 34 34 35 35 36 36 37 37 38 38 39 39 40 40 41 41 42 42 43 43 44 44 45 45 46 46 47 47 48 48 49 49 50 50 51 51 52 52 53 53 54 54 55 55 56 56 57 57 58 58 59 59 60 60 61 61 62 62 63 63 64 64 65 65 66 66 67 67 68 68 69 69 70 70 71 71 72 72 73 73 74 74 75 75 76 76 77 77 78 78 79 79 80 80 81 81 82 82 83 83 84 84 85 85 86 86 87 87 88 88 89 89 90 90 91 91 92 92 93 93 94 94 95 95 96 96 97 97 98 98 99 99 100 100 101 101 102 102 103 103 104 104 105 105 106 106 107 107 108 108 109 109 110 110 111 111 112 112 113 113 114 114 115 115 116 116 117 117 118 118 119 119 120 120 121 121 122 122 123 123 124 124 125 125 126 126 127 
        </DataArray>
        <DataArray type="Int32" Name="offsets" format="ascii">
          2 4 6 8 10 12 14 16 18 20 22 24 26 28 30 32 34 36 38 40 42 44 46 48 50 52 54 56 58 60 62 64 66 68 70 72 74 76 78 80 82 84 86 88 90 92 94 96 98 100 102 104 106 108 110 112 114 116 118 120 122 124 126 128 130 132 134 136 138 140 142 144 146 148 150 152 154 156 158 160 162 164 166 168 170 172 174 176 178 180 182 184 186 188 190 192 194 196 198 200 202 204 206 208 210 212 214 216 218 220 222 224 226 228 230 232 234 236 238 240 242 244 246 248 250 252 254 
        </DataArray>
        <DataArray type="Int32" Name="types" format="ascii">
          3 3 3 3 3 3 3 3 3 3 3 3 3 3 3 3 3 3 3 3 3 3 3 3 3 3 3 3 3 3 3 3 3 3 3 3 3 3 3 3 3 3 3 3 3 3 3 3 3 3 3 3 3 3 3 3 3 3 3 3 3 3 3 3 3 3 3 3 3 3 3 3 3 3 3 3 3 3 3 3 3 3 3 3 3 3 3 3 3 3 3 3 3 3 3 3 3 3 3 3 3 3 3 3 3 3 3 3 3 3 3 3 3 3 3 3 3 3 3 3 3 3 3 3 3 3 3         </DataArray>
      </Cells>
    </Piece>
  </UnstructuredGrid>
</VTKFile>
