<?xml version="1.0"?>
<VTKFile type="UnstructuredGrid" version="0.1" byte_order="LittleEndian">
  <UnstructuredGrid>
    <Piece NumberOfPoints="128" NumberOfCells="127">
      <PointData Scalars="W">
        <DataArray type="Float32" Name="W" NumberOfComponents="2">
          0 0 -0.66479610461394134 0.48104398750019017 -1.0596130711615419 0.75332709108054685 -1.3578173274227421 0.94175488173247479 -1.6069935924163008 1.0812533185799884 -1.8263708757623378 1.1863170092973796 -2.0256809006334691 1.2645685325499936 -2.2105496591288079 1.3206364009989544 -2.3844788264390009 1.3575852586174961 -2.5498146911589812 1.3776060202882008 -2.70810960385987 1.3822926518216458 -2.8604557703796094 1.3728749718743438 -3.0076152386564012 1.3503172201405411 -3.1501596308888735 1.3154071931038147 -3.288513935944303 1.2687884149186381 -3.4229509205641717 1.2109717716233803 -3.553571866751267 1.1423482796218944 -3.6804774832295832 1.0632610104169407 -3.8036737088989008 0.97397626515602587 -3.9230691171274654 0.87469634928609719 -4.0385396697444627 0.76558554235968113 -4.1499336947818133 0.64677315529656176 -4.2570438115819833 0.5183520871781605 -4.3595978681035943 0.38038548038919817 -4.4573268833303805 0.23291836695018048 -4.5498321482643025 0.075972672966918064 -4.6367368902566923 -0.090435286294329759 -4.7176785745159266 -0.2663038407394252 -4.7921686262461831 -0.45163915119192216 -4.8593476062852057 -0.64639537176521089 -4.9189760387658996 -0.85058271716990996 -4.9704114618452948 -1.0641833991138134 -5.0129733208244458 -1.2871629716421311 -5.0459006615780746 -1.5194545928255996 -5.0683953626056608 -1.7609615585713705 -5.0795880959914008 -2.0115409673742501 -5.0786255657740966 -2.2710328352865545 -5.0644660883413977 -2.5391673173059139 -5.0359935526409396 -2.8155789049589681 -4.9921701146979247 -3.0998849498589149 -4.93186584547073 -3.3915994933060851 -4.8538599273976999 -3.6901059999279222 0.57231320758000115 0.45450643960545728 0.40993190680586594 0.32226524340687246 0.24095183813798898 0.18815555048434657 0.065247902778008987 0.050790560430592949 -0.11329821971952943 -0.088237767987046078 -0.29481845200158885 -0.23057523655619064 -0.47963381375207242 -0.37812626665844246 -0.66373886361448475 -0.52948474218247987 -0.84739736092471685 -0.68665374621242925 -1.0294765770928256 -0.85061745851292081 -1.3211650675316506 -1.1187503437044868 -1.6126199831710708 -1.4083329336903483 1.821006673670621 1.5868564336688999 1.7705442332157506 1.485817152882472 0.45467288074727275 0.37279179788105499 0.33327570574679038 0.27103091372554516 0.21436768909897305 0.17334411048251019 0.14363924942352924 0.11572116638648677 0.028319446263985686 0.022774633499086962 -0.085325918283615798 -0.068660007060003039 -0.19563701395065294 -0.15788365034588073 -0.2522666621194713 -0.20453187786461011 -0.40950540441943206 -0.33430416584294814 -0.45669616007756714 -0.37619816856520205 -0.49917828042019829 -0.41530319736613225 -0.53686926506370403 -0.45151454727110008 -0.56971571745096428 -0.48471687254054568 -0.65215399864937429 -0.56201608059194197 -0.67463192409389305 -0.58956822726695224 -0.69221353096682814 -0.61374170921441618 -0.70614136093516999 -0.63546329407548752 -0.71415543892573397 -0.65249886923166645 -0.71754003666212729 -0.66575011027676823 -0.71641530219290894 -0.67508531538842464 -0.71092839783646222 -0.68039336386204918 -0.70119747645797748 -0.68153472789933667 -0.68738845995110609 -0.67841887705480453 -0.66965932808396222 -0.67095614496472522 -0.64817034578613075 -0.65907144177535149 -0.62413603035885734 -0.64380128649800261 -0.59558966934129554 -0.62292771179918749 -0.56375229367397761 -0.5975068803148238 -0.52876643666578904 -0.56753372227671883 -0.49076330249854722 -0.53302224245268959 -0.44986012084429444 -0.49400559976181346 -0.40713992741232097 -0.45163088038649835 -0.36071297468335306 -0.40379021858992237 -0.31163466265223094 -0.35165914207666765 -0.25994562609459804 -0.29534790679275214 -0.2056625694429311 -0.23498529184440881 -0.14970947115748212 -0.17179039924149728 -0.090182763210637451 -0.10378503812702039 -0.027956923927182645 -0.032219800588799218 0.037060583540064806 0.042706870012930977 0.10409015816498603 0.11974346870057179 0.17508575663095965 0.20073608555007683 0.24933290727930857 0.28440018201069417 0.32705152005335303 0.37047444798446344 0.40762222832587008 0.45770558638753811 0.49307438438914936 0.54776685063803821 0.53249652136786219 0.58445300497513164 0.62618108470553313 0.67803191167974053 0.7248138254292068 0.7726436355772851 0.82887478231371137 0.86796424286363871 0.9388679959304076 0.96361925935674952 1.0006829030891322 1.0049495060600071 1.1229839168076712 1.1015145094156871 1.2530700940441015 1.1975059304454128 1.3340130360218019 1.2396072982256325 1.4807558572201402 1.3350838240174729 1.5757570125218114 1.3754367951042104 1.7447153425615374 1.4707559291650629 1.8600500888814153 1.5102615543648241 2.0574949854873905 1.6043460562511875 2.2022008676739655 1.6436814960216897 -3.0670560862925704 -2.3097850055385658 -2.7667373722609776 -2.2125059284662356 -2.8582769088647413 -2.4234118313500348 -2.5283278300155341 -2.2689284850992628 -2.2619399226176848 -2.1370054291101885 -1.9209000762492969 -1.8998667751342424 -1.6189992953050154 -1.6659048954434375 -1.0733071633950013 -1.1387717423260308 -0.1383534172751496 -0.14885466546949447 4.2262503027870544 4.3418174854919123 0 0
        </DataArray>
        <DataArray type="Float32" Name="u" NumberOfComponents="1">
          0 0.007874015748031496 0.015748031496062992 0.023622047244094488 0.031496062992125984 0.03937007874015748 0.047244094488188976 0.055118110236220472 0.062992125984251968 0.070866141732283464 0.07874015748031496 0.086614173228346455 0.094488188976377951 0.10236220472440945 0.11023622047244094 0.11811023622047244 0.12598425196850394 0.13385826771653545 0.14173228346456693 0.14960629921259844 0.15748031496062992 0.16535433070866143 0.17322834645669291 0.18110236220472442 0.1889763779527559 0.19685039370078741 0.20472440944881889 0.2125984251968504 0.22047244094488189 0.2283464566929134 0.23622047244094488 0.24409448818897639 0.25196850393700787 0.25984251968503935 0.26771653543307089 0.27559055118110237 0.28346456692913385 0.29133858267716534 0.29921259842519687 0.30708661417322836 0.31496062992125984 0.32283464566929132 0.33070866141732286 0.33858267716535434 0.34645669291338582 0.3543307086614173 0.36220472440944884 0.37007874015748032 0.37795275590551181 0.38582677165354329 0.39370078740157483 0.40157480314960631 0.40944881889763779 0.41732283464566927 0.42519685039370081 0.43307086614173229 0.44094488188976377 0.44881889763779526 0.45669291338582679 0.46456692913385828 0.47244094488188976 0.48031496062992124 0.48818897637795278 0.49606299212598426 0.50393700787401574 0.51181102362204722 0.51968503937007871 0.52755905511811019 0.53543307086614178 0.54330708661417326 0.55118110236220474 0.55905511811023623 0.56692913385826771 0.57480314960629919 0.58267716535433067 0.59055118110236215 0.59842519685039375 0.60629921259842523 0.61417322834645671 0.62204724409448819 0.62992125984251968 0.63779527559055116 0.64566929133858264 0.65354330708661412 0.66141732283464572 0.6692913385826772 0.67716535433070868 0.68503937007874016 0.69291338582677164 0.70078740157480313 0.70866141732283461 0.71653543307086609 0.72440944881889768 0.73228346456692917 0.74015748031496065 0.74803149606299213 0.75590551181102361 0.76377952755905509 0.77165354330708658 0.77952755905511806 0.78740157480314965 0.79527559055118113 0.80314960629921262 0.8110236220472441 0.81889763779527558 0.82677165354330706 0.83464566929133854 0.84251968503937003 0.85039370078740162 0.8582677165354331 0.86614173228346458 0.87401574803149606 0.88188976377952755 0.88976377952755903 0.89763779527559051 0.90551181102362199 0.91338582677165359 0.92125984251968507 0.92913385826771655 0.93700787401574803 0.94488188976377951 0.952755905511811 0.96062992125984248 0.96850393700787396 0.97637795275590555 0.98425196850393704 0.99212598425196852 1
        </DataArray>
      </PointData>
      <CellData Scalars="P">
        <DataArray type="Float32" Name="P" NumberOfComponents="1">
          -0.038090914904041186 -0.11150424762489231 -0.17951364807082063 -0.24108469814290887 -0.29575311145476296 -0.34333292380964853 -0.38378528661281786 -0.41714626286502621 -0.44348362458320917 -0.46286807856458495 -0.47535589966722841 -0.48097601055926859 -0.47972144205208556 -0.47154230399557262 -0.45634086405564833 -0.43396908428070513 -0.40422851473979377 -0.36686655325595008 -0.32157606498153585 -0.26799577654792767 -0.20570910290837668 -0.13424295478461884 -0.053067588019542686 0.038403050551993299 0.14081343379351086 0.25486345568226365 0.38131113614699774 0.5209755243889066 0.67473363743865689 0.84350433235984734 1.0282792773473601 1.2301064030689066 1.4500896537450831 1.6893859935908246 1.9492042644141356 2.2308013807973412 2.5354838494060625 2.8645940967164756 3.2195018246660756 3.6016066756006277 4.0123267229343309 4.453083850070775 4.3347063352060333 4.2332972926770589 4.151554222845645 4.0918075081098308 4.0555306626885947 4.0438783587570182 4.0577653807000376 4.0973303787525159 4.1625617158723243 4.2531693356868363 4.3842121040289346 4.5557865829378592 4.2534892156811779 3.9637491045616442 3.8521539414510064 3.757333330934935 3.6780967791892216 3.6077401501309474 3.5505677752493825 3.5051005878200372 3.4695987105415393 3.4375390155904451 3.4168826117172069 3.3964893305591497 3.3752234063717621 3.3520326610362403 3.3259629927275189 3.2989459841389648 3.2670293012605587 3.229627974116859 3.1863261168981354 3.1367734098587605 3.0808003546593983 3.0183742260469422 2.9495948726610242 2.8746888103541592 2.7940015937454343 2.7079886114080685 2.6172046358100141 2.5222473158443188 2.4238724447135565 2.3228609578380199 2.2200425126462568 2.1162816884273479 2.0124641713367684 1.9094048810325968 1.8080648589661585 1.7093133389516426 1.6139888103279953 1.5228877932897817 1.4366621731837803 1.3560852097458156 1.2817709327261639 1.2142573022357406 1.1539057688709617 1.10118223605425 1.0563706100562511 1.0196662261324474 0.99108601778229166 0.9707433801957337 0.95354042851508958 0.94445189001701768 0.94326999297923253 0.94972187536086861 0.96347711455282625 0.97948522038440755 1.0021477589297434 1.0310344323691141 1.0614017845937771 1.097297799387033 1.1341341305091384 1.1760145472574599 1.2186209090029108 1.2660582867664421 1.3144981630869614 1.1111833915279912 0.92645136684151297 0.74268705835121485 0.58195765733940363 0.44138405169007477 0.32269631919854691 0.22208754325916549 0.14135865815356716 0.077829964290642525 0.033110233063010489
        </DataArray>
      </CellData>
      <Points>
        <DataArray type="Float32" NumberOfComponents="3" format="ascii">
          4.2047107902227703 7.7999415180470777 0
          4.2093495658157067 7.8063088057398762 0
          4.2139470884710937 7.8127059538944135 0
          4.2184788585823974 7.8191498652899236 0
          4.2229263716080396 7.8256522381837907 0
          4.2272741650621235 7.832221734064702 0
          4.2315086251940226 7.8388648772790273 0
          4.2356173830505366 7.8455865281217987 0
          4.2395889653334908 7.852390170088003 0
          4.243412577091024 7.8592781000539533 0
          4.2470779561126042 7.866251564224588 0
          4.2505752765976945 7.8733108570266461 0
          4.2538950813832974 7.8804553973975509 0
          4.2570282346639257 7.8876837885884807 0
          4.2599658865322985 7.8949938670145281 0
          4.2626994466232704 7.9023827421492605 0
          4.2652205672083952 7.9098468281862102 0
          4.2675211369373445 7.9173818682601533 0
          4.2695932746184599 7.9249829556927738 0
          4.2714293288853256 7.9326445504740271 0
          4.2730218839109382 7.9403604917724673 0
          4.2743637671505166 7.9481240080869373 0
          4.2754480588041357 7.9559277252298815 0
          4.2762681047420532 7.963763672053199 0
          4.2768175334555378 7.9716232843303008 0
          4.2770902728158546 7.9794974075179192 0
          4.2770805748912384 7.9873762980882228 0
          4.2767830394073014 7.9952496245180029 0
          4.2761926363284886 8.0031064673749057 0
          4.2753047362685024 8.0109353189245791 0
          4.2741151639284674 8.0187240859744673 0
          4.2726202130526136 8.0264600892463491 0
          4.2708166864043342 8.0341300644973757 0
          4.2687019381100546 8.0417201646864189 0
          4.2662739209964897 8.0492159641639631 0
          4.2635312362363118 8.0566024647294601 0
          4.2604731874140853 8.0638641045714792 0
          4.2570998335948183 8.0709847682842426 0
          4.2534120540841549 8.0779478037217132 0
          4.2494116178030286 8.0847360448088121 0
          4.2451012477941577 8.0913318354355628 0
          4.2404846914334717 8.0977170597842818 0
          4.2355667962686709 8.1038731807829656 0
          4.2306845842757737 8.1100573255213515 0
          4.2258279764177313 8.1162612766187117 0
          4.2209864851667307 8.1224767024944686 0
          4.2161492069213837 8.1286950713830937 0
          4.2113050628738922 8.1349077505255103 0
          4.2064427909339317 8.1411059040889402 0
          4.2015509259006878 8.1472803750572265 0
          4.1966180478600839 8.1534217728441529 0
          4.1916327658063945 8.1595203490456161 0
          4.1865837878057306 8.1655659365173889 0
          4.181453027947124 8.1715419027874407 0
          4.1762224165641957 8.1774302897843381 0
          4.171104799981765 8.1834170734656091 0
          4.1660970473845298 8.1894959822729874 0
          4.161117581476379 8.1955979134269867 0
          4.1561588715128268 8.201716553114311 0
          4.1512135412684028 8.2078458413548017 0
          4.1462772014095171 8.2139822060016776 0
          4.1413426985600523 8.2201198829433615 0
          4.1364029833203926 8.226253202870506 0
          4.1314512131298677 8.232376634668011 0
          4.1264838731789801 8.2384872902004016 0
          4.1214912121259211 8.244577123875704 0
          4.1164703003076957 8.2506435440383452 0
          4.1114184999073782 8.2566841323607392 0
          4.1063334700391829 8.2626966502631163 0
          4.1012131700346668 8.2686790459917123 0
          4.0960524849833195 8.2746265326636177 0
          4.0908500166366926 8.280537409484019 0
          4.08560467011936 8.2864101851680534 0
          4.0803155769065942 8.292243520391839 0
          4.0749822349317508 8.2980363662805434 0
          4.069604428995377 8.3037879084168225 0
          4.0641822233446048 8.3094975749483666 0
          4.0587159525847873 8.3151650434255355 0
          4.0532062143959573 8.3207902494071995 0
          4.0476538592933586 8.326373392035622 0
          4.0420599808848579 8.3319149395653582 0
          4.0364259059902166 8.3374156339959296 0
          4.0307531193908819 8.3428764267986608 0
          4.0250433858367121 8.3482986164130164 0
          4.0192986743983514 8.3536837827658044 0
          4.0135211496886267 8.3590337875905423 0
          4.0077131637842438 8.3643507735698126 0
          4.0018772490107768 8.3696371622949126 0
          3.9960160508194815 8.3748955831788212 0
          3.9901324450390776 8.3801290041422298 0
          3.9842294724607319 8.3853406587664026 0
          3.9783103363511598 8.3905340394829722 0
          3.9723784014426107 8.3957128896154583 0
          3.966437136628596 8.4008811278342428 0
          3.9604902330640761 8.4060429708000655 0
          3.954541549919536 8.4112028556618128 0
          3.9485951201137452 8.4163654277712343 0
          3.9426551019227696 8.4215354631187225 0
          3.9367259001884696 8.426717982774079 0
          3.9308121219534038 8.4319181732659949 0
          3.9249185900595314 8.4371413703842268 0
          3.9190503046570724 8.4423929814891867 0
          3.9132125690667361 8.4476785892227362 0
          3.9074078303653255 8.4530004676306056 0
          3.9016419029927714 8.4583644171508379 0
          3.8959209084895838 8.4637763020735086 0
          3.8902513051846044 8.4692420304496281 0
          3.8846399193638108 8.4747675308683021 0
          3.8790905873020312 8.4803553645896876 0
          3.873610898462962 8.4860115163331233 0
          3.8682089249182079 8.4917419350784282 0
          3.8628896886600339 8.4975492296063351 0
          3.8576622941518512 8.5034393167986586 0
          3.8525326344560691 8.5094146970913354 0
          3.8475111908882997 8.5154812775937412 0
          3.8426051165196333 8.5216415064961364 0
          3.8378266580713003 8.5279012146721165 0
          3.8331847888295707 8.5342628404634748 0
          3.8283529809228565 8.5404808808711721 0
          3.8233498166483124 8.5465614746969099 0
          3.8181695634244259 8.5524916494174015 0
          3.8128326209857488 8.558281069839909 0
          3.8073554394192084 8.5639379932527309 0
          3.8017590925030742 8.5694771911813596 0
          3.7960622266704651 8.5749132293027106 0
          3.7902986029375012 8.580278849116004 0
          3.7845261156856602 8.5856355019893975 0
          3.7790157621147147 8.591261369881936 0
        </DataArray>
      </Points>
      <Cells>
        <DataArray type="Int32" Name="connectivity" format="ascii">
          0 1 1 2 2 3 3 4 4 5 5 6 6 7 7 8 8 9 9 10 10 11 11 12 12 13 13 14 14 15 15 16 16 17 17 18 18 19 19 20 20 21 21 22 22 23 23 24 24 25 25 26 26 27 27 28 28 29 29 30 30 31 31 32 32 33 33 34 34 35 35 36 36 37 37 38 38 39 39 40 40 41 41 42 42 43 43 44 44 45 45 46 46 47 47 48 48 49 49 50 50 51 51 52 52 53 53 54 54 55 55 56 56 57 57 58 58 59 59 60 60 61 61 62 62 63 63 64 64 65 65 66 66 67 67 68 68 69 69 70 70 71 71 72 72 73 73 74 74 75 75 76 76 77 77 78 78 79 79 80 80 81 81 82 82 83 83 84 84 85 85 86 86 87 87 88 88 89 89 90 90 91 91 92 92 93 93 94 94 95 95 96 96 97 97 98 98 99 99 100 100 101 101 102 102 103 103 104 104 105 105 106 106 107 107 108 108 109 109 110 110 111 111 112 112 113 113 114 114 115 115 116 116 117 117 118 118 119 119 120 120 121 121 122 122 123 123 124 124 125 125 126 126 127 
        </DataArray>
        <DataArray type="Int32" Name="offsets" format="ascii">
          2 4 6 8 10 12 14 16 18 20 22 24 26 28 30 32 34 36 38 40 42 44 46 48 50 52 54 56 58 60 62 64 66 68 70 72 74 76 78 80 82 84 86 88 90 92 94 96 98 100 102 104 106 108 110 112 114 116 118 120 122 124 126 128 130 132 134 136 138 140 142 144 146 148 150 152 154 156 158 160 162 164 166 168 170 172 174 176 178 180 182 184 186 188 190 192 194 196 198 200 202 204 206 208 210 212 214 216 218 220 222 224 226 228 230 232 234 236 238 240 242 244 246 248 250 252 254 
        </DataArray>
        <DataArray type="Int32" Name="types" format="ascii">
          3 3 3 3 3 3 3 3 3 3 3 3 3 3 3 3 3 3 3 3 3 3 3 3 3 3 3 3 3 3 3 3 3 3 3 3 3 3 3 3 3 3 3 3 3 3 3 3 3 3 3 3 3 3 3 3 3 3 3 3 3 3 3 3 3 3 3 3 3 3 3 3 3 3 3 3 3 3 3 3 3 3 3 3 3 3 3 3 3 3 3 3 3 3 3 3 3 3 3 3 3 3 3 3 3 3 3 3 3 3 3 3 3 3 3 3 3 3 3 3 3 3 3 3 3 3 3         </DataArray>
      </Cells>
    </Piece>
  </UnstructuredGrid>
</VTKFile>
