<?xml version="1.0"?>
<VTKFile type="UnstructuredGrid" version="0.1" byte_order="LittleEndian">
  <UnstructuredGrid>
    <Piece NumberOfPoints="128" NumberOfCells="127">
      <PointData Scalars="W">
        <DataArray type="Float32" Name="W" NumberOfComponents="2">
          0 0 -0.082149553737530037 -0.24153269031436034 -0.11169325531011204 -0.32587030154681695 -0.13149391357667878 -0.37999429676098062 -0.14504990131271023 -0.41471768764994094 -0.15378430383509015 -0.43473845639683351 -0.15851866119783806 -0.44294789505237525 -0.15980073290890123 -0.4413751586848032 -0.1580156006203608 -0.43150758194769911 -0.15342330878710203 -0.41440616236068351 -0.14624347060401988 -0.39094564196060572 -0.13665776772890736 -0.36182549467137259 -0.12482945495596337 -0.32762722408886891 -0.11088550233779169 -0.28877260600971233 -0.094923115522923152 -0.24554714622969098 -0.077050908666720486 -0.19821022873657523 -0.057409629384239227 -0.14704830378695904 -0.036122959199486597 -0.092249341143563937 -0.013325539909767838 -0.033976797402417838 0.0108208064451083 0.027588160099898496 0.036151223717250165 0.092306898933515083 0.06249623873146281 0.16007780175254219 0.089656828777399666 0.23077101582136492 0.11741221522877099 0.3042455739942882 0.145556733713821 0.38044233461227839 0.17382751304961105 0.45919338412549682 0.20197056567570842 0.54038872168646124 0.22974463768170589 0.62398636434525556 0.25686610789994579 0.70986159901589274 0.28291326292574798 0.79752090411688581 0.30770449299272185 0.88714627186395401 0.330923634918456 0.97856357645771663 0.35224390535713079 1.0715655727101561 0.37133507191708753 1.165920457532942 0.38787594172907253 1.2613990267448119 0.40153665623576701 1.3577049073044176 0.41202473643073373 1.4546134160289192 0.4190137689019669 1.5517119450754762 0.42220379545287323 1.6485706746088848 0.42135568571743259 1.7448682960535649 0.41624118642733299 1.8401954480387899 0.40665905621367476 1.9340837730988436 -1.1337883871436965 -5.0719967675948938 -1.2920864760799093 -4.8538361603960833 -1.4277364944475992 -4.6314358084217124 -1.5412106564423724 -4.4060592333009918 -1.6838568584718172 -4.3022424545085549 -1.7648505294205221 -4.074622789688398 -1.8713547356993587 -3.940200108659047 -1.968518467015143 -3.8048962965044546 -2.0041778496392983 -3.579103278823943 -2.0769394274952115 -3.4456392609119129 -2.141127211082368 -3.3124752885030415 -2.257637345085763 -3.2649096343923691 -2.3106418050298712 -3.1299005823525303 -2.22228080387328 -2.83150730058055 -2.1047537307429631 -2.5368149506827686 -2.0392732348319567 -2.3355984691565448 -1.9589528276148034 -2.1393966272557083 -1.7724578246350384 -1.8539906878355665 -1.6578846658559649 -1.6682596514697949 -1.5309026236811165 -1.487005312386684 -1.2817506268731651 -1.2073519217545603 -1.1240634313336997 -1.0316945175846635 -0.83522871529443099 -0.75069765438055236 -0.65054502487478771 -0.57554738226565216 -0.5922928678170083 -0.51717014186216292 -0.5346249014428196 -0.46130796224619408 -0.33823187650490594 -0.28918381152308181 -0.27774477015778798 -0.23594010053064809 -0.21485477702282132 -0.18157757623558715 -0.010508875534266689 -0.0088603303858413619 0.051062036154672898 0.04307009944455046 0.11445751414802813 0.09671048780664894 0.32285356427511708 0.2740454516215855 0.38259279863516971 0.32716304251624151 0.44347107156658799 0.38252533134753114 0.5032519665451396 0.43843925563273767 0.70717150065529222 0.62402801939620844 0.76233981852897592 0.68328261983090766 0.81564901628622888 0.74347659660262744 0.86468342548182675 0.8025218391917166 1.0608967723719227 1.0053655528641565 1.1040536028410353 1.0712952850127635 1.1441918703320924 1.1381499199211587 1.1790383952415364 1.2036770415601743 1.2125873595364915 1.271960884586897 1.3846626991320989 1.4966243020704391 1.4038742090876546 1.5679420330274174 1.420809413076052 1.641643958648483 1.4332499249034969 1.7152706035993548 1.4410479614495739 1.788515696183437 1.574133057541927 2.0322008420951381 1.5654113616841259 2.1086829914868446 1.5513561169718433 2.1836004270571445 1.5301057542726235 2.253730760504566 1.5054166689618373 2.3239729708589425 1.5915925261870836 2.5845854858855972 1.5454933623248666 2.6503194189871508 1.4957487729813423 2.7143991596238011 1.440749077119565 2.7732781287914468 1.4788658224324378 3.0340266032115726 1.4033534282895688 3.0851278857227831 1.3233386016633739 3.1284157058652298 1.3228666178020652 3.3856113741044545 1.2230046272877853 3.4150380872889459 1.1191842685158333 3.4300039487503269 1.0816936750920132 3.677132153586586 0.96197188893934704 3.6745957616596199 0.89528388203888054 3.9062488076804422 0.76150721543210309 3.8767908721615143 0.62978042338398343 3.8264533990671596 0.53404611499354881 4.0269217216645989 0.39636423198872672 3.9405246952128361 0.28156413434799477 4.1083092168108273 0.15099442759059903 4.2634696572578079 0.0054964860330493489 4.4031673842655046 -0.13814957784681747 4.219283228992488 -0.19157037277587241 3.1049720081830747 -0.27047082714238735 3.1281704029764668 -0.30163111109443158 2.7436848760346177 -0.34074322076672087 2.5926393430434547 -0.41866857676848823 2.7351969682953667 -0.43024596652163122 2.4670047792855412 -0.53898591365821114 2.7494686063255109 -0.6620966240585604 3.0065404349528584 -1.0274420442841121 4.099628880208904 0 0
        </DataArray>
        <DataArray type="Float32" Name="u" NumberOfComponents="1">
          0 0.007874015748031496 0.015748031496062992 0.023622047244094488 0.031496062992125984 0.03937007874015748 0.047244094488188976 0.055118110236220472 0.062992125984251968 0.070866141732283464 0.07874015748031496 0.086614173228346455 0.094488188976377951 0.10236220472440945 0.11023622047244094 0.11811023622047244 0.12598425196850394 0.13385826771653545 0.14173228346456693 0.14960629921259844 0.15748031496062992 0.16535433070866143 0.17322834645669291 0.18110236220472442 0.1889763779527559 0.19685039370078741 0.20472440944881889 0.2125984251968504 0.22047244094488189 0.2283464566929134 0.23622047244094488 0.24409448818897639 0.25196850393700787 0.25984251968503935 0.26771653543307089 0.27559055118110237 0.28346456692913385 0.29133858267716534 0.29921259842519687 0.30708661417322836 0.31496062992125984 0.32283464566929132 0.33070866141732286 0.33858267716535434 0.34645669291338582 0.3543307086614173 0.36220472440944884 0.37007874015748032 0.37795275590551181 0.38582677165354329 0.39370078740157483 0.40157480314960631 0.40944881889763779 0.41732283464566927 0.42519685039370081 0.43307086614173229 0.44094488188976377 0.44881889763779526 0.45669291338582679 0.46456692913385828 0.47244094488188976 0.48031496062992124 0.48818897637795278 0.49606299212598426 0.50393700787401574 0.51181102362204722 0.51968503937007871 0.52755905511811019 0.53543307086614178 0.54330708661417326 0.55118110236220474 0.55905511811023623 0.56692913385826771 0.57480314960629919 0.58267716535433067 0.59055118110236215 0.59842519685039375 0.60629921259842523 0.61417322834645671 0.62204724409448819 0.62992125984251968 0.63779527559055116 0.64566929133858264 0.65354330708661412 0.66141732283464572 0.6692913385826772 0.67716535433070868 0.68503937007874016 0.69291338582677164 0.70078740157480313 0.70866141732283461 0.71653543307086609 0.72440944881889768 0.73228346456692917 0.74015748031496065 0.74803149606299213 0.75590551181102361 0.76377952755905509 0.77165354330708658 0.77952755905511806 0.78740157480314965 0.79527559055118113 0.80314960629921262 0.8110236220472441 0.81889763779527558 0.82677165354330706 0.83464566929133854 0.84251968503937003 0.85039370078740162 0.8582677165354331 0.86614173228346458 0.87401574803149606 0.88188976377952755 0.88976377952755903 0.89763779527559051 0.90551181102362199 0.91338582677165359 0.92125984251968507 0.92913385826771655 0.93700787401574803 0.94488188976377951 0.952755905511811 0.96062992125984248 0.96850393700787396 0.97637795275590555 0.98425196850393704 0.99212598425196852 1
        </DataArray>
      </PointData>
      <CellData Scalars="P">
        <DataArray type="Float32" Name="P" NumberOfComponents="1">
          0.017290990587413298 0.05202231451814824 0.086931347454033719 0.12194720013528954 0.15695485761152861 0.1918205574625641 0.22640972060542081 0.26060029580259353 0.29429292126748263 0.32741902163213071 0.35994704584927084 0.3918872428627565 0.42329507718023335 0.4542741492587834 0.48497874126283097 0.51561478340483324 0.54643887750694642 0.57775821850721443 0.60992889765678215 0.64335230398754295 0.67847191332935863 0.71576946794381702 0.75575841642921604 0.79897661565633094 0.84598180245907462 0.89733901497272461 0.95361350354038055 1.015364350533732 1.0831304306547269 1.1573987064185163 1.2386285020518164 1.32722136753861 1.4235067392556466 1.5277278954329152 1.6400297628012375 1.7604424758109956 1.8888747044413892 2.0250900461598 2.1686958069836471 2.3191421701482327 2.475709161957913 2.6374974059037779 2.3205234990822481 2.0137416030869284 1.7171031086982762 1.430652189483492 1.1449328398945133 0.86927073084735373 0.59631693537254504 0.32596558682243659 0.065892036146063593 -0.19147859578187143 -0.44610456987304403 -0.70590689029586229 -0.96291810940181954 -1.2005050207779588 -1.4172613250833535 -1.6212423862317746 -1.811736704135269 -1.977302147007213 -2.1274266091983112 -2.2612965853142186 -2.365554121133834 -2.4512470975469149 -2.5038819767650007 -2.5355852005674793 -2.5607224646787663 -2.5793454229837298 -2.5759746719319119 -2.5659374339714001 -2.5490110183022701 -2.50970148000774 -2.4639201293075139 -2.4115815398734322 -2.3372029836363968 -2.2570622740969761 -2.1712285817079033 -2.0800322430872815 -1.9688222091939169 -1.8533267036895178 -1.7340247655246408 -1.6116485101676252 -1.4722422530252961 -1.3311210428651923 -1.1889438639306757 -1.0465785751934784 -0.90452519309431123 -0.75128176305863859 -0.60056095250941666 -0.45296752971127724 -0.30927089078656778 -0.17022406377707433 -0.027420715860218235 0.10851500348504706 0.23685745468360486 0.35683011960900995 0.46794565122445125 0.57527600953937708 0.67176827826513386 0.75709712655836214 0.83096543697271275 0.89549964183239505 0.94739317702919035 0.98670408589706604 1.0134532860196073 1.0272696845561544 1.0287192665844662 1.0158043436084625 0.99126028296905422 0.95193269461269214 0.90259996997971348 0.84488288124747379 0.77403161906940154 0.6978787061094186 0.61102208479490694 0.51475858610386205 0.41075128472278666 0.3101294221076214 0.24248124333032212 0.1757915068263243 0.12335026256858829 0.079757588552254635 0.039295395332086695 0.013318324562307117 -0.0070884341965540805 -0.016634333032749304 -0.014937405658888533
        </DataArray>
      </CellData>
      <Points>
        <DataArray type="Float32" NumberOfComponents="3" format="ascii">
          5.9905288910214995 10.514652780663228 0
          5.9979864501828075 10.512124687000664 0
          6.005438910412483 10.509581618510554 0
          6.0128844365588208 10.507018346890465 0
          6.0203217982884434 10.504431517097164 0
          6.0277501528955737 10.501818976954617 0
          6.0351689569591311 10.49917948587372 0
          6.042577915353883 10.496512535578249 0
          6.0499769472610181 10.493818224280011 0
          6.0573661622773383 10.491097164445952 0
          6.0647458442839621 10.488350416998534 0
          6.0721164378257999 10.48557943706416 0
          6.079478536845305 10.48278603058916 0
          6.086832874560419 10.479972318271072 0
          6.0941803155933814 10.477140709394714 0
          6.1015218499457733 10.474293884118778 0
          6.1088585862667415 10.471434777383672 0
          6.1161917431294128 10.468566561143174 0
          6.1235226413659074 10.465692632704387 0
          6.1308526957232052 10.462816604590081 0
          6.1381834048341677 10.459942293305751 0
          6.1455163410008851 10.457073710746947 0
          6.1528531396920805 10.454215057904836 0
          6.160195487208707 10.451370716824618 0
          6.1675451070008585 10.448545241878533 0
          6.1749037469218084 10.44574335611591 0
          6.1822731629351102 10.442969940873279 0
          6.1896551033721332 10.440230028979117 0
          6.1970512939784506 10.437528802179811 0
          6.2044634203324698 10.434871583440428 0
          6.2118931017009471 10.432263806383173 0
          6.2193418797791571 10.429711026611736 0
          6.2268111990864234 10.427218910959891 0
          6.2343023867003051 10.424793224689971 0
          6.241816631773502 10.422439817171602 0
          6.2493549656072034 10.420164607723912 0
          6.2569182411824391 10.417973567294789 0
          6.2645071150037781 10.415872704586109 0
          6.2721220268331273 10.413868040526978 0
          6.2797631810574535 10.411965581678359 0
          6.2874305318212516 10.410171300363727 0
          6.2951237688263584 10.408491109336543 0
          6.3028423047994542 10.406930832784607 0
          6.3104905489157588 10.405056036479891 0
          6.3180586825463632 10.402880247526925 0
          6.3255382913125988 10.400417256443827 0
          6.3329223358622695 10.397681038807551 0
          6.3402019712389057 10.394678031132448 0
          6.3473721721280043 10.391422348615054 0
          6.3544263338998546 10.387922326296659 0
          6.3613584310937084 10.384186353885365 0
          6.3681662496242097 10.380228434038401 0
          6.3748452772790438 10.376056842719397 0
          6.3813915334988121 10.371679837308012 0
          6.3877977955426726 10.367100365311483 0
          6.3940607761733155 10.362326798317827 0
          6.4001859497277422 10.357377643677616 0
          6.4061805993491783 10.35227118003154 0
          6.4120487834379762 10.347019887728534 0
          6.4177954807962054 10.341635936356491 0
          6.423432251759488 10.336137029939628 0
          6.4289661995702687 10.330534689106646 0
          6.4344051970695038 10.324840156849628 0
          6.4397646902524626 10.319070780741747 0
          6.445054456190106 10.313237456427034 0
          6.4502924016289924 10.307357614218992 0
          6.4554899777278321 10.301442117428602 0
          6.4606507985799411 10.295494584950355 0
          6.4657784419459841 10.289518479561004 0
          6.4708850848552348 10.283524475696206 0
          6.4759744797618009 10.277515873170357 0
          6.4810505279546504 10.27149604111084 0
          6.4861258994692834 10.265475689421569 0
          6.4912044137874592 10.25945803578507 0
          6.4962900034042974 10.253446403875293 0
          6.5013955895464086 10.247451788566369 0
          6.506524878108789 10.241477480501988 0
          6.5116816455543498 10.23552690950291 0
          6.5168696002914368 10.229603539574139 0
          6.5221013865118724 10.223718875739053 0
          6.5273804269493558 10.217876588639554 0
          6.5327100291317137 10.212080407198398 0
          6.5380932356329842 10.20633398916358 0
          6.543542214053697 10.200649908076356 0
          6.5490596431862329 10.195032248225361 0
          6.5546480148412334 10.1894851513809 0
          6.5603094929183658 10.184012677171898 0
          6.5660461610694991 10.178619056320651 0
          6.5718686929869392 10.173318214414971 0
          6.5777782844683284 10.168114570382949 0
          6.5837759904780366 10.163012691270227 0
          6.5898625876020027 10.158017139788805 0
          6.5960385648902733 10.153132455354635 0
          6.6023121826612128 10.148373743604106 0
          6.608682907233578 10.143745745391639 0
          6.6151498745895916 10.139253105098955 0
          6.6217117748770962 10.134900170896294 0
          6.628367085420515 10.130691298458899 0
          6.6351211634595462 10.126642645827921 0
          6.6419711605299998 10.122758290812635 0
          6.6489140025250304 10.119042209432415 0
          6.6559462897834569 10.115498056060094 0
          6.6630704047099067 10.11214200177899 0
          6.670281677553513 10.108977221247564 0
          6.6775751595672821 10.106006405654872 0
          6.6849508447865187 10.103245511148486 0
          6.6924025554619835 10.10069637278688 0
          6.6999238682168887 10.098359930045881 0
          6.7075124860158049 10.096251521973512 0
          6.7151610009666314 10.094371006830865 0
          6.7228653085361207 10.092732770623471 0
          6.7306171302734166 10.091335006810505 0
          6.7384083142322968 10.090174614938597 0
          6.7462329581642591 10.089264057408021 0
          6.7540825413793808 10.088598002117207 0
          6.7619499814550812 10.088186893001023 0
          6.7698272199963192 10.088040398021697 0
          6.7777052746085324 10.088167233863331 0
          6.7855752561393121 10.088556035351711 0
          6.7934338018017257 10.089137657218208 0
          6.8012760590137811 10.089913579341538 0
          6.8091001099863666 10.090859962104604 0
          6.8169035692748796 10.091967464619348 0
          6.8246816772370797 10.093244994251025 0
          6.8324337695951121 10.094675940959114 0
          6.8401532175325448 10.096277932749953 0
          6.8478325251657051 10.098067048869154 0
          6.8554492800076616 10.100111429699037 0
        </DataArray>
      </Points>
      <Cells>
        <DataArray type="Int32" Name="connectivity" format="ascii">
          0 1 1 2 2 3 3 4 4 5 5 6 6 7 7 8 8 9 9 10 10 11 11 12 12 13 13 14 14 15 15 16 16 17 17 18 18 19 19 20 20 21 21 22 22 23 23 24 24 25 25 26 26 27 27 28 28 29 29 30 30 31 31 32 32 33 33 34 34 35 35 36 36 37 37 38 38 39 39 40 40 41 41 42 42 43 43 44 44 45 45 46 46 47 47 48 48 49 49 50 50 51 51 52 52 53 53 54 54 55 55 56 56 57 57 58 58 59 59 60 60 61 61 62 62 63 63 64 64 65 65 66 66 67 67 68 68 69 69 70 70 71 71 72 72 73 73 74 74 75 75 76 76 77 77 78 78 79 79 80 80 81 81 82 82 83 83 84 84 85 85 86 86 87 87 88 88 89 89 90 90 91 91 92 92 93 93 94 94 95 95 96 96 97 97 98 98 99 99 100 100 101 101 102 102 103 103 104 104 105 105 106 106 107 107 108 108 109 109 110 110 111 111 112 112 113 113 114 114 115 115 116 116 117 117 118 118 119 119 120 120 121 121 122 122 123 123 124 124 125 125 126 126 127 
        </DataArray>
        <DataArray type="Int32" Name="offsets" format="ascii">
          2 4 6 8 10 12 14 16 18 20 22 24 26 28 30 32 34 36 38 40 42 44 46 48 50 52 54 56 58 60 62 64 66 68 70 72 74 76 78 80 82 84 86 88 90 92 94 96 98 100 102 104 106 108 110 112 114 116 118 120 122 124 126 128 130 132 134 136 138 140 142 144 146 148 150 152 154 156 158 160 162 164 166 168 170 172 174 176 178 180 182 184 186 188 190 192 194 196 198 200 202 204 206 208 210 212 214 216 218 220 222 224 226 228 230 232 234 236 238 240 242 244 246 248 250 252 254 
        </DataArray>
        <DataArray type="Int32" Name="types" format="ascii">
          3 3 3 3 3 3 3 3 3 3 3 3 3 3 3 3 3 3 3 3 3 3 3 3 3 3 3 3 3 3 3 3 3 3 3 3 3 3 3 3 3 3 3 3 3 3 3 3 3 3 3 3 3 3 3 3 3 3 3 3 3 3 3 3 3 3 3 3 3 3 3 3 3 3 3 3 3 3 3 3 3 3 3 3 3 3 3 3 3 3 3 3 3 3 3 3 3 3 3 3 3 3 3 3 3 3 3 3 3 3 3 3 3 3 3 3 3 3 3 3 3 3 3 3 3 3 3         </DataArray>
      </Cells>
    </Piece>
  </UnstructuredGrid>
</VTKFile>
