<?xml version="1.0"?>
<VTKFile type="UnstructuredGrid" version="0.1" byte_order="LittleEndian">
  <UnstructuredGrid>
    <Piece NumberOfPoints="128" NumberOfCells="127">
      <PointData Scalars="W">
        <DataArray type="Float32" Name="W" NumberOfComponents="2">
          0 0 0.15510816499644942 0.024463685005931723 0.1832963095863607 0.028656217110012181 0.19152257313314833 0.02964933459036035 0.1867273646281451 0.028618953806379743 0.17193333081687068 0.026100216085437253 0.1490406908444982 0.022430173326776461 0.11932945152073365 0.017828357209248271 0.083738808538530038 0.012441761795362757 0.042935967017367321 0.0063572241610887958 -0.0025091042282729481 -0.00037109273549915177 -0.052158946171126749 -0.0077258265365254116 -0.10565844563027733 -0.015718050691193579 -0.16272734366332386 -0.024385516118490533 -0.22315553523641993 -0.033791631290779452 -0.28673532987445399 -0.044015107119854652 -0.35320292388252045 -0.055140264410385421 -0.42239886247489672 -0.067281072221986787 -0.49412387978678995 -0.080558630892019562 -0.56815277908187978 -0.095101974644232382 -0.64428000649854222 -0.11105435766258388 -0.72231348865757528 -0.1285716620842261 -0.80204731624659753 -0.14781677486527628 -0.88325692202853823 -0.16895712495654325 -0.96572943360048313 -0.19216889064857615 -1.0491691812037698 -0.21761636403762138 -1.1333315728758397 -0.24547576646380348 -1.2180144249055576 -0.27593442777438004 -1.3029187117043621 -0.30915845838593087 -1.3874088110917342 -0.34522396393607252 -1.4715054928769984 -0.38435509691756325 -1.5548563968395248 -0.42668215531243608 -1.6371038696773712 -0.47232023471266305 -1.7178441339002601 -0.52135368440160557 -1.7966862046485614 -0.57384849334761234 -1.8732069402741891 -0.6298350884856091 -1.9470601899233386 -0.6893415618297758 -2.0177466194719966 -0.75231110039124538 -2.0847349776463795 -0.818629744196678 -2.1476189433763588 -0.88818385250678522 -2.2059652340589597 -0.96080323151438096 -2.2592969074213811 -1.0362451732334477 4.8588766402180381 2.1632863012895642 4.8081644060764344 1.906881062546097 4.831591368369704 1.6930356530493849 4.75640057056071 1.4572314808919808 4.73882374418596 1.2525400475816626 4.7125360015570052 1.0542624736921868 4.6779759073117244 0.86259040666421061 4.5617514594151221 0.66827948728726572 4.5105079228813967 0.49561226800410718 4.5266888276323707 0.33422476617384561 4.4626107339542793 0.170747714245927 4.1613859005880842 0.017780285179062574 3.9189229553504092 -0.1079934676827769 3.6613839850802368 -0.21049498123726382 3.4881864940927909 -0.29950740091053601 3.2100741131622237 -0.36155344390997807 3.0247679130171989 -0.4166979573318193 2.8355451011287873 -0.45827514673002273 2.5298194044334541 -0.46471593828069363 2.331128342339901 -0.47537167759679649 2.0052801148563208 -0.44551672324332675 1.7975056518815646 -0.42843643813646365 1.4502410964953236 -0.36590720820203348 1.230901858798215 -0.32487903545834707 1.1513575879352504 -0.31587800960222628 0.92703385661927384 -0.26282171399535853 0.8500604681165862 -0.24769888515054705 0.771478568476473 -0.23038292725544926 0.54590299480214588 -0.16624640540449009 0.46812125805929161 -0.14469803499074818 0.39234844825083437 -0.12280301547736173 0.16124787623356096 -0.050874465903678397 0.084207713139695078 -0.026661797808360459 0.0093095804039462493 -0.0029515503908063229 -0.0673210159352957 0.02132600276354828 -0.30281129629869974 0.095415907781612117 -0.37708917961519572 0.11765906967654503 -0.45311499223541907 0.13968087406106255 -0.69393684061871297 0.21033589076049347 -0.76765056899673512 0.22765291303467081 -0.8430169265458819 0.24395501666448072 -0.9178777163438615 0.25846176951821126 -1.1620497332697126 0.31658681617896678 -1.2361668775046395 0.32383570322163108 -1.3093067957781179 0.32855937812695446 -1.5586255349604787 0.37192182917913869 -1.6302020399427855 0.36686318067931395 -1.7001148035414644 0.3586971395752917 -1.765759172883713 0.34693681677437344 -2.019419706428089 0.36506289275650949 -2.0835373326742594 0.3414853745681215 -2.1421391452170497 0.3141532971305922 -2.1998114910737874 0.28392688636792074 -2.4499310812458508 0.27039097968029596 -2.497602242844875 0.22625837266706791 -2.5430419443094427 0.17940899837930538 -2.7868868742418087 0.13780817713106733 -2.8185068449647823 0.077022689956791679 -2.8461570463681922 0.014266258688760355 -2.8666335199469235 -0.050123151660570693 -3.0873033031744175 -0.12646139880057233 -3.0911559718736159 -0.20215019313024402 -3.2999486795634128 -0.29962601934058919 -3.2834959124845131 -0.38464958243955205 -3.2534951304461717 -0.46704052578383598 -3.4372723711790174 -0.58738479730729809 -3.3819309453433717 -0.67346329724098464 -3.5406985191321279 -0.80832037192223005 -3.4594548228638233 -0.89375342477159725 -3.5918209450777487 -1.0391538600184302 -3.4745048938136529 -1.1157475407052087 -3.5759180989493733 -1.2650822318060388 -3.6644135527153519 -1.4232431953320963 -3.7313761070545151 -1.58605454468032 -2.570397911892857 -1.1758164319406439 -2.5580530992995274 -1.239984597645486 -2.249625109800709 -1.1498662417944026 -2.21506715015154 -1.1882593941037953 -2.1337669333395404 -1.1989393251267411 -2.0241145307686761 -1.1881905837434552 -1.8046042898844956 -1.1024497384225072 -1.7614673348293302 -1.1165525428371978 -1.8756437157180605 -1.2343058100310376 -1.6348957413823921 -1.1153291804656891 -2.4240149675717855 -1.7239898712401531 0 0
        </DataArray>
        <DataArray type="Float32" Name="u" NumberOfComponents="1">
          0 0.007874015748031496 0.015748031496062992 0.023622047244094488 0.031496062992125984 0.03937007874015748 0.047244094488188976 0.055118110236220472 0.062992125984251968 0.070866141732283464 0.07874015748031496 0.086614173228346455 0.094488188976377951 0.10236220472440945 0.11023622047244094 0.11811023622047244 0.12598425196850394 0.13385826771653545 0.14173228346456693 0.14960629921259844 0.15748031496062992 0.16535433070866143 0.17322834645669291 0.18110236220472442 0.1889763779527559 0.19685039370078741 0.20472440944881889 0.2125984251968504 0.22047244094488189 0.2283464566929134 0.23622047244094488 0.24409448818897639 0.25196850393700787 0.25984251968503935 0.26771653543307089 0.27559055118110237 0.28346456692913385 0.29133858267716534 0.29921259842519687 0.30708661417322836 0.31496062992125984 0.32283464566929132 0.33070866141732286 0.33858267716535434 0.34645669291338582 0.3543307086614173 0.36220472440944884 0.37007874015748032 0.37795275590551181 0.38582677165354329 0.39370078740157483 0.40157480314960631 0.40944881889763779 0.41732283464566927 0.42519685039370081 0.43307086614173229 0.44094488188976377 0.44881889763779526 0.45669291338582679 0.46456692913385828 0.47244094488188976 0.48031496062992124 0.48818897637795278 0.49606299212598426 0.50393700787401574 0.51181102362204722 0.51968503937007871 0.52755905511811019 0.53543307086614178 0.54330708661417326 0.55118110236220474 0.55905511811023623 0.56692913385826771 0.57480314960629919 0.58267716535433067 0.59055118110236215 0.59842519685039375 0.60629921259842523 0.61417322834645671 0.62204724409448819 0.62992125984251968 0.63779527559055116 0.64566929133858264 0.65354330708661412 0.66141732283464572 0.6692913385826772 0.67716535433070868 0.68503937007874016 0.69291338582677164 0.70078740157480313 0.70866141732283461 0.71653543307086609 0.72440944881889768 0.73228346456692917 0.74015748031496065 0.74803149606299213 0.75590551181102361 0.76377952755905509 0.77165354330708658 0.77952755905511806 0.78740157480314965 0.79527559055118113 0.80314960629921262 0.8110236220472441 0.81889763779527558 0.82677165354330706 0.83464566929133854 0.84251968503937003 0.85039370078740162 0.8582677165354331 0.86614173228346458 0.87401574803149606 0.88188976377952755 0.88976377952755903 0.89763779527559051 0.90551181102362199 0.91338582677165359 0.92125984251968507 0.92913385826771655 0.93700787401574803 0.94488188976377951 0.952755905511811 0.96062992125984248 0.96850393700787396 0.97637795275590555 0.98425196850393704 0.99212598425196852 1
        </DataArray>
      </PointData>
      <CellData Scalars="P">
        <DataArray type="Float32" Name="P" NumberOfComponents="1">
          0.017006476144636889 0.051063290156670708 0.085135769076963852 0.11917046887397888 0.15311562238293797 0.18693488068230799 0.22061668816890781 0.25418096596899414 0.28768388650767612 0.32122148236345965 0.3549317203052556 0.38899588999904483 0.42363910471979682 0.45913022839999429 0.49578141222622096 0.53394624139768965 0.57401581644423105 0.61641696124883716 0.6616072580985678 0.7100691949172383 0.76230466222296067 0.81882883857716016 0.88016264353393625 0.94682423144148986 1.0193210078719406 1.0981370427419637 1.18372544149036 1.2765006956188747 1.3768238377651791 1.4849726322749002 1.6011661594333575 1.7255344264991015 1.8581069769728853 1.9987991356877952 2.1474022379204167 2.3035715537005808 2.4668223616523433 2.6365112375183313 2.8118264249629505 2.9917908542422644 3.1752563285934485 3.3608983748851022 3.0631298498868014 2.7742190799030517 2.4875454830561381 2.208523531474877 1.9320296690464511 1.6575883309973154 1.3847923809128229 1.118330130184676 0.85306791611288468 0.58368840226952501 0.31509774343027358 0.063605133425769192 -0.17487184418596508 -0.39903427716494611 -0.61477015290803694 -0.81389734773920031 -1.0029081053395807 -1.1810485341882746 -1.338591437802422 -1.4832924863868353 -1.604205064804278 -1.7101881126582152 -1.7890223767442399 -1.85068425264396 -1.9065382674597391 -1.9439919014819682 -1.9753263941287391 -2.0002398258959269 -2.0060016887512266 -2.0052038132976566 -1.9979859657165306 -1.9712034685152759 -1.9380514751772819 -1.8988225350997718 -1.8535243847385354 -1.7895189526901909 -1.7202868414249519 -1.6459848532597658 -1.5544233337455184 -1.4590044406044522 -1.3600367577563479 -1.2580180309638764 -1.1420406600510258 -1.0245251692323316 -0.90609936622289877 -0.77691140988975793 -0.64864016520573864 -0.52200875903521171 -0.39785760238184803 -0.26801533327630228 -0.14260999456884391 -0.022481025194106559 0.091773310770935146 0.20588692511691878 0.3120044012455932 0.40961183600124879 0.50256097696895585 0.58515128730742105 0.65706492118694915 0.71804829391568303 0.76930778125060795 0.80866748182933901 0.83605318464245137 0.85112097527693198 0.85437051648295825 0.84388105050320694 0.82232416948057241 0.78668011238931979 0.74155032695033718 0.68297150599815926 0.61759260193355048 0.54057421207990619 0.4528166894756287 0.35577411855340696 0.2929172882163763 0.22814021781039293 0.17344469944850821 0.12078647485223613 0.07333065958678163 0.033496671756555844 0.0058431554355780051 -0.013647228121357697 -0.026596740020642159 -0.024164435619759801 -0.015301609635554578
        </DataArray>
      </CellData>
      <Points>
        <DataArray type="Float32" NumberOfComponents="3" format="ascii">
          4.0143073357023757 6.9448529334717222 0
          4.0130757265222048 6.9526305098963546 0
          4.0118537361599804 6.9604095972481206 0
          4.0106431130585971 6.9681904516686597 0
          4.0094443677252558 6.9759731317115579 0
          4.0082572031499701 6.9837575709392743 0
          4.0070807022627166 6.9915436109857554 0
          4.0059134457815722 6.9993310224009138 0
          4.0047535915984724 7.007119518235764 0
          4.0035989330294113 7.0149087631436009 0
          4.0024469401973244 7.0226983787585802 0
          4.0012947953838385 7.0304879470525377 0
          4.0001394201628271 7.0382770114124824 0
          3.9989774974262673 7.0460650759563235 0
          3.9978054887668808 7.0538516031951444 0
          3.9966196475089841 7.0616360101048041 0
          3.9954160315875304 7.0694176632486423 0
          3.9941905199040542 7.0771958735519807 0
          3.9929388222102524 7.0849698892376889 0
          3.9916564914574431 7.0927388883188556 0
          3.9903389377511331 7.1005019705985362 0
          3.9889814410849471 7.1082581487866676 0
          3.9875791632359907 7.1160063388326611 0
          3.986127160515291 7.1237453498221601 0
          3.984620397672316 7.1314738735904166 0
          3.9830537610717487 7.1391904737912162 0
          3.9814220770012052 7.1468935757005365 0
          3.9797201268097733 7.1545814552781142 0
          3.9779426594151679 7.1622522275375653 0
          3.9760844098133403 7.1699038362291452 0
          3.9741401384557888 7.1775340490996138 0
          3.9721046299295821 7.1851404439697362 0
          3.9699727147711146 7.1927204006271213 0
          3.9677392916082468 7.2002710936578378 0
          3.9653993521630952 7.2077894871803743 0
          3.9629480054633337 7.2152723307140008 0
          3.9603805040497142 7.2227161572481071 0
          3.9576922654132622 7.230117281452439 0
          3.9548789029343614 7.2374718031480407 0
          3.9519362588061422 7.2447756143183204 0
          3.9488604292178455 7.2520244060976822 0
          3.9456477912167776 7.2592136792645263 0
          3.9422950322851764 7.2663387592292725 0
          3.9392435530014773 7.2735980009247232 0
          3.9364902117643203 7.2809755051928056 0
          3.9340364633964149 7.2884580137622015 0
          3.9318776483104867 7.2960309042993226 0
          3.9300126788923468 7.3036814851871714 0
          3.928439927420988 7.3113974623544289 0
          3.927157253249375 7.3191669511601978 0
          3.9261574519391309 7.3269779011161713 0
          3.9254373480925078 7.3348196056085975 0
          3.9249979472960401 7.3426820594329198 0
          3.9248352785094309 7.3505551256223605 0
          3.9249306645570572 7.3584293120000472 0
          3.9252690712455331 7.3662968142316165 0
          3.9258345287214942 7.3741512706155836 0
          3.9266162969267446 7.381987158414371 0
          3.9275971290148104 7.3898006240569041 0
          3.9287655331105373 7.397588244765597 0
          3.9301097741743121 7.4053474390648715 0
          3.9316108916740076 7.413077801059619 0
          3.9332565628211911 7.4207786667747317 0
          3.9350265786948126 7.428451880909857 0
          3.9369080529983043 7.436098499612501 0
          3.938879448699081 7.4437223937815897 0
          3.9409271625914797 7.451326104892992 0
          3.9430462613318227 7.4589101922614374 0
          3.9452228331394674 7.4664779434607027 0
          3.9474521045286872 7.4740302976631519 0
          3.9497292024189155 7.4815683299731521 0
          3.9520401383181114 7.4890960155122652 0
          3.9543800892446255 7.4966146920661059 0
          3.9567443569441711 7.5041257189434365 0
          3.9591186113277326 7.5116335549378777 0
          3.9614980760525502 7.5191397033335594 0
          3.9638781077303795 7.5266456363073724 0
          3.9662539556614993 7.5341528611977564 0
          3.9686110188577781 7.541665971747193 0
          3.9709446929584038 7.5491863496122411 0
          3.9732502652941477 7.5567153627537964 0
          3.9755128052137385 7.564257392993432 0
          3.9777277437611156 7.571813517184995 0
          3.9798904095169427 7.5793847493419317 0
          3.9819961623962588 7.586971992284596 0
          3.9840298647827015 7.5945788527499634 0
          3.9859869227910756 7.6022057843664319 0
          3.9878628030048766 7.6098530843759464 0
          3.9896420488122728 7.6175234461148902 0
          3.9913202234921688 7.6252165613256988 0
          3.9928929932054134 7.632931929320776 0
          3.9943562884455477 7.6406688267842888 0
          3.995694382428955 7.6484283853219628 0
          3.996903299469531 7.6562091501770473 0
          3.9979794053571367 7.664009434027232 0
          3.9989191229640326 7.6718273703658486 0
          3.9997069423943161 7.6796621311375022 0
          4.0003399049652559 7.6875109888733482 0
          4.0008151895686481 7.6953710478958151 0
          4.0011176717839216 7.7032397429656108 0
          4.0012453849473459 7.711113315450814 0
          4.0011966075155163 7.7189878846419484 0
          4.0009700617156252 7.7268594686035472 0
          4.0005520532766292 7.7347233512719997 0
          3.9999423318316234 7.7425748508336998 0
          3.9991279344219426 7.750407942256432 0
          3.9981098657781815 7.7582173652407249 0
          3.9968899695446365 7.7659980222078095 0
          3.9954568254279512 7.773742471303974 0
          3.9938138440373669 7.7814453859037389 0
          3.9919511488040724 7.7890984243613159 0
          3.9898737518648475 7.7966962992438322 0
          3.9875734059472228 7.8042300145850332 0
          3.9850573558454645 7.811694829451036 0
          3.9823192655817796 7.8190815026366609 0
          3.9793535935981397 7.8263802448441195 0
          3.9761561270797112 7.8335809768603095 0
          3.972798920782572 7.8407091005914564 0
          3.9692826980205336 7.8477606544853806 0
          3.9656265749366724 7.8547412347248677 0
          3.9618326503691743 7.8616484831332549 0
          3.9579059228708489 7.868481762154345 0
          3.9538531484417301 7.8752417673912563 0
          3.9496879097181115 7.8819338493632456 0
          3.9454128146078182 7.888557181534618 0
          3.9410206680781004 7.8951045238797848 0
          3.9365263398401189 7.9015833311580419 0
          3.9318805437979769 7.9079559647732136 0
        </DataArray>
      </Points>
      <Cells>
        <DataArray type="Int32" Name="connectivity" format="ascii">
          0 1 1 2 2 3 3 4 4 5 5 6 6 7 7 8 8 9 9 10 10 11 11 12 12 13 13 14 14 15 15 16 16 17 17 18 18 19 19 20 20 21 21 22 22 23 23 24 24 25 25 26 26 27 27 28 28 29 29 30 30 31 31 32 32 33 33 34 34 35 35 36 36 37 37 38 38 39 39 40 40 41 41 42 42 43 43 44 44 45 45 46 46 47 47 48 48 49 49 50 50 51 51 52 52 53 53 54 54 55 55 56 56 57 57 58 58 59 59 60 60 61 61 62 62 63 63 64 64 65 65 66 66 67 67 68 68 69 69 70 70 71 71 72 72 73 73 74 74 75 75 76 76 77 77 78 78 79 79 80 80 81 81 82 82 83 83 84 84 85 85 86 86 87 87 88 88 89 89 90 90 91 91 92 92 93 93 94 94 95 95 96 96 97 97 98 98 99 99 100 100 101 101 102 102 103 103 104 104 105 105 106 106 107 107 108 108 109 109 110 110 111 111 112 112 113 113 114 114 115 115 116 116 117 117 118 118 119 119 120 120 121 121 122 122 123 123 124 124 125 125 126 126 127 
        </DataArray>
        <DataArray type="Int32" Name="offsets" format="ascii">
          2 4 6 8 10 12 14 16 18 20 22 24 26 28 30 32 34 36 38 40 42 44 46 48 50 52 54 56 58 60 62 64 66 68 70 72 74 76 78 80 82 84 86 88 90 92 94 96 98 100 102 104 106 108 110 112 114 116 118 120 122 124 126 128 130 132 134 136 138 140 142 144 146 148 150 152 154 156 158 160 162 164 166 168 170 172 174 176 178 180 182 184 186 188 190 192 194 196 198 200 202 204 206 208 210 212 214 216 218 220 222 224 226 228 230 232 234 236 238 240 242 244 246 248 250 252 254 
        </DataArray>
        <DataArray type="Int32" Name="types" format="ascii">
          3 3 3 3 3 3 3 3 3 3 3 3 3 3 3 3 3 3 3 3 3 3 3 3 3 3 3 3 3 3 3 3 3 3 3 3 3 3 3 3 3 3 3 3 3 3 3 3 3 3 3 3 3 3 3 3 3 3 3 3 3 3 3 3 3 3 3 3 3 3 3 3 3 3 3 3 3 3 3 3 3 3 3 3 3 3 3 3 3 3 3 3 3 3 3 3 3 3 3 3 3 3 3 3 3 3 3 3 3 3 3 3 3 3 3 3 3 3 3 3 3 3 3 3 3 3 3         </DataArray>
      </Cells>
    </Piece>
  </UnstructuredGrid>
</VTKFile>
