<?xml version="1.0"?>
<VTKFile type="UnstructuredGrid" version="0.1" byte_order="LittleEndian">
  <UnstructuredGrid>
    <Piece NumberOfPoints="128" NumberOfCells="127">
      <PointData Scalars="W">
        <DataArray type="Float32" Name="W" NumberOfComponents="2">
          0 0 0.58030599749309109 0.046791633793091522 0.88017992420569291 0.065864539624257298 1.1137670486612701 0.07453494831010804 1.3107801257394207 0.075134870496347345 1.4834024116619813 0.068645281284563486 1.6382091862995183 0.055626634031661008 1.7791942953592366 0.036448479838534546 1.9089993009154855 0.011379494092605946 2.0293635798169314 -0.019371099856645237 2.1415529535867339 -0.055627439974048253 2.2464780765720667 -0.097235428245731712 2.3447863107809921 -0.14405288459460358 2.43689653667154 -0.19593883783147795 2.523064738565969 -0.25274539293599307 2.6034572277266337 -0.31431559412164584 2.6782802002724626 -0.3804977978676724 2.7475727075514578 -0.45111951099460645 2.8113515265653688 -0.52599772695995928 2.8696541011735914 -0.60494792987006551 2.9224706909151252 -0.687772498422492 2.9697404680966457 -0.77425448693360521 3.0114258326818257 -0.86417310540303094 3.0475132959359783 -0.95730828120618561 3.0779251134026415 -1.05341377269438 3.1026785481903323 -1.1522678774125723 3.1217402408111585 -1.2536296052015223 3.1350027653061661 -1.357219153601789 3.1424484764337128 -1.4627817934680587 3.1443935864671886 -1.5702304942236402 3.1405255218399089 -1.679185247035123 3.1308686907443768 -1.7894082931693571 3.11545149579818 -1.900665944638346 3.0943326898150834 -2.0127469793728046 3.0675526412307499 -2.1254354264251005 3.0351864995215481 -2.2385466060539079 2.9972237208730936 -2.3518398410161403 2.9537941651000192 -2.4651882321591465 2.9050295222574936 -2.5784957866939973 2.8509353067897214 -2.6915785139254838 2.7915618824622794 -2.8043011156251496 2.7269722138902495 -2.9165596209242324 -0.22973192586478572 0.25289603183880716 -0.53199459188868836 0.58043069427374794 -0.4039921890139937 0.43598832737827325 -0.71268746256616733 0.75926513585055799 -0.68031791560914656 0.71328581949699565 -1.0055933286910381 1.0343416639911645 -0.97704911490335233 0.98284277394577657 -0.94031230532876631 0.92594966999647066 -0.89943948624151004 0.86795411540076772 -0.86468265487288165 0.8185147350283849 -0.81617832841722071 0.75867474293227621 -0.7690799024094348 0.70281818086347336 -1.5402188507876451 1.3733340877945257 -2.3998470012336401 2.0528175004557321 -2.8589798863545401 2.3152098309700553 -3.8907891209768839 2.9393631845706913 -3.9142395934391647 2.7298268592826478 -3.923681473549137 2.5249828476190475 -3.9202402996199504 2.3258690871637171 -3.9048225218649684 2.1332026429126416 -3.8786614133158701 1.9477303917135276 -3.8521525994557937 1.7740575466880486 -3.7967537606595498 1.5992196952516611 -3.7658196756539004 1.4456650719352306 -3.7177966487232461 1.2948827983594584 -3.6767074391914689 1.1553824486941731 -3.6198754648214289 1.0193366794660335 -3.5725304661733506 0.89388046342142236 -3.5226511605336297 0.77469069331535434 -3.458440704477685 0.65940691352188596 -3.4059880826166631 0.55299052554323092 -3.3402310049815771 0.45061309357495222 -3.2874821357898583 0.35578164965711645 -3.235352951775269 0.26589989384439316 -3.1703710236574771 0.18000458488187715 -3.1206803171951631 0.099644474111358419 -3.0731965585331085 0.023127564440471989 -3.0129958613511136 -0.049537474294718449 -2.9695728312278846 -0.11886363447254712 -2.9287781346394568 -0.18552678802294292 -2.8760253095284489 -0.24847634867725785 -2.8411766607326578 -0.31034628967067479 -2.809970206207812 -0.37083334055384637 -2.7816703527135873 -0.43024000844381538 -2.741712916349238 -0.48616865126624237 -2.7205448986579404 -0.54407870937768021 -2.7030060120723243 -0.60220594963730067 -2.6737468521823997 -0.65701482997201155 -2.6641952733967962 -0.71631499164961987 -2.6579191867680705 -0.7770319652060057 -2.6397112799850997 -0.83459044700960028 -2.6410128763870522 -0.89902769126843551 -2.645915912472423 -0.96637529661497878 -2.6385495921401296 -1.030759034714233 -2.6506259537520949 -1.1047098666227544 -2.6663707594658659 -1.1832930014750611 -2.668904337745746 -1.2589993480176966 -2.6904332186536011 -1.3472112157472196 -2.6985535817769106 -1.4328529308063092 -2.7252881635408994 -1.533215581428689 -2.7542969340662169 -1.6412548899293531 -2.7684982882556279 -1.7469247094682878 -2.7998790000499754 -1.8708217013779183 -2.8158083200913344 -1.9928054222647333 -2.8480477844744891 -2.1359722877399774 -2.8630660363085885 -2.277172552760578 -2.8921881271569796 -2.4420574817794174 -2.9027590852618528 -2.6054406153147984 -2.9099886037430132 -2.7806693768204722 -2.9271665887250973 -2.9838142715380704 -2.9223521938243699 -3.1855239333806802 -2.9089273348361204 -3.400122459927625 -2.8853484063573025 -3.6282917090184639 -2.8497698507333715 -3.8705756316196389 -2.799342984212593 -4.1262662149184246 0.97969897524596061 1.4840962046251358 1.2681788251292574 1.8564075608317521 1.3623467405415532 1.9186803160002093 1.8336342637218301 2.4688939607705436 2.0498204201899815 2.6193794092929306 2.6437282684046637 3.1811094550726318 3.6150630130403969 4.03129499146619 4.8230302169424739 4.8815172140361405 4.5240938427135369 4.1330708501309301 2.3819324334814707 2.0218889181940121 0 0
        </DataArray>
        <DataArray type="Float32" Name="u" NumberOfComponents="1">
          0 0.007874015748031496 0.015748031496062992 0.023622047244094488 0.031496062992125984 0.03937007874015748 0.047244094488188976 0.055118110236220472 0.062992125984251968 0.070866141732283464 0.07874015748031496 0.086614173228346455 0.094488188976377951 0.10236220472440945 0.11023622047244094 0.11811023622047244 0.12598425196850394 0.13385826771653545 0.14173228346456693 0.14960629921259844 0.15748031496062992 0.16535433070866143 0.17322834645669291 0.18110236220472442 0.1889763779527559 0.19685039370078741 0.20472440944881889 0.2125984251968504 0.22047244094488189 0.2283464566929134 0.23622047244094488 0.24409448818897639 0.25196850393700787 0.25984251968503935 0.26771653543307089 0.27559055118110237 0.28346456692913385 0.29133858267716534 0.29921259842519687 0.30708661417322836 0.31496062992125984 0.32283464566929132 0.33070866141732286 0.33858267716535434 0.34645669291338582 0.3543307086614173 0.36220472440944884 0.37007874015748032 0.37795275590551181 0.38582677165354329 0.39370078740157483 0.40157480314960631 0.40944881889763779 0.41732283464566927 0.42519685039370081 0.43307086614173229 0.44094488188976377 0.44881889763779526 0.45669291338582679 0.46456692913385828 0.47244094488188976 0.48031496062992124 0.48818897637795278 0.49606299212598426 0.50393700787401574 0.51181102362204722 0.51968503937007871 0.52755905511811019 0.53543307086614178 0.54330708661417326 0.55118110236220474 0.55905511811023623 0.56692913385826771 0.57480314960629919 0.58267716535433067 0.59055118110236215 0.59842519685039375 0.60629921259842523 0.61417322834645671 0.62204724409448819 0.62992125984251968 0.63779527559055116 0.64566929133858264 0.65354330708661412 0.66141732283464572 0.6692913385826772 0.67716535433070868 0.68503937007874016 0.69291338582677164 0.70078740157480313 0.70866141732283461 0.71653543307086609 0.72440944881889768 0.73228346456692917 0.74015748031496065 0.74803149606299213 0.75590551181102361 0.76377952755905509 0.77165354330708658 0.77952755905511806 0.78740157480314965 0.79527559055118113 0.80314960629921262 0.8110236220472441 0.81889763779527558 0.82677165354330706 0.83464566929133854 0.84251968503937003 0.85039370078740162 0.8582677165354331 0.86614173228346458 0.87401574803149606 0.88188976377952755 0.88976377952755903 0.89763779527559051 0.90551181102362199 0.91338582677165359 0.92125984251968507 0.92913385826771655 0.93700787401574803 0.94488188976377951 0.952755905511811 0.96062992125984248 0.96850393700787396 0.97637795275590555 0.98425196850393704 0.99212598425196852 1
        </DataArray>
      </PointData>
      <CellData Scalars="P">
        <DataArray type="Float32" Name="P" NumberOfComponents="1">
          0.0079251213755465681 0.024984733865242158 0.044469971858093926 0.067131336234727848 0.093511051669039058 0.12401268268493892 0.15893646746990941 0.1985001852786939 0.24285350118538618 0.29208690319145253 0.34624003923599361 0.40530800314614263 0.46924641183750476 0.53797508844715647 0.61138153950093022 0.68932503628040842 0.77164321581613204 0.85815357709182227 0.94865786719342393 1.0429474508691507 1.1408068428912459 1.2420168904538746 1.3463598302712751 1.4536243621440821 1.5636080862896113 1.6761244274872653 1.7910052322422605 1.9081023579776928 2.0272940819706999 2.1484994033319236 2.2716615633919814 2.3967617698342609 2.523822360670799 2.6529106680632308 2.7841410173076913 2.9176783754150204 3.0537373438823083 3.1925893508898637 3.3345649009844447 3.4800502549375327 3.6294905773221666 3.7833918534617621 3.77745026861251 3.752692592221178 3.7324249090581052 3.6892515570592468 3.64371549535025 3.5696187888757094 3.4915198519921793 3.4103554617742549 3.3269261289402503 3.2412381616680932 3.1551932923846828 3.0694039204112538 2.9010627019220712 2.6385611260323265 2.3236818071274352 1.9541112152744822 1.5849295756754094 1.2189633031368137 0.85873879098283679 0.50650943819058214 0.16422904048554735 -0.16731599850175943 -0.48475788413070131 -0.78990905451097571 -1.080768078976055 -1.3576125516782396 -1.6188541443235083 -1.8651164841059742 -2.0960701670087594 -2.3106214488139711 -2.5096679943450289 -2.6924035087424345 -2.8598170319720571 -3.0120779338471872 -3.1486809136079934 -3.2706822765444534 -3.378396019611809 -3.4715434913665617 -3.5510998905716646 -3.6173998655221777 -3.670374051179611 -3.7108249615060953 -3.7390728686461125 -3.7554034083741512 -3.7599407482068243 -3.7531649950417085 -3.7353030539375087 -3.7065970191459328 -3.6672525986663977 -3.6174183111377816 -3.5574511882136268 -3.4872892634770514 -3.4070107655978035 -3.3170984433845896 -3.2172467022989228 -3.1074806185641557 -2.9884475008736699 -2.85965485877716 -2.7218668574139215 -2.5745050469472499 -2.4176583183442175 -2.2523499392366495 -2.0779905394501341 -1.895797559130767 -1.70523015657463 -1.507795560713675 -1.3031464977889009 -1.0930988114649041 -0.8786254878468045 -0.65986925786478723 -0.43928947398259888 -0.21860541346573129 0.00019155621523661351 0.21479716782867564 0.42250259042279009 0.37629997133133525 0.32121743925634549 0.27091374792497658 0.21051808270192385 0.15565657140808684 0.098018221362594027 0.036840419795290145 -0.012091625859869866 -0.030355484106493812 -0.013937207635565002
        </DataArray>
      </CellData>
      <Points>
        <DataArray type="Float32" NumberOfComponents="3" format="ascii">
          3.9219559605251146 9.0219412649001054 0
          3.9213051230664515 9.0297883421597014 0
          3.9206902647419026 9.0376383199859429 0
          3.9201299778037697 9.0454923806492928 0
          3.919638744687826 9.0533510615786366 0
          3.919228780215203 9.0612143999263246 0
          3.9189107869620172 9.0690819933861864 0
          3.9186943629344708 9.076953034945257 0
          3.9185882491960058 9.0848263358023864 0
          3.9186004936542993 9.0927003420341315 0
          3.9187385589144865 9.1005731475754033 0
          3.9190094007738794 9.1084425051319577 0
          3.9194195246984074 9.1163058357433293 0
          3.9199750259771227 9.1241602376062385 0
          3.9206816157130984 9.1320024948220251 0
          3.9215446367170297 9.1398290865719467 0
          3.9225690738433241 9.1476361968523801 0
          3.9237595668012326 9.1554197238783921 0
          3.9251204126049526 9.1631752907772963 0
          3.9266555666444769 9.1708982569308883 0
          3.9283686450392934 9.1785837294076789 0
          3.9302629240677724 9.1862265752037082 0
          3.9323413364297761 9.193821434677103 0
          3.9346064689495859 9.2013627352162626 0
          3.9370605617733974 9.2088447048585333 0
          3.9397055035818074 9.2162613875261314 0
          3.9425428326912724 9.2236066567351163 0
          3.9455737350144138 9.2308742304946581 0
          3.9487990374245912 9.238057688607249 0
          3.9522192066829862 9.2451504884088447 0
          3.9558343690618374 9.2521459701054365 0
          3.9596442909740515 9.2590373802706889 0
          3.9636483804904916 9.2658178865189154 0
          3.967845689097484 9.2724805919215889 0
          3.9722349153281384 9.279018548027441 0
          3.9768144072448326 9.2854247681744013 0
          3.9815821670690235 9.2916922388594365 0
          3.9865358504870554 9.2978139345802333 0
          3.9916727746523581 9.3037828256216741 0
          3.996989926291028 9.3095918839268474 0
          4.0024839619721106 9.315234094427927 0
          4.0081512111485544 9.3207024633614832 0
          4.0139876799694489 9.3259900246462468 0
          4.0198095917548775 9.3312929895052079 0
          4.0255982483723107 9.3366317063913744 0
          4.031361650756951 9.341997269700606 0
          4.0370807116221084 9.3474097683921489 0
          4.042757500521887 9.3528664052777319 0
          4.0483719105504301 9.358387141101348 0
          4.0539257744525932 9.3639688448365987 0
          4.0594214298189657 9.3696080531853045 0
          4.0648614677876944 9.3753012362234998 0
          4.0702480978806026 9.3810453962010669 0
          4.0755843795812021 9.3868368912818383 0
          4.0808732833827257 9.3926723274429698 0
          4.0860670571628797 9.3985934100148913 0
          4.0911124511227683 9.4046424449551616 0
          4.0959810234419782 9.4108358771106104 0
          4.1006079858708251 9.417211528066284 0
          4.1049919094719112 9.4237563834731546 0
          4.1091322341934617 9.4304577230801048 0
          4.1130291987691461 9.4373031850051419 0
          4.1166837842313599 9.4442808100499676 0
          4.1200976371881142 9.4513790878579105 0
          4.1232724249224901 9.4585872428858728 0
          4.1262116052654436 9.4658944283570516 0
          4.1289171176955524 9.4732911212719415 0
          4.1313919601268578 9.4807679716629227 0
          4.1336386991087704 9.4883163313167973 0
          4.13566087603854 9.4959277669834492 0
          4.1374614425836613 9.5035945037633383 0
          4.1390435061596609 9.5113091561974876 0
          4.1404110615040084 9.5190645812657646 0
          4.1415673729095976 9.526854186852427 0
          4.1425165284109546 9.534671631255371 0
          4.1432618081986501 9.5425110413819603 0
          4.1438064529048679 9.5503668511720949 0
          4.144154499090182 9.5582337414079053 0
          4.1443090341599174 9.5661067364152128 0
          4.1442730077825454 9.5739810986733751 0
          4.1440501573587811 9.5818523289742394 0
          4.143643179230545 9.5897161352067606 0
          4.1430546061166851 9.5975683900676216 0
          4.1422877116301402 9.605405195935445 0
          4.1413446587171707 9.613222722047551 0
          4.1402273840479333 9.6210172230175619 0
          4.1389376436883802 9.6287850200614766 0
          4.1374779161931787 9.6365226495017868 0
          4.1358495148178207 9.6442265246377872 0
          4.1340535275661141 9.6518930449417013 0
          4.1320917689388006 9.6595188151669689 0
          4.1299648313459132 9.6671001614203416 0
          4.1276731039805794 9.6746333216474589 0
          4.1252177157283771 9.6821147292595171 0
          4.1225985857607554 9.6895403910062416 0
          4.1198154098915225 9.696906132941761 0
          4.1168686445972877 9.704207964621304 0
          4.1137575408442935 9.7114413022843902 0
          4.110481122124491 9.7186012747789903 0
          4.1070392310020498 9.7256831891518587 0
          4.103430532302843 9.7326815769742634 0
          4.0996545221506286 9.7395911290638377 0
          4.0957095425692005 9.7464056234179601 0
          4.0915937945620495 9.753118361980496 0
          4.0873063971345127 9.7597227935768949 0
          4.0828454041562701 9.7662112368337155 0
          4.0782098273936009 9.7725761290132205 0
          4.073397667362423 9.7788085939016618 0
          4.0684079921593455 9.7848998772602602 0
          4.0632389954054151 9.7908397562671414 0
          4.0578900207009463 9.7966181012743814 0
          4.052360618654804 9.802224048166357 0
          4.0466497229948377 9.807645001840255 0
          4.0407576306696029 9.8128684562310333 0
          4.0346851722149308 9.8178811060718107 0
          4.0284338074212727 9.8226688045769208 0
          4.022005739724456 9.8272165296610741 0
          4.015404092786282 9.8315084277732261 0
          4.0088630869267288 9.8358924126526137 0
          4.0024005647879228 9.8403916077555138 0
          3.9960223224760916 9.8450099184388709 0
          3.9897575246260431 9.849781530659163 0
          3.9836195255494453 9.8547158528103793 0
          3.9776450904945864 9.8598478366436382 0
          3.9718943879090896 9.8652303883136128 0
          3.9664430730883278 9.8709156303875929 0
          3.961272581711095 9.8768570973862211 0
          3.956250075875253 9.8829237169025763 0
        </DataArray>
      </Points>
      <Cells>
        <DataArray type="Int32" Name="connectivity" format="ascii">
          0 1 1 2 2 3 3 4 4 5 5 6 6 7 7 8 8 9 9 10 10 11 11 12 12 13 13 14 14 15 15 16 16 17 17 18 18 19 19 20 20 21 21 22 22 23 23 24 24 25 25 26 26 27 27 28 28 29 29 30 30 31 31 32 32 33 33 34 34 35 35 36 36 37 37 38 38 39 39 40 40 41 41 42 42 43 43 44 44 45 45 46 46 47 47 48 48 49 49 50 50 51 51 52 52 53 53 54 54 55 55 56 56 57 57 58 58 59 59 60 60 61 61 62 62 63 63 64 64 65 65 66 66 67 67 68 68 69 69 70 70 71 71 72 72 73 73 74 74 75 75 76 76 77 77 78 78 79 79 80 80 81 81 82 82 83 83 84 84 85 85 86 86 87 87 88 88 89 89 90 90 91 91 92 92 93 93 94 94 95 95 96 96 97 97 98 98 99 99 100 100 101 101 102 102 103 103 104 104 105 105 106 106 107 107 108 108 109 109 110 110 111 111 112 112 113 113 114 114 115 115 116 116 117 117 118 118 119 119 120 120 121 121 122 122 123 123 124 124 125 125 126 126 127 
        </DataArray>
        <DataArray type="Int32" Name="offsets" format="ascii">
          2 4 6 8 10 12 14 16 18 20 22 24 26 28 30 32 34 36 38 40 42 44 46 48 50 52 54 56 58 60 62 64 66 68 70 72 74 76 78 80 82 84 86 88 90 92 94 96 98 100 102 104 106 108 110 112 114 116 118 120 122 124 126 128 130 132 134 136 138 140 142 144 146 148 150 152 154 156 158 160 162 164 166 168 170 172 174 176 178 180 182 184 186 188 190 192 194 196 198 200 202 204 206 208 210 212 214 216 218 220 222 224 226 228 230 232 234 236 238 240 242 244 246 248 250 252 254 
        </DataArray>
        <DataArray type="Int32" Name="types" format="ascii">
          3 3 3 3 3 3 3 3 3 3 3 3 3 3 3 3 3 3 3 3 3 3 3 3 3 3 3 3 3 3 3 3 3 3 3 3 3 3 3 3 3 3 3 3 3 3 3 3 3 3 3 3 3 3 3 3 3 3 3 3 3 3 3 3 3 3 3 3 3 3 3 3 3 3 3 3 3 3 3 3 3 3 3 3 3 3 3 3 3 3 3 3 3 3 3 3 3 3 3 3 3 3 3 3 3 3 3 3 3 3 3 3 3 3 3 3 3 3 3 3 3 3 3 3 3 3 3         </DataArray>
      </Cells>
    </Piece>
  </UnstructuredGrid>
</VTKFile>
