<?xml version="1.0"?>
<VTKFile type="UnstructuredGrid" version="0.1" byte_order="LittleEndian">
  <UnstructuredGrid>
    <Piece NumberOfPoints="128" NumberOfCells="127">
      <PointData Scalars="W">
        <DataArray type="Float32" Name="W" NumberOfComponents="2">
          0 0 -0.37315413328947766 -0.28454647377549264 -0.56077526076340145 -0.43174181620731567 -0.68243870305202037 -0.53217798003564032 -0.76593714497966703 -0.60627993682156767 -0.82307922207192985 -0.66230095807879052 -0.86024898750067313 -0.70439710297885472 -0.88150223217981416 -0.73500054044011154 -0.889650476621481 -0.75565022325372455 -0.88682789011409069 -0.7674326905395813 -0.8746641435438488 -0.771109010867158 -0.85451388368031389 -0.76729857266542167 -0.82748889682324656 -0.75649891393873792 -0.79453357167741145 -0.73914487756884184 -0.75647171989538986 -0.71564568604768486 -0.71400807262540067 -0.68638095704438828 -0.6677013272245641 -0.65166725902652123 -0.61807976331731429 -0.61186323488300987 -0.56556814769597852 -0.56729466077843671 -0.51050901498736156 -0.51826840902265259 -0.45320427456495077 -0.46510921702390229 -0.39392238656462952 -0.40816354371062818 -0.33286233116878461 -0.34775793620485945 -0.27019722888574188 -0.2842391587852936 -0.2060582210035469 -0.21795313560812596 -0.14050745582675414 -0.14921140535788785 -0.07361375104620016 -0.078366808220711348 -0.0054590870454289198 -0.0058168648124408279 0.063954660022946364 0.068100196722096148 0.13484079800971951 0.14325287652769467 0.20696069236290485 0.2190098976423126 0.28033984564760261 0.2950087975829197 0.35500993737714232 0.3708852340464931 0.4309992733393273 0.44626717353872397 0.50834044691085145 0.52078712234385172 0.58702642320706944 0.59404169593608769 0.66699363930258648 0.6655820139160995 0.74825671467665367 0.73505445193720487 0.83082025983536223 0.80211250448584226 0.9145760802702444 0.86632361214659925 0.99940339541709489 0.92727625778198286 1.0851687069117695 0.98458409723805407 1.4438909189108791 1.275307125064862 1.8075771597486348 1.5427958719206676 2.1950152466318911 1.7969082168577217 2.6148055193601207 2.0367965430869686 2.7345576665730134 2.0162444722028559 3.1912929301783945 2.214612666333057 3.6746427680522866 2.3767649190028552 4.1983920173637284 2.5031806709318976 4.3592299482172088 2.3748874774654221 5.3302808328372153 2.6137796152760151 5.9534327320686842 2.5663359823695995 11.585309019876036 4.0094081730811357 -7.0308673351431059 -2.2832044680997954 1.0692556108369085 0.37660775863821833 1.1511129220918281 0.3935026685451613 1.2269507998634048 0.40593388097819155 1.5904412138974946 0.50569502660791477 1.6682408511522953 0.50585313038265312 1.7454441650446946 0.50265741195545843 1.8219885865722163 0.49603358676006731 2.1939800069743871 0.55893969363389984 2.2710764348089305 0.53499218372046276 2.649860899776054 0.56892223603974801 2.7263472079471338 0.52399768882101927 2.8005921533388398 0.47429446989544316 2.8785285142688948 0.42069264464131667 2.94762023950799 0.36131491951852523 3.0137517715232058 0.29735968262714196 3.07669307332747 0.2289381007358427 3.1362149950292548 0.15618030919392167 3.1920938995127477 0.079235476758638262 3.2441158676435573 -0.0017287878519504105 3.2920717620220423 -0.086527293076508194 3.3357630375013048 -0.17495779809043061 3.3750008136945322 -0.26680184154100184 3.4096111643812317 -0.36182600785429375 3.4394305721500316 -0.45978262403528125 3.4702418498447667 -0.56145501268617182 3.4899946484841537 -0.66481544874305942 3.1970112253209937 -0.69853347973851898 3.2100889087141695 -0.7890349972811862 3.2185521429021211 -0.88099613363899965 3.2222280620469927 -0.97412378802337229 3.2266968435555197 -1.0700911419886123 3.2207079032184009 -1.1650722315152267 3.2098058476575062 -1.2603787703463869 3.1939607738120417 -1.3557050901066694 2.8970395805519784 -1.3202890641678517 2.8830673866522529 -1.4025756719541771 2.8597330040861526 -1.4818717282792773 2.8320990086060571 -1.5601068953722548 2.8001658966361953 -1.6369621730756276 2.7685440031386541 -1.7150353626768839 2.7278723263092042 -1.7883282270860379 2.6830655196632605 -1.8592595911263814 2.3978736789689856 -1.7502818643690918 2.3535282793666159 -1.8036929027802886 2.3097262255173838 -1.8573052524891041 2.2582184580731925 -1.9042141648906212 2.203266037996062 -1.9471464497373134 2.1449298288482077 -1.9856524843860592 2.0832819672461804 -2.0192540875052227 2.0184034698177888 -2.0474398044401245 2.1502105414393169 -2.287030698836817 2.0690642816992124 -2.3120446569333177 1.9848940326409019 -2.3293528277675999 1.8979497090228949 -2.3383343481773942 1.8085311933403931 -2.3383895025085732 1.894845450258321 -2.5766770678589244 1.7865119103397731 -2.5605071630342082 1.8506256536656247 -2.8021282118991104 1.72689495480318 -2.7691604691718421 1.6058849794965215 -2.7264391663714016 1.6372841706652077 -2.9509287380316693 1.1330447035298723 -2.1570180490379469 0.99221693597527905 -1.9759161747318552 0.85776429292302692 -1.780782897581098 0.88078705320215711 -1.9062389384034413 0.75190952056211346 -1.6961962498858147 0.75536425089573389 -1.7749041299964743 0.59139019286911299 -1.444366345228389 0.53227039679188481 -1.3451806826414316 0.42772559018564649 -1.1147053205470467 0.36647011951309383 -0.98085406366376116 0.75204082214196877 -2.0947697731388226 0 0
        </DataArray>
        <DataArray type="Float32" Name="u" NumberOfComponents="1">
          0 0.007874015748031496 0.015748031496062992 0.023622047244094488 0.031496062992125984 0.03937007874015748 0.047244094488188976 0.055118110236220472 0.062992125984251968 0.070866141732283464 0.07874015748031496 0.086614173228346455 0.094488188976377951 0.10236220472440945 0.11023622047244094 0.11811023622047244 0.12598425196850394 0.13385826771653545 0.14173228346456693 0.14960629921259844 0.15748031496062992 0.16535433070866143 0.17322834645669291 0.18110236220472442 0.1889763779527559 0.19685039370078741 0.20472440944881889 0.2125984251968504 0.22047244094488189 0.2283464566929134 0.23622047244094488 0.24409448818897639 0.25196850393700787 0.25984251968503935 0.26771653543307089 0.27559055118110237 0.28346456692913385 0.29133858267716534 0.29921259842519687 0.30708661417322836 0.31496062992125984 0.32283464566929132 0.33070866141732286 0.33858267716535434 0.34645669291338582 0.3543307086614173 0.36220472440944884 0.37007874015748032 0.37795275590551181 0.38582677165354329 0.39370078740157483 0.40157480314960631 0.40944881889763779 0.41732283464566927 0.42519685039370081 0.43307086614173229 0.44094488188976377 0.44881889763779526 0.45669291338582679 0.46456692913385828 0.47244094488188976 0.48031496062992124 0.48818897637795278 0.49606299212598426 0.50393700787401574 0.51181102362204722 0.51968503937007871 0.52755905511811019 0.53543307086614178 0.54330708661417326 0.55118110236220474 0.55905511811023623 0.56692913385826771 0.57480314960629919 0.58267716535433067 0.59055118110236215 0.59842519685039375 0.60629921259842523 0.61417322834645671 0.62204724409448819 0.62992125984251968 0.63779527559055116 0.64566929133858264 0.65354330708661412 0.66141732283464572 0.6692913385826772 0.67716535433070868 0.68503937007874016 0.69291338582677164 0.70078740157480313 0.70866141732283461 0.71653543307086609 0.72440944881889768 0.73228346456692917 0.74015748031496065 0.74803149606299213 0.75590551181102361 0.76377952755905509 0.77165354330708658 0.77952755905511806 0.78740157480314965 0.79527559055118113 0.80314960629921262 0.8110236220472441 0.81889763779527558 0.82677165354330706 0.83464566929133854 0.84251968503937003 0.85039370078740162 0.8582677165354331 0.86614173228346458 0.87401574803149606 0.88188976377952755 0.88976377952755903 0.89763779527559051 0.90551181102362199 0.91338582677165359 0.92125984251968507 0.92913385826771655 0.93700787401574803 0.94488188976377951 0.952755905511811 0.96062992125984248 0.96850393700787396 0.97637795275590555 0.98425196850393704 0.99212598425196852 1
        </DataArray>
      </PointData>
      <CellData Scalars="P">
        <DataArray type="Float32" Name="P" NumberOfComponents="1">
          -0.026735333144301397 -0.079329310882491441 -0.13057421918387199 -0.1806617973763536 -0.23003349258075528 -0.27924089628847093 -0.32887146439793885 -0.37950106655661164 -0.43166168697334711 -0.48581863648380758 -0.54235470696179355 -0.6015594388860821 -0.66362247505260852 -0.72863027053693818 -0.7965658216917938 -0.8673105664133175 -0.94064703739507605 -1.0162649942672952 -1.0937672479451226 -1.1726763971122234 -1.2524435384370931 -1.3324582040620827 -1.4120571786916956 -1.4905355101376798 -1.5671570177768666 -1.6411628566937733 -1.7117846957213187 -1.7782591860674868 -1.8398354083780697 -1.8957690322247767 -1.9453728181150407 -1.9880084120746093 -2.0230979400984528 -2.0501361570990708 -2.0687014265368933 -2.0784707659540711 -2.0792364125860399 -2.0709073525313806 -2.0535191039688399 -2.0272539619118537 -1.9924494005401951 -1.9496051922459772 -1.842445943974061 -1.7000335205663493 -1.5225871346804543 -1.309815683811439 -1.0940860670162607 -0.84418407048761002 -0.56057459316676939 -0.24222934524705764 0.077895510357504125 0.46791318091999606 0.89691091299746006 1.7075815146586173 1.0863231126776665 1.1159653402527248 1.1515275166023946 1.1921074770783315 1.2600909376596234 1.3318744473186215 1.406870602101933 1.4844683557253908 1.5857075396560887 1.6877440571851337 1.8108224523939414 1.9328012064441904 2.0531009787995242 2.1715451359379032 2.2872016122519985 2.3995618035011108 2.5081452480335393 2.6125014470516654 2.7122116894383823 2.8068908218105886 2.8961885185806731 2.979790617357132 3.0574201915561368 3.1288386437807616 3.1938464203402739 3.252485976254667 3.3044204997776632 3.3403952594149184 3.3703290141471167 3.3940618983461781 3.4114595881792997 3.4225391701104071 3.4270928292619778 3.4250793041226761 3.41648888714181 3.3976084037425394 3.3729613975935684 3.3424020008886655 3.3058807585543999 3.2633743923304248 3.2149023293240782 3.1604733712569457 3.1001573989383817 3.034871917564856 2.9645047113808074 2.8890409466958613 2.8085531528303256 2.7231286957319201 2.6328929267848133 2.5380120091344134 2.438695666308786 2.3304386885605406 2.2178502068401831 2.101459339995023 1.9818470025273665 1.8596422644522368 1.7286445410511884 1.5963480320016885 1.4560090033335804 1.3162762328484963 1.1782655737499146 1.0353821640597327 0.91636522924870834 0.80428887715335939 0.69949194831862671 0.59452111917720818 0.49739168429123681 0.40233889039328241 0.3171094406661718 0.23734552197653785 0.16448082568549743 0.096854312659121422 0.028987517581754114
        </DataArray>
      </CellData>
      <Points>
        <DataArray type="Float32" NumberOfComponents="3" format="ascii">
          4.3331008333320318 5.5094805067150476 0
          4.3283356894184832 5.5157535275633673 0
          4.3235474380062433 5.522008825818725 0
          4.3187244634135977 5.5282372338248598 0
          4.3138592362990416 5.5344324970541692 0
          4.3089465918264596 5.540590002330692 0
          4.3039829979129687 5.5467062637662714 0
          4.2989661595142934 5.5527786637360803 0
          4.2938947671462904 5.5588053011772107 0
          4.288768322505863 5.5647848954986712 0
          4.2835870060723176 5.5707167186768638 0
          4.2783515759925299 5.5766005476219433 0
          4.2730632840286376 5.5824366253922495 0
          4.2677238065810847 5.5882256300148887 0
          4.2623351861100289 5.5939686472359993 0
          4.2568997800529056 5.599667144897011 0
          4.2514202171456059 5.6053229491814394 0
          4.2458993628176911 5.6109382248041513 0
          4.2403402864901896 5.6165154526223651 0
          4.2347462353072958 5.6220574093148539 0
          4.2291206129803109 5.6275671482619067 0
          4.223466961161817 5.6330479793451067 0
          4.2177889429034465 5.6385034474268227 0
          4.2120903304295316 5.6439373120895953 0
          4.2063749945203854 5.6493535261458536 0
          4.2006468965033008 5.6547562142221572 0
          4.1949100845248806 5.6601496534961715 0
          4.1891686894127398 5.665538251892233 0
          4.1834269197232787 5.6709265235243977 0
          4.1776890617575431 5.6763190678316908 0
          4.1719594929206769 5.6817205615458368 0
          4.1662426670614758 5.6871357196848837 0
          4.1605431161900412 5.6925692732249091 0
          4.1548654525801068 5.6980259466651662 0
          4.149214370664283 5.7035104351249926 0
          4.1435946491979472 5.7090273817296451 0
          4.1380111509687429 5.7145813527767269 0
          4.1324688190035115 5.7201768100855963 0
          4.1269726776281681 5.7258180892584658 0
          4.1215278329125651 5.7315093783872326 0
          4.1161394661238315 5.7372546914252371 0
          4.110812826404211 5.7430578428657748 0
          4.1055532226658764 5.7489224239837569 0
          4.1003833476621097 5.7548659999186942 0
          4.0953257689989302 5.7609051544607457 0
          4.0904045239016096 5.7670556394966175 0
          4.0856456524872833 5.7733323222665183 0
          4.0810565625797519 5.7797339283335347 0
          4.0766655796938656 5.7862727476334248 0
          4.0725026747423305 5.7929588228217508 0
          4.0686003190707591 5.7997999791393902 0
          4.064968458865609 5.8067882608072781 0
          4.0616673089996063 5.8139384545132629 0
          4.0587354874033297 5.8212476063234533 0
          4.0565220982893333 5.8288057502911172 0
          4.0538724862342219 5.8362226276934113 0
          4.0512892000976661 5.8436628678965388 0
          4.0487773165150402 5.8511275221266033 0
          4.0463415387836692 5.8586173650418569 0
          4.0440044178413945 5.8661385749179589 0
          4.0417707786064785 5.8736911649487 0
          4.0396454092179885 5.8812749402728617 0
          4.0376330571715355 5.8888894933515861 0
          4.0357568004183015 5.8965387156125795 0
          4.0340214205282168 5.9042211246091272 0
          4.0324504160866406 5.9119388137113233 0
          4.0310485304299624 5.9196889988932027 0
          4.0298203681106086 5.9274685995772165 0
          4.0287707629406997 5.9352742929193845 0
          4.0279040002744129 5.9431023979170527 0
          4.0272241820674717 5.9509489494398542 0
          4.0267352125931337 5.9588097051052555 0
          4.0264407842097061 5.966680153330457 0
          4.0263443634664231 5.9745555225649021 0
          4.026449177808427 5.9824307916669515 0
          4.0267582025745954 5.9903007013723313 0
          4.0272741486486767 5.9981597668216384 0
          4.0279994507062709 6.0060022910961637 0
          4.0289362563859124 6.0138223796839263 0
          4.0300864161025665 6.0216139558336099 0
          4.0314518416650778 6.0293707116763846 0
          4.0330337588091574 6.0370862345746099 0
          4.0348139971001959 6.0447584462774397 0
          4.036793368936749 6.0523817309597057 0
          4.0389724002212066 6.0599503818702347 0
          4.0413513195823034 6.0674586195308144 0
          4.0439304043764235 6.074900487689419 0
          4.046709282898501 6.0822700912271817 0
          4.0496872782025566 6.0895615145524973 0
          4.0528634061980036 6.0967688406052218 0
          4.0562192526967271 6.103894275963027 0
          4.0597539495770265 6.1109327113893075 0
          4.0634660474340381 6.117879223229199 0
          4.0673538294890186 6.1247289535188552 0
          4.0714153115955662 6.1314771298432831 0
          4.0756485280733603 6.1381189040381319 0
          4.0800509512865712 6.1446497248232355 0
          4.0846197963936772 6.1510651875967 0
          4.0893373749215067 6.1573720594276269 0
          4.094200930216509 6.1635670222186496 0
          4.0992077385303238 6.1696467455095299 0
          4.1043545976800972 6.1756083152699981 0
          4.1096380912910115 6.1814490646249496 0
          4.1150545926580513 6.1871666018196896 0
          4.1206002693244734 6.1927588399495912 0
          4.1262710882287283 6.198224028744419 0
          4.1320752063955286 6.2035472978161579 0
          4.1380075812862058 6.2087270968125479 0
          4.1440629832167648 6.2137623542582627 0
          4.1502360110653598 6.2186525160489472 0
          4.156521111087975 6.2233975826105947 0
          4.1629236204227755 6.2279827749095702 0
          4.1694368149182539 6.2324091034517108 0
          4.1760646581235976 6.2366615881975589 0
          4.1827994754626099 6.2407422848895484 0
          4.189633763568084 6.2446538543899841 0
          4.1965694664418152 6.2483823859586725 0
          4.2035753386053569 6.2519771264483888 0
          4.2106426563628672 6.2554493148036725 0
          4.2177630935688617 6.2588110592739188 0
          4.2249380873530775 6.2620545893608712 0
          4.2321596641017187 6.2651929381283438 0
          4.2394280575831953 6.2682212355356217 0
          4.2467331264541759 6.2711599856476221 0
          4.2540712349203558 6.2740153489737907 0
          4.2614359360000744 6.2768016268382052 0
          4.2688234752655143 6.2795271319685941 0
          4.2762578451806847 6.2821228209709581 0
        </DataArray>
      </Points>
      <Cells>
        <DataArray type="Int32" Name="connectivity" format="ascii">
          0 1 1 2 2 3 3 4 4 5 5 6 6 7 7 8 8 9 9 10 10 11 11 12 12 13 13 14 14 15 15 16 16 17 17 18 18 19 19 20 20 21 21 22 22 23 23 24 24 25 25 26 26 27 27 28 28 29 29 30 30 31 31 32 32 33 33 34 34 35 35 36 36 37 37 38 38 39 39 40 40 41 41 42 42 43 43 44 44 45 45 46 46 47 47 48 48 49 49 50 50 51 51 52 52 53 53 54 54 55 55 56 56 57 57 58 58 59 59 60 60 61 61 62 62 63 63 64 64 65 65 66 66 67 67 68 68 69 69 70 70 71 71 72 72 73 73 74 74 75 75 76 76 77 77 78 78 79 79 80 80 81 81 82 82 83 83 84 84 85 85 86 86 87 87 88 88 89 89 90 90 91 91 92 92 93 93 94 94 95 95 96 96 97 97 98 98 99 99 100 100 101 101 102 102 103 103 104 104 105 105 106 106 107 107 108 108 109 109 110 110 111 111 112 112 113 113 114 114 115 115 116 116 117 117 118 118 119 119 120 120 121 121 122 122 123 123 124 124 125 125 126 126 127 
        </DataArray>
        <DataArray type="Int32" Name="offsets" format="ascii">
          2 4 6 8 10 12 14 16 18 20 22 24 26 28 30 32 34 36 38 40 42 44 46 48 50 52 54 56 58 60 62 64 66 68 70 72 74 76 78 80 82 84 86 88 90 92 94 96 98 100 102 104 106 108 110 112 114 116 118 120 122 124 126 128 130 132 134 136 138 140 142 144 146 148 150 152 154 156 158 160 162 164 166 168 170 172 174 176 178 180 182 184 186 188 190 192 194 196 198 200 202 204 206 208 210 212 214 216 218 220 222 224 226 228 230 232 234 236 238 240 242 244 246 248 250 252 254 
        </DataArray>
        <DataArray type="Int32" Name="types" format="ascii">
          3 3 3 3 3 3 3 3 3 3 3 3 3 3 3 3 3 3 3 3 3 3 3 3 3 3 3 3 3 3 3 3 3 3 3 3 3 3 3 3 3 3 3 3 3 3 3 3 3 3 3 3 3 3 3 3 3 3 3 3 3 3 3 3 3 3 3 3 3 3 3 3 3 3 3 3 3 3 3 3 3 3 3 3 3 3 3 3 3 3 3 3 3 3 3 3 3 3 3 3 3 3 3 3 3 3 3 3 3 3 3 3 3 3 3 3 3 3 3 3 3 3 3 3 3 3 3         </DataArray>
      </Cells>
    </Piece>
  </UnstructuredGrid>
</VTKFile>
