<?xml version="1.0"?>
<VTKFile type="UnstructuredGrid" version="0.1" byte_order="LittleEndian">
  <UnstructuredGrid>
    <Piece NumberOfPoints="128" NumberOfCells="127">
      <PointData Scalars="W">
        <DataArray type="Float32" Name="W" NumberOfComponents="2">
          0 0 -0.5587186130924463 -0.0092015866057209659 -0.92468737545863045 -0.020632500982543486 -1.2048787498413407 -0.036997654720149119 -1.4389211817170584 -0.05919183064546707 -1.6429230910092489 -0.087586392706431024 -1.8250458507241147 -0.12235197934428706 -1.9900660472911933 -0.16355976016576884 -2.1410071885897182 -0.21121954370634838 -2.2799478103234994 -0.26530587785643045 -2.4083006179783286 -0.32576019569147402 -2.5270981679331737 -0.39250443320096479 -2.6370900230651055 -0.4654431214339062 -2.7388673850669591 -0.54447566437846007 -2.8328917353353242 -0.62949911465013086 -2.9194796220565955 -0.72040012460721881 -2.9987822871048904 -0.81703914264919364 -3.0709603752899777 -0.91928808713792953 -3.1360762451763016 -1.0270024007470737 -3.1941144281355167 -1.1400184550368255 -3.2450373516907813 -1.2581671515583182 -3.2887905480142123 -1.3812762160202146 -3.3252780293678459 -1.5091592000615637 -3.3543582542636901 -1.6416083698021753 -3.3759011923401916 -1.7784186423301123 -3.3896903509721197 -1.9193351206211859 -3.3955523705045216 -2.0641153077543 -3.3933479379892377 -2.2125347203745029 -3.3828555109209164 -2.3643143195413514 -3.3635804164144227 -2.5189507105799547 -3.3355805522757316 -2.6763111357549945 -3.2986117481843151 -2.836053120004935 -3.2524391319351098 -2.9978217417040827 -3.1968022345190445 -3.1612153901419169 -3.1314655938100668 -3.3258273508240963 -3.0561875679325796 -3.4912152774636844 -2.97078406288944 -3.6569738672830243 -2.8749828715341246 -3.8225607546042242 -2.7685250008782045 -3.987385108993748 -2.6512531731170199 -4.1509396553261926 -2.5230035527723791 -4.3126688047294213 -2.3836055158300486 -4.4719482622118631 2.1556095343373407 4.0622468046125482 2.2595793384910099 3.9122803414123206 2.3517651962346142 3.7594355502809891 2.4362081238158435 3.6102694681746859 2.5060632293520548 3.4547777480829294 2.5694279469996508 3.3048660942034327 2.6230320907997835 3.15565062278143 2.6627634718168638 3.0028357397072609 2.6981193826390029 2.857483132293912 2.7253423161899524 2.7147817792023274 2.7449991600297823 2.5751976690231007 2.7628797302908286 2.4436013166117379 2.7693890793231746 2.3110636177506838 2.769991643153582 2.1825801557369289 2.7708742372493909 2.0624267970213235 2.7563198353352054 1.9387411608272589 2.7371054141071118 1.81991673365822 2.7137755570352731 1.7060200671477936 2.69321799041415 1.6007539658413636 2.6636005483053404 1.4965658897160887 2.6313700944146903 1.3972713287333296 2.597070912171727 1.3028432164411932 2.5534190434955919 1.2096269355000016 2.5234615416264279 1.1281301922588793 2.493152182918009 1.0507653353680881 2.4626407326291737 0.97729297558538641 2.4323566385910977 0.90759384347214489 2.4026093876077863 0.84149192746402512 2.3655086096081956 0.77620663750247909 2.3375993253971221 0.71705544435768676 2.311067506196232 0.66092212185620458 2.2861573804690241 0.60760338012980997 2.2631044268711897 0.55689230706368109 2.2422396226575927 0.50860064303597552 2.2147288245071892 0.46070656208228056 2.1984586667007937 0.41683403876260922 2.1848695642077995 0.37469094976734763 2.1741391256391083 0.33404734410494547 2.1665539971831875 0.29468284291475172 2.1620450351228446 0.25632251714342363 2.1608816879027559 0.21873648986338828 2.1632095884587108 0.18166791567444088 2.1691637483653774 0.14485047999428297 2.1788743433911106 0.10800759357509182 2.1925782259054314 0.070853231658323593 2.2101319980079723 0.033075247498801481 2.2317500741751299 -0.0056358792381027891 2.2575019756773402 -0.045612858573782014 2.2874382093024335 -0.087205386513634436 2.3215826022922652 -0.13078099045140301 2.3599346348939019 -0.17672596179582531 2.4025788877699097 -0.22545789701268554 2.4491801446794694 -0.27737794010652483 2.4997297142867154 -0.33293247032866996 2.5540374424698444 -0.3925732181831374 2.6118360005749577 -0.45675936331288414 2.6727737432398562 -0.52595090273839784 2.7365335087056732 -0.60062943596091212 2.1717167686335714 -0.52200333564620482 2.2458852090482608 -0.58262267860515149 2.3217809358519492 -0.64870591844702574 2.3988776134622438 -0.72058122986403927 2.4682782801179424 -0.7957820292421669 2.5464632135209175 -0.87991935076615935 2.6245356256230621 -0.97092001187392263 2.7022934596878727 -1.069275036681228 2.7707033772767367 -1.171672197983971 2.8469636157302585 -1.2857982632277669 3.5127522434521321 -1.7050400287831511 3.5616925838852853 -1.8682976577662302 3.6166585870177679 -2.0482352760497098 3.6603527583193989 -2.2368945874129853 3.7092150547838556 -2.4457557776999361 3.7458421796651553 -2.6659061922520046 3.7779329246240443 -2.9043317769484838 3.8126919422572927 -3.1704869672377574 3.8322190292384315 -3.453985556305438 3.8429814070323647 -3.7641355329650561 3.8711321991740499 -4.1365297459667794 2.0492801339804854 -2.3474536655747684 1.8213998826413453 -2.1880664637948657 1.6470719384847692 -2.0679945410651261 1.3845261769320307 -1.8092349368722414 0.50053101582907145 -0.67097115669812801 0.19961911482422295 -0.27018888263680124 0 0
        </DataArray>
        <DataArray type="Float32" Name="u" NumberOfComponents="1">
          0 0.007874015748031496 0.015748031496062992 0.023622047244094488 0.031496062992125984 0.03937007874015748 0.047244094488188976 0.055118110236220472 0.062992125984251968 0.070866141732283464 0.07874015748031496 0.086614173228346455 0.094488188976377951 0.10236220472440945 0.11023622047244094 0.11811023622047244 0.12598425196850394 0.13385826771653545 0.14173228346456693 0.14960629921259844 0.15748031496062992 0.16535433070866143 0.17322834645669291 0.18110236220472442 0.1889763779527559 0.19685039370078741 0.20472440944881889 0.2125984251968504 0.22047244094488189 0.2283464566929134 0.23622047244094488 0.24409448818897639 0.25196850393700787 0.25984251968503935 0.26771653543307089 0.27559055118110237 0.28346456692913385 0.29133858267716534 0.29921259842519687 0.30708661417322836 0.31496062992125984 0.32283464566929132 0.33070866141732286 0.33858267716535434 0.34645669291338582 0.3543307086614173 0.36220472440944884 0.37007874015748032 0.37795275590551181 0.38582677165354329 0.39370078740157483 0.40157480314960631 0.40944881889763779 0.41732283464566927 0.42519685039370081 0.43307086614173229 0.44094488188976377 0.44881889763779526 0.45669291338582679 0.46456692913385828 0.47244094488188976 0.48031496062992124 0.48818897637795278 0.49606299212598426 0.50393700787401574 0.51181102362204722 0.51968503937007871 0.52755905511811019 0.53543307086614178 0.54330708661417326 0.55118110236220474 0.55905511811023623 0.56692913385826771 0.57480314960629919 0.58267716535433067 0.59055118110236215 0.59842519685039375 0.60629921259842523 0.61417322834645671 0.62204724409448819 0.62992125984251968 0.63779527559055116 0.64566929133858264 0.65354330708661412 0.66141732283464572 0.6692913385826772 0.67716535433070868 0.68503937007874016 0.69291338582677164 0.70078740157480313 0.70866141732283461 0.71653543307086609 0.72440944881889768 0.73228346456692917 0.74015748031496065 0.74803149606299213 0.75590551181102361 0.76377952755905509 0.77165354330708658 0.77952755905511806 0.78740157480314965 0.79527559055118113 0.80314960629921262 0.8110236220472441 0.81889763779527558 0.82677165354330706 0.83464566929133854 0.84251968503937003 0.85039370078740162 0.8582677165354331 0.86614173228346458 0.87401574803149606 0.88188976377952755 0.88976377952755903 0.89763779527559051 0.90551181102362199 0.91338582677165359 0.92125984251968507 0.92913385826771655 0.93700787401574803 0.94488188976377951 0.952755905511811 0.96062992125984248 0.96850393700787396 0.97637795275590555 0.98425196850393704 0.99212598425196852 1
        </DataArray>
      </PointData>
      <CellData Scalars="P">
        <DataArray type="Float32" Name="P" NumberOfComponents="1">
          -0.011188709192430233 -0.032160195509710929 -0.050014635717506313 -0.063785257008617868 -0.072799050903341878 -0.076551480571349514 -0.074650609058389619 -0.066784869353303231 -0.052702717287816003 -0.032197609681423094 -0.0050984498860577572 0.028738630468336419 0.069436278948340022 0.11710179064771202 0.17183177200453853 0.23371482428040069 0.30283207382186145 0.37926160776103762 0.46307921250225126 0.55435886558258962 0.65317449631109825 0.75960167186033634 0.87371808740134016 0.99560345879256695 1.1253414549195138 1.2630171686693559 1.4087198863447472 1.5625458265228949 1.7245950717754555 1.8949565765515139 2.0737377983421954 2.2610493184897722 2.4570051302911207 2.6617204126696561 2.8753121978197984 3.0978977138014678 3.3295974655633676 3.5705263339248621 3.8207909059042628 4.0804951499805053 4.3497367459256582 4.6286019357344559 4.3368171234997872 4.03429172746758 3.7234762090639499 3.4062095236112206 3.0851176769957069 2.7616988364920401 2.4377886245163949 2.1156132467229933 1.7961649110365876 1.480819834857845 1.1708089232152794 0.86666492598377765 0.56990264027033577 0.28135826718907497 0.0011962318654787404 -0.26892667461361724 -0.52851980315448988 -0.77719694004413797 -1.0152080008000117 -1.2418107434044545 -1.4568783142415471 -1.6603616829344598 -1.8517264153331869 -2.0321114583486524 -2.2016039466144175 -2.3603129280717816 -2.5083831846858486 -2.6459824929454014 -2.772895645454958 -2.889755313061511 -2.9967693468732053 -3.0941492933734116 -3.182106756783817 -3.2608531452448539 -3.3303571647855055 -3.3910794466005032 -3.4432022216044427 -3.4868944680740137 -3.5223117670827344 -3.5495911749341373 -3.5688553975816486 -3.5802110628386865 -3.5837492625273426 -3.5795466593515193 -3.5676657753783867 -3.5481614788370939 -3.5210807756641134 -3.4864680681241804 -3.4443703764115643 -3.3948437893759893 -3.3379610105288084 -3.2738162099213621 -3.2025487349859545 -3.1243433083349514 -3.0394485239485558 -2.9481940170772019 -2.8510099232277177 -2.7484426548651237 -2.6407724504054659 -2.5291589811062485 -2.4142641780943292 -2.2966675812382378 -2.1772768605005597 -2.0560816872225143 -1.9333880305473132 -1.809385072382143 -1.6845426645362638 -1.5583753250723427 -1.4306165179045676 -1.3013662625289955 -1.1701111150856749 -1.0372635671970982 -0.9026827686037201 -0.76716241405273344 -0.63134754219252953 -0.49576634197838548 -0.36189768336452721 -0.2311511260850205 -0.10411781038477937 -0.050976324277192828 -0.011461009520804059 0.016158589680346409 0.029937728646306897 0.021131173760410491 0.007096506655702048
        </DataArray>
      </CellData>
      <Points>
        <DataArray type="Float32" NumberOfComponents="3" format="ascii">
          4.129167666174089 6.9099037380690849 0
          4.1290553224554536 6.9177772888657358 0
          4.1289083351410341 6.9256502696745192 0
          4.1287040121635519 6.9335219719264751 0
          4.1284249801116983 6.9413913809245358 0
          4.1280567270559771 6.9492571204413682 0
          4.1275866037444473 6.9571174297246898 0
          4.1270033175585592 6.9649701529332093 0
          4.1262966363440698 6.9728127347336022 0
          4.1254572009422459 6.9806422196990834 0
          4.1244763963143658 6.9884552538927682 0
          4.123346263951186 6.9962480885035747 0
          4.1220594378535678 7.0040165846907723 0
          4.1206090980600596 7.0117562195077161 0
          4.1189889339935082 7.0194620921436943 0
          4.1171931158507649 7.0271289303119229 0
          4.1152162749787022 7.0347510972828395 0
          4.1130534944996961 7.0423226005427333 0
          4.1107002993535744 7.0498370997417243 0
          4.108152652433227 7.0572879156639416 0
          4.1054069555451953 7.0646680403807949 0
          4.102460051739981 7.0719701477440049 0
          4.0993092286890001 7.0791866040760594 0
          4.0959522246349085 7.0863094797399953 0
          4.0923872371653038 7.0933305620293252 0
          4.0886129312713804 7.100241367893803 0
          4.0846284527662631 7.1070331597539447 0
          4.0804334390274217 7.1136969605465454 0
          4.076028027626549 7.120223567652916 0
          4.0714128700565144 7.126603570209249 0
          4.0665891623920052 7.1328273803270799 0
          4.0615586416870242 7.1388852413315949 0
          4.0563236011005932 7.1447672490019301 0
          4.0508869044447842 7.1504633735815446 0
          4.0452520023188923 7.1559634846815827 0
          4.0394229466924196 7.1612573764985221 0
          4.0334044058708782 7.1663347952387806 0
          4.0272016758934912 7.1711854642440072 0
          4.0208206973946021 7.1757991176121232 0
          4.0142680716466232 7.180165536820672 0
          4.0075510702976729 7.184274582166946 0
          4.0006776455175919 7.1881162272013448 0
          3.9936564405670381 7.1916805974185332 0
          3.9867688973939295 7.195496829756844 0
          3.9800214612881635 7.199555625260925 0
          3.9734198468946205 7.2038475066544834 0
          3.9669692887300001 7.2083632249167797 0
          3.9606741169171897 7.2130931389153554 0
          3.9545382591444862 7.2180279536402638 0
          3.9485650379773061 7.2231584173474657 0
          3.9427569159433427 7.228475055181284 0
          3.9371160842958126 7.2339688550720949 0
          3.9316442300938128 7.2396309694004755 0
          3.9263425713517237 7.2454527438787846 0
          3.9212122159870106 7.2514260195465203 0
          3.9162535669831922 7.2575425790890353 0
          3.9114666611556519 7.2637944565914179 0
          3.906851552717459 7.2701742026618357 0
          3.9024073388686142 7.2766741488795335 0
          3.8981328279279168 7.2832869282432835 0
          3.894026573095116 7.2900054792939279 0
          3.8900872994794744 7.296823275703507 0
          3.8863131705230676 7.3037338579752085 0
          3.8827021876917307 7.3107310700244046 0
          3.8792522242180607 7.3178090575003214 0
          3.8759605734962332 7.3249620411913305 0
          3.8728253779873709 7.332184968533781 0
          3.869844758362722 7.3394730431510444 0
          3.8670168227863315 7.346821710014515 0
          3.8643396935382324 7.3542266480537313 0
          3.8618115262004165 7.3616837592500035 0
          3.8594300204472605 7.3691889962594441 0
          3.8571934458433645 7.3767386920917772 0
          3.855100157370257 7.3843293669219046 0
          3.853148610568546 7.3919577155027723 0
          3.8513373761385483 7.3996205943577618 0
          3.8496651604632053 7.4073150101341021 0
          3.8481302578836938 7.4150379943219731 0
          3.8467316596979675 7.4227868279129527 0
          3.8454685234653665 7.4305588993660141 0
          3.8443401840307545 7.4383516904102613 0
          3.8433461713140393 7.4461627624534001 0
          3.8424862060464444 7.4539897396261114 0
          3.8417602165083382 7.4618302946359973 0
          3.8411683476010214 7.4696821329717951 0
          3.8407109692737853 7.4775429765455836 0
          3.8403886846688158 7.4854105467264702 0
          3.8402023449028309 7.4932825468195841 0
          3.8401530403002395 7.5011566429656575 0
          3.8402421138468914 7.5090304452363865 0
          3.840471165703276 7.516901487332337 0
          3.8408420565913635 7.5247672052656362 0
          3.8413569095902083 7.5326249149712767 0
          3.8420181104961033 7.5404717887809047 0
          3.8428283135452848 7.548304829963782 0
          3.8437904212014784 7.556120848288808 0
          3.8449075842939799 7.563916432729286 0
          3.846183191009342 7.571687923750928 0
          3.8476208511966958 7.5794313849880401 0
          3.8492243755231232 7.5871425746368235 0
          3.8509977568061275 7.5948169151632472 0
          3.8529057362303942 7.6024583454123063 0
          3.8549529089802332 7.61006319341561 0
          3.8571439790810738 7.6176274381436393 0
          3.8594837265357431 7.6251466902132421 0
          3.8619764556270337 7.6326163463713428 0
          3.8646270168595067 7.6400312425144721 0
          3.8674402556256333 7.6473857842151292 0
          3.8704210002562349 7.6546739180051189 0
          3.8735735028383207 7.6618893385657811 0
          3.876902506643026 7.6690250137099039 0
          3.8804493158229452 7.6760550034366428 0
          3.8842169915704376 7.6829692273158221 0
          3.8882089703387579 7.6897565606696245 0
          3.892427990159042 7.6964053276432285 0
          3.8968771085922924 7.7029025890800362 0
          3.9015586227408936 7.7092346959153923 0
          3.9064745455958154 7.7153868566196273 0
          3.9116270518562968 7.7213425515892453 0
          3.9170173677458404 7.7270841790114977 0
          3.9226461715735925 7.7325924787155902 0
          3.9285152144364379 7.7378443246407063 0
          3.9345115923741534 7.7429507492064396 0
          3.9406212007350998 7.7479216382845353 0
          3.9468332562933428 7.7527644393329682 0
          3.9531315135050855 7.7574952140983626 0
          3.9594612256219732 7.7621846489641495 0
          3.9658037945042532 7.7668576617024119 0
        </DataArray>
      </Points>
      <Cells>
        <DataArray type="Int32" Name="connectivity" format="ascii">
          0 1 1 2 2 3 3 4 4 5 5 6 6 7 7 8 8 9 9 10 10 11 11 12 12 13 13 14 14 15 15 16 16 17 17 18 18 19 19 20 20 21 21 22 22 23 23 24 24 25 25 26 26 27 27 28 28 29 29 30 30 31 31 32 32 33 33 34 34 35 35 36 36 37 37 38 38 39 39 40 40 41 41 42 42 43 43 44 44 45 45 46 46 47 47 48 48 49 49 50 50 51 51 52 52 53 53 54 54 55 55 56 56 57 57 58 58 59 59 60 60 61 61 62 62 63 63 64 64 65 65 66 66 67 67 68 68 69 69 70 70 71 71 72 72 73 73 74 74 75 75 76 76 77 77 78 78 79 79 80 80 81 81 82 82 83 83 84 84 85 85 86 86 87 87 88 88 89 89 90 90 91 91 92 92 93 93 94 94 95 95 96 96 97 97 98 98 99 99 100 100 101 101 102 102 103 103 104 104 105 105 106 106 107 107 108 108 109 109 110 110 111 111 112 112 113 113 114 114 115 115 116 116 117 117 118 118 119 119 120 120 121 121 122 122 123 123 124 124 125 125 126 126 127 
        </DataArray>
        <DataArray type="Int32" Name="offsets" format="ascii">
          2 4 6 8 10 12 14 16 18 20 22 24 26 28 30 32 34 36 38 40 42 44 46 48 50 52 54 56 58 60 62 64 66 68 70 72 74 76 78 80 82 84 86 88 90 92 94 96 98 100 102 104 106 108 110 112 114 116 118 120 122 124 126 128 130 132 134 136 138 140 142 144 146 148 150 152 154 156 158 160 162 164 166 168 170 172 174 176 178 180 182 184 186 188 190 192 194 196 198 200 202 204 206 208 210 212 214 216 218 220 222 224 226 228 230 232 234 236 238 240 242 244 246 248 250 252 254 
        </DataArray>
        <DataArray type="Int32" Name="types" format="ascii">
          3 3 3 3 3 3 3 3 3 3 3 3 3 3 3 3 3 3 3 3 3 3 3 3 3 3 3 3 3 3 3 3 3 3 3 3 3 3 3 3 3 3 3 3 3 3 3 3 3 3 3 3 3 3 3 3 3 3 3 3 3 3 3 3 3 3 3 3 3 3 3 3 3 3 3 3 3 3 3 3 3 3 3 3 3 3 3 3 3 3 3 3 3 3 3 3 3 3 3 3 3 3 3 3 3 3 3 3 3 3 3 3 3 3 3 3 3 3 3 3 3 3 3 3 3 3 3         </DataArray>
      </Cells>
    </Piece>
  </UnstructuredGrid>
</VTKFile>
