<?xml version="1.0"?>
<VTKFile type="UnstructuredGrid" version="0.1" byte_order="LittleEndian">
  <UnstructuredGrid>
    <Piece NumberOfPoints="128" NumberOfCells="127">
      <PointData Scalars="W">
        <DataArray type="Float32" Name="W" NumberOfComponents="2">
          0 0 0.75332591256955705 0.29978090627492443 1.1881421369268217 0.48420152496131125 1.5008325875149433 0.63179682870354925 1.7471295146803849 0.76429163366476627 1.9497741209762665 0.89026414378075691 2.1203884632967807 1.0138987546422102 2.2657175471823874 1.1374664804622132 2.3900446847574046 1.2622820845700049 2.4963175270374562 1.3891584833115691 2.5865816194251861 1.5185657835150679 2.6623235082599725 1.6507687383938057 2.7246265727404326 1.7858813616833935 2.7743583688377007 1.9239595567393717 2.8122264604866003 2.0650298916815726 2.838761651814079 2.2090682618437754 2.8543028103769439 2.3559676797506901 2.8591390321090966 2.5056341331488268 2.8534812757040275 2.6579642473415559 2.8374171769686778 2.8127935526704748 2.8109792957074671 2.9699444271938096 2.7741672162075126 3.129246612183914 2.7268981214538335 3.2904792296244825 2.6690306706016282 3.4533809751626161 2.6004379902565331 3.6177398741170621 2.5208712159647493 3.7832093152380617 2.4300863801621722 3.9494582103116005 2.3278372884799845 4.1161765422999954 2.213809255436495 4.2829642975593183 2.0874956910165778 4.4490098515770118 1.9487117990658918 4.6141072137600405 1.797070711981358 4.7776785779832478 1.6321709948007492 4.9390744641849169 1.4536024313417353 5.0975610883149107 1.2609635049708365 5.2523478954119929 1.0538543816507211 5.4025286775993013 0.83191195160408904 5.5472127811352578 0.59477040056517982 5.6852635031999741 0.34211966673142713 5.8154549103278352 0.073714451001030371 5.9365924556855187 -0.21063915033367669 6.0473345896557307 -0.51106018700581513 6.1462177126729305 0.069700698097034622 -0.66372703251197918 0.04571887003315897 -0.45474419805725735 0.012746043767912243 -0.12979623328936987 0.0020683239611382497 -0.021192489273245095 -0.02017529600811814 0.20517477312302446 -0.043800624589208463 0.43414985975950549 -0.07021654999711574 0.66685815526056236 -0.10096016948403415 0.90470551427866752 -0.13701364858823942 1.1434518408557977 -0.18000512027683307 1.3844876630061735 -0.25299411146233908 1.7717133804823675 -0.34505426990439447 2.1720179920581617 0.36809204161349612 -2.3262499221738224 0.31145581484093893 -2.2296152941813907 0.074193403679593151 -0.57815111620407478 0.052765035953234979 -0.42454832667879566 0.033249313085629763 -0.27371819811220527 0.014743916617109427 -0.12299275517517406 0.0043182796891398333 -0.03621628077438814 -0.012764977438069655 0.10680221433477426 -0.029721965645161011 0.24576139966801708 -0.047348951791510406 0.38347997852433174 -0.065671540734558984 0.51669148008170285 -0.076179044199577717 0.57920306446675951 -0.096425084898906527 0.70528094449443379 -0.1079249260752122 0.75660324965008618 -0.11950388699020863 0.80215688156985976 -0.13106090110571161 0.84187236451508296 -0.14247253478420094 0.87568147235556459 -0.1535982480332965 0.90353498385388842 -0.16456383990085641 0.92694858278552217 -0.17466929352593472 0.94282910754682459 -0.19795182649165635 1.0234171060612511 -0.20744180606599386 1.027075133890643 -0.2157908526446716 1.024780651202198 -0.22281075218595184 1.0165987407387962 -0.22831935088540803 1.002608896425164 -0.23214333367526407 0.98290213623090639 -0.23412132677198833 0.95758024683604759 -0.23448905410986298 0.92824419963857407 -0.23237342829615035 0.89202449498775171 -0.22802360930681012 0.85053957798302149 -0.22135075746365809 0.80391510590135107 -0.21228912418711079 0.75227665274987199 -0.2007978617065008 0.69574853290484362 -0.1872812174011701 0.63586026751321623 -0.17092708687344652 0.56990532185580023 -0.15217972986747577 0.49940521061246013 -0.13110873135068393 0.42445850855361245 -0.10823906389372463 0.34650941641524891 -0.082848564687506177 0.26290123212020494 -0.055524763195333039 0.17509006663721871 -0.026451740861036944 0.08310437323776694 0.0037331511803786314 -0.011716614495767783 0.035615657509779269 -0.11197870480886069 0.068497768172122747 -0.21637852598182486 0.1020665789787337 -0.32494144915599504 0.1359781263019377 -0.43771454914010571 0.1694705455499918 -0.55349555147100471 0.20292218330767056 -0.67491642486737402 0.2354955521623957 -0.80082878043971417 0.26671501081760263 -0.93138125645612424 0.27643106961720326 -0.99486738791674911 0.30473759690328756 -1.1348975084369695 0.33028402584399613 -1.2801655936193155 0.35243746141774046 -1.4309735897227405 0.35345489929140306 -1.5125192888398082 0.36878197444278782 -1.6751157241581072 0.36329440405162416 -1.7663960554584108 0.36977909377093149 -1.9442404474050188 0.35568691476952868 -2.0478817479252398 0.35015096584743349 -2.2431942008810482 0.32467361157572405 -2.3635775841069337 0.30320387573974333 -2.5823604991816054 0.2622290962071066 -2.7274198452692291 -0.33482428324248176 3.3892034959464961 -0.44585111748293238 3.5235344198053458 -0.50707707004866687 3.2893261450264446 -0.60810485012672932 3.3518719716877534 -0.63558213348434089 3.0543111895507686 -0.61086859263540871 2.6316469928275912 -0.57204332701410587 2.2600894277262653 -0.40866075732579688 1.5162674153026228 -0.055202306454570776 0.19925952968611682 1.4820974632993027 -5.872321742365207 0 0
        </DataArray>
        <DataArray type="Float32" Name="u" NumberOfComponents="1">
          0 0.007874015748031496 0.015748031496062992 0.023622047244094488 0.031496062992125984 0.03937007874015748 0.047244094488188976 0.055118110236220472 0.062992125984251968 0.070866141732283464 0.07874015748031496 0.086614173228346455 0.094488188976377951 0.10236220472440945 0.11023622047244094 0.11811023622047244 0.12598425196850394 0.13385826771653545 0.14173228346456693 0.14960629921259844 0.15748031496062992 0.16535433070866143 0.17322834645669291 0.18110236220472442 0.1889763779527559 0.19685039370078741 0.20472440944881889 0.2125984251968504 0.22047244094488189 0.2283464566929134 0.23622047244094488 0.24409448818897639 0.25196850393700787 0.25984251968503935 0.26771653543307089 0.27559055118110237 0.28346456692913385 0.29133858267716534 0.29921259842519687 0.30708661417322836 0.31496062992125984 0.32283464566929132 0.33070866141732286 0.33858267716535434 0.34645669291338582 0.3543307086614173 0.36220472440944884 0.37007874015748032 0.37795275590551181 0.38582677165354329 0.39370078740157483 0.40157480314960631 0.40944881889763779 0.41732283464566927 0.42519685039370081 0.43307086614173229 0.44094488188976377 0.44881889763779526 0.45669291338582679 0.46456692913385828 0.47244094488188976 0.48031496062992124 0.48818897637795278 0.49606299212598426 0.50393700787401574 0.51181102362204722 0.51968503937007871 0.52755905511811019 0.53543307086614178 0.54330708661417326 0.55118110236220474 0.55905511811023623 0.56692913385826771 0.57480314960629919 0.58267716535433067 0.59055118110236215 0.59842519685039375 0.60629921259842523 0.61417322834645671 0.62204724409448819 0.62992125984251968 0.63779527559055116 0.64566929133858264 0.65354330708661412 0.66141732283464572 0.6692913385826772 0.67716535433070868 0.68503937007874016 0.69291338582677164 0.70078740157480313 0.70866141732283461 0.71653543307086609 0.72440944881889768 0.73228346456692917 0.74015748031496065 0.74803149606299213 0.75590551181102361 0.76377952755905509 0.77165354330708658 0.77952755905511806 0.78740157480314965 0.79527559055118113 0.80314960629921262 0.8110236220472441 0.81889763779527558 0.82677165354330706 0.83464566929133854 0.84251968503937003 0.85039370078740162 0.8582677165354331 0.86614173228346458 0.87401574803149606 0.88188976377952755 0.88976377952755903 0.89763779527559051 0.90551181102362199 0.91338582677165359 0.92125984251968507 0.92913385826771655 0.93700787401574803 0.94488188976377951 0.952755905511811 0.96062992125984248 0.96850393700787396 0.97637795275590555 0.98425196850393704 0.99212598425196852 1
        </DataArray>
      </PointData>
      <CellData Scalars="P">
        <DataArray type="Float32" Name="P" NumberOfComponents="1">
          -0.038346890778226651 -0.11225652832077462 -0.18073355983891218 -0.24274688799041444 -0.29783198059869381 -0.34579832294220331 -0.38660059897089455 -0.42026984059117939 -0.44687168003047517 -0.46647808372856148 -0.47914990718780648 -0.48492429869700687 -0.48380639961041694 -0.47576146020844967 -0.46070861055528445 -0.43851753898682749 -0.40900794687848246 -0.37194573441114637 -0.32704077099246526 -0.27394733393414084 -0.21226262431423279 -0.1415244441614314 -0.061211515851914436 0.029256679428626659 0.13052438179367723 0.24329543054302896 0.36833635358066114 0.50647999459869986 0.65862377997140931 0.8257106915284087 1.0087634687031319 1.2088678779043509 1.4271713501793628 1.6648805316803921 1.9232600062426 2.2036268726805304 2.5073529943797244 2.8358494818094155 3.1905595014886119 3.572958696845169 3.9845419346725057 4.426809666162451 4.3136444949911157 4.2176943995517577 4.1523834973342684 4.097987608638161 4.0672150291271452 4.0610315168169739 4.0801433642247682 4.1250787639450692 4.195632900936034 4.2915234492678875 4.4275751019303282 4.6041203763622178 4.3075209205120508 4.0232689138958415 3.9114283657551989 3.8160230857027155 3.7360480006772878 3.6705393921980871 3.6126939223992802 3.5664613776761773 3.530118853234514 3.502084136434942 3.4804678135288296 3.4592087384910521 3.4411067796616326 3.4207179277582447 3.3970696096110102 3.3693037325612294 3.3366856578766901 3.2986118397846029 3.2546469372163287 3.204421648355368 3.1483324431235471 3.085304043117699 3.0154468215174153 2.9390030361232542 2.8563388852600347 2.7679350079219716 2.6743756160469658 2.5762899367049017 2.4744715521881959 2.3697404949198919 2.2629675832133653 2.1550600464735692 2.0469470799347147 1.9394858928306828 1.8336824175320696 1.7304484241070495 1.6306634573205661 1.5350715070989771 1.4445435558277409 1.3597952733044616 1.2814706830574514 1.2100380474539745 1.1460709164023493 1.0899584420957598 1.0419972594219118 1.002390494416064 0.97115518196169437 0.94840486246727629 0.93407258012719396 0.92801047187043406 0.92506579418395829 0.9299845304158374 0.94241989529578185 0.96197724177482558 0.98364023811815038 1.0116946472110375 1.0412515403054901 1.0765247393774566 1.1127797405113646 1.154122123831165 1.1961631207367467 1.2429932065067753 1.2907158254011195 1.1045955780522694 0.91867713920837135 0.74959096658804236 0.58775063034847153 0.44609071976369929 0.32653298905295702 0.22490102478289969 0.14327282707698566 0.078943130587727686 0.033494181449855061
        </DataArray>
      </CellData>
      <Points>
        <DataArray type="Float32" NumberOfComponents="3" format="ascii">
          6.618659977806499 9.9080140137148334 0
          6.6215493727934112 9.9006851461203205 0
          6.6244855233761877 9.8933748745432037 0
          6.6274954172894374 9.8860946387594542 0
          6.6305984630551746 9.8788535942134867 0
          6.6338099489307707 9.8716599599591586 0
          6.6371424543053932 9.864521550911574 0
          6.6406065709947981 9.8574460374827098 0
          6.6442113218421461 9.8504410865003873 0
          6.647964426531324 9.8435144427963994 0
          6.65187248449908 9.836673979657844 0
          6.655941101854582 9.829927728007787 0
          6.6601749836012223 9.8232838928436514 0
          6.6645780008324422 9.8167508603212035 0
          6.6691532445293618 9.8103372012318779 0
          6.6739030694257968 9.8040516726585238 0
          6.6788291269000943 9.7979032164844817 0
          6.6839323859517323 9.7919009527559489 0
          6.6892131510867667 9.7860541738467752 0
          6.694671075351752 9.7803723380387755 0
          6.7003051657115344 9.7748650593058652 0
          6.706113785007199 9.7695420962772985 0
          6.712094651866308 9.7644133416530234 0
          6.7182448354977158 9.7594888084714846 0
          6.7245607468533848 9.7547786138619497 0
          6.7310381306886393 9.7502929658526458 0
          6.737672050050576 9.7460421418142449 0
          6.7444568710718933 9.7420364678594904 0
          6.7513862476287709 9.7382862995431818 0
          6.7584531017500424 9.7348019969671729 0
          6.765649592116854 9.7315938743234902 0
          6.7729671025444826 9.7286721870265787 0
          6.7803962179260617 9.7260470957542235 0
          6.7879266992796987 9.7237286260296294 0
          6.7955474582598105 9.7217266225605279 0
          6.8032465322196085 9.720050700044899 0
          6.8110110593910358 9.7187101867881243 0
          6.8188272563596559 9.7177140692782693 0
          6.8266803953888315 9.7170709214789959 0
          6.8345547852246513 9.716788828577517 0
          6.8424337559433228 9.7168753126782423 0
          6.8502996470133635 9.7173372493691605 0
          6.8581338000313128 9.7181807767131811 0
          6.8659720345128905 9.7189830717177141 0
          6.8738128537765215 9.7197571109098817 0
          6.8816541959198716 9.7205230665905038 0
          6.8894954004994204 9.7212876808716029 0
          6.8973350817608301 9.7220650030731406 0
          6.9051717695583301 9.7228692420147649 0
          6.9130038219298546 9.7237148357606316 0
          6.920829329747777 9.7246165387728922 0
          6.9286460561901313 9.7255891587884289 0
          6.9364513357873214 9.7266476431274302 0
          6.9442406364056124 9.7278160050724747 0
          6.9520082460315686 9.7291190650149488 0
          6.9597986377506347 9.7302778117645303 0
          6.9676082950505984 9.7312982423357504 0
          6.9754224240800111 9.7322827928667657 0
          6.9832396942327186 9.7332409927445358 0
          6.9910588943442127 9.7341821986740396 0
          6.9988788766199406 9.7351157601512615 0
          7.0066989976486589 9.7360470600085431 0
          7.0145181993543604 9.7369849685487608 0
          7.0223354323696272 9.7379381037024935 0
          7.0301496065547822 9.7389150058772369 0
          7.0379595895327096 9.739923935451861 0
          7.0457647363891267 9.740968768342567 0
          7.0535637968623464 9.7420573218883497 0
          7.0613560656376055 9.7431927778572209 0
          7.0691408328335621 9.7443779603440426 0
          7.0769173902152636 9.7456153315212344 0
          7.0846850387906626 9.7469069874605925 0
          7.0924430974645229 9.7482546551261553 0
          7.1001908951545412 9.7496597863838108 0
          7.107927814180016 9.7511233662507664 0
          7.1156524191772146 9.7526503918029519 0
          7.1233641308449114 9.7542410907116626 0
          7.131062440461724 9.7558953218541706 0
          7.1387469214909611 9.7576125793386748 0
          7.1464172408127444 9.7593919974135286 0
          7.1540731694119506 9.7612323560823864 0
          7.1617145923303704 9.7631320873792991 0
          7.1693414940125288 9.7650893745896123 0
          7.1769540123835975 9.7671019742894831 0
          7.1845524233676636 9.7691673166379402 0
          7.1921371463657513 9.7712825131121601 0
          7.199708748308387 9.7734443642358482 0
          7.2072679461704183 9.775649367229164 0
          7.2148155819186277 9.7778938107956535 0
          7.2223526728143366 9.7801736072400605 0
          7.2298803838863233 9.7824843867610625 0
          7.2374000236197782 9.7848215035166923 0
          7.2449130114443614 9.7871801251451505 0
          7.2524209224633074 9.7895550679767673 0
          7.2599254510664162 9.7919408873041789 0
          7.2674283995322142 9.7943318791276415 0
          7.2749316385630136 9.7967221632052652 0
          7.2824371435550983 9.7991055214391345 0
          7.2899469513725768 9.8014754787170979 0
          7.2974631409677473 9.803825301357012 0
          7.3049878120764502 9.8061479942144825 0
          7.3125230380416442 9.8084363752927679 0
          7.3200708892209585 9.8106829125383701 0
          7.3276333811219505 9.8128797951247648 0
          7.3352124449382572 9.8150189242957193 0
          7.3428086805745032 9.8170963612604023 0
          7.3504238380547671 9.8191034193477353 0
          7.3580594959962475 9.8210310870667428 0
          7.3657170224114594 9.8228700094631911 0
          7.3733964771751843 9.8246151280154379 0
          7.3810988048058892 9.8262563570365309 0
          7.3888236618602656 9.8277880347221824 0
          7.3965714445500659 9.8291991303100588 0
          7.4043412761928034 9.8304832160006601 0
          7.4121328079829674 9.8316281784771888 0
          7.4199444579448883 9.8326265523590095 0
          7.4277748900401637 9.8334647696496358 0
          7.4356215625020452 9.8341338353822785 0
          7.4434470184888131 9.8350130356093253 0
          7.4512444999934271 9.836110682173965 0
          7.459010323894554 9.8374122460816977 0
          7.4667383377333758 9.8389216108120934 0
          7.4744269383178885 9.8406203423777789 0
          7.4820777531076903 9.8424822592281185 0
          7.4896932772625116 9.8444843537483386 0
          7.4972837281064608 9.8465805389083325 0
          7.504871122690794 9.8486891821939047 0
          7.5125503700321277 9.8504336418226455 0
        </DataArray>
      </Points>
      <Cells>
        <DataArray type="Int32" Name="connectivity" format="ascii">
          0 1 1 2 2 3 3 4 4 5 5 6 6 7 7 8 8 9 9 10 10 11 11 12 12 13 13 14 14 15 15 16 16 17 17 18 18 19 19 20 20 21 21 22 22 23 23 24 24 25 25 26 26 27 27 28 28 29 29 30 30 31 31 32 32 33 33 34 34 35 35 36 36 37 37 38 38 39 39 40 40 41 41 42 42 43 43 44 44 45 45 46 46 47 47 48 48 49 49 50 50 51 51 52 52 53 53 54 54 55 55 56 56 57 57 58 58 59 59 60 60 61 61 62 62 63 63 64 64 65 65 66 66 67 67 68 68 69 69 70 70 71 71 72 72 73 73 74 74 75 75 76 76 77 77 78 78 79 79 80 80 81 81 82 82 83 83 84 84 85 85 86 86 87 87 88 88 89 89 90 90 91 91 92 92 93 93 94 94 95 95 96 96 97 97 98 98 99 99 100 100 101 101 102 102 103 103 104 104 105 105 106 106 107 107 108 108 109 109 110 110 111 111 112 112 113 113 114 114 115 115 116 116 117 117 118 118 119 119 120 120 121 121 122 122 123 123 124 124 125 125 126 126 127 
        </DataArray>
        <DataArray type="Int32" Name="offsets" format="ascii">
          2 4 6 8 10 12 14 16 18 20 22 24 26 28 30 32 34 36 38 40 42 44 46 48 50 52 54 56 58 60 62 64 66 68 70 72 74 76 78 80 82 84 86 88 90 92 94 96 98 100 102 104 106 108 110 112 114 116 118 120 122 124 126 128 130 132 134 136 138 140 142 144 146 148 150 152 154 156 158 160 162 164 166 168 170 172 174 176 178 180 182 184 186 188 190 192 194 196 198 200 202 204 206 208 210 212 214 216 218 220 222 224 226 228 230 232 234 236 238 240 242 244 246 248 250 252 254 
        </DataArray>
        <DataArray type="Int32" Name="types" format="ascii">
          3 3 3 3 3 3 3 3 3 3 3 3 3 3 3 3 3 3 3 3 3 3 3 3 3 3 3 3 3 3 3 3 3 3 3 3 3 3 3 3 3 3 3 3 3 3 3 3 3 3 3 3 3 3 3 3 3 3 3 3 3 3 3 3 3 3 3 3 3 3 3 3 3 3 3 3 3 3 3 3 3 3 3 3 3 3 3 3 3 3 3 3 3 3 3 3 3 3 3 3 3 3 3 3 3 3 3 3 3 3 3 3 3 3 3 3 3 3 3 3 3 3 3 3 3 3 3         </DataArray>
      </Cells>
    </Piece>
  </UnstructuredGrid>
</VTKFile>
