<?xml version="1.0"?>
<VTKFile type="UnstructuredGrid" version="0.1" byte_order="LittleEndian">
  <UnstructuredGrid>
    <Piece NumberOfPoints="128" NumberOfCells="127">
      <PointData Scalars="W">
        <DataArray type="Float32" Name="W" NumberOfComponents="2">
          0 0 -0.18525717300070033 -0.25316177080978114 -0.24940224241003014 -0.33875903975074717 -0.29252601004601153 -0.39436053958746359 -0.32249416397072506 -0.43109864585801005 -0.34263163070676161 -0.45387955874689756 -0.35490690243512835 -0.46572385646386516 -0.36066207670416345 -0.46875413788970938 -0.36084728392664517 -0.46451476452196766 -0.35613903073439795 -0.45413754771127512 -0.34707915371512993 -0.4385297774838115 -0.33409456593062947 -0.41840548577614434 -0.3175473931546367 -0.39435446832726645 -0.29769351847539866 -0.36679604159756118 -0.27471138149462399 -0.33602125117339221 -0.24876564174808252 -0.30227476612505788 -0.22005058411208861 -0.26580840525365745 -0.18870290931058789 -0.22677633134174152 -0.15483383984381563 -0.18527639072692914 -0.11859015928418519 -0.14142393092796832 -0.08011493678647072 -0.09530476798326605 -0.039526950660278247 -0.046951479160642476 0.00302624132367288 0.0035930465378292285 0.047386213294976588 0.056296702121376885 0.093449369896670326 0.11121592210540829 0.14101303505297766 0.16831264411745525 0.18990815574557893 0.22761140630965143 0.23999886626231434 0.28919939144882784 0.29111129629147686 0.35314165027063338 0.34279501117974509 0.41918700600324194 0.39505996937702881 0.48766246325002643 0.44767120788703729 0.55862103084315429 0.50038124576051624 0.63211990330768175 0.55292020519932839 0.70820657383658991 0.60501114303992731 0.78693642917264717 0.65634790202376614 0.86834219370080712 0.70666770451741068 0.95252836485919168 0.75560688270101528 1.0394777641038653 0.80279173524142966 1.1291632496191231 0.84791525083591357 1.2216553039598477 0.89064248179597383 1.3169935341010455 0.93060739709615159 1.4151760590467322 5.9594308948836012 10.206777319626323 5.0241263671010197 10.812847590298221 4.0187652559056222 11.338293200171499 2.948403025349033 11.769581255232023 1.8222122187585281 12.099677953753828 0.64976135156934667 12.322509156111462 -0.55845872623520221 12.425915461662417 -1.7901365295679652 12.408095454657778 -3.0312641703173728 12.259211981660272 -4.268130855386266 11.980523371802187 -5.4825757562931274 11.563453454611372 -6.6593106632313424 11.01333057710592 3.402352705477206 -5.3117319577443141 3.4127940040374525 -5.9925252768458162 3.0490323632471279 -6.0973346301435507 2.6857449921408878 -6.1736548013080847 2.3254517334465739 -6.2220431565044096 1.9706818368770052 -6.2437382728049853 1.6237093066582646 -6.2402275600506965 1.2865183928789043 -6.2131259592184325 0.80346592576155396 -5.0028518204461498 0.58381222909019181 -4.8375337873606394 0.38527717629694125 -4.6589343588202183 0.21050478294303002 -4.5606508250197564 0.047567542467144397 -4.4070234124138672 -0.1008781868010389 -4.295648309142825 -0.23799836917325351 -4.1795641943633255 -0.36398003152824537 -4.0598272190902289 -0.47909577757095445 -3.9374269862866238 -0.57509619150683056 -3.762253344469229 -0.66660376003248967 -3.637805507799079 -0.74861741641611323 -3.5133486626883283 -0.82163173265962874 -3.3895498328737497 -0.88618844548753117 -3.2670761582041052 -0.92743709651323514 -3.0973494536042732 -0.97370493604632347 -2.9780974514740892 -1.0138938595223563 -2.8635413785403321 -1.0480572883207495 -2.7522066664891676 -1.0767763346224624 -2.6444176148576006 -1.0789437117778424 -2.4918328996119841 -1.0956892487217649 -2.3911955903814182 -1.109546539746519 -2.2965568328773776 -1.1203406871086914 -2.2063688153222198 -1.1286055480815076 -2.1207689115982249 -1.1076631440587443 -1.9919954616887421 -1.109829005180476 -1.9153219612010217 -1.1119499093573135 -1.8450949314702576 -1.1136464487853832 -1.779793995952252 -1.1153890039578376 -1.7194649024842015 -1.0845482457956688 -1.6156765525221786 -1.0862907695202242 -1.5664035244853243 -1.0895084020021166 -1.5221843875126049 -1.094642090780205 -1.4830355470802126 -1.1011069145200847 -1.4476381435441186 -1.0747257983444505 -1.3725726771829827 -1.0869597970812483 -1.3497261177998665 -1.1018908899485382 -1.3307363983925422 -1.1220436826188274 -1.3181158812108829 -1.1064796333094644 -1.2650067388691812 -1.1352985356021972 -1.2636260270326276 -1.1698625339070494 -1.2673140756630046 -1.16598829177271 -1.2294884576733376 -1.2124706852687801 -1.2443873467336639 -1.2665224967071478 -1.2642539035903519 -1.281758608809431 -1.2439337582183128 -1.3517691431351515 -1.2747296279453415 -1.4316073532134266 -1.3101242723794435 -1.4714972990991568 -1.3055999925323414 -1.5736744130928233 -1.3521150070357939 -1.6876284826330696 -1.4014186405596984 -1.7610115782333156 -1.4109610247139668 -1.9044995651585057 -1.4693465642585739 -2.0056060430008946 -1.4864936339608108 -2.1210960462890842 -1.5070716263446975 -2.3182829648129517 -1.574028437343107 -2.6895516294728434 -1.7346708057669273 -2.9540548209925142 -1.7973838400575528 -3.1876465673976968 -1.8189285139923355 1.4875682106775561 0.8336399693760238 1.6633255511379135 0.96361246354422214 1.7734584676219094 1.0649856237500783 1.4383043715760995 0.89296969061025488 0.74565411410279092 0.47348454698251075 -0.40251559738957482 -0.25649807989218204 -5.1468405514417102 -3.0979036198697512 0 0
        </DataArray>
        <DataArray type="Float32" Name="u" NumberOfComponents="1">
          0 0.007874015748031496 0.015748031496062992 0.023622047244094488 0.031496062992125984 0.03937007874015748 0.047244094488188976 0.055118110236220472 0.062992125984251968 0.070866141732283464 0.07874015748031496 0.086614173228346455 0.094488188976377951 0.10236220472440945 0.11023622047244094 0.11811023622047244 0.12598425196850394 0.13385826771653545 0.14173228346456693 0.14960629921259844 0.15748031496062992 0.16535433070866143 0.17322834645669291 0.18110236220472442 0.1889763779527559 0.19685039370078741 0.20472440944881889 0.2125984251968504 0.22047244094488189 0.2283464566929134 0.23622047244094488 0.24409448818897639 0.25196850393700787 0.25984251968503935 0.26771653543307089 0.27559055118110237 0.28346456692913385 0.29133858267716534 0.29921259842519687 0.30708661417322836 0.31496062992125984 0.32283464566929132 0.33070866141732286 0.33858267716535434 0.34645669291338582 0.3543307086614173 0.36220472440944884 0.37007874015748032 0.37795275590551181 0.38582677165354329 0.39370078740157483 0.40157480314960631 0.40944881889763779 0.41732283464566927 0.42519685039370081 0.43307086614173229 0.44094488188976377 0.44881889763779526 0.45669291338582679 0.46456692913385828 0.47244094488188976 0.48031496062992124 0.48818897637795278 0.49606299212598426 0.50393700787401574 0.51181102362204722 0.51968503937007871 0.52755905511811019 0.53543307086614178 0.54330708661417326 0.55118110236220474 0.55905511811023623 0.56692913385826771 0.57480314960629919 0.58267716535433067 0.59055118110236215 0.59842519685039375 0.60629921259842523 0.61417322834645671 0.62204724409448819 0.62992125984251968 0.63779527559055116 0.64566929133858264 0.65354330708661412 0.66141732283464572 0.6692913385826772 0.67716535433070868 0.68503937007874016 0.69291338582677164 0.70078740157480313 0.70866141732283461 0.71653543307086609 0.72440944881889768 0.73228346456692917 0.74015748031496065 0.74803149606299213 0.75590551181102361 0.76377952755905509 0.77165354330708658 0.77952755905511806 0.78740157480314965 0.79527559055118113 0.80314960629921262 0.8110236220472441 0.81889763779527558 0.82677165354330706 0.83464566929133854 0.84251968503937003 0.85039370078740162 0.8582677165354331 0.86614173228346458 0.87401574803149606 0.88188976377952755 0.88976377952755903 0.89763779527559051 0.90551181102362199 0.91338582677165359 0.92125984251968507 0.92913385826771655 0.93700787401574803 0.94488188976377951 0.952755905511811 0.96062992125984248 0.96850393700787396 0.97637795275590555 0.98425196850393704 0.99212598425196852 1
        </DataArray>
      </PointData>
      <CellData Scalars="P">
        <DataArray type="Float32" Name="P" NumberOfComponents="1">
          -0.0062540307069696797 -0.018542551000632707 -0.030567133588907711 -0.042413508395011394 -0.054220978206977681 -0.066150923844252224 -0.078366748279729781 -0.091020304178596995 -0.10424250540938929 -0.11813656141368335 -0.1327731716979117 -0.14818714460897933 -0.16437524710459078 -0.1812942891809099 -0.19885943727830788 -0.21694346582928473 -0.23537739891623946 -0.25395000512012428 -0.27240770934900332 -0.29045635047201268 -0.30776243690885685 -0.32395373476051553 -0.33862186641858549 -0.35132472870450082 -0.36158575793575559 -0.36890077051061126 -0.3727388178358868 -0.37254227306091925 -0.3677310598097126 -0.35772568192750004 -0.34191765026182441 -0.31968857617581692 -0.29041411114967497 -0.2534689530231331 -0.2082306699804721 -0.1540858654763991 -0.090428715584316241 -0.016675127354866207 0.067731604818436944 0.16332509475527759 0.27060952163331425 0.39005216705354712 1.3414090363644571 2.3202567506740612 3.3204675680866074 4.334608474555 5.3545359794540337 6.3714346372310109 7.3752831194434219 8.3557391511525303 9.3014652121402168 10.201052314668482 11.042272893284288 11.81322219085974 11.389500113266642 10.918867686724147 10.406761957814883 9.8586653004307934 9.2801320382965056 8.6766833074863499 8.0537388985933323 7.4165644687180627 6.8965458301260476 6.3868568047749497 5.8912235981105976 5.4026592252716261 4.9289554337848802 4.4668574371231387 4.0181644107989953 3.5844190189665648 3.1669174301833691 2.7723439574585198 2.3958408743043869 2.0380115892347876 1.6992727169420041 1.379862680194194 1.0848147614511872 0.8091315077817044 0.55242502578296349 0.31438324839934773 0.094600429760485175 -0.10327267330046501 -0.2840179303540562 -0.44839313813678144 -0.59705019048120456 -0.73066786089293201 -0.84688058334075722 -0.94962728074772862 -1.0397080187462882 -1.1178089490867871 -1.1845944738127598 -1.2388242224822497 -1.2832658827899246 -1.3184753353917824 -1.3449611700511428 -1.3631580108529022 -1.3729799501540489 -1.3755631263536108 -1.3711850823933192 -1.3600703611731377 -1.3428693789117605 -1.3194363450346547 -1.2898029877542405 -1.2551852882677217 -1.2145073983893924 -1.1676498377778182 -1.1163062749724795 -1.0586475220631222 -0.99448792003652675 -0.92601140380776747 -0.85078700798074691 -0.76876754258903046 -0.68264041139290899 -0.58979390719220315 -0.49336654195244334 -0.39385715856878639 -0.28892016994590147 -0.17297107639057605 -0.053747018299894478 0.0644200614318447 0.031991438352128997 -0.001940245557551632 -0.033581656628784706 -0.051461393758358849 -0.052154453006149841 -0.037423957795180762 -0.0028360105438311749
        </DataArray>
      </CellData>
      <Points>
        <DataArray type="Float32" NumberOfComponents="3" format="ascii">
          7.1134393806959926 9.9446448467997683 0
          7.1198000291629091 9.9400023429873698 0
          7.1261491778278723 9.935344149174945 0
          7.132482842832859 9.9306649621868583 0
          7.1387983459394011 9.9259613375592739 0
          7.1450938259717773 9.921230999758194 0
          7.1513680322835214 9.9164725381571177 0
          7.15762020248519 9.9116852198365599 0
          7.163849979081423 9.906868858022893 0
          7.1700573504495146 9.902023716362395 0
          7.1762426088069606 9.8971504387665519 0
          7.1824063165444016 9.8922499931744259 0
          7.1885492796954003 9.8873236272962011 0
          7.1946725254317379 9.8823728320595894 0
          7.2007772861530013 9.8773993156271374 0
          7.2068649883835061 9.8724049853675133 0
          7.2129372425283194 9.8673919327031143 0
          7.2189958307965778 9.8623624175153157 0
          7.2250426986989211 9.8573188586056553 0
          7.2310799481279684 9.8522638276495851 0
          7.2371098282369228 9.8472000420658095 0
          7.2431347265512773 9.8421303597171974 0
          7.2491571615890598 9.8370577769129834 0
          7.2551797736989769 9.8319854257718209 0
          7.2612053152267562 9.8269165722533725 0
          7.2672366440828027 9.8218546196793231 0
          7.2732767111683767 9.8168031063951826 0
          7.2793285498877962 9.8117657073127624 0
          7.2853952677193909 9.8067462393358742 0
          7.291480035431138 9.8017486654128749 0
          7.2975860591500377 9.7967770789819291 0
          7.3037165809765208 9.7918357242622527 0
          7.3098748644141329 9.7869289995561068 0
          7.3160641790234422 9.7820614608086771 0
          7.3222877836875311 9.777237824564688 0
          7.3285489094395677 9.7724629714125086 0
          7.334850740479137 9.7677419480211469 0
          7.341196397878198 9.7630799736251568 0
          7.3475889170318132 9.7584824389633393 0
          7.3540312244868176 9.7539549045974638 0
          7.3605261189055371 9.7495031052816348 0
          7.3670762502977043 9.7451329524152168 0
          7.3736840973255573 9.7408505339213871 0
          7.380661463325632 9.7372009553808265 0
          7.3879503589824118 9.7342217999241658 0
          7.395488450200066 9.7319456521558472 0
          7.4032093715310996 9.7303992588252619 0
          7.4110432948325409 9.7296030924856289 0
          7.4189175225120678 9.7295709746290449 0
          7.4267571381380009 9.7303093215017586 0
          7.4344857698289033 9.7318170321789612 0
          7.4420264590491509 9.7340848784197593 0
          7.449302510854813 9.7370955825052494 0
          7.4562386203232407 9.7408232854051935 0
          7.4627618206647091 9.7452338770882267 0
          7.4694964100819359 9.7493153555293794 0
          7.4764426396291075 9.7530252195290377 0
          7.4835779513036549 9.7563569691422867 0
          7.4908798164613124 9.7593058711510725 0
          7.498325892056581 9.7618689244976178 0
          7.5058941774821717 9.7640447834858968 0
          7.5135631555842499 9.7658336655550908 0
          7.521311915711264 9.7672372511454402 0
          7.5291104661218586 9.7683305889692544 0
          7.5369451825950415 9.7691239348003389 0
          7.5448037509360057 9.7696283681262308 0
          7.5526753335071657 9.7698499880262588 0
          7.5605498255549142 9.7697983252785932 0
          7.5684180225974194 9.769480290383374 0
          7.5762714226897634 9.7689030855786516 0
          7.5841022147996568 9.7680741393415431 0
          7.5919032618787332 9.7670010450184677 0
          7.5996686112060008 9.7656946682349375 0
          7.6073925900851167 9.7641627287836386 0
          7.6150701146658948 9.7624129467191629 0
          7.6226966592586853 9.7604530009980657 0
          7.6302682227275991 9.7582904881124914 0
          7.6377822484001667 9.7559359344495888 0
          7.6452358694556111 9.7533967361497815 0
          7.6526265961282283 9.7506799978674028 0
          7.6599523123492448 9.7477926242141599 0
          7.6672112397057006 9.7447412996548 0
          7.6744032455392235 9.741535486055291 0
          7.6815272940770951 9.7381814238122111 0
          7.6885825287128871 9.7346849810814167 0
          7.695568282821589 9.7310517497601285 0
          7.7024840466540061 9.7272870369737685 0
          7.7093311211009885 9.7233988264990092 0
          7.7161093747751677 9.7193918713466836 0
          7.7228186791307722 9.7152705245341249 0
          7.7294589319710836 9.7110388333593516 0
          7.7360300282794681 9.7067005365675474 0
          7.7425338832899211 9.7022620670507465 0
          7.7489703921789408 9.6977264773866612 0
          7.7553393586796604 9.6930965065121697 0
          7.7616404677332493 9.6883745787059343 0
          7.7678733217524218 9.6835628853497084 0
          7.7740395600196335 9.6786660766669197 0
          7.7801384273486924 9.6736855651656892 0
          7.7861690012911184 9.6686225239015346 0
          7.7921300355544307 9.6634777307209507 0
          7.7980224990211369 9.6582544729434208 0
          7.8038446080126844 9.6529528307419881 0
          7.8095942224598831 9.6475725696630139 0
          7.8152715864651752 9.6421160280505838 0
          7.8208738206769635 9.6365822754642618 0
          7.8263975760638038 9.6309700730484469 0
          7.8318419113640685 9.6252806722502964 0
          7.8372024873215631 9.6195121555422265 0
          7.8424743546996103 9.6136623197828506 0
          7.8476550424283342 9.6077314352665244 0
          7.8527382147167453 9.6017166082010057 0
          7.8577168045324255 9.5956147713318902 0
          7.862586261694247 9.5894253207934028 0
          7.8673376854033501 9.5831446249794752 0
          7.871964804013146 9.5767716070569957 0
          7.8764604525797344 9.5703049766045769 0
          7.8808123951068358 9.5637405686679688 0
          7.8849975900963765 9.5570684138912672 0
          7.888999620271596 9.5502846114345274 0
          7.8928039850943881 9.5433878115361157 0
          7.8967003631199217 9.536543203932057 0
          7.9006996808689216 9.5297587648719091 0
          7.9048087909598559 9.5230407057153581 0
          7.9090069232478362 9.5163783031742071 0
          7.9132511425490568 9.5097454987231895 0
          7.9174702787848581 9.5030969858133307 0
          7.9213703170024372 9.4962563430958831 0
        </DataArray>
      </Points>
      <Cells>
        <DataArray type="Int32" Name="connectivity" format="ascii">
          0 1 1 2 2 3 3 4 4 5 5 6 6 7 7 8 8 9 9 10 10 11 11 12 12 13 13 14 14 15 15 16 16 17 17 18 18 19 19 20 20 21 21 22 22 23 23 24 24 25 25 26 26 27 27 28 28 29 29 30 30 31 31 32 32 33 33 34 34 35 35 36 36 37 37 38 38 39 39 40 40 41 41 42 42 43 43 44 44 45 45 46 46 47 47 48 48 49 49 50 50 51 51 52 52 53 53 54 54 55 55 56 56 57 57 58 58 59 59 60 60 61 61 62 62 63 63 64 64 65 65 66 66 67 67 68 68 69 69 70 70 71 71 72 72 73 73 74 74 75 75 76 76 77 77 78 78 79 79 80 80 81 81 82 82 83 83 84 84 85 85 86 86 87 87 88 88 89 89 90 90 91 91 92 92 93 93 94 94 95 95 96 96 97 97 98 98 99 99 100 100 101 101 102 102 103 103 104 104 105 105 106 106 107 107 108 108 109 109 110 110 111 111 112 112 113 113 114 114 115 115 116 116 117 117 118 118 119 119 120 120 121 121 122 122 123 123 124 124 125 125 126 126 127 
        </DataArray>
        <DataArray type="Int32" Name="offsets" format="ascii">
          2 4 6 8 10 12 14 16 18 20 22 24 26 28 30 32 34 36 38 40 42 44 46 48 50 52 54 56 58 60 62 64 66 68 70 72 74 76 78 80 82 84 86 88 90 92 94 96 98 100 102 104 106 108 110 112 114 116 118 120 122 124 126 128 130 132 134 136 138 140 142 144 146 148 150 152 154 156 158 160 162 164 166 168 170 172 174 176 178 180 182 184 186 188 190 192 194 196 198 200 202 204 206 208 210 212 214 216 218 220 222 224 226 228 230 232 234 236 238 240 242 244 246 248 250 252 254 
        </DataArray>
        <DataArray type="Int32" Name="types" format="ascii">
          3 3 3 3 3 3 3 3 3 3 3 3 3 3 3 3 3 3 3 3 3 3 3 3 3 3 3 3 3 3 3 3 3 3 3 3 3 3 3 3 3 3 3 3 3 3 3 3 3 3 3 3 3 3 3 3 3 3 3 3 3 3 3 3 3 3 3 3 3 3 3 3 3 3 3 3 3 3 3 3 3 3 3 3 3 3 3 3 3 3 3 3 3 3 3 3 3 3 3 3 3 3 3 3 3 3 3 3 3 3 3 3 3 3 3 3 3 3 3 3 3 3 3 3 3 3 3         </DataArray>
      </Cells>
    </Piece>
  </UnstructuredGrid>
</VTKFile>
