<?xml version="1.0"?>
<VTKFile type="UnstructuredGrid" version="0.1" byte_order="LittleEndian">
  <UnstructuredGrid>
    <Piece NumberOfPoints="128" NumberOfCells="127">
      <PointData Scalars="W">
        <DataArray type="Float32" Name="W" NumberOfComponents="2">
          0 0 0.61605949303354379 0.13288970005727985 0.92707156826262849 0.19396066342791593 1.1701548767991641 0.23454289423938932 1.3769023294983118 0.26138015600799108 1.5602847038850292 0.27722825184341066 1.7272947929677867 0.28355881906039521 1.8822023043370992 0.28124900221458704 2.0278176304934501 0.270848807773995 2.1659749221760256 0.25269496406250869 2.2979983457542428 0.22700342621577682 2.4248179454824488 0.19389982686088142 2.5470674701138623 0.15344570656612461 2.6651223171091822 0.10565775128384516 2.7791654901196043 0.050527782367836054 2.8892615715151231 -0.011962775844562186 2.9954776297758539 -0.081838880240657011 3.0977061508004944 -0.15912748981273528 3.1957761030905703 -0.24384755657473506 3.2895085294966844 -0.33601097821583203 3.3786367975744294 -0.43561383043601976 3.4628240627336666 -0.54262850889992398 3.5417268542406823 -0.65700706681379184 3.6149970769319317 -0.77868249145949187 3.6821915764251885 -0.90754613743452639 3.7429366370145485 -1.0434796040484067 3.796780572898216 -1.1863207459009091 3.8431705294971379 -1.335840119115002 3.8816141245963038 -1.4917832773809323 3.9119558141007533 -1.6540043273683804 3.9333856778262044 -1.8220676485854133 3.9454174280481569 -1.9956008939557224 3.9475529135382912 -2.1741779334399314 3.9393340224271682 -2.3573429754560959 3.9202869464878622 -2.5445785909463736 3.8899741712412443 -2.735331448205355 3.8479054628048335 -2.9289444777418359 3.7937454530818844 -3.1248025464923774 3.7271879143179412 -3.3222610796478458 3.6478285257729093 -3.5205185462907687 3.5553630657236628 -3.7187671114397154 3.4495579441536117 -3.9161787457795816 -2.9270395462107004 3.3434987530113069 -2.9806714048787648 3.1757288786870084 -3.0223846606517863 3.0087150734692334 -3.0529237701049907 2.843602088234733 -3.0828973608657799 2.6896464566403768 -3.093450429137921 2.5300064688129957 -3.1055248162128439 2.3824228512953232 -3.1098188538966092 2.238460862573934 -3.1069323441337464 2.0985217022483682 -3.0974699637611685 1.9629352616093265 -3.082023670808856 1.8319582320701762 -3.0611877586647993 1.7057924079094287 -3.0358004824516116 1.5847117272924434 -3.0183461190445304 1.4744037536292971 -2.9601477913474752 1.3516855980183931 -2.9100901626372666 1.2409593509066612 -2.8563797383293656 1.135994050973915 -2.7998589787333983 1.0368646060844544 -2.740641437250229 0.94333759598140376 -2.6795535852300141 0.85542706558817849 -2.6166048892981704 0.77285457750654618 -2.5350129978991394 0.69098829967696773 -2.4504243508557959 0.61480135941550074 -2.4025014354417893 0.55283003946232934 -2.3357034893128814 0.49067889179360108 -2.2890877671040419 0.43666575674874786 -2.2435718938435207 0.38595008309864509 -2.1996464462544463 0.33836950908006558 -2.1363217148375973 0.29099976868249822 -2.0952417722140884 0.24963804434648204 -2.0563218028302397 0.2107672269035199 -2.0191414147325544 0.17412289686291657 -1.9841276638185896 0.13954177762903525 -1.9302025699887786 0.10582653465256563 -1.8998564693903468 0.075417116330384337 -1.8720430064334233 0.046468187331532892 -1.8468575258651396 0.018788641985474201 -1.8246909553421107 -0.0078143783229410301 -1.7827817768850218 -0.03296134768153372 -1.7660195246062351 -0.057350942066874862 -1.7522194676803933 -0.081231176432597571 -1.7417705716503045 -0.10480959847135003 -1.7341058318616416 -0.12824033264258999 -1.7295980644419793 -0.15172567324327543 -1.705740138673286 -0.17301420814162508 -1.7077752875469985 -0.19657749549081163 -1.7131334951468802 -0.22078531276755503 -1.7218560265912537 -0.2458439217283232 -1.7339936337722313 -0.27196935221757901 -1.7499108538082184 -0.29944425719986484 -1.7689760914567227 -0.32839470481781635 -1.7682571886038116 -0.35427652801295401 -1.7945206814052321 -0.38636013806631364 -1.8246941794056404 -0.42082145250313907 -1.8581252716812653 -0.45780696513119967 -1.8951584774623569 -0.49770290938123612 -1.9361349194692927 -0.5409476789528288 -1.9568229905191323 -0.58053142019488546 -2.004856287888952 -0.63053693355751472 -2.0564628978640331 -0.684958576082494 -2.1119417398691067 -0.74438670808409046 -2.170522058452562 -0.80908646245561655 -2.2088888122022174 -0.87017696886624629 -2.2748306424695919 -0.94659599500945801 -2.3435902085527966 -1.0300506660663107 -2.3919482378781076 -1.1102425437073664 -2.4669891983788408 -1.2092839333445291 -2.5446291653183581 -1.3178680193678443 -2.6012088241112452 -1.4238348532016549 -2.6841055120885615 -1.5536556381041222 -2.7682111120807891 -1.6960843888785322 -2.8303554804432105 -1.8373153084560623 -2.9168688029777754 -2.0084345735245579 -2.9803686507687868 -2.1798346314828843 -3.043731950540626 -2.3681756577843465 -3.128546439030877 -2.5947607630269545 -3.1886390875736303 -2.8260268526108083 -3.3315724256076251 -3.1668740687936792 2.3347516398665404 2.2432331313697267 2.6927890529382101 2.4504941995430167 3.2968993689328743 2.8161250705556262 4.6018046150391374 3.621693843616534 6.3181171745828459 4.4467537017124368 5.7569915103026501 3.5785362779199366 2.6298511101896342 1.4971565063496433 0 0
        </DataArray>
        <DataArray type="Float32" Name="u" NumberOfComponents="1">
          0 0.007874015748031496 0.015748031496062992 0.023622047244094488 0.031496062992125984 0.03937007874015748 0.047244094488188976 0.055118110236220472 0.062992125984251968 0.070866141732283464 0.07874015748031496 0.086614173228346455 0.094488188976377951 0.10236220472440945 0.11023622047244094 0.11811023622047244 0.12598425196850394 0.13385826771653545 0.14173228346456693 0.14960629921259844 0.15748031496062992 0.16535433070866143 0.17322834645669291 0.18110236220472442 0.1889763779527559 0.19685039370078741 0.20472440944881889 0.2125984251968504 0.22047244094488189 0.2283464566929134 0.23622047244094488 0.24409448818897639 0.25196850393700787 0.25984251968503935 0.26771653543307089 0.27559055118110237 0.28346456692913385 0.29133858267716534 0.29921259842519687 0.30708661417322836 0.31496062992125984 0.32283464566929132 0.33070866141732286 0.33858267716535434 0.34645669291338582 0.3543307086614173 0.36220472440944884 0.37007874015748032 0.37795275590551181 0.38582677165354329 0.39370078740157483 0.40157480314960631 0.40944881889763779 0.41732283464566927 0.42519685039370081 0.43307086614173229 0.44094488188976377 0.44881889763779526 0.45669291338582679 0.46456692913385828 0.47244094488188976 0.48031496062992124 0.48818897637795278 0.49606299212598426 0.50393700787401574 0.51181102362204722 0.51968503937007871 0.52755905511811019 0.53543307086614178 0.54330708661417326 0.55118110236220474 0.55905511811023623 0.56692913385826771 0.57480314960629919 0.58267716535433067 0.59055118110236215 0.59842519685039375 0.60629921259842523 0.61417322834645671 0.62204724409448819 0.62992125984251968 0.63779527559055116 0.64566929133858264 0.65354330708661412 0.66141732283464572 0.6692913385826772 0.67716535433070868 0.68503937007874016 0.69291338582677164 0.70078740157480313 0.70866141732283461 0.71653543307086609 0.72440944881889768 0.73228346456692917 0.74015748031496065 0.74803149606299213 0.75590551181102361 0.76377952755905509 0.77165354330708658 0.77952755905511806 0.78740157480314965 0.79527559055118113 0.80314960629921262 0.8110236220472441 0.81889763779527558 0.82677165354330706 0.83464566929133854 0.84251968503937003 0.85039370078740162 0.8582677165354331 0.86614173228346458 0.87401574803149606 0.88188976377952755 0.88976377952755903 0.89763779527559051 0.90551181102362199 0.91338582677165359 0.92125984251968507 0.92913385826771655 0.93700787401574803 0.94488188976377951 0.952755905511811 0.96062992125984248 0.96850393700787396 0.97637795275590555 0.98425196850393704 0.99212598425196852 1
        </DataArray>
      </PointData>
      <CellData Scalars="P">
        <DataArray type="Float32" Name="P" NumberOfComponents="1">
          -0.0077829220947573368 -0.021994104852134773 -0.033532217461068464 -0.041563779850864666 -0.045441217555511212 -0.044622339153291529 -0.038631077854700192 -0.027035336005211644 -0.009433285908852819 0.014553637567685426 0.045286924959604208 0.083114379644186456 0.12837181021498015 0.18138274576551328 0.24245745777257563 0.31189231009075413 0.38997173597275359 0.47696444800314336 0.57312191116757039 0.67867828200299374 0.79384726581368958 0.91881890205379357 1.0537583912408601 1.1988049733838435 1.3540666531064229 1.5196218637624548 1.6955144959936361 1.8817469353004925 2.0782806970977892 2.2850531108811167 2.501939994128799 2.728770039041907 2.9653215807349298 3.2113224186014673 3.4664461196943832 3.7303115022564364 4.0024757046603714 4.2824419038037025 4.5696589212386014 4.8635102176879634 5.1633176204198605 5.4683433014480025 5.1854786250198535 4.8952732099404379 4.599850654124781 4.3011936437383902 4.0001778677202822 3.6994606121959861 3.399577265784818 3.1019156963857477 2.8077384838413249 2.5181839100495114 2.23426928301153 1.9568934129054407 1.6868181891855838 1.4236597786676171 1.1712050107491938 0.92887014860704686 0.69705061788253952 0.47601762030867378 0.26598187716305444 0.0670421024864577 -0.12074782200075895 -0.29622463925759152 -0.45944607339014021 -0.61303414302880865 -0.75595661883786747 -0.88962076231630149 -1.014229369920894 -1.1300195883822903 -1.2362150340153233 -1.334132673528251 -1.4240432965181031 -1.5061955579063777 -1.5808507740041569 -1.6475748316750798 -1.7073849852205762 -1.7605247608309207 -1.8072261391643649 -1.8477135524357819 -1.8818171158278005 -1.910168415584228 -1.9329366219533084 -1.9502742976506013 -1.9623089764416952 -1.9691513945543229 -1.9709458404411837 -1.967783481681495 -1.959713997407426 -1.9467677296459953 -1.9289563228558755 -1.9062683089213501 -1.8786861122609659 -1.846687510551372 -1.8097715837550443 -1.7678666258563285 -1.7209096149376613 -1.6688235651556078 -1.6115171631701897 -1.5497619875702817 -1.4826893343299694 -1.4102289361294371 -1.332308951230597 -1.2489032100981539 -1.1610289452950049 -1.0676731425258528 -0.96889304612851268 -0.86587449492306567 -0.75765977875665269 -0.64443532472768994 -0.52759590326545036 -0.40630514177810445 -0.28099397603756865 -0.15330400422121848 -0.0227054911185057 0.10895396390430825 0.24083303882570997 0.3729753115445219 0.50317089828374084 0.63375274018646688 0.53205783547252405 0.42892314469915382 0.32163514181771541 0.20109226575453731 0.086911479942356817 0.016894887181989438 0.00067232732125060252
        </DataArray>
      </CellData>
      <Points>
        <DataArray type="Float32" NumberOfComponents="3" format="ascii">
          3.8679300487882573 8.6045362898028941 0
          3.8662506327090056 8.6122291894953236 0
          3.8646094128158457 8.6199303294857685 0
          3.8630256721178213 8.6276434968379139 0
          3.8615144820239449 8.6353712081469922 0
          3.8600886611253045 8.6431151277297715 0
          3.8587595793922955 8.6508762385139253 0
          3.8575375917327852 8.6586549332935157 0
          3.8564323027170295 8.6664510691189882 0
          3.8554527408238992 8.6742640014009744 0
          3.8546074721591652 8.6820926047886786 0
          3.8539046825541803 8.689935286559022 0
          3.8533522352284275 8.6977899944048875 0
          3.8529577100812049 8.7056542202490785 0
          3.8527284269649389 8.7135250012768601 0
          3.8526714570295253 8.7213989194266865 0
          3.852793626724047 8.7292721002361855 0
          3.8531015219523423 8.7371402112924947 0
          3.8536014814037971 8.7449984605585662 0
          3.8542995859456015 8.7528415951960579 0
          3.8552016475232707 8.7606639008258433 0
          3.8563131926247998 8.7684592017697831 0
          3.8576394413912212 8.7762208627611162 0
          3.8591852863160563 8.7839417919164937 0
          3.8609552706578349 8.7916144448906461 0
          3.8629535609585548 8.7992308316128831 0
          3.8651839238674066 8.8067825236289909 0
          3.8676496981301383 8.8142606641560128 0
          3.8703537603057341 8.8216559823103164 0
          3.8732984942326563 8.8289588088865134 0
          3.8764857813802069 8.8361590854064236 0
          3.8799169506271154 8.8432463911325172 0
          3.8835927481066044 8.850209966158836 0
          3.8875133063163898 8.8570387378371649 0
          3.8916781157118363 8.8637213490427982 0
          3.896085995326573 8.8702461902624208 0
          3.900735065644191 8.8766014339083998 0
          3.9056227182020162 8.8827750750653713 0
          3.9107455947978944 8.8887549696367572 0
          3.9160995685046971 8.8945288743167552 0
          3.9216797186037184 8.9000844962939443 0
          3.9274803117254375 8.9054095433454687 0
          3.933494787370611 8.9104917751829351 0
          3.9393277736211898 8.9157813100511518 0
          3.9449759452922826 8.9212677450360989 0
          3.9504367162431246 8.9269407241190066 0
          3.9557081932183857 8.9327900091651706 0
          3.9607885181904572 8.9388060539930674 0
          3.9656770371790895 8.9449789598895659 0
          3.9703730020242682 8.9512995758493688 0
          3.9748761469869027 8.9577589754705667 0
          3.9791866515544605 8.9643484818313404 0
          3.9833051029445015 8.9710596879448605 0
          3.987232459396961 8.97788447267504 0
          3.9909700133219523 8.9848150132481877 0
          3.9945193393231282 8.9918438022399183 0
          3.9978815202028404 8.9989640003301989 0
          4.0010601647704664 9.0061679984398886 0
          4.00405837716532 9.0134489311961232 0
          4.006879488001327 9.0208002904783093 0
          4.0095270021298051 9.02821593006637 0
          4.0120045915931692 9.0356900511658331 0
          4.0143160443795534 9.0432172032820102 0
          4.0164652638307041 9.0507922669536001 0
          4.0184573091289089 9.0584101664714023 0
          4.0202974252391108 9.0660661783399945 0
          4.0219885838517602 9.0737564607323691 0
          4.0235349268558069 9.0814771606337565 0
          4.0249393448116084 9.0892249297395793 0
          4.0262046600414196 9.0969966242285256 0
          4.0273335962136505 9.1047892946929743 0
          4.0283300797040731 9.1126000047900746 0
          4.0291966576691083 9.1204261907684501 0
          4.029935743298954 9.128265443339119 0
          4.0305496418824776 9.1361154912770459 0
          4.0310405243304102 9.1439741912948556 0
          4.031411734015041 9.1518394538340129 0
          4.0316651523617928 9.1597093943072192 0
          4.0318025037267544 9.1675822186853697 0
          4.0318253494859349 9.1754562116453098 0
          4.0317350637982257 9.1833297246076491 0
          4.0315342448260507 9.1912011993726139 0
          4.0312239315700351 9.1990691246144305 0
          4.0308049793301111 9.2069320205767458 0
          4.0302780355897001 9.2147884261985045 0
          4.0296435751702049 9.2226368895581121 0
          4.028901877116132 9.2304759553253248 0
          4.0280544201405295 9.2383043045493523 0
          4.0271010775304124 9.2461204770399927 0
          4.0260415164960026 9.253922972609864 0
          4.0248751956115063 9.261710238281557 0
          4.0236013616675717 9.2694806548889037 0
          4.0222190270689753 9.2772325195433787 0
          4.0207270089924503 9.2849640378208189 0
          4.0191253511726863 9.2926736058238042 0
          4.0174124243761593 9.3003592347763817 0
          4.0155863568923618 9.3080187884067307 0
          4.0136450749815937 9.3156499738687124 0
          4.0115862815131695 9.3232503177843764 0
          4.0094074348145616 9.3308171390509322 0
          4.0071072510016474 9.3383479839044732 0
          4.0046827507284934 9.3458397519087182 0
          4.0021307330351226 9.3532890687133676 0
          3.9994477568136615 9.3606922494364433 0
          3.9966301885928344 9.3680452822323801 0
          3.9936756480085416 9.3753443794371112 0
          3.9905800449991529 9.3825848023409115 0
          3.9873391147243189 9.3897613758710996 0
          3.9839498570678904 9.3968691276819705 0
          3.9804076175442038 9.4039019159908666 0
          3.9767075804436738 9.410853007166855 0
          3.9728462355750604 9.4177158303050348 0
          3.9688184410917433 9.4244823346558757 0
          3.9646189801001208 9.4311436875284684 0
          3.9602439970172285 9.4376911309544429 0
          3.9556881254203269 9.4441140528520027 0
          3.9509474253769143 9.4504018241726104 0
          3.9460179652096596 9.4565427651852048 0
          3.9408944833379485 9.4625228237946271 0
          3.9355732504672991 9.4683276580296809 0
          3.9300454024012259 9.4739361278594441 0
          3.9246621430348569 9.4796839176573613 0
          3.9194456455630649 9.4855839530427044 0
          3.9144333412768981 9.4916590123042894 0
          3.9097061198664735 9.4979592340329901 0
          3.905371008668058 9.5045351060676762 0
          3.9013931616170971 9.511332741663665 0
          3.897578625483066 9.5182229162043832 0
        </DataArray>
      </Points>
      <Cells>
        <DataArray type="Int32" Name="connectivity" format="ascii">
          0 1 1 2 2 3 3 4 4 5 5 6 6 7 7 8 8 9 9 10 10 11 11 12 12 13 13 14 14 15 15 16 16 17 17 18 18 19 19 20 20 21 21 22 22 23 23 24 24 25 25 26 26 27 27 28 28 29 29 30 30 31 31 32 32 33 33 34 34 35 35 36 36 37 37 38 38 39 39 40 40 41 41 42 42 43 43 44 44 45 45 46 46 47 47 48 48 49 49 50 50 51 51 52 52 53 53 54 54 55 55 56 56 57 57 58 58 59 59 60 60 61 61 62 62 63 63 64 64 65 65 66 66 67 67 68 68 69 69 70 70 71 71 72 72 73 73 74 74 75 75 76 76 77 77 78 78 79 79 80 80 81 81 82 82 83 83 84 84 85 85 86 86 87 87 88 88 89 89 90 90 91 91 92 92 93 93 94 94 95 95 96 96 97 97 98 98 99 99 100 100 101 101 102 102 103 103 104 104 105 105 106 106 107 107 108 108 109 109 110 110 111 111 112 112 113 113 114 114 115 115 116 116 117 117 118 118 119 119 120 120 121 121 122 122 123 123 124 124 125 125 126 126 127 
        </DataArray>
        <DataArray type="Int32" Name="offsets" format="ascii">
          2 4 6 8 10 12 14 16 18 20 22 24 26 28 30 32 34 36 38 40 42 44 46 48 50 52 54 56 58 60 62 64 66 68 70 72 74 76 78 80 82 84 86 88 90 92 94 96 98 100 102 104 106 108 110 112 114 116 118 120 122 124 126 128 130 132 134 136 138 140 142 144 146 148 150 152 154 156 158 160 162 164 166 168 170 172 174 176 178 180 182 184 186 188 190 192 194 196 198 200 202 204 206 208 210 212 214 216 218 220 222 224 226 228 230 232 234 236 238 240 242 244 246 248 250 252 254 
        </DataArray>
        <DataArray type="Int32" Name="types" format="ascii">
          3 3 3 3 3 3 3 3 3 3 3 3 3 3 3 3 3 3 3 3 3 3 3 3 3 3 3 3 3 3 3 3 3 3 3 3 3 3 3 3 3 3 3 3 3 3 3 3 3 3 3 3 3 3 3 3 3 3 3 3 3 3 3 3 3 3 3 3 3 3 3 3 3 3 3 3 3 3 3 3 3 3 3 3 3 3 3 3 3 3 3 3 3 3 3 3 3 3 3 3 3 3 3 3 3 3 3 3 3 3 3 3 3 3 3 3 3 3 3 3 3 3 3 3 3 3 3         </DataArray>
      </Cells>
    </Piece>
  </UnstructuredGrid>
</VTKFile>
