<?xml version="1.0"?>
<VTKFile type="UnstructuredGrid" version="0.1" byte_order="LittleEndian">
  <UnstructuredGrid>
    <Piece NumberOfPoints="128" NumberOfCells="127">
      <PointData Scalars="W">
        <DataArray type="Float32" Name="W" NumberOfComponents="2">
          0 0 -0.17896084203752882 -0.84210455223167924 -0.27962675176160073 -1.2629915450531253 -0.36641430503093858 -1.5696672552104369 -0.44908352322890488 -1.8113659021572237 -0.53116856463039996 -2.0083813914387663 -0.61420257375221043 -2.1716778693044607 -0.69884639987774577 -2.3080544252362181 -0.78531266677883971 -2.4220828387685365 -0.87352744324195686 -2.5169168300656666 -0.96328273068975168 -2.5949411828914588 -1.0542785511645765 -2.6579891993390197 -1.1461549000399556 -2.7075059226181768 -1.2384904853397938 -2.7446107951056415 -1.3308186507755289 -2.7701947939472586 -1.422663956416067 -2.7850364048887077 -1.5135845295503523 -2.7898940720119363 -1.603116075559704 -2.7854025871486536 -1.6908006084827449 -2.7721468657985091 -1.7762302336826064 -2.7507360552848095 -1.8590051233900458 -2.7217299672981583 -1.9387398783635217 -2.6856574083623399 -2.0150996629187836 -2.6430678849812637 -2.0878038909186625 -2.5945264260219449 -2.1565719470181 -2.5405426529244446 -2.2212384602342032 -2.4817087188958959 -2.2816489925596986 -2.4185631717105269 -2.3376453167586853 -2.3515864545229661 -2.3891703789111358 -2.2813108768165344 -2.4365046588556232 -2.2085095633322323 -2.4794731704491664 -2.1334516078587384 -2.5182116867841211 -2.0566478690287369 -2.5529063567099866 -1.9785808452228497 -2.5838210484341468 -1.8997228445560272 -2.6112641863803048 -1.8205058031984498 -2.6356219285384732 -1.741342762918032 -2.6572601238630038 -1.6625610406278664 -2.6767334439515156 -1.5845353484840179 -2.6946454446614378 -1.5075823031667124 -2.7115297116111581 -1.4318988838830249 -2.7280108042822513 -1.3576601417311112 -2.7448014676739394 -1.2850069639551014 2.9242473512593485 1.3718164443754874 3.3834101565113874 1.7028192850227863 3.3285075697251285 1.8015094777848935 3.7673739120730865 2.1981060043533764 4.1862747078728031 2.6529993157502449 4.0713500607569495 2.8084216308828678 3.9542499222612015 2.9612036984415475 4.3006176347763745 3.5068360213887977 4.1372121725035607 3.6856844120828169 4.4124590550497276 4.3117252320789969 4.1921636894834187 4.5144901448006367 3.9632165830992525 4.7061496779679537 3.3540985301536592 4.3758753114812876 3.8726880048510792 5.5947127152917302 3.5692109484706305 5.7971047412215393 1.5532912392174256 2.7600618810219597 1.4808682754992026 2.7918989248660551 1.1755056894969933 2.3435739910829074 1.1255480125904522 2.3644887317165253 1.0760435840497695 2.3860385914675541 1.02929637215353 2.4141307832289072 0.98011765904359383 2.4372716791437963 1.1155718871526021 2.9681049186368251 1.0453024613723574 3.0075797928690737 0.97199775233903818 3.04078691929038 0.89988378661600055 3.0808883449046593 0.82645426457024274 3.1214403631783005 0.75155069115559414 3.1625335985064456 0.56939153169214429 2.6747333046126984 0.51615455682385325 2.7114420418047476 0.4613841130846284 2.7493621379647144 0.40486476596361937 2.7882819261590646 0.34642413914073938 2.8282311564035316 0.2858705453819706 2.8691620445323402 0.22300577424277501 2.9110051536003789 0.15763103394655276 2.9537765747647384 0.089526700838281334 2.9972185557246718 0.01848636887043064 3.0413252806271105 -0.041022063604696027 2.5643262083216278 -0.09499118759872513 2.6100477908166533 -0.15243620673451463 2.6635732307165818 -0.21293827582551172 2.7111409397628736 -0.27689878635085446 2.7594857139978206 -0.34454549816212177 2.8084580672369026 -0.33871403130082789 2.3591905575109764 -0.39324701044376109 2.4121491353229363 -0.4527694614222616 2.4723458284606186 -0.51526370383252396 2.5265973339661398 -0.58196844004324566 2.5812762219963807 -0.53159676871233308 2.1634694627042035 -0.58844542654108123 2.2230331357731963 -0.65132614059511251 2.2892039225597265 -0.7170940034603126 2.3494202438292602 -0.63723642973691064 1.9620337401559351 -0.69570638957543063 2.0271524691489295 -0.75853023075966652 2.0922715352171726 -0.82590481184227948 2.1570900185859947 -0.89801238560321972 2.2212642283267763 -0.79249590219074384 1.8660558366501174 -0.86160332906264725 1.9400380857508708 -0.93276775027458347 2.0071722357217578 -1.0085215020314786 2.0728621132928406 -1.0859515217171458 2.130905825918302 -1.1706539802394245 2.192018867487691 -1.2599311516086309 2.2500376624318847 -1.3536792532525699 2.3043500429359645 -1.4517328885038401 2.3543277709646091 -1.5538823702324596 2.3993681851986417 -1.9178418015298246 2.8072393106308779 -2.0458288583157116 2.8267869754950294 -2.1725336333095004 2.8326231367324248 -2.6088998475147651 3.1961659856274793 -2.7650576735690127 3.1692938520759508 -3.255690651204922 3.475873848619873 -3.4294212121104062 3.3949048489198876 -3.9827700327842104 3.6373535981368059 -3.1247015526735087 2.6465540736207536 -3.137655751299707 2.4901210071990869 -3.5889111602092809 2.6580955885992781 -3.5613098872697897 2.4514924258399757 -3.932930471297166 2.5069788103699806 -4.2003367361463386 2.4608173285243593 -4.3558975334380241 2.3308890865855214 -4.5962618684262919 2.2303134295194855 -4.9432735106450156 2.1510479798873714 0 0
        </DataArray>
        <DataArray type="Float32" Name="u" NumberOfComponents="1">
          0 0.007874015748031496 0.015748031496062992 0.023622047244094488 0.031496062992125984 0.03937007874015748 0.047244094488188976 0.055118110236220472 0.062992125984251968 0.070866141732283464 0.07874015748031496 0.086614173228346455 0.094488188976377951 0.10236220472440945 0.11023622047244094 0.11811023622047244 0.12598425196850394 0.13385826771653545 0.14173228346456693 0.14960629921259844 0.15748031496062992 0.16535433070866143 0.17322834645669291 0.18110236220472442 0.1889763779527559 0.19685039370078741 0.20472440944881889 0.2125984251968504 0.22047244094488189 0.2283464566929134 0.23622047244094488 0.24409448818897639 0.25196850393700787 0.25984251968503935 0.26771653543307089 0.27559055118110237 0.28346456692913385 0.29133858267716534 0.29921259842519687 0.30708661417322836 0.31496062992125984 0.32283464566929132 0.33070866141732286 0.33858267716535434 0.34645669291338582 0.3543307086614173 0.36220472440944884 0.37007874015748032 0.37795275590551181 0.38582677165354329 0.39370078740157483 0.40157480314960631 0.40944881889763779 0.41732283464566927 0.42519685039370081 0.43307086614173229 0.44094488188976377 0.44881889763779526 0.45669291338582679 0.46456692913385828 0.47244094488188976 0.48031496062992124 0.48818897637795278 0.49606299212598426 0.50393700787401574 0.51181102362204722 0.51968503937007871 0.52755905511811019 0.53543307086614178 0.54330708661417326 0.55118110236220474 0.55905511811023623 0.56692913385826771 0.57480314960629919 0.58267716535433067 0.59055118110236215 0.59842519685039375 0.60629921259842523 0.61417322834645671 0.62204724409448819 0.62992125984251968 0.63779527559055116 0.64566929133858264 0.65354330708661412 0.66141732283464572 0.6692913385826772 0.67716535433070868 0.68503937007874016 0.69291338582677164 0.70078740157480313 0.70866141732283461 0.71653543307086609 0.72440944881889768 0.73228346456692917 0.74015748031496065 0.74803149606299213 0.75590551181102361 0.76377952755905509 0.77165354330708658 0.77952755905511806 0.78740157480314965 0.79527559055118113 0.80314960629921262 0.8110236220472441 0.81889763779527558 0.82677165354330706 0.83464566929133854 0.84251968503937003 0.85039370078740162 0.8582677165354331 0.86614173228346458 0.87401574803149606 0.88188976377952755 0.88976377952755903 0.89763779527559051 0.90551181102362199 0.91338582677165359 0.92125984251968507 0.92913385826771655 0.93700787401574803 0.94488188976377951 0.952755905511811 0.96062992125984248 0.96850393700787396 0.97637795275590555 0.98425196850393704 0.99212598425196852 1
        </DataArray>
      </PointData>
      <CellData Scalars="P">
        <DataArray type="Float32" Name="P" NumberOfComponents="1">
          -0.017971043417118485 -0.05137403168522621 -0.080182145512318809 -0.10365675304262763 -0.12161591333382839 -0.13421006694912113 -0.14180872146424606 -0.14493263869015244 -0.14420941615996272 -0.14034377343481855 -0.13409330853167753 -0.12624991313861333 -0.11762446631142992 -0.10903435936622186 -0.10129193787641652 -0.095192726100675598 -0.09150348843971802 -0.090952749003050254 -0.094220823142934812 -0.10192960414928784 -0.11463387518855739 -0.13281281821427526 -0.15686167461451905 -0.18708429463595422 -0.22368657161178288 -0.26677034690261575 -0.31632840510962268 -0.37223959584422806 -0.43426517232121103 -0.50204917123753434 -0.57511095937599588 -0.65284557989943048 -0.73452228184471557 -0.81928358128122292 -0.90614363897551131 -0.99398667723272149 -1.0815628214637085 -1.1674862506355559 -1.2502287649804997 -1.3281089920854194 -1.3992812940774033 -1.4617204267214758 -1.4832871698467049 -1.5125281023997879 -1.5517416769814536 -1.6020953941787897 -1.6653415364945487 -1.7382612120002285 -1.8194092030941809 -1.9131568329812791 -2.0117442671791212 -2.119775962013744 -2.2269607065252504 -2.3300733116731331 -2.420220340613402 -2.5062881804816532 -2.5789423436750312 -2.6277750042189334 -2.6698949278916908 -2.7059567919482892 -2.7366921548738272 -2.7621604733923943 -2.7823733684428067 -2.7974202385462057 -2.8011194626741229 -2.7981390487427813 -2.7884560239986915 -2.7718396429555496 -2.7481374149595776 -2.7171819297262196 -2.6918625591672476 -2.660503307080043 -2.6230522304017265 -2.5794562769357321 -2.5296539858569029 -2.4735764965096485 -2.4111471082087221 -2.3422768425168496 -2.2668730038641223 -2.1848286157615586 -2.1180256992313891 -2.04549055393879 -1.9668908241298242 -1.882494776580913 -1.7922728546737399 -1.696194014965769 -1.6192967423668729 -1.5372366984000965 -1.4497262780526603 -1.357159979711358 -1.2596100173460381 -1.1830429702052241 -1.1020491157781629 -1.016454648107594 -0.92679381196263522 -0.85842605502773672 -0.7864989650231331 -0.71133676380858246 -0.63330963216443659 -0.5528345138855999 -0.49305988722794519 -0.43107422360736036 -0.36776657848005651 -0.30377344655767896 -0.24007143343224108 -0.17713584735505389 -0.11577412660989383 -0.056838712042390306 -0.001217798114881993 0.050177054011540045 0.10943057182379932 0.16140747719152063 0.20516180734057948 0.24966812373136918 0.28350616577347559 0.31329628404875864 0.33074909200229757 0.34095595118441524 0.32977802408331847 0.30948544262693078 0.28275576105617534 0.24836267526072489 0.20796264901573353 0.16262403407539783 0.11441032079906784 0.065661171542015478 0.020107755073234777
        </DataArray>
      </CellData>
      <Points>
        <DataArray type="Float32" NumberOfComponents="3" format="ascii">
          4.6942549230025366 10.23948860960291 0
          4.7019646719165573 10.237877463323647 0
          4.7096633280582854 10.236214074198402 0
          4.7173446504556367 10.234472330844801 0
          4.7250032565518829 10.232633207377962 0
          4.7326340174649273 10.230681709081869 0
          4.7402318390580174 10.228605613530547 0
          4.7477915670195427 10.226394790527868 0
          4.7553079460130805 10.224040780445394 0
          4.7627756066216911 10.221536510736998 0
          4.7701890700729166 10.218876100419912 0
          4.7775427612925645 10.216054712246716 0
          4.7848310276802124 10.213068439072682 0
          4.79204816162573 10.209914214287506 0
          4.7991884268448066 10.206589742419382 0
          4.8062460875440847 10.203093443880581 0
          4.8132154381438612 10.199424406655462 0
          4.8200908309275903 10.195582339192029 0
          4.8268667050874701 10.191567530920977 0
          4.8335376153779288 10.187380815823259 0
          4.8400982576561384 10.183023534447285 0
          4.846543493910656 10.178497498938423 0
          4.8528683763775291 10.173804959943645 0
          4.8590681684965498 10.168948572185274 0
          4.8651383624737425 10.163931359027062 0
          4.8710746968106067 10.1587566804352 0
          4.8768731666463276 10.153428195782844 0
          4.8825300333783321 10.147949829946118 0
          4.8880418344701688 10.142325742975224 0
          4.8934053869348082 10.136560296526405 0
          4.8986177698358624 10.130658005345945 0
          4.9036763349785302 10.124623519998664 0
          4.9085786982760142 10.118461594600406 0
          4.9133227279383238 10.112177056311403 0
          4.9179065277883023 10.105774775469877 0
          4.9223284177617357 10.099259638242472 0
          4.9265869095347616 10.092636520464836 0
          4.9306806833570933 10.085910266820459 0
          4.9346085531237627 10.079085667108638 0
          4.9383694283589765 10.072167436145735 0
          4.9419622804775933 10.06516020111966 0
          4.9453861033399615 10.058068490343969 0
          4.948639868264352 10.050896724175079 0
          4.9520749209277586 10.043810194841921 0
          4.9557197291715767 10.036829416615502 0
          4.9595708886414593 10.029960479727462 0
          4.9636556071403533 10.023227966377544 0
          4.9679998531189318 10.016660071930746 0
          4.972596501372057 10.010266408303957 0
          4.9774382928144156 10.004056427867241 0
          4.9825466987570213 9.998063954655322 0
          4.9879115897850319 9.9923000606179997 0
          4.9935500272258624 9.9868035558285975 0
          4.999448354707412 9.9815869982224328 0
          5.0055923793528132 9.9766622600522368 0
          5.0119443423726526 9.9720088511787548 0
          5.0185366282801791 9.9677021944992443 0
          5.025350575698468 9.9637547995231337 0
          5.0322608476195443 9.9599785598528392 0
          5.039262954597902 9.9563754491448933 0
          5.046337975999414 9.9529176588556361 0
          5.0534828154144273 9.9496064866767551 0
          5.0606944041707704 9.9464432699414598 0
          5.0679698440513103 9.9434297519708235 0
          5.0753060859030334 9.9405673691182379 0
          5.0827115139546208 9.9378890474690316 0
          5.0901817697074057 9.9353972357301803 0
          5.0977123064254526 9.9330939938202398 0
          5.1052986508281677 9.9309818092030469 0
          5.1129362479003877 9.9290631971846715 0
          5.1206204510931963 9.9273407065103871 0
          5.1283399792628472 9.9257840838103029 0
          5.1360915297099616 9.9243956067451347 0
          5.1438717045317857 9.923177627999836 0
          5.1516769972881606 9.9221325621453289 0
          5.1595037823273993 9.9212628874751978 0
          5.1673483029143039 9.9205711430353869 0
          5.1752066589515389 9.9200599243123548 0
          5.1830747946593103 9.9197318842262607 0
          5.1909484849694252 9.9195897171416885 0
          5.1988233227281775 9.9196361585029322 0
          5.2066956332114644 9.9198416277401407 0
          5.2145620680268934 9.9202089612396485 0
          5.2224190629208467 9.92074147923827 0
          5.2302628642081386 9.9214421323997648 0
          5.2380895036463162 9.9223139194621961 0
          5.2458947843056887 9.9233598779543097 0
          5.2536790832402112 9.9245521489600534 0
          5.2614390166951228 9.9258940178895241 0
          5.2691708910817292 9.9273892188920811 0
          5.2768708285544506 9.9290411173199455 0
          5.2845346899522809 9.9308531048756592 0
          5.2921656139418278 9.9327992748815124 0
          5.2997600723362188 9.9348833224706752 0
          5.3073141623184998 9.9371093523121257 0
          5.3148238019325271 9.9394810996359944 0
          5.3222939576904933 9.9419745448871097 0
          5.3297209997977841 9.9445937276008198 0
          5.3371010280136293 9.94734268708401 0
          5.3444298594410782 9.9502254436935438 0
          5.3517030172303341 9.953245977456902 0
          5.3589270577992698 9.9563822642406432 0
          5.3660976893975372 9.9596388921855503 0
          5.373210492439549 9.9630200243168865 0
          5.3802607622407095 9.9665297335295246 0
          5.3872436899862555 9.9701716179663897 0
          5.3941540152239309 9.9739494653279372 0
          5.4009861935018799 9.9778668706135445 0
          5.4077344029045635 9.9819271980817383 0
          5.4143925544286784 9.9861335422231772 0
          5.4209543051237077 9.9904886903329739 0
          5.4273970590327494 9.995017921951332 0
          5.433712873046459 9.9997224400170719 0
          5.4398938847289333 10.004602596336117 0
          5.4459130140987009 10.009680915109637 0
          5.4517605771996189 10.014955716948757 0
          5.457406137789496 10.020445990378306 0
          5.4628389300208617 10.026146700933094 0
          5.4680246404405679 10.032072860225076 0
          5.4730165148777532 10.038163046285765 0
          5.4778137596272947 10.04440755360625 0
          5.4823883981190891 10.050816785001654 0
          5.4867421573445201 10.057377931478742 0
          5.490852008740462 10.064094433522856 0
          5.4947013913879363 10.070963440321963 0
          5.4982806828442472 10.077976920998909 0
          5.5015750051727537 10.085128682108792 0
          5.5045628411749314 10.09241380314818 0
        </DataArray>
      </Points>
      <Cells>
        <DataArray type="Int32" Name="connectivity" format="ascii">
          0 1 1 2 2 3 3 4 4 5 5 6 6 7 7 8 8 9 9 10 10 11 11 12 12 13 13 14 14 15 15 16 16 17 17 18 18 19 19 20 20 21 21 22 22 23 23 24 24 25 25 26 26 27 27 28 28 29 29 30 30 31 31 32 32 33 33 34 34 35 35 36 36 37 37 38 38 39 39 40 40 41 41 42 42 43 43 44 44 45 45 46 46 47 47 48 48 49 49 50 50 51 51 52 52 53 53 54 54 55 55 56 56 57 57 58 58 59 59 60 60 61 61 62 62 63 63 64 64 65 65 66 66 67 67 68 68 69 69 70 70 71 71 72 72 73 73 74 74 75 75 76 76 77 77 78 78 79 79 80 80 81 81 82 82 83 83 84 84 85 85 86 86 87 87 88 88 89 89 90 90 91 91 92 92 93 93 94 94 95 95 96 96 97 97 98 98 99 99 100 100 101 101 102 102 103 103 104 104 105 105 106 106 107 107 108 108 109 109 110 110 111 111 112 112 113 113 114 114 115 115 116 116 117 117 118 118 119 119 120 120 121 121 122 122 123 123 124 124 125 125 126 126 127 
        </DataArray>
        <DataArray type="Int32" Name="offsets" format="ascii">
          2 4 6 8 10 12 14 16 18 20 22 24 26 28 30 32 34 36 38 40 42 44 46 48 50 52 54 56 58 60 62 64 66 68 70 72 74 76 78 80 82 84 86 88 90 92 94 96 98 100 102 104 106 108 110 112 114 116 118 120 122 124 126 128 130 132 134 136 138 140 142 144 146 148 150 152 154 156 158 160 162 164 166 168 170 172 174 176 178 180 182 184 186 188 190 192 194 196 198 200 202 204 206 208 210 212 214 216 218 220 222 224 226 228 230 232 234 236 238 240 242 244 246 248 250 252 254 
        </DataArray>
        <DataArray type="Int32" Name="types" format="ascii">
          3 3 3 3 3 3 3 3 3 3 3 3 3 3 3 3 3 3 3 3 3 3 3 3 3 3 3 3 3 3 3 3 3 3 3 3 3 3 3 3 3 3 3 3 3 3 3 3 3 3 3 3 3 3 3 3 3 3 3 3 3 3 3 3 3 3 3 3 3 3 3 3 3 3 3 3 3 3 3 3 3 3 3 3 3 3 3 3 3 3 3 3 3 3 3 3 3 3 3 3 3 3 3 3 3 3 3 3 3 3 3 3 3 3 3 3 3 3 3 3 3 3 3 3 3 3 3         </DataArray>
      </Cells>
    </Piece>
  </UnstructuredGrid>
</VTKFile>
