<?xml version="1.0"?>
<VTKFile type="UnstructuredGrid" version="0.1" byte_order="LittleEndian">
  <UnstructuredGrid>
    <Piece NumberOfPoints="128" NumberOfCells="127">
      <PointData Scalars="W">
        <DataArray type="Float32" Name="W" NumberOfComponents="2">
          0 0 0.18183359884656794 -0.025783327160160286 0.23817936109686186 -0.034178914455947187 0.26761231411987246 -0.038952287551191851 0.28034167822260869 -0.041429551490773063 0.28068852822974932 -0.04212156767969253 0.27118703938894129 -0.041305295680213197 0.25348454228428841 -0.039151196508459531 0.22875224001455277 -0.035781399279094406 0.19780460823974996 -0.031285176106804931 0.16131773511101236 -0.025751120796957034 0.11978492550453557 -0.019258952492689586 0.073600433882851896 -0.011891671472690326 0.02309559691987734 -0.0037407109797076114 -0.031489053385239989 0.0050990872260604616 -0.089955317143651889 0.014521941770891882 -0.15204643496888839 0.02439509560020748 -0.2176191401818203 0.034587001387970981 -0.2864997416112437 0.044944427791341723 -0.35849555502664959 0.055295134089349253 -0.43343241997342824 0.065454710438143632 -0.51117001301180709 0.075229530325835486 -0.59155397020033806 0.084410237729222126 -0.67443094524782221 0.092775209802399103 -0.75964745249427756 0.10009156888477971 -0.84698961056869237 0.10610909861568987 -0.93628695828657404 0.11057613328598792 -1.027414387040009 0.11323955900537702 -1.1201382478175994 0.11382889470739302 -1.2139089738575579 0.11204538288825695 -1.308846346201421 0.1076596627274895 -1.4046774346441815 0.10040241502551106 -1.5011026138747854 0.09001003941010588 -1.5977943203874427 0.076228692743194604 -1.6944119218617031 0.058819140089035528 -1.7906070732198969 0.037560251738651462 -1.886085187370411 0.012251896796667876 -1.9803794233140422 -0.017284205590906616 -2.0729709247415116 -0.051190200837303579 -2.1634580051144803 -0.089572131355593568 -2.2513731923967861 -0.13249656299858983 -2.3361988407825831 -0.17998253135573358 5.0302306839549233 0.33381280826484255 4.8693215147867317 0.13264201077950516 4.6980729919476234 -0.049079808648460448 4.6093410824737342 -0.21733344868104867 4.4250629359142932 -0.36709630890545536 4.3277482939807035 -0.51047397247278903 4.1339607134150347 -0.62916328542877686 4.0300645415205176 -0.74851200368600435 3.9236159016745087 -0.85926487583443778 3.8150886157310051 -0.96157058894797232 3.7048806597648669 -1.0555809496745765 3.5933137031302178 -1.1414389385631363 3.4807562208553002 -1.2193120849751777 3.1835074359873681 -1.2160623770393781 2.9802833351962841 -1.2285252001957598 2.7772565810672427 -1.2257504565681492 2.4709698811947098 -1.1582712666971782 2.2678186692863123 -1.1208876162569457 2.0653715294043851 -1.0704381537259804 1.8636898814275489 -1.0076726053468881 1.5428935780887796 -0.8649996096464958 1.3398754373841366 -0.77434617596183464 1.0072762906217212 -0.59660025124063676 0.7969999526037217 -0.48100802438128532 0.72349395041448361 -0.44359055559110505 0.64917559765400112 -0.40371958475751224 0.44090464688806852 -0.27730075139850541 0.36865206695377106 -0.2338024313757697 0.29857185269178882 -0.19066303146874841 0.087086153255028928 -0.055832957333333079 0.016466660846953848 -0.010568415836820827 -0.05227098598801299 0.033535518567085379 -0.12238883305502569 0.078380029508822321 -0.33777233334731416 0.21529325930462728 -0.40628972118432255 0.25698759899609697 -0.47648898114047605 0.29865762530455536 -0.5466674451719219 0.33904113465814939 -0.61488074671592585 0.37678845422996982 -0.83773133611846251 0.50566809936016466 -0.90882479983695896 0.53869449398365621 -0.97979682271554169 0.56940552039082171 -1.0486806847495 0.59658305772477283 -1.1190664695655967 0.62220183441256527 -1.3516271277027725 0.73199718630938737 -1.4209464468476418 0.74695268379109925 -1.4915088516007082 0.75963340731392337 -1.5610966600106679 0.76882766275223047 -1.627335079336161 0.77344310416249029 -1.8683229970130133 0.85345763184510359 -1.9358121297837132 0.84618605233393707 -1.998900258873074 0.83394698740338402 -2.0616878094116426 0.81865572706311973 -2.1215619622336401 0.79935427308315077 -2.364569136617757 0.84048261180757378 -2.417306052236134 0.80538628552631397 -2.468052722394718 0.76724619761630442 -2.5113059794565777 0.72467378682581129 -2.7492803295424526 0.7297246636861483 -2.7855351724114215 0.67269511014710193 -2.8122868259940601 0.61219840671709391 -2.8342471157465963 0.54991035848347591 -3.0536826562351975 0.51814569731794169 -3.0600414846573312 0.44280180334072128 -3.0566733160371298 0.36673962995040765 -3.2574599707581036 0.30842609979767882 -3.2302697687991366 0.2224833496115772 -3.1937940569530618 0.13878066259121855 -3.3669444727485311 0.059180148247079706 -3.3036932263634537 -0.028736605521343394 -3.4553624090550983 -0.12211758476447361 -3.357225560898379 -0.20906322323549509 -3.4854301677485595 -0.31181068518754373 -3.3504169531924948 -0.39139743591263965 -3.4422607651109973 -0.49660972748129956 -3.5176434740928011 -0.60760129484028691 -3.5740735510338926 -0.72252573911897999 -2.3437226170596199 -0.5322359546190405 -2.2567482391353058 -0.55688135605995981 -1.8836550456370189 -0.49860266556035154 -1.7716328325591493 -0.49736509378829297 -1.8588919068267828 -0.55185394614540884 -1.4891774048795032 -0.46453292152201903 -1.6134648363528361 -0.52612192055388118 -1.3596822658345538 -0.46202016425534825 -2.2466967623224559 -0.8013765793460309 0 0
        </DataArray>
        <DataArray type="Float32" Name="u" NumberOfComponents="1">
          0 0.007874015748031496 0.015748031496062992 0.023622047244094488 0.031496062992125984 0.03937007874015748 0.047244094488188976 0.055118110236220472 0.062992125984251968 0.070866141732283464 0.07874015748031496 0.086614173228346455 0.094488188976377951 0.10236220472440945 0.11023622047244094 0.11811023622047244 0.12598425196850394 0.13385826771653545 0.14173228346456693 0.14960629921259844 0.15748031496062992 0.16535433070866143 0.17322834645669291 0.18110236220472442 0.1889763779527559 0.19685039370078741 0.20472440944881889 0.2125984251968504 0.22047244094488189 0.2283464566929134 0.23622047244094488 0.24409448818897639 0.25196850393700787 0.25984251968503935 0.26771653543307089 0.27559055118110237 0.28346456692913385 0.29133858267716534 0.29921259842519687 0.30708661417322836 0.31496062992125984 0.32283464566929132 0.33070866141732286 0.33858267716535434 0.34645669291338582 0.3543307086614173 0.36220472440944884 0.37007874015748032 0.37795275590551181 0.38582677165354329 0.39370078740157483 0.40157480314960631 0.40944881889763779 0.41732283464566927 0.42519685039370081 0.43307086614173229 0.44094488188976377 0.44881889763779526 0.45669291338582679 0.46456692913385828 0.47244094488188976 0.48031496062992124 0.48818897637795278 0.49606299212598426 0.50393700787401574 0.51181102362204722 0.51968503937007871 0.52755905511811019 0.53543307086614178 0.54330708661417326 0.55118110236220474 0.55905511811023623 0.56692913385826771 0.57480314960629919 0.58267716535433067 0.59055118110236215 0.59842519685039375 0.60629921259842523 0.61417322834645671 0.62204724409448819 0.62992125984251968 0.63779527559055116 0.64566929133858264 0.65354330708661412 0.66141732283464572 0.6692913385826772 0.67716535433070868 0.68503937007874016 0.69291338582677164 0.70078740157480313 0.70866141732283461 0.71653543307086609 0.72440944881889768 0.73228346456692917 0.74015748031496065 0.74803149606299213 0.75590551181102361 0.76377952755905509 0.77165354330708658 0.77952755905511806 0.78740157480314965 0.79527559055118113 0.80314960629921262 0.8110236220472441 0.81889763779527558 0.82677165354330706 0.83464566929133854 0.84251968503937003 0.85039370078740162 0.8582677165354331 0.86614173228346458 0.87401574803149606 0.88188976377952755 0.88976377952755903 0.89763779527559051 0.90551181102362199 0.91338582677165359 0.92125984251968507 0.92913385826771655 0.93700787401574803 0.94488188976377951 0.952755905511811 0.96062992125984248 0.96850393700787396 0.97637795275590555 0.98425196850393704 0.99212598425196852 1
        </DataArray>
      </PointData>
      <CellData Scalars="P">
        <DataArray type="Float32" Name="P" NumberOfComponents="1">
          0.016398274698838446 0.049288197549014118 0.082269058450955668 0.11527210646494249 0.14820887403184493 0.18099191102645609 0.21354870230844486 0.24583175774584162 0.27782621476837799 0.3095558487763525 0.34108737226368707 0.3725338761809534 0.4040571621006151 0.43586900625629976 0.46823206419823205 0.50145974085192324 0.5359134765538065 0.57200193931783183 0.61017711495880045 0.65092930154334483 0.6947820211735356 0.74228681641774452 0.79401595266340796 0.85055474066637304 0.91249310914234838 0.98041376928149881 1.0548839912839498 1.1364476464025539 1.2256091200041714 1.3228036161554164 1.4284220445571398 1.5427784570532179 1.6660961674276229 1.7984937760475683 1.939972352006982 2.090403465507396 2.2495221994015187 2.4169051878590362 2.5919576129013433 2.7739137870193216 2.961826310152746 3.1545580885866027 2.8311236845338774 2.5178867064421553 2.2149345477974918 1.9155746036792061 1.626452145057169 1.3406637113751327 1.0653081145437833 0.79330344075074566 0.52464678213166127 0.25936249418972851 -0.0024951857673691309 -0.26083915602367563 -0.51555659555245614 -0.75039273718659005 -0.97277348316430712 -1.1820666615443081 -1.3679961668655276 -1.5390910548163315 -1.6946218695042583 -1.8338639007666424 -1.9442896115315382 -2.0365379483163419 -2.0968851965185995 -2.1368971252076658 -2.1700524940516703 -2.1960723639924211 -2.201108777556176 -2.1989412841276468 -2.1897550687486809 -2.1592712069485329 -2.1218887410995499 -2.0779327782488921 -2.027447477751116 -1.9566857324508251 -1.8803229084700912 -1.7985497069470351 -1.711758421257106 -1.6205466455076629 -1.5121807827261324 -1.4005656222844092 -1.2862708979516999 -1.170036170100011 -1.0523340019161582 -0.92245598610312429 -0.79305577663602589 -0.66470685055865342 -0.53812670018515152 -0.41414765637056233 -0.28443689944732181 -0.15926665564325279 -0.039454855698039595 0.074418550932465799 0.18171116303232868 0.28762842857172782 0.38499060062098972 0.47336655306795056 0.5522866175191351 0.62444414298074979 0.68581117046757412 0.7362275474745017 0.77571480156084494 0.80434618587460038 0.8216268572540496 0.82797250110904586 0.82168691474672906 0.80506672776612243 0.77901099198981694 0.7402753495368839 0.69383792732439975 0.63554598993194922 0.57221431867630801 0.4987782004137733 0.42373503148495639 0.34158300032011091 0.25393388158492836 0.16271774664348895 0.11107694932840054 0.063543543121434259 0.030086829345002286 0.0034893738389269856 -0.020481667872507488 -0.029533074694818973 -0.03394695779581635 -0.025955252331865148 -0.014522390541165569
        </DataArray>
      </CellData>
      <Points>
        <DataArray type="Float32" NumberOfComponents="3" format="ascii">
          4.1234374886353002 6.0581331717096543 0
          4.1245373732147792 6.0659305241422299 0
          4.1256485319892073 6.0737262706373469 0
          4.1267744581812655 6.0815198861447097 0
          4.1279169762892467 6.0893110712026646 0
          4.1290768751013189 6.0970996693209685 0
          4.1302541756304088 6.1048856351528302 0
          4.1314482882579524 6.1126690172483711 0
          4.1326581148906918 6.1204499474451097 0
          4.1338821215956409 6.1282286332720215 0
          4.1351183891157826 6.1360053524002369 0
          4.1363646548043347 6.1437804471412223 0
          4.1376183432243234 6.1515543194985982 0
          4.1388765906050669 6.1593274260185691 0
          4.1401362653957268 6.1671002721189323 0
          4.1413939831865534 6.1748734062076451 0
          4.1426461190031612 6.1826474131236813 0
          4.143888823229176 6.1904229059057032 0
          4.1451180304892059 6.1982005176359456 0
          4.1463294704153286 6.2059808919397916 0
          4.147518679588031 6.2137646723067252 0
          4.1486810123253344 6.2215524906566619 0
          4.1498116493705597 6.2293449553345752 0
          4.1509056074471582 6.2371426381294413 0
          4.1519577487469119 6.2449460605320644 0
          4.1529627904232296 6.2527556792942889 0
          4.1539153178254793 6.2605718709121332 0
          4.1548097950378162 6.2683949160177379 0
          4.1556405726028789 6.2762249836798416 0
          4.1564019019719227 6.284062114625514 0
          4.1570879695391438 6.2919062027063397 0
          4.1576928891739078 6.2997569806644362 0
          4.1582107190990856 6.307614003417866 0
          4.1586354804229835 6.3154766316970532 0
          4.158961177402575 6.3233440162821646 0
          4.1591818185168297 6.3312150831418572 0
          4.1592914380188262 6.3390885196898967 0
          4.1592841141560717 6.3469627623388662 0
          4.1591539980733794 6.3548359854034588 0
          4.1588953459445408 6.3627060922390788 0
          4.1585025438436176 6.370570708613811 0
          4.1579701367008264 6.3784271785232285 0
          4.1572928603763994 6.3862725629476591 0
          4.1569275019819161 6.3941386631360704 0
          4.1568640855996204 6.4020130029205502 0
          4.1570919937887103 6.4098843118357216 0
          4.1576057257256025 6.4177421566981598 0
          4.1583938554790034 6.4255772484363565 0
          4.1594503496819026 6.4333806962153455 0
          4.160763192177285 6.4411451375624686 0
          4.1623259411355633 6.4488631715264706 0
          4.1641319964118138 6.4565279301343477 0
          4.1661746289250843 6.4641330691785619 0
          4.1684470053349312 6.4716727588090812 0
          4.1709422079861342 6.4791416746709656 0
          4.1736532577566994 6.4865349875211926 0
          4.1765617204796284 6.4938528934697093 0
          4.1796549930195406 6.5010946169107857 0
          4.1829204841637955 6.50826032715878 0
          4.1863391977837221 6.5153542030884815 0
          4.1898985342765176 6.5223785602667723 0
          4.193585937564337 6.5293365245552826 0
          4.1973888989626724 6.5362319856246449 0
          4.2012875217196708 6.5430737851610949 0
          4.2052692143028993 6.5498675423956927 0
          4.209313348311218 6.5566242739803435 0
          4.2134068826655318 6.5633511457930895 0
          4.2175452594230389 6.5700504795675476 0
          4.2217238703904814 6.5767247490677399 0
          4.2259297998435743 6.5833817917103454 0
          4.230158568201059 6.5900243062679786 0
          4.234405830734425 6.5966549692327323 0
          4.2386584734572361 6.6032821397911672 0
          4.242912118731005 6.6099086263185924 0
          4.2471625057287268 6.616537165220997 0
          4.2514052881323785 6.6231705387726896 0
          4.2556271117027409 6.6298172358622613 0
          4.2598237298850918 6.6364798437405286 0
          4.263990791897724 6.6431609481483935 0
          4.2681239483049405 6.6498630550942996 0
          4.2722189715658123 6.6565885072015609 0
          4.276262045965888 6.6633452964521362 0
          4.2802487657469186 6.6701354732659475 0
          4.2841747326589434 6.6769609446184432 0
          4.2880356778808251 6.6838233985353277 0
          4.2918272394080299 6.6907244265283241 0
          4.2955350003904975 6.6976708394044531 0
          4.2991546649996568 6.7046635683792157 0
          4.3026818601701624 6.7117034038376442 0
          4.3061122730707426 6.7187909202210552 0
          4.3094417983091136 6.7259264082940975 0
          4.3126554962850649 6.7331148355333044 0
          4.3157491835996078 6.7403557568740844 0
          4.3187189493379794 6.7476484195097921 0
          4.3215609008261051 6.7549918816922734 0
          4.324271325589585 6.7623849533107707 0
          4.3268351567444272 6.7698301949081081 0
          4.329249123108915 6.7773254383928609 0
          4.3315100762888727 6.7848683272628278 0
          4.3336153318507442 6.7924562303835954 0
          4.3355501314078246 6.8000894752656942 0
          4.3373122224694676 6.807764535831808 0
          4.3388999409629463 6.8154776711144391 0
          4.3403119190806994 6.8232250292914882 0
          4.3415345423737168 6.8310046589111666 0
          4.342567407680904 6.8388118997855525 0
          4.3434107140639471 6.8466420471930141 0
          4.3440519975887355 6.8544915063721792 0
          4.3444929312764335 6.8623549606698333 0
          4.3447357630483614 6.8702272323077676 0
          4.3447697356806163 6.8781034089608362 0
          4.3445987540172473 6.8859780520751066 0
          4.3442133869225783 6.8938453965329911 0
          4.3436196992559486 6.9017000641176498 0
          4.3428097084203072 6.9095357105470203 0
          4.3417917630990273 6.9173474141579812 0
          4.3405601292246754 6.9251286790145699 0
          4.3391100882539453 6.9328726519354245 0
          4.3374380913871962 6.9405722369410219 0
          4.335620497433827 6.9482391887247141 0
          4.3336626740455992 6.9558720070484688 0
          4.3315877606754913 6.963474321592269 0
          4.3294026804957522 6.9710462474704427 0
          4.3271019694864625 6.9785844647779838 0
          4.3247085568205774 6.9860944313268325 0
          4.3222146623393387 6.9935724161657697 0
          4.3196359979660404 7.0010224842901598 0
          4.3169173006264687 7.0084237865814014 0
        </DataArray>
      </Points>
      <Cells>
        <DataArray type="Int32" Name="connectivity" format="ascii">
          0 1 1 2 2 3 3 4 4 5 5 6 6 7 7 8 8 9 9 10 10 11 11 12 12 13 13 14 14 15 15 16 16 17 17 18 18 19 19 20 20 21 21 22 22 23 23 24 24 25 25 26 26 27 27 28 28 29 29 30 30 31 31 32 32 33 33 34 34 35 35 36 36 37 37 38 38 39 39 40 40 41 41 42 42 43 43 44 44 45 45 46 46 47 47 48 48 49 49 50 50 51 51 52 52 53 53 54 54 55 55 56 56 57 57 58 58 59 59 60 60 61 61 62 62 63 63 64 64 65 65 66 66 67 67 68 68 69 69 70 70 71 71 72 72 73 73 74 74 75 75 76 76 77 77 78 78 79 79 80 80 81 81 82 82 83 83 84 84 85 85 86 86 87 87 88 88 89 89 90 90 91 91 92 92 93 93 94 94 95 95 96 96 97 97 98 98 99 99 100 100 101 101 102 102 103 103 104 104 105 105 106 106 107 107 108 108 109 109 110 110 111 111 112 112 113 113 114 114 115 115 116 116 117 117 118 118 119 119 120 120 121 121 122 122 123 123 124 124 125 125 126 126 127 
        </DataArray>
        <DataArray type="Int32" Name="offsets" format="ascii">
          2 4 6 8 10 12 14 16 18 20 22 24 26 28 30 32 34 36 38 40 42 44 46 48 50 52 54 56 58 60 62 64 66 68 70 72 74 76 78 80 82 84 86 88 90 92 94 96 98 100 102 104 106 108 110 112 114 116 118 120 122 124 126 128 130 132 134 136 138 140 142 144 146 148 150 152 154 156 158 160 162 164 166 168 170 172 174 176 178 180 182 184 186 188 190 192 194 196 198 200 202 204 206 208 210 212 214 216 218 220 222 224 226 228 230 232 234 236 238 240 242 244 246 248 250 252 254 
        </DataArray>
        <DataArray type="Int32" Name="types" format="ascii">
          3 3 3 3 3 3 3 3 3 3 3 3 3 3 3 3 3 3 3 3 3 3 3 3 3 3 3 3 3 3 3 3 3 3 3 3 3 3 3 3 3 3 3 3 3 3 3 3 3 3 3 3 3 3 3 3 3 3 3 3 3 3 3 3 3 3 3 3 3 3 3 3 3 3 3 3 3 3 3 3 3 3 3 3 3 3 3 3 3 3 3 3 3 3 3 3 3 3 3 3 3 3 3 3 3 3 3 3 3 3 3 3 3 3 3 3 3 3 3 3 3 3 3 3 3 3 3         </DataArray>
      </Cells>
    </Piece>
  </UnstructuredGrid>
</VTKFile>
