<?xml version="1.0"?>
<VTKFile type="UnstructuredGrid" version="0.1" byte_order="LittleEndian">
  <UnstructuredGrid>
    <Piece NumberOfPoints="128" NumberOfCells="127">
      <PointData Scalars="W">
        <DataArray type="Float32" Name="W" NumberOfComponents="2">
          0 0 0.0031031863389756899 0.0036657530376526283 0.011794288623431596 0.013929872952007361 0.027871775746061318 0.032902375059785348 0.049255378183917176 0.058090182583370162 0.074986106133239139 0.088300748106990484 0.1046015959238755 0.12290266032762566 0.13780494123368969 0.16143349639783164 0.17441095889022465 0.20353543799989104 0.21425900945232459 0.24885257272171191 0.25726881229200954 0.29709587568246554 0.30335833232648524 0.34794768236872131 0.35248439077128912 0.40110958678277125 0.40462059226252828 0.45627765542547882 0.45974389295128049 0.51312871819926364 0.5178525434689818 0.57134241192200697 0.5790067007041273 0.63064624525198421 0.64323151982158033 0.69070931165158544 0.71059163998139352 0.75122604514112512 0.78118046780807149 0.81190366233922551 0.85508360732609456 0.87242403552020709 0.93237393307651761 0.93244152693230664 1.0131506836063053 0.99162433450984877 1.0974982224888821 1.0496138185124428 1.1855043107362615 1.1060447786033132 1.2772921083539408 1.1605749193159876 1.372941238441576 1.2128115978293978 1.4724808402823713 1.2623130125813817 1.5759924792419544 1.308680816243174 1.6837716599990833 1.35167911326735 1.7955722778685983 1.3906226093864513 1.9114092215597283 1.4250551896047989 2.0312752325061139 1.4545059876295612 2.1551309107412626 1.4784849257762447 2.2829140884293464 1.496492432997879 2.4144899823219905 1.5079907293263741 2.5496290357359257 1.5124016763796224 2.6881717847019471 1.5092115454606954 2.8299258148254482 1.4979010231152854 2.9745396780704456 1.4778864784082852 3.1216259150682313 1.4486014232594471 3.2707633632813988 1.4094997172431027 0.99281958215420507 0.40651688637090566 1.3379454775946935 0.5324273803978874 1.6950644512677175 0.64948716761417458 2.0697566125056706 0.75570159581560981 2.1830361336711781 0.75335837685636309 2.5731602434907059 0.83149524596383184 2.9729347473549415 0.88611878627176266 3.392489124665548 0.91562503191160693 3.5135615112532084 0.84324502668458834 4.2628839790174551 0.88261827219052469 4.7200131429673062 0.8012754120012856 14.614400474702368 1.3404750319663365 -5.0174849821763141 -0.26831554075938913 1.1099587990549546 0.076525029664002195 1.2091712547415361 0.072250938573875656 1.302937035761669 0.064903096569310439 1.6110038392343671 0.061704464810011191 1.7023133825162018 0.042951153347093832 1.7915233926555849 0.020534290155137091 1.8783929707109468 -0.0056244735218828352 2.1807976700624834 -0.041406011490213938 2.2617773459091333 -0.082569760898583311 2.5600428120494914 -0.14223908268444582 2.6329409452763484 -0.20049997432420377 2.7012589892544079 -0.26310487206180938 2.7691112229777528 -0.3304393104032492 2.8273547204795593 -0.40132283303231042 2.8801500836637959 -0.47587601313734751 2.9272482156320891 -0.55380217650711749 2.9684198349963467 -0.63477226484407467 3.0034604551526556 -0.71842721867740267 3.0321948679416919 -0.80438097686513976 3.0544751312845779 -0.89222222217433744 3.0701858765084644 -0.98151810256105088 3.079244699188644 -1.0718171196254109 3.081606533258888 -1.1626536239934002 3.07726105630472 -1.253550274947373 3.0701581845250963 -1.3458039894973299 3.0524276691707515 -1.435574337772267 2.8276998609333681 -1.419901550027755 2.8024071618725634 -1.4959631470026409 2.7713817837754293 -1.569854531782638 2.7347320981077279 -1.6411065310789288 2.696236856554993 -1.7116246127409094 2.6489749487177043 -1.7765859234520038 2.5967906842654274 -1.8376834329915417 2.5399602155680023 -1.8945317137893669 2.3086157788421056 -1.8099127835915823 2.2529397384969188 -1.8516204144473631 2.1906522304155143 -1.8859842820542039 2.1251837307342067 -1.915112693178354 2.0568253642826893 -1.9387194466033644 1.9886210168021652 -1.959300069154392 1.9152345333836207 -1.9711607295467173 1.8399147022672839 -1.9767875089602098 1.623916969089346 -1.8170787216170932 1.5517925135412516 -1.8041033066498298 1.4809058021905399 -1.787581208669802 1.4066003262711764 -1.7615469401033907 1.3315367269022407 -1.7286218657851808 1.2558749765443558 -1.6885972970061931 1.1797491812434187 -1.6412594625755625 1.1032615317613459 -1.586384099170679 1.142955829670335 -1.6996824371120705 1.0607882011193037 -1.632364678455591 0.9787297726419536 -1.5563757596616066 0.89680483006909728 -1.4714923212985718 0.81499928194253846 -1.3775101511694408 0.84068784116242423 -1.4638515765433215 0.75246816277819328 -1.3497388088303344 0.77258527473974892 -1.427402187070397 0.6801938190298491 -1.2940033202749794 0.58994996363153662 -1.1525226367345986 0.60094952519388267 -1.2047329398641438 0.25233600864376488 -0.51558428192230032 0.13466017702520039 -0.27758231674252704 0.014531437357098598 -0.03005740314487099 0.0044984999959465756 -0.0093089654397735273 -0.12201762873231659 0.25181469505110676 -0.15233515151553353 0.31241373997923738 -0.32598230820157253 0.66134870360906595 -0.42725779458002255 0.85245643345583411 -0.58379208487715906 1.1396337751995715 -0.72226023633098091 1.3720309997643321 -0.43214296247537864 0.80195855413127604 0 0
        </DataArray>
        <DataArray type="Float32" Name="u" NumberOfComponents="1">
          0 0.007874015748031496 0.015748031496062992 0.023622047244094488 0.031496062992125984 0.03937007874015748 0.047244094488188976 0.055118110236220472 0.062992125984251968 0.070866141732283464 0.07874015748031496 0.086614173228346455 0.094488188976377951 0.10236220472440945 0.11023622047244094 0.11811023622047244 0.12598425196850394 0.13385826771653545 0.14173228346456693 0.14960629921259844 0.15748031496062992 0.16535433070866143 0.17322834645669291 0.18110236220472442 0.1889763779527559 0.19685039370078741 0.20472440944881889 0.2125984251968504 0.22047244094488189 0.2283464566929134 0.23622047244094488 0.24409448818897639 0.25196850393700787 0.25984251968503935 0.26771653543307089 0.27559055118110237 0.28346456692913385 0.29133858267716534 0.29921259842519687 0.30708661417322836 0.31496062992125984 0.32283464566929132 0.33070866141732286 0.33858267716535434 0.34645669291338582 0.3543307086614173 0.36220472440944884 0.37007874015748032 0.37795275590551181 0.38582677165354329 0.39370078740157483 0.40157480314960631 0.40944881889763779 0.41732283464566927 0.42519685039370081 0.43307086614173229 0.44094488188976377 0.44881889763779526 0.45669291338582679 0.46456692913385828 0.47244094488188976 0.48031496062992124 0.48818897637795278 0.49606299212598426 0.50393700787401574 0.51181102362204722 0.51968503937007871 0.52755905511811019 0.53543307086614178 0.54330708661417326 0.55118110236220474 0.55905511811023623 0.56692913385826771 0.57480314960629919 0.58267716535433067 0.59055118110236215 0.59842519685039375 0.60629921259842523 0.61417322834645671 0.62204724409448819 0.62992125984251968 0.63779527559055116 0.64566929133858264 0.65354330708661412 0.66141732283464572 0.6692913385826772 0.67716535433070868 0.68503937007874016 0.69291338582677164 0.70078740157480313 0.70866141732283461 0.71653543307086609 0.72440944881889768 0.73228346456692917 0.74015748031496065 0.74803149606299213 0.75590551181102361 0.76377952755905509 0.77165354330708658 0.77952755905511806 0.78740157480314965 0.79527559055118113 0.80314960629921262 0.8110236220472441 0.81889763779527558 0.82677165354330706 0.83464566929133854 0.84251968503937003 0.85039370078740162 0.8582677165354331 0.86614173228346458 0.87401574803149606 0.88188976377952755 0.88976377952755903 0.89763779527559051 0.90551181102362199 0.91338582677165359 0.92125984251968507 0.92913385826771655 0.93700787401574803 0.94488188976377951 0.952755905511811 0.96062992125984248 0.96850393700787396 0.97637795275590555 0.98425196850393704 0.99212598425196852 1
        </DataArray>
      </PointData>
      <CellData Scalars="P">
        <DataArray type="Float32" Name="P" NumberOfComponents="1">
          -0.03572851888810754 -0.10718307163072571 -0.17865128137265307 -0.25013723702889817 -0.32161878125304039 -0.39303936280150281 -0.46430206413837655 -0.53526549400145718 -0.60574085456043292 -0.67549064171621997 -0.74422758619883178 -0.81161530798467874 -0.87726915723604282 -0.94075796984570259 -1.0016067720137261 -1.0592995636974329 -1.1132808577354083 -1.162960535270972 -1.2077164751376395 -1.2468973275089712 -1.2798269181889774 -1.305809280264683 -1.3241317686108782 -1.3340703712894617 -1.3348941258178122 -1.3258672749994385 -1.3062565164198721 -1.2753394029237548 -1.2324053340893957 -1.176742651868899 -1.1076858512497521 -1.0246005177071615 -0.92688979870336452 -0.81400183419008132 -0.68543644759056921 -0.54075653373889732 -0.37960191428647544 -0.20168766194527374 -0.0068118642187689179 0.20512410917702323 0.43410711365837751 0.68000407605625091 0.72062719478164172 0.79837736595180597 0.91399233604075147 1.0683277746472575 1.2326069723449782 1.4346954183827965 1.6738275487642704 1.9501973790625202 2.2325377800389958 2.5816965211569816 2.9671804396828896 4.2003158211529072 3.6602778446879922 3.6958285913065709 3.7400932829601121 3.7919658479411655 3.870602740545626 3.9548253111282654 4.0436084775225556 4.1358668208652443 4.2488948671363955 4.3624002345364863 4.4925614600035093 4.6199690612989155 4.7434527628742478 4.862178958126206 4.974731764171711 5.0800712026413848 5.1772188888268627 5.2652659421757635 5.3433803789050334 5.4108138640818026 5.4669074645890188 5.5110967527487231 5.5429159886780033 5.5620015132756215 5.5680940912563255 5.5611210093438874 5.5409344880071698 5.5051808099290351 5.4574586381201309 5.3978734723711366 5.3266193513603977 5.2439599253372462 5.150259987337118 5.0459676454598847 4.9316075727466089 4.811509956149127 4.6832464842780794 4.5474355843499454 4.4046837146703686 4.255644635597001 4.1008978168569286 3.9412854638962251 3.7775734093772564 3.6181137417245886 3.4565293739223915 3.2933499435439204 3.1294052548738276 2.96539529756941 2.8020241620622639 2.639995431899322 2.4800075436740912 2.3133730854016128 2.1500786631704996 1.9908977227407816 1.8365612801696156 1.6877474053810062 1.5354392692627863 1.3901829073334162 1.2427953238609915 1.1038336227012253 0.97359173767268348 0.84365554879139637 0.74429729622948115 0.65525948611592055 0.57565657144872806 0.49700837376250284 0.42601527012123031 0.35603973785025311 0.29273650354519259 0.23076814309617066 0.16985114024336501 0.10705276413040123 0.03653662128362474
        </DataArray>
      </CellData>
      <Points>
        <DataArray type="Float32" NumberOfComponents="3" format="ascii">
          4.2797227412339796 5.5699682407800468 0
          4.273712321520879 5.5750560732157153 0
          4.2677021239052841 5.5801441078544896 0
          4.2616927010909782 5.5852329695095726 0
          4.2556850578377849 5.590323827993549 0
          4.2496805240959699 5.5954182416623564 0
          4.243680696501487 5.6005180826125134 0
          4.2376874102789204 5.6056254970197656 0
          4.2317027212310654 5.6107428761205673 0
          4.2257288945645834 5.6158728337747235 0
          4.219768395183471 5.6210181842091238 0
          4.2138238829305044 5.6261819239543698 0
          4.2078982076963607 5.6313672120409075 0
          4.2019944069211563 5.6365773514175981 0
          4.1961157041241188 5.6418157700509814 0
          4.1902655076315378 5.6470860008514014 0
          4.1844474106175031 5.6523916617895376 0
          4.1786651949768521 5.6577364389946698 0
          4.172922833023236 5.6631240662424851 0
          4.1672244916314352 5.6685583060231881 0
          4.1615745381604086 5.6740429314095024 0
          4.1559775458905124 5.6795817063589045 0
          4.1504382986700961 5.6851783643141456 0
          4.1449617971961432 5.6908365876641005 0
          4.1395532643726769 5.6965599855416365 0
          4.1342181508805931 5.7023520712144276 0
          4.1289621429442089 5.7082162408947594 0
          4.1237911674005412 5.7141557494247541 0
          4.1187113936406385 5.7201736829092189 0
          4.1137292388056954 5.7262729340384144 0
          4.1088513862575979 5.7324561874814473 0
          4.1040847704634329 5.7387258774003351 0
          4.099436578072007 5.745084159169183 0
          4.0949142476234623 5.7515328801694405 0
          4.0905254672727249 5.7580735493834263 0
          4.0862781711090834 5.7647073063876553 0
          4.0821805309796391 5.7714348879632666 0
          4.0782409424414476 5.7782565921879705 0
          4.0744680150728971 5.7851722465090862 0
          4.070870560752688 5.7921811754538473 0
          4.0674575720814277 5.7992821643296883 0
          4.0642381985798126 5.8064734239674438 0
          4.0612217208075787 5.8137525567047152 0
          4.0582669454021998 5.8210567697295197 0
          4.0553952989260544 5.8283938647704749 0
          4.0526289491217167 5.8357710935477316 0
          4.0499911509686735 5.8431950336313081 0
          4.0474889229676974 5.8506655433798969 0
          4.0451464720641797 5.858187457220283 0
          4.0429885995751 5.8657641502468989 0
          4.0410413296402616 5.8733974383682215 0
          4.0393121543728521 5.8810828349302451 0
          4.0378475573041168 5.8888227498700871 0
          4.0366758776535399 5.8966121233162347 0
          4.0364109887036941 5.9044850255544699 0
          4.035834717131463 5.9123416410486085 0
          4.0353273289085507 5.9202029893481969 0
          4.0348949804543377 5.9280688068885867 0
          4.0345434901796891 5.9359386395588318 0
          4.0342919759103522 5.9438122767571047 0
          4.0341461030932404 5.9516885563661832 0
          4.0341114068926425 5.9595660887758806 0
          4.0341932772414815 5.9674432520007903 0
          4.0344104788616724 5.9753178128772211 0
          4.0347680353495097 5.9831872180245824 0
          4.03528445287842 5.991047751659746 0
          4.0359642524286423 5.9988957992975394 0
          4.0368116706709003 6.0067274767379484 0
          4.0378309152161735 6.014538605875658 0
          4.0390255973102684 6.0223247885066638 0
          4.0403989899770174 6.0300813985790382 0
          4.0419540125428997 6.0378036006147546 0
          4.043693216390909 6.0454863701442418 0
          4.0456187722532349 6.0531245160057932 0
          4.0477324593215682 6.0607127043236595 0
          4.0500356560509001 6.0682454840567477 0
          4.0525293329868299 6.0757173138867904 0
          4.0552140476413685 6.0831225902666111 0
          4.0580899416893441 6.0904556763491797 0
          4.0611567403251811 6.0977109316446159 0
          4.0644139972291793 6.1048826313814955 0
          4.0678606064637268 6.1119652052740872 0
          4.0714826251968894 6.1189596359069061 0
          4.0752784787011462 6.1258612031209125 0
          4.0792462362644315 6.1326653216264626 0
          4.0833836179435892 6.1393675701587869 0
          4.0876882289018726 6.1459635731288307 0
          4.0921571303128577 6.1524493002401597 0
          4.096787077801336 6.1588209613041798 0
          4.1015745386365881 6.1650750301841111 0
          4.1065051611929437 6.1712167648347283 0
          4.1115754847899293 6.1772435781030577 0
          4.116781638736362 6.1831533390037219 0
          4.1221195550979139 6.188944241793358 0
          4.1275849868435612 6.1946148237306256 0
          4.1331736966193606 6.2001638101751047 0
          4.1388811261023619 6.2055904679926419 0
          4.1447025974951135 6.2108944511985715 0
          4.1506247147264199 6.2160856737582124 0
          4.1566429994952312 6.2211649432134504 0
          4.1627530507811583 6.2261332873982296 0
          4.1689502563648784 6.2309923245511971 0
          4.1752299578304735 6.2357441005989029 0
          4.1815874605805865 6.2403911020488225 0
          4.1880180422431552 6.2449362691934835 0
          4.194516959093427 6.2493830099626635 0
          4.201086668606556 6.2537243015718387 0
          4.2077220776903799 6.2579643248827805 0
          4.2144181014512307 6.262107798482381 0
          4.2211696647455366 6.2661599924770206 0
          4.2279717013379106 6.2701267411100812 0
          4.2348258092472353 6.2740026969649385 0
          4.2417265285454988 6.277794943246759 0
          4.2486751168169663 6.2814986722177091 0
          4.2556658598637105 6.2851221633716889 0
          4.262693178277595 6.288674197102929 0
          4.2697577723161526 6.2921515453075383 0
          4.2768380436778086 6.2955969427262577 0
          4.2839267134291434 6.2990251535418595 0
          4.2910163508854158 6.3024515329810624 0
          4.2981063561317852 6.3058773781728368 0
          4.3051889045475082 6.3093188900580701 0
          4.3122621417570963 6.3127798396949242 0
          4.3193153200139545 6.3162818762498993 0
          4.3263421836424296 6.3198368670484184 0
          4.3333330478751417 6.3234626392648101 0
          4.3402793511184949 6.3271736286665732 0
          4.3471991545132429 6.3309345235635535 0
        </DataArray>
      </Points>
      <Cells>
        <DataArray type="Int32" Name="connectivity" format="ascii">
          0 1 1 2 2 3 3 4 4 5 5 6 6 7 7 8 8 9 9 10 10 11 11 12 12 13 13 14 14 15 15 16 16 17 17 18 18 19 19 20 20 21 21 22 22 23 23 24 24 25 25 26 26 27 27 28 28 29 29 30 30 31 31 32 32 33 33 34 34 35 35 36 36 37 37 38 38 39 39 40 40 41 41 42 42 43 43 44 44 45 45 46 46 47 47 48 48 49 49 50 50 51 51 52 52 53 53 54 54 55 55 56 56 57 57 58 58 59 59 60 60 61 61 62 62 63 63 64 64 65 65 66 66 67 67 68 68 69 69 70 70 71 71 72 72 73 73 74 74 75 75 76 76 77 77 78 78 79 79 80 80 81 81 82 82 83 83 84 84 85 85 86 86 87 87 88 88 89 89 90 90 91 91 92 92 93 93 94 94 95 95 96 96 97 97 98 98 99 99 100 100 101 101 102 102 103 103 104 104 105 105 106 106 107 107 108 108 109 109 110 110 111 111 112 112 113 113 114 114 115 115 116 116 117 117 118 118 119 119 120 120 121 121 122 122 123 123 124 124 125 125 126 126 127 
        </DataArray>
        <DataArray type="Int32" Name="offsets" format="ascii">
          2 4 6 8 10 12 14 16 18 20 22 24 26 28 30 32 34 36 38 40 42 44 46 48 50 52 54 56 58 60 62 64 66 68 70 72 74 76 78 80 82 84 86 88 90 92 94 96 98 100 102 104 106 108 110 112 114 116 118 120 122 124 126 128 130 132 134 136 138 140 142 144 146 148 150 152 154 156 158 160 162 164 166 168 170 172 174 176 178 180 182 184 186 188 190 192 194 196 198 200 202 204 206 208 210 212 214 216 218 220 222 224 226 228 230 232 234 236 238 240 242 244 246 248 250 252 254 
        </DataArray>
        <DataArray type="Int32" Name="types" format="ascii">
          3 3 3 3 3 3 3 3 3 3 3 3 3 3 3 3 3 3 3 3 3 3 3 3 3 3 3 3 3 3 3 3 3 3 3 3 3 3 3 3 3 3 3 3 3 3 3 3 3 3 3 3 3 3 3 3 3 3 3 3 3 3 3 3 3 3 3 3 3 3 3 3 3 3 3 3 3 3 3 3 3 3 3 3 3 3 3 3 3 3 3 3 3 3 3 3 3 3 3 3 3 3 3 3 3 3 3 3 3 3 3 3 3 3 3 3 3 3 3 3 3 3 3 3 3 3 3         </DataArray>
      </Cells>
    </Piece>
  </UnstructuredGrid>
</VTKFile>
