<?xml version="1.0"?>
<VTKFile type="UnstructuredGrid" version="0.1" byte_order="LittleEndian">
  <UnstructuredGrid>
    <Piece NumberOfPoints="128" NumberOfCells="127">
      <PointData Scalars="W">
        <DataArray type="Float32" Name="W" NumberOfComponents="2">
          0 0 0.13977752713969879 -0.26557026161764347 0.21270612578061332 -0.40707937162001095 0.27231622915085202 -0.5264630171729705 0.32401660676365374 -0.63438078134639009 0.36993729603366871 -0.73522528695108869 0.41122711213319602 -0.83151128351322467 0.44856815397725053 -0.92486807409724847 0.48237386701511403 -1.0164229518662398 0.51284445654644029 -1.1068976555601358 0.54008923916666018 -1.1968501499125608 0.56413580263127094 -1.2866881401432051 0.58494869442943054 -1.3767009775099126 0.60242343988684133 -1.4670320346235228 0.61641227401007215 -1.5577203491491451 0.62675204361564829 -1.6487550129548441 0.63329507658611006 -1.7401518643992138 0.63586177435871849 -1.8318246048405784 0.63427254767272478 -1.9236548902253334 0.6283670567298405 -2.0155464706307042 0.61797452186820068 -2.1073313546500114 0.60292641819642234 -2.1987897988166054 0.58307538071016607 -2.2897044315469328 0.55829390381273425 -2.3798569194182084 0.52845871855716442 -2.4689527893897663 0.49348859646219906 -2.5567784065131294 0.45330625029732174 -2.6430300881056636 0.40784906831850043 -2.7273103594382322 0.35709880002428757 -2.8092754944518172 0.30110354451833649 -2.8889479940477161 0.23985199028441248 -2.9656443748203429 0.1734203673127572 -3.0390278922313545 0.10191639740721999 -3.1087316646078182 0.025484008970649265 -3.1744125722716618 -0.055698121423547998 -3.235707315208125 -0.14141521604050625 -3.2922812883999759 -0.23141012094293653 -3.3437140906007627 -0.32539521257510035 -3.3897493421217533 -0.42305615400520136 -3.4301432127627023 -0.52402728135522958 -3.464513253167306 -0.62790812204053625 -3.4925576149596074 -0.73426585653996834 -3.5140198540597471 0.57602086603497571 2.7131136556972377 0.80220011064924279 4.3907443085281788 0.87270232848505003 6.2750554669081149 0.55595274799117134 6.2682047121738709 0.24414918637172631 6.2455118625099404 -0.061967671161707961 6.207224021076736 -0.36166544304129394 6.1540864793181047 -0.65423696315008506 6.0864206323597303 -0.93903696820543581 6.0050542006271703 -1.2154062618502639 5.9103751652350507 -1.4828031542419129 5.803288492568166 -1.7406315415579581 5.6842468168343752 -1.9883216149259544 5.5538347291887904 -1.7380887062255437 4.286348758129515 -1.856073008907084 4.1416000036726652 -1.9822850560089751 4.0325499168069738 -2.0584465219206494 3.843055432002608 -2.1167878631469574 3.6501439952006614 -2.1281946570625658 3.4099193473394309 -2.1454957792456364 3.2112997475161968 -2.1818727187142604 3.0626162397087882 -2.2077023418565731 2.9148557051743436 -2.1362855448201401 2.663151876885939 -2.1774861823331855 2.5707276372638401 -2.1658899595927315 2.425876162781007 -2.1446735798024017 2.2838571830939078 -2.1707401637500134 2.2009504059883995 -2.1917462091352515 2.1173593631002157 -2.1524031809124482 1.9836203121551037 -2.1650706476684798 1.9055556721289744 -2.1136607429995102 1.7784996369566783 -2.1193178578227316 1.7064902479926209 -2.0592659509193001 1.5881829667400829 -2.0590628012591248 1.5223139287550203 -2.0573498417249847 1.4582927392202381 -1.9834363188745217 1.3489436105669612 -1.9775712507740111 1.2914179151923311 -1.8983292751670611 1.1911629253090847 -1.8895477932222455 1.1400289305457041 -1.8804761876210521 1.0907652639761707 -1.7913973010238244 0.99964266302019411 -1.7809641651401478 0.95669505923059039 -1.7710130216084023 0.91557243840748259 -1.6769257475943056 0.83482702767094907 -1.6696990261975595 0.80089096817197181 -1.6609885332854009 0.76730040204852024 -1.5642786190623919 0.69632330026564526 -1.5573922141004388 0.66837461812477983 -1.5521911949189411 0.64185961020329652 -1.457910478594665 0.58114741378940105 -1.4560279366199946 0.55970780161327383 -1.4567132924024673 0.53957213834159512 -1.3616971761278096 0.48617075880005622 -1.3671951937861953 0.47065382568648556 -1.3788763641325008 0.45714254692651402 -1.2884258099649362 0.41141851134308216 -1.3038309309735272 0.40102236151420834 -1.3233596793027551 0.39143023151975836 -1.2399693230188844 0.35263760194379024 -1.2711301836011646 0.34743875101001542 -1.1928241735297824 0.31319510045739635 -1.2309699770062614 0.31027861744934826 -1.27823126538598 0.30839418961382259 -1.2123861530101199 0.27961264710908718 -1.2690694194996832 0.27933082310388996 -1.2156394375885597 0.25484505241389299 -1.2869899869259458 0.25631933293702103 -1.2414242066717172 0.23418255071736477 -1.3332278959030137 0.23729916510891358 -1.3013602704902265 0.21752050021805097 -1.2749581039645899 0.19966295794009925 -1.3978916921054727 0.20369711003736207 -1.3899776796359355 0.18683511446728102 -1.3938539414390361 0.17169627061599324 -1.4073845603773101 0.15751702008129551 -1.2537742882271774 0.1269621990869097 -1.1071880747189549 0.10168079837917379 -0.76945777680759375 0.064912066629993895 0.051547175609968958 -0.0042013173911684487 0.25025083577013629 -0.020696956216243727 1.0102893828607791 -0.088626421826522209 2.9787002908478275 -0.30876310451351802 5.4025386152012738 -0.74240957754181136 8.920137412654956 -1.7512352846705708 4.0684508614127486 -1.0223768958221426 0 0
        </DataArray>
        <DataArray type="Float32" Name="u" NumberOfComponents="1">
          0 0.007874015748031496 0.015748031496062992 0.023622047244094488 0.031496062992125984 0.03937007874015748 0.047244094488188976 0.055118110236220472 0.062992125984251968 0.070866141732283464 0.07874015748031496 0.086614173228346455 0.094488188976377951 0.10236220472440945 0.11023622047244094 0.11811023622047244 0.12598425196850394 0.13385826771653545 0.14173228346456693 0.14960629921259844 0.15748031496062992 0.16535433070866143 0.17322834645669291 0.18110236220472442 0.1889763779527559 0.19685039370078741 0.20472440944881889 0.2125984251968504 0.22047244094488189 0.2283464566929134 0.23622047244094488 0.24409448818897639 0.25196850393700787 0.25984251968503935 0.26771653543307089 0.27559055118110237 0.28346456692913385 0.29133858267716534 0.29921259842519687 0.30708661417322836 0.31496062992125984 0.32283464566929132 0.33070866141732286 0.33858267716535434 0.34645669291338582 0.3543307086614173 0.36220472440944884 0.37007874015748032 0.37795275590551181 0.38582677165354329 0.39370078740157483 0.40157480314960631 0.40944881889763779 0.41732283464566927 0.42519685039370081 0.43307086614173229 0.44094488188976377 0.44881889763779526 0.45669291338582679 0.46456692913385828 0.47244094488188976 0.48031496062992124 0.48818897637795278 0.49606299212598426 0.50393700787401574 0.51181102362204722 0.51968503937007871 0.52755905511811019 0.53543307086614178 0.54330708661417326 0.55118110236220474 0.55905511811023623 0.56692913385826771 0.57480314960629919 0.58267716535433067 0.59055118110236215 0.59842519685039375 0.60629921259842523 0.61417322834645671 0.62204724409448819 0.62992125984251968 0.63779527559055116 0.64566929133858264 0.65354330708661412 0.66141732283464572 0.6692913385826772 0.67716535433070868 0.68503937007874016 0.69291338582677164 0.70078740157480313 0.70866141732283461 0.71653543307086609 0.72440944881889768 0.73228346456692917 0.74015748031496065 0.74803149606299213 0.75590551181102361 0.76377952755905509 0.77165354330708658 0.77952755905511806 0.78740157480314965 0.79527559055118113 0.80314960629921262 0.8110236220472441 0.81889763779527558 0.82677165354330706 0.83464566929133854 0.84251968503937003 0.85039370078740162 0.8582677165354331 0.86614173228346458 0.87401574803149606 0.88188976377952755 0.88976377952755903 0.89763779527559051 0.90551181102362199 0.91338582677165359 0.92125984251968507 0.92913385826771655 0.93700787401574803 0.94488188976377951 0.952755905511811 0.96062992125984248 0.96850393700787396 0.97637795275590555 0.98425196850393704 0.99212598425196852 1
        </DataArray>
      </PointData>
      <CellData Scalars="P">
        <DataArray type="Float32" Name="P" NumberOfComponents="1">
          0.010845373010115117 0.032833479228223439 0.055490866014774209 0.079159071938250336 0.10418148116327434 0.1309076199105737 0.15969445875173816 0.19090620925190727 0.22491319762325582 0.26208881115235488 0.30280729610029133 0.34744070874399952 0.39635535945174449 0.44990671242834113 0.50843402039914698 0.57225550436332095 0.64166531966869855 0.71692716011414259 0.79826930339730251 0.8858813680705977 0.97990827990910923 1.0804446560423404 1.1875311425121116 1.301151000703223 1.4212240770789453 1.5476071245636249 1.6800878425953651 1.8183787823391093 1.9621178053417749 2.1108828740218955 2.2641608310249901 2.4213621415780016 2.581820056956504 2.7447927400854897 2.9094640482846525 3.0749470949945072 3.240283508547249 3.4044541513649356 3.566383574705994 3.7249390462611016 3.8789395778675511 4.0271639249627231 3.9375532756767759 3.7903984499987899 3.6000380135833461 3.4084150907185671 3.2151189847784885 3.019794645231435 2.8221297455410648 2.6218745873405438 2.418827375298827 2.212854434728186 2.0038730953536255 1.7918721993735447 1.5769098368476271 1.4114935894757412 1.2468728342125328 1.0816045820281561 0.91994231911516944 0.76261382235624064 0.61275564170904884 0.46892686951387097 0.32902278473978264 0.19351052383568693 0.069026920371133033 -0.053026073620267004 -0.16909606973879118 -0.27881789021603193 -0.38537028181385419 -0.48837523300995767 -0.58429260632373448 -0.67626053460065938 -0.76079688416048241 -0.84108660386737588 -0.91384469082063891 -0.98214819871534009 -1.0458754695323622 -1.1019126468948 -1.1533190176060619 -1.197268760088146 -1.2366165387856487 -1.2713261258855453 -1.2988961210639471 -1.3219799496972655 -1.3405821580399391 -1.3526987499781873 -1.360629640007154 -1.364339945834163 -1.3624047242684756 -1.356550313285056 -1.3468106931642687 -1.3324290875749933 -1.3144731915252654 -1.2929687500515452 -1.2678328086758401 -1.2394410903973196 -1.2077785741346021 -1.1735008087412466 -1.1361807118049032 -1.0957700052936215 -1.0536684337030255 -1.0085454920013013 -0.962349296413751 -0.91319731734666632 -0.86087356157744832 -0.80806405970084405 -0.75204338323525222 -0.69580977916022868 -0.63617565787072938 -0.57666199430896703 -0.51341560671060182 -0.45044356144798225 -0.3879131929760517 -0.32138183391715602 -0.25538475705477176 -0.18994246219204075 -0.12518072597241053 -0.066524468369116657 -0.013771016463602747 0.028192583562144817 0.048900377453263637 0.065880802922694867 0.070051800122241714 0.048338581264454873 0.010153722345740765 -0.028997594433906322 -0.014925704581833501
        </DataArray>
      </CellData>
      <Points>
        <DataArray type="Float32" NumberOfComponents="3" format="ascii">
          4.3259577031041152 9.9689642867632848 0
          4.3329213836203921 9.9726399928661511 0
          4.3398937267927922 9.9762992305144547 0
          4.346879252260913 9.9799332245447534 0
          4.3538816545907251 9.9835345721033484 0
          4.360904138342061 9.9870965815551909 0
          4.3679495500106418 9.9906130000530986 0
          4.3750204491866418 9.9940778575701366 0
          4.3821191508002073 9.9974853658455221 0
          4.3892477507229337 10.000829848463825 0
          4.3964081381557527 10.004105696084141 0
          4.4036020023867364 10.007307331826819 0
          4.4108308344851501 10.010429185979024 0
          4.4180959250896192 10.013465678040477 0
          4.425398357918918 10.016411207821799 0
          4.4327390006004164 10.01926015301323 0
          4.4401184945459171 10.022006869851356 0
          4.4475372457885829 10.024645692128695 0
          4.4549954138414591 10.027170936537027 0
          4.4624929005575531 10.029576909998609 0
          4.4700293401842384 10.031857915628446 0
          4.4776040887711588 10.0340082631455 0
          4.4852162137186573 10.03602228249334 0
          4.4928644846387691 10.03789433731443 0
          4.5005473654481465 10.039618838484673 0
          4.5082630067242127 10.041190262369176 0
          4.5160092406684003 10.04260316406647 0
          4.5237835763142478 10.043852196236069 0
          4.5315831956458839 10.044932133741415 0
          4.539404952467387 10.045837894960542 0
          4.5472453753863 10.046564540390596 0
          4.5551006671141003 10.047107315023567 0
          4.5629667091946891 10.047461669223903 0
          4.5708390686857872 10.047623281474385 0
          4.5787130070855406 10.047588079648351 0
          4.5865834914138812 10.047352263532607 0
          4.5944452075325328 10.046912325570625 0
          4.6022925760926485 10.04626507692435 0
          4.6101197703718775 10.045407663365754 0
          4.6179207357678989 10.044337580389314 0
          4.6256892124744242 10.043052696917698 0
          4.6334187603154708 10.041551274008874 0
          4.641102785585181 10.039831980746694 0
          4.6488226512820088 10.038280877030967 0
          4.6565925912319184 10.037001960070713 0
          4.6644166693318656 10.036112142087742 0
          4.6722752463460457 10.035611001790709 0
          4.6801489895419301 10.035497135802997 0
          4.6880189185857759 10.035768173984215 0
          4.6958664509328454 10.036420825639487 0
          4.7036734456411189 10.037450899439001 0
          4.711422243357978 10.038853354730771 0
          4.7190957071581874 10.040622325578971 0
          4.7266772561091228 10.042751176857923 0
          4.7341509021981034 10.045232532288583 0
          4.7415012856338414 10.04805831065118 0
          4.7487438892752847 10.051149901098958 0
          4.7558713960217247 10.054498327645105 0
          4.7628759796348881 10.058096828614294 0
          4.7697529151764773 10.061933652377055 0
          4.7764985826810289 10.065996835007921 0
          4.7831122712945211 10.070271477191566 0
          4.7895929059413618 10.074745260000869 0
          4.7959382301198046 10.079408961975043 0
          4.8021466413913272 10.084253418737884 0
          4.8082225646906567 10.089263017233691 0
          4.8141634460544944 10.094432025429654 0
          4.8199700039473807 10.099751458693943 0
          4.8256435534506528 10.105212507924239 0
          4.8311824792076337 10.110810031255465 0
          4.8365854795613856 10.116538844351973 0
          4.8418549936878463 10.122390651478572 0
          4.846990237049976 10.128360610974507 0
          4.8519943971780544 10.134440841459208 0
          4.8568671243048991 10.140626876763692 0
          4.8616121419877985 10.146911378059231 0
          4.8662294639134531 10.153290259971431 0
          4.870719197366828 10.159759551732403 0
          4.8750859255273067 10.166312470035614 0
          4.8793300132280049 10.172945446979449 0
          4.8834563742025709 10.179652263357106 0
          4.8874655542032901 10.186429747747145 0
          4.8913581169598759 10.193274844758502 0
          4.8951395862531299 10.200181901726515 0
          4.8988106103181606 10.20714825512672 0
          4.9023718074951876 10.214171354679985 0
          4.9058290122279198 10.221246191666227 0
          4.9091826740230218 10.228370661783348 0
          4.9124333343543318 10.235542682212358 0
          4.9155869903726686 10.242757850590788 0
          4.9186440705106333 10.25001443434844 0
          4.9216048986874323 10.257310789956682 0
          4.9244753215216575 10.26464315243045 0
          4.9272554572160221 10.272010193461494 0
          4.9299452647378414 10.279410665776842 0
          4.9325506363327545 10.286841258719004 0
          4.9350712325914987 10.294301012032202 0
          4.9375063307161211 10.301789090059545 0
          4.9398615398986045 10.30930265943921 0
          4.9421359064279935 10.316841078381941 0
          4.9443282208693704 10.324403755203665 0
          4.9464436546591752 10.331988287798636 0
          4.9484802770990246 10.339594357732082 0
          4.9504429443748936 10.347219846162716 0
          4.9523292925950129 10.354864577091213 0
          4.954136392559314 10.362528438793241 0
          4.9558683277140201 10.3702096529282 0
          4.9575215844309568 10.377908208157947 0
          4.9590994762392615 10.385622593944637 0
          4.9605975797194519 10.393352908897063 0
          4.9620187205322859 10.401097789741046 0
          4.9633572065041207 10.408857437985004 0
          4.9646150135068989 10.416630638252405 0
          4.9657937783365291 10.424416295498061 0
          4.9668858772545512 10.432214670126992 0
          4.9678917997886733 10.440024730693892 0
          4.9688113039154249 10.447845553876315 0
          4.9696435483839414 10.455676277279327 0
          4.9703980569970856 10.463515030400163 0
          4.9710839182262294 10.471360273040675 0
          4.9717220764613614 10.479209764079625 0
          4.9723634554279474 10.487059283690606 0
          4.9730203853154711 10.49490785936227 0
          4.9737400261033136 10.502751364783167 0
          4.9746445376451991 10.510576316896266 0
          4.9758844198317647 10.518356051762272 0
          4.9776778615923947 10.526026961399804 0
          4.9797236730813879 10.533634020456963 0
        </DataArray>
      </Points>
      <Cells>
        <DataArray type="Int32" Name="connectivity" format="ascii">
          0 1 1 2 2 3 3 4 4 5 5 6 6 7 7 8 8 9 9 10 10 11 11 12 12 13 13 14 14 15 15 16 16 17 17 18 18 19 19 20 20 21 21 22 22 23 23 24 24 25 25 26 26 27 27 28 28 29 29 30 30 31 31 32 32 33 33 34 34 35 35 36 36 37 37 38 38 39 39 40 40 41 41 42 42 43 43 44 44 45 45 46 46 47 47 48 48 49 49 50 50 51 51 52 52 53 53 54 54 55 55 56 56 57 57 58 58 59 59 60 60 61 61 62 62 63 63 64 64 65 65 66 66 67 67 68 68 69 69 70 70 71 71 72 72 73 73 74 74 75 75 76 76 77 77 78 78 79 79 80 80 81 81 82 82 83 83 84 84 85 85 86 86 87 87 88 88 89 89 90 90 91 91 92 92 93 93 94 94 95 95 96 96 97 97 98 98 99 99 100 100 101 101 102 102 103 103 104 104 105 105 106 106 107 107 108 108 109 109 110 110 111 111 112 112 113 113 114 114 115 115 116 116 117 117 118 118 119 119 120 120 121 121 122 122 123 123 124 124 125 125 126 126 127 
        </DataArray>
        <DataArray type="Int32" Name="offsets" format="ascii">
          2 4 6 8 10 12 14 16 18 20 22 24 26 28 30 32 34 36 38 40 42 44 46 48 50 52 54 56 58 60 62 64 66 68 70 72 74 76 78 80 82 84 86 88 90 92 94 96 98 100 102 104 106 108 110 112 114 116 118 120 122 124 126 128 130 132 134 136 138 140 142 144 146 148 150 152 154 156 158 160 162 164 166 168 170 172 174 176 178 180 182 184 186 188 190 192 194 196 198 200 202 204 206 208 210 212 214 216 218 220 222 224 226 228 230 232 234 236 238 240 242 244 246 248 250 252 254 
        </DataArray>
        <DataArray type="Int32" Name="types" format="ascii">
          3 3 3 3 3 3 3 3 3 3 3 3 3 3 3 3 3 3 3 3 3 3 3 3 3 3 3 3 3 3 3 3 3 3 3 3 3 3 3 3 3 3 3 3 3 3 3 3 3 3 3 3 3 3 3 3 3 3 3 3 3 3 3 3 3 3 3 3 3 3 3 3 3 3 3 3 3 3 3 3 3 3 3 3 3 3 3 3 3 3 3 3 3 3 3 3 3 3 3 3 3 3 3 3 3 3 3 3 3 3 3 3 3 3 3 3 3 3 3 3 3 3 3 3 3 3 3         </DataArray>
      </Cells>
    </Piece>
  </UnstructuredGrid>
</VTKFile>
