<?xml version="1.0"?>
<VTKFile type="UnstructuredGrid" version="0.1" byte_order="LittleEndian">
  <UnstructuredGrid>
    <Piece NumberOfPoints="128" NumberOfCells="127">
      <PointData Scalars="W">
        <DataArray type="Float32" Name="W" NumberOfComponents="2">
          0 0 0.32336175949592916 -0.093044157512027742 0.45124450641299246 -0.13139411249275806 0.53418390525911796 -0.15789061144192748 0.58976235104981856 -0.17728369940790442 0.62543726461205729 -0.19142268012311003 0.64550473316202994 -0.20126817641907932 0.65278490809009238 -0.20738305993951137 0.64928959521948559 -0.21012776208063144 0.63642951346858834 -0.20971659743146784 0.61534831893674835 -0.2063190057560112 0.58695170365640081 -0.20006612848098726 0.55195852197158635 -0.19106426984388766 0.5109107703345187 -0.17939472411439511 0.46422059256649101 -0.16512688546398244 0.41222935880330613 -0.14833732595645074 0.35530656811307054 -0.12914518661100347 0.29369342395608933 -0.10765560416634175 0.22759487587156504 -0.083991670856988387 0.15722935729356946 -0.058312707777399046 0.082751680524215346 -0.030785579643177779 0.0042673626993398649 -0.0015893357898974019 -0.07810907782841707 0.029063344001396919 -0.16425259504493162 0.060925938513758979 -0.25411593763531759 0.093751475243411153 -0.34757238425214709 0.12723495090912892 -0.44455743908390094 0.16106695914603153 -0.54509596054439569 0.19494336051110103 -0.64914587037443316 0.22850884088333445 -0.75630836935133572 0.26126093462060934 -0.86683370985261998 0.29290438550232351 -0.9806429340713958 0.32300494056418066 -1.0976617078290074 0.35111137907319362 -1.217765058239747 0.37674034529570849 -1.3408375075890102 0.39939925999241377 -1.4667169540515987 0.41857216673061348 -1.5953012577726764 0.43375364812393258 -1.7263045207501742 0.44438456708375601 -1.859392187848131 0.44990191479850117 -1.9943548048308239 0.44978422880087765 -2.1308687370540746 0.44349327461322946 -2.2685265617285095 0.43049264377468066 3.6047300370163304 -0.70413687440445394 3.3288702872934306 -0.74720633211385312 3.0507344835049857 -0.76801474475939202 2.7711034196588051 -0.76791420571128788 2.6282261485057981 -0.7913442469022558 2.4882439505117473 -0.80685026582122865 2.2113896280078418 -0.76507276610468045 2.0757287983877419 -0.76004415301904493 1.942350476277263 -0.74866738762454055 1.8114009340330601 -0.73145430120435262 1.6829851419963562 -0.70890709530474649 1.5571688366766401 -0.68151522317208801 1.5662962324208993 -0.71078966798883547 1.4428439077004878 -0.67760686647885082 1.4527704746754029 -0.70480527230707868 1.2104879079065984 -0.60483745348922113 0.96869662277003887 -0.4957154185510203 0.72668502281001701 -0.37878371644807302 0.48371507486158433 -0.25545482859221946 0.38107524735278808 -0.20313178428352194 0.13825966275006341 -0.074111205168396657 -0.10585057689859209 0.056758715864902505 -0.51138586983481138 0.27240230722725556 -0.61129337483767221 0.3217064636282741 -0.70868229203831901 0.3676699697436453 -0.97220144580998646 0.49524205354885203 -1.0720680066799815 0.53400219466830434 -1.1716509614137751 0.56927926083284175 -1.2687145334875691 0.59981817953651395 -1.3674551553888448 0.62744788473630819 -1.6405841959603078 0.72712751953513832 -1.7403223506281846 0.74130575098615026 -1.8393430369182433 0.75051608808843884 -1.9352063029898465 0.75374911665663258 -2.0321458132877703 0.7526506456087485 -2.1277037139524988 0.74618597225647842 -2.2216112229179581 0.73426925713033808 -2.5026566887929858 0.77329710433602294 -2.5921911137314901 0.74190599822429903 -2.6813704132204572 0.70533995552759166 -2.7674082054096409 0.66289041667057502 -2.8499353697864152 0.61466441162902063 -2.9284667242368174 0.56078886532559435 -3.0026134896286658 0.50146020305343375 -3.069405016815419 0.43658260681305633 -3.1334865947665338 0.36722512249878342 -3.1919105325880008 0.29326533153837098 -3.2442611099191452 0.21508274839349814 -3.290136125785093 0.13310629323934067 -3.3291860919481451 0.047813772522623463 -3.3609681724190912 -0.04027092311141689 -3.3824930317407862 -0.13043339858254657 -3.398829271639221 -0.22219065835244436 -3.4070430437701456 -0.31488988748926916 -3.4068095910202856 -0.40782445912638576 -3.397957017069726 -0.5002585258629102 -3.3803527871591141 -0.59142768088761299 -3.3510675377228343 -0.67992720426436659 -3.3155198259613599 -0.76596805398522116 -3.27091002080968 -0.84825721714611046 -3.2172606266640047 -0.92593694036020502 -3.1545061538927675 -0.99809964608204516 -3.0800261925065517 -1.062885211255526 -2.9993917793723419 -1.1212131653152628 -2.9098456538576682 -1.171308896984985 -2.8088317242416783 -1.2110737656592523 -2.8861000301472242 -1.3293476949155756 -2.7660475265597984 -1.357643158306467 -2.820394430715373 -1.4716936207867661 -2.6779627158813173 -1.4822173285979621 -2.713561967865608 -1.5897455859525917 -2.5452453024181554 -1.574970240778834 -2.5581393636890923 -1.6684632601906277 -2.3656991555316549 -1.6228250959191313 -2.3514549051544722 -1.6928268211960276 -2.3265298351059633 -1.7571076692332492 -2.0904811437064317 -1.6521995294505445 -2.0432416421555737 -1.6855000767317057 -1.2801183350806682 -1.0932166188067509 -1.146631610818843 -1.0045439405090046 -0.9602469950441137 -0.86024829930382352 -0.66724459761307897 -0.60822387920604404 -0.51411016798912956 -0.47461063219823207 -0.33505698063314954 -0.31215600904227453 -0.64874731561840293 -0.61087760837142446 0 0
        </DataArray>
        <DataArray type="Float32" Name="u" NumberOfComponents="1">
          0 0.007874015748031496 0.015748031496062992 0.023622047244094488 0.031496062992125984 0.03937007874015748 0.047244094488188976 0.055118110236220472 0.062992125984251968 0.070866141732283464 0.07874015748031496 0.086614173228346455 0.094488188976377951 0.10236220472440945 0.11023622047244094 0.11811023622047244 0.12598425196850394 0.13385826771653545 0.14173228346456693 0.14960629921259844 0.15748031496062992 0.16535433070866143 0.17322834645669291 0.18110236220472442 0.1889763779527559 0.19685039370078741 0.20472440944881889 0.2125984251968504 0.22047244094488189 0.2283464566929134 0.23622047244094488 0.24409448818897639 0.25196850393700787 0.25984251968503935 0.26771653543307089 0.27559055118110237 0.28346456692913385 0.29133858267716534 0.29921259842519687 0.30708661417322836 0.31496062992125984 0.32283464566929132 0.33070866141732286 0.33858267716535434 0.34645669291338582 0.3543307086614173 0.36220472440944884 0.37007874015748032 0.37795275590551181 0.38582677165354329 0.39370078740157483 0.40157480314960631 0.40944881889763779 0.41732283464566927 0.42519685039370081 0.43307086614173229 0.44094488188976377 0.44881889763779526 0.45669291338582679 0.46456692913385828 0.47244094488188976 0.48031496062992124 0.48818897637795278 0.49606299212598426 0.50393700787401574 0.51181102362204722 0.51968503937007871 0.52755905511811019 0.53543307086614178 0.54330708661417326 0.55118110236220474 0.55905511811023623 0.56692913385826771 0.57480314960629919 0.58267716535433067 0.59055118110236215 0.59842519685039375 0.60629921259842523 0.61417322834645671 0.62204724409448819 0.62992125984251968 0.63779527559055116 0.64566929133858264 0.65354330708661412 0.66141732283464572 0.6692913385826772 0.67716535433070868 0.68503937007874016 0.69291338582677164 0.70078740157480313 0.70866141732283461 0.71653543307086609 0.72440944881889768 0.73228346456692917 0.74015748031496065 0.74803149606299213 0.75590551181102361 0.76377952755905509 0.77165354330708658 0.77952755905511806 0.78740157480314965 0.79527559055118113 0.80314960629921262 0.8110236220472441 0.81889763779527558 0.82677165354330706 0.83464566929133854 0.84251968503937003 0.85039370078740162 0.8582677165354331 0.86614173228346458 0.87401574803149606 0.88188976377952755 0.88976377952755903 0.89763779527559051 0.90551181102362199 0.91338582677165359 0.92125984251968507 0.92913385826771655 0.93700787401574803 0.94488188976377951 0.952755905511811 0.96062992125984248 0.96850393700787396 0.97637795275590555 0.98425196850393704 0.99212598425196852 1
        </DataArray>
      </PointData>
      <CellData Scalars="P">
        <DataArray type="Float32" Name="P" NumberOfComponents="1">
          0.0035358217583830939 0.010936864007432255 0.018781963283225744 0.02696572259531024 0.03528882626753397 0.043507707302423405 0.051366237621115508 0.058618223665030368 0.065044286073168922 0.070465070754590811 0.074751721850435035 0.077834085069968098 0.079707224720675166 0.080436928086250137 0.080164285838724231 0.079108985987631733 0.077569887105191568 0.075926961844505897 0.0746413164405033 0.074252897163051557 0.075379127451722039 0.078712857888385404 0.085017608916092127 0.095121369154613236 0.10991340278703465 0.13033311259776592 0.15736443472953371 0.19203225327202408 0.2353894254842768 0.28848122857903058 0.35237664558029563 0.42813549155335573 0.51679581342929459 0.61935619952914123 0.73676221136695952 0.8698876037550094 1.019524890427826 1.1863528514777311 1.3709153067189863 1.573617784779876 1.7947009319852461 2.0342165828747594 1.6482050366304342 1.2827100455640101 0.94033473836895354 0.62346269259237352 0.3170368284092705 0.021841881000658404 -0.24333012987773631 -0.49538963411236037 -0.73375597751366184 -0.95795199364636408 -1.1675982692099025 -1.3624072339627429 -1.5603352994589403 -1.7428614368097672 -1.9279746783608349 -2.0805127510623169 -2.2001675624021795 -2.2867354184609043 -2.3401242003719243 -2.3796799627089307 -2.3866352663496508 -2.3614501556838006 -2.283807563233466 -2.1949592790001629 -2.0958058729332167 -1.9663967421184851 -1.8282300678396084 -1.6821160085573659 -1.5291562132211485 -1.369991885942188 -1.1867222047943407 -0.99965542940666408 -0.80981003546281838 -0.61844168084432294 -0.426384112257226 -0.23470500065866562 -0.044477638961277655 0.15823021560148637 0.35639492105157461 0.54911527033935648 0.73532283700365442 0.9139838706306247 1.0841009809677593 1.2447283907333306 1.3948557088970339 1.5337961210206186 1.6608031785701094 1.7752132915390828 1.8764536524684634 1.9640506113478771 2.0376334832755063 2.096898279071497 2.1417629024636189 2.1722079683844697 2.1883384398895149 2.1903876488781568 2.1787181543485241 2.1538433612970009 2.1163751355012539 2.0670603519526676 2.0067677187185846 1.936484842560287 1.8573796434033873 1.7705912109092685 1.6774144059646388 1.5793191348955888 1.4707617499312431 1.3597419669195954 1.2401839145326938 1.1211670069720903 0.99593400449190017 0.87473694501699029 0.75031433913601464 0.6335262076763577 0.51707182560623532 0.40261444610338487 0.30127215723019662 0.20539502850068805 0.14658124047724158 0.097192609097549579 0.05908002170485864 0.034631268511206584 0.018137424065072547 0.0088074837992447811 0.00045325780155906715
        </DataArray>
      </CellData>
      <Points>
        <DataArray type="Float32" NumberOfComponents="3" format="ascii">
          3.8121554360255296 8.5533674901762708 0
          3.8143229886837378 8.5609382426409848 0
          3.8165105903975904 8.5685032109473802 0
          3.8187261692448309 8.5760600089151744 0
          3.8209748665894478 8.5836069875714394 0
          3.8232601272381985 8.591142939748682 0
          3.8255841618471282 8.598666985058987 0
          3.8279482133272471 8.6061785101385002 0
          3.8303527317407213 8.6136771336271636 0
          3.8327974990769023 8.6211626837376301 0
          3.8352817167564912 8.6286351849050984 0
          3.8378040765749173 8.6360948472323109 0
          3.8403628168879353 8.6435420583175588 0
          3.8429557672090464 8.6509773766285587 0
          3.8455803818372307 8.6584015264314509 0
          3.8482337654295296 8.6658153934610862 0
          3.8509126941816336 8.6732200201491487 0
          3.8536136387487057 8.6806165982154084 0
          3.8563327792070905 8.6880064621299447 0
          3.8590660177639995 8.6953910814645461 0
          3.861808992298966 8.7027720510002702 0
          3.8645570859561773 8.7101510803697515 0
          3.8673054336760178 8.7175299829465196 0
          3.8700489292802711 8.724910662651542 0
          3.8727822332055437 8.7322950986639594 0
          3.8754997754087812 8.7396853301060666 0
          3.8781957631954445 8.7470834371324315 0
          3.8808641851850663 8.754491521747898 0
          3.883498809732254 8.761911688953667 0
          3.8860931874932105 8.7693460247217576 0
          3.888640676104405 8.7767965648468174 0
          3.8911344246154411 8.7842652766451792 0
          3.893567378328485 8.791754032035799 0
          3.8959322833465682 8.7992645795681934 0
          3.8982216942572068 8.8067985144562826 0
          3.9004279812231886 8.814357248037842 0
          3.9025433399602476 8.8219419757811455 0
          3.9045597979933562 8.8295536459407771 0
          3.9064692323033543 8.8371929248773764 0
          3.9082633899882313 8.8448601621309866 0
          3.9099339011658159 8.8525553580631247 0
          3.9114722989549953 8.8602781304506735 0
          3.9128700446522764 8.8680276811837118 0
          3.9144913149796725 8.8757335604966858 0
          3.9163190027410217 8.8833930951693851 0
          3.918335859439936 8.8910049924451364 0
          3.9205245437571006 8.8985692561963816 0
          3.9228761952622264 8.9060844346167709 0
          3.9253821332066132 8.9135495672730762 0
          3.9280251886666666 8.9209672425022077 0
          3.9307969490340984 8.9283377732410898 0
          3.9336891433724888 8.9356618660154687 0
          3.9366936514752373 8.942940589197395 0
          3.9398025103628811 8.9501753418611703 0
          3.9430079183480879 8.9573678234309373 0
          3.9463104425017201 8.9645162223859565 0
          3.9497024279151072 8.9716225969825185 0
          3.9531844913854028 8.9786852641238752 0
          3.9567416087006744 8.9857104204659439 0
          3.9603587860931682 8.9927048302752102 0
          3.9640210161656313 8.9996757420571072 0
          3.9677132321825033 9.0066308009753389 0
          3.9714290701715149 9.0135732521521135 0
          3.9751534732127678 9.0205110936436803 0
          3.9788713043216388 9.0274524382135226 0
          3.9825574162916126 9.0344106522769589 0
          3.9862056153908596 9.0413887939643551 0
          3.9898098640969004 9.0483897142219263 0
          3.9933538230554819 9.0554213214390877 0
          3.9968313014105621 9.0624860199367401 0
          4.0002361258951842 9.0695859980147606 0
          4.0035622794607626 9.076723150170487 0
          4.0068036410546952 9.0838991904492801 0
          4.0099432764115015 9.0911202981962784 0
          4.0129750028607107 9.0983873535973405 0
          4.0158926821755765 9.1057009288017721 0
          4.0186903718533724 9.113061225362646 0
          4.0213620626012734 9.120468176245291 0
          4.0239018307301686 9.1279213817016149 0
          4.0263038548138432 9.1354201039530434 0
          4.0285507104629614 9.1429667629204747 0
          4.0306368474213805 9.1505594137356709 0
          4.0325567373352822 9.1581957906899945 0
          4.0343050465076216 9.1658732633190123 0
          4.0358766587767461 9.1735888430400898 0
          4.0372667055909313 9.1813391910230457 0
          4.0384705901058906 9.1891206303691213 0
          4.0394841713581471 9.1969291401656648 0
          4.0403034762508137 9.2047604217716756 0
          4.0409248823040356 9.2126098912272969 0
          4.0413451434229239 9.2204727027830415 0
          4.0415614148272434 9.2283437754919788 0
          4.0415712747128252 9.2362178228330691 0
          4.0413727517005142 9.2440893851910246 0
          4.0409645101723131 9.2519528741255819 0
          4.0403455360055327 9.2598026023570199 0
          4.0395153184658792 9.2676328242232913 0
          4.0384738703352339 9.2754377794905309 0
          4.0372217385617386 9.2832117389769966 0
          4.0357600124692308 9.2909490519487754 0
          4.0340905053877361 9.2986442331768799 0
          4.0322154186672314 9.3062919499342538 0
          4.0301375152588435 9.3138871021358121 0
          4.0278601183118576 9.3214248755285709 0
          4.0253871152277609 9.3289007979717731 0
          4.0227231201545672 9.3363108547310443 0
          4.0198731285140035 9.3436514315826749 0
          4.0168426879752515 9.3509194248168619 0
          4.0136380569796577 9.3581123713302095 0
          4.0102544362295927 9.365222944584648 0
          4.0066992631163707 9.3722493931890014 0
          4.0029691570141734 9.3791846533094159 0
          3.9990729411676482 9.3860280760750694 0
          3.9950083942091803 9.3927730031023469 0
          3.9907859424314838 9.3994203548767405 0
          3.9864047686461688 9.4059643444135137 0
          3.9818767927415983 9.4124078069649304 0
          3.9772028762260523 9.4187464135699006 0
          3.9723845394017623 9.4249761910568264 0
          3.9674364017618866 9.4311036527458132 0
          3.9623613617848865 9.4371267494493765 0
          3.9572067563624813 9.4430822064834246 0
          3.9519808384950248 9.4489755429336544 0
          3.9466951418057881 9.4548157307755467 0
          3.9413678173325746 9.4606184267475246 0
          3.9360083246043809 9.4663919582328937 0
          3.9306277226217867 9.4721464551019796 0
          3.9252064316937116 9.4778634821700329 0
        </DataArray>
      </Points>
      <Cells>
        <DataArray type="Int32" Name="connectivity" format="ascii">
          0 1 1 2 2 3 3 4 4 5 5 6 6 7 7 8 8 9 9 10 10 11 11 12 12 13 13 14 14 15 15 16 16 17 17 18 18 19 19 20 20 21 21 22 22 23 23 24 24 25 25 26 26 27 27 28 28 29 29 30 30 31 31 32 32 33 33 34 34 35 35 36 36 37 37 38 38 39 39 40 40 41 41 42 42 43 43 44 44 45 45 46 46 47 47 48 48 49 49 50 50 51 51 52 52 53 53 54 54 55 55 56 56 57 57 58 58 59 59 60 60 61 61 62 62 63 63 64 64 65 65 66 66 67 67 68 68 69 69 70 70 71 71 72 72 73 73 74 74 75 75 76 76 77 77 78 78 79 79 80 80 81 81 82 82 83 83 84 84 85 85 86 86 87 87 88 88 89 89 90 90 91 91 92 92 93 93 94 94 95 95 96 96 97 97 98 98 99 99 100 100 101 101 102 102 103 103 104 104 105 105 106 106 107 107 108 108 109 109 110 110 111 111 112 112 113 113 114 114 115 115 116 116 117 117 118 118 119 119 120 120 121 121 122 122 123 123 124 124 125 125 126 126 127 
        </DataArray>
        <DataArray type="Int32" Name="offsets" format="ascii">
          2 4 6 8 10 12 14 16 18 20 22 24 26 28 30 32 34 36 38 40 42 44 46 48 50 52 54 56 58 60 62 64 66 68 70 72 74 76 78 80 82 84 86 88 90 92 94 96 98 100 102 104 106 108 110 112 114 116 118 120 122 124 126 128 130 132 134 136 138 140 142 144 146 148 150 152 154 156 158 160 162 164 166 168 170 172 174 176 178 180 182 184 186 188 190 192 194 196 198 200 202 204 206 208 210 212 214 216 218 220 222 224 226 228 230 232 234 236 238 240 242 244 246 248 250 252 254 
        </DataArray>
        <DataArray type="Int32" Name="types" format="ascii">
          3 3 3 3 3 3 3 3 3 3 3 3 3 3 3 3 3 3 3 3 3 3 3 3 3 3 3 3 3 3 3 3 3 3 3 3 3 3 3 3 3 3 3 3 3 3 3 3 3 3 3 3 3 3 3 3 3 3 3 3 3 3 3 3 3 3 3 3 3 3 3 3 3 3 3 3 3 3 3 3 3 3 3 3 3 3 3 3 3 3 3 3 3 3 3 3 3 3 3 3 3 3 3 3 3 3 3 3 3 3 3 3 3 3 3 3 3 3 3 3 3 3 3 3 3 3 3         </DataArray>
      </Cells>
    </Piece>
  </UnstructuredGrid>
</VTKFile>
