<?xml version="1.0"?>
<VTKFile type="UnstructuredGrid" version="0.1" byte_order="LittleEndian">
  <UnstructuredGrid>
    <Piece NumberOfPoints="128" NumberOfCells="127">
      <PointData Scalars="W">
        <DataArray type="Float32" Name="W" NumberOfComponents="2">
          0 0 0.1782100258260938 0.6529449529544229 0.27785233709439189 1.046516607122189 0.34302396251711437 1.3445824935542561 0.38618790751255683 1.5927857942062167 0.4124845665412023 1.8096375155131481 0.42458270601798725 2.0044685775783995 0.42408267479733108 2.1825996259736899 0.41205617715939719 2.3473339586045574 0.38929788701556856 2.5009344557769451 0.35641067628789785 2.6448965982748276 0.31388534069438068 2.7802561745278349 0.26214041276597688 2.9077449689517096 0.20154811147459117 3.0279373692272111 0.13243989313899537 3.1412916111999651 0.055108979980509711 3.2481232022809574 -0.030178699885868989 3.3485695099734287 -0.12317318446904577 3.442749300300985 -0.22364220537272683 3.5307334144429992 -0.33136227601855178 3.6124775144390555 -0.44611811165265747 3.6879266590539714 -0.56770416183942995 3.7570112900966057 -0.69591568522484182 3.8195959625472882 -0.83054106347850754 3.8754850054077421 -0.97138087324706734 3.9245291851810125 -1.118206456296106 3.9664474322571892 -1.2707919925777937 4.0009981395950662 -1.4289286689430303 4.0279907214107364 -1.5923768475354163 4.047136099190106 -1.760728334415101 4.057789752802849 -1.9338139657429758 4.0599530179996028 -2.1113253728895782 4.0532712799261486 -2.2929306701259438 4.0373844206095111 -2.4782603309420423 4.011908799618392 -2.6669215955689904 3.9764708803372621 -2.8584739778142279 3.9306743075741211 -3.052496074399857 3.8741961372996494 -3.2484302627641832 3.8065853405272567 -3.4456777774399723 3.727423005167283 -3.6436904231000113 3.6364108788483644 -3.8418506550969695 3.5332251484017334 -4.0394660069540631 3.4175320056871277 2.1336559584546624 -1.7691286075382227 1.9972030808555556 -1.7291286726339186 1.9104599190157074 -1.7239131444790585 1.7774824883835878 -1.6687113857621325 1.6472532619011433 -1.6053037161818529 1.5691274473905499 -1.5847077070415456 1.492834668200528 -1.5607076610802404 1.3722297391942229 -1.4827184805858276 1.3028897525731311 -1.4527180789641361 1.1894843421159622 -1.3664709526400427 1.1274300405998068 -1.3324116366086829 1.0682784369772849 -1.2976040999165241 1.0562968204864776 -1.3183145603436384 0.86506346064227158 -1.1070161028590844 -10.784491062497757 12.24478763827228 1.2435289561604892 -1.2585586171365286 1.1897641660469027 -1.2376676612102093 1.1790489367818668 -1.2602728042968723 1.1285498695015757 -1.2391515506708086 1.0803452630253618 -1.2176683000064348 1.0339841697912724 -1.1954977761153003 0.99040349020217555 -1.1739167745385797 0.91068377767503939 -1.1053789805016496 0.87228502349711834 -1.0830766402976695 0.83660191540827167 -1.0620439583259418 0.80262286620054402 -1.0412126845191945 0.7707942123958329 -1.021327881832597 0.74106190844455544 -1.0025144062918632 0.7488687914923009 -1.0344211745698813 0.72223164999665579 -1.018804569758661 0.69754506561350593 -1.0045601957065768 0.67475902356121609 -0.99180457234800523 0.65380484184155874 -0.98062249471858642 0.63461672840456651 -0.97109742382017794 0.61712814548831207 -0.96330676804096671 0.60126546801969949 -0.95731211098873847 0.58696967882230977 -0.95319407107300735 0.5741645058815612 -0.95100252426281473 0.5925495074338728 -1.001618475762452 0.58159444746891997 -1.0039503038417052 0.57152837419173386 -1.0076717918656113 0.56303875957063487 -1.0141653396373522 0.55565301621575836 -1.0228033067996818 0.54928878538517378 -1.0336253137525713 0.56987927544873507 -1.0973416615460385 0.56432190341125177 -1.1131280421985477 0.55917605817358884 -1.1305339811254322 0.55501368020001618 -1.1509291341392858 0.55139410859521254 -1.173683851159389 0.57085244537985924 -1.2490546483876188 0.56692648924387423 -1.2771333380416652 0.56290388612153841 -1.3070193308044167 0.55924603935973416 -1.3400819895080542 0.57518672686579952 -1.4252422637003046 0.57009950274731358 -1.464006604500363 0.56464885367772455 -1.5054676515210661 0.55869090724415416 -1.549701440772546 0.55207458395367293 -1.5967967237340577 0.56046732639028585 -1.6958677598130412 0.55043981318017288 -1.7487824256258169 0.53939690192455125 -1.8055679966392892 0.5269092150458643 -1.865711406820231 0.51294074434483172 -1.9301123477513062 0.49687733744820045 -1.997639424204019 0.47865046596834793 -2.0692459644389607 0.45796534803577488 -2.145273243019775 0.43448769997706682 -2.2261334351064148 0.40783288280127639 -2.312323404636321 0.37015492296761665 -2.3542659869295446 0.33771542225577456 -2.4529163821485302 0.30070241681286497 -2.5601011841384276 0.25359456757008486 -2.6225151728815601 0.20700463758708568 -2.7484847789263256 0.15072512478452668 -2.8330583625473436 -0.3087598511404584 4.9979814369185327 -0.55671416177967348 5.397481333072486 -0.86328277675836096 5.8180676183894091 -1.2011567565027097 6.0850736988224483 -1.5940354438737494 6.37086802048713 -2.0082524507764568 6.5390485939652283 -2.7148969560543699 7.3096800729468887 -2.8685223702217644 6.5215123457094855 -2.8637654040245395 5.6732594796959726 -2.5512116669966391 4.5294307633425355 -0.46097980536820515 0.77432795570557522 0 0
        </DataArray>
        <DataArray type="Float32" Name="u" NumberOfComponents="1">
          0 0.007874015748031496 0.015748031496062992 0.023622047244094488 0.031496062992125984 0.03937007874015748 0.047244094488188976 0.055118110236220472 0.062992125984251968 0.070866141732283464 0.07874015748031496 0.086614173228346455 0.094488188976377951 0.10236220472440945 0.11023622047244094 0.11811023622047244 0.12598425196850394 0.13385826771653545 0.14173228346456693 0.14960629921259844 0.15748031496062992 0.16535433070866143 0.17322834645669291 0.18110236220472442 0.1889763779527559 0.19685039370078741 0.20472440944881889 0.2125984251968504 0.22047244094488189 0.2283464566929134 0.23622047244094488 0.24409448818897639 0.25196850393700787 0.25984251968503935 0.26771653543307089 0.27559055118110237 0.28346456692913385 0.29133858267716534 0.29921259842519687 0.30708661417322836 0.31496062992125984 0.32283464566929132 0.33070866141732286 0.33858267716535434 0.34645669291338582 0.3543307086614173 0.36220472440944884 0.37007874015748032 0.37795275590551181 0.38582677165354329 0.39370078740157483 0.40157480314960631 0.40944881889763779 0.41732283464566927 0.42519685039370081 0.43307086614173229 0.44094488188976377 0.44881889763779526 0.45669291338582679 0.46456692913385828 0.47244094488188976 0.48031496062992124 0.48818897637795278 0.49606299212598426 0.50393700787401574 0.51181102362204722 0.51968503937007871 0.52755905511811019 0.53543307086614178 0.54330708661417326 0.55118110236220474 0.55905511811023623 0.56692913385826771 0.57480314960629919 0.58267716535433067 0.59055118110236215 0.59842519685039375 0.60629921259842523 0.61417322834645671 0.62204724409448819 0.62992125984251968 0.63779527559055116 0.64566929133858264 0.65354330708661412 0.66141732283464572 0.6692913385826772 0.67716535433070868 0.68503937007874016 0.69291338582677164 0.70078740157480313 0.70866141732283461 0.71653543307086609 0.72440944881889768 0.73228346456692917 0.74015748031496065 0.74803149606299213 0.75590551181102361 0.76377952755905509 0.77165354330708658 0.77952755905511806 0.78740157480314965 0.79527559055118113 0.80314960629921262 0.8110236220472441 0.81889763779527558 0.82677165354330706 0.83464566929133854 0.84251968503937003 0.85039370078740162 0.8582677165354331 0.86614173228346458 0.87401574803149606 0.88188976377952755 0.88976377952755903 0.89763779527559051 0.90551181102362199 0.91338582677165359 0.92125984251968507 0.92913385826771655 0.93700787401574803 0.94488188976377951 0.952755905511811 0.96062992125984248 0.96850393700787396 0.97637795275590555 0.98425196850393704 0.99212598425196852 1
        </DataArray>
      </PointData>
      <CellData Scalars="P">
        <DataArray type="Float32" Name="P" NumberOfComponents="1">
          -0.016084258225268336 -0.046256739255446919 -0.072316404327462364 -0.093222766636488735 -0.10834969621377237 -0.11729971096119525 -0.11982054335346111 -0.1157586826522311 -0.10502960675671738 -0.087595374660669884 -0.063450707586618429 -0.032611975182416687 0.0048913981892841308 0.049025018354528722 0.099756058525496016 0.1570571162510678 0.22090726428125518 0.29129598459449091 0.36822550165500562 0.4517102590638874 0.54177876511067136 0.63847493023845037 0.74185729458867344 0.85199787357735191 0.96898443602225759 1.0929160639778104 1.2239045523687757 1.3620764467292121 1.5075689794706177 1.6605136130597409 1.8210628611887456 1.9893743355687978 2.1656091124197197 2.349928907873629 2.5424946262390695 2.7434628553833535 2.9529876254401395 3.1712099727312659 3.3982557106524358 3.6342393927105636 3.8792588830913157 4.1333898917420751 3.9586890326800241 3.7846385252004415 3.6092581208178292 3.4381500711652344 3.2729091329520967 3.110274621252215 2.9511761652509363 2.8009630259352116 2.6556394829309191 2.5203621316230063 2.3907227688685038 2.2669370068566712 2.1447266557789715 2.0421044247544793 2.9140835339135518 2.7977495882780294 2.6857572443101234 2.5751029643730949 2.4691350179614076 2.3679255044482921 2.2715336600675977 2.1799083137499435 2.0956810655356928 2.0159912134205031 1.9406866537687217 1.8696612637736529 1.8027631576608503 1.7398316269507648 1.6788730725029395 1.6217025906918678 1.5681601500632794 1.5180877535610506 1.4713324284607641 1.4277478377809036 1.38719572191774 1.3495471545442244 1.3146829486777345 1.2824945409395783 1.2526166405173276 1.225371433346409 1.2006825136219692 1.1784816009072963 1.1587111496358082 1.1413219326452375 1.1267598489797237 1.1146120204239556 1.1048387313611487 1.0974219006638484 1.0923392244463601 1.0905111823323197 1.0910587441342829 1.0939498036025426 1.0991805631505915 1.1079099641565946 1.1189996067830763 1.1324320628603071 1.1481902871025897 1.1662579556221881 1.1879665195263298 1.2119658711011567 1.2382666822671615 1.2668669522731075 1.2977931842539598 1.3310433602888465 1.3666488328046043 1.4046587791929215 1.4451447423317523 1.4882060041525842 1.5325083560685429 1.5796995921690049 1.6300267015455165 1.6822049136207389 1.7381644884647176 1.7967822790998771 1.620360712204669 1.4277134713379067 1.2203238215519403 1.0061985632858035 0.78903755014454913 0.57773557948448384 0.37895293739326025 0.22101826600880251 0.10510353445951322 0.032032405967634223 0.0097543205346834385
        </DataArray>
      </CellData>
      <Points>
        <DataArray type="Float32" NumberOfComponents="3" format="ascii">
          5.0406992968588273 9.9263108150351869 0
          5.048290854667778 9.9242170761639485 0
          5.0558934573070085 9.9221638318532275 0
          5.0635132811035808 9.9201754902204833 0
          5.0711543658698268 9.9182705360208221 0
          5.0788193872578971 9.9164643614114123 0
          5.086509975320328 9.9147704140124304 0
          5.0942268798977404 9.9132007756292921 0
          5.1019700697952333 9.9117664922605915 0
          5.109738799199139 9.9104777789902609 0
          5.1175316569275404 9.9093441603515533 0
          5.125346603794581 9.9083745630960038 0
          5.133181003029649 9.9075773804508813 0
          5.1410316462185852 9.9069605175208277 0
          5.1488947763749486 9.90653142692587 0
          5.1567661084848435 9.9062971372339099 0
          5.1646408476816266 9.9062642725399304 0
          5.1725137057285675 9.9064390609962203 0
          5.1803789165117298 9.9068273421872526 0
          5.1882302504358355 9.9074345715309118 0
          5.1960610282756647 9.9082658175356126 0
          5.2038641345188843 9.9093257583983974 0
          5.2116320301052852 9.9106186776951581 0
          5.2193567651159078 9.9121484559837132 0
          5.2270299918886796 9.9139185586708187 0
          5.2346429773780097 9.9159320267575506 0
          5.2421866173274996 9.91819145940803 0
          5.2496514502669651 9.9206989989640419 0
          5.2570276704552334 9.9234563191223266 0
          5.2643051427349485 9.9264646070029645 0
          5.2714734278404682 9.9297245231751941 0
          5.278521792883951 9.933236201732532 0
          5.2854392304747222 9.9369992282938355 0
          5.2922144792980585 9.9410126176621159 0
          5.2988360470294822 9.9452747900238201 0
          5.3052922346912572 9.9497835477739294 0
          5.3115711639701564 9.9545360509254586 0
          5.3176608033537205 9.9595287970708686 0
          5.3235490027156542 9.964757593400595 0
          5.3292235304547626 9.9702175307133132 0
          5.3346721075002836 9.975902964908876 0
          5.3398824456200824 9.9818074968969732 0
          5.3448422903773025 9.9879239518871668 0
          5.3499344106786797 9.9939306611798884 0
          5.355150342515099 9.999830107437722 0
          5.360484705850479 10.005622617619743 0
          5.365929252994861 10.011311617045424 0
          5.3714759071339691 10.016901039905996 0
          5.3771198237635298 10.022392166852709 0
          5.3828562723484294 10.027786489488719 0
          5.3886777741241723 10.033088846041661 0
          5.3945800304064671 10.038301100046596 0
          5.4005560096966398 10.043428601677538 0
          5.4066018657490496 10.048473465981127 0
          5.4127139325356977 10.053437854249909 0
          5.4188914695525163 10.058320485909798 0
          5.4251226198716562 10.06313446317939 0
          5.4306851128748006 10.068707635316299 0
          5.436324692245754 10.07420276101055 0
          5.4420380257370446 10.079621137810195 0
          5.4478244506303701 10.0849613666244 0
          5.4536808372767682 10.090224758951518 0
          5.4596041983731425 10.095412648617621 0
          5.4655916609854627 10.100526411941733 0
          5.4716405246257889 10.105567388577983 0
          5.4777458481654229 10.110539829346962 0
          5.4839052525681655 10.115445118475064 0
          5.4901165271787242 10.120284561351196 0
          5.4963775669887465 10.125059450758824 0
          5.5026864002956151 10.129771020683071 0
          5.5090411853374279 10.134420438570269 0
          5.5154424074877619 10.139005726884159 0
          5.5218884166803139 10.143527854559277 0
          5.5283776837139262 10.147987705340514 0
          5.5349087971405222 10.152386070559778 0
          5.5414804589966238 10.156723643879882 0
          5.5480914807148602 10.161001016121253 0
          5.5547407789901104 10.165218670464101 0
          5.561427371207242 10.169376978632066 0
          5.5681503717752312 10.173476195895752 0
          5.574908987392698 10.177516457982865 0
          5.581704357779639 10.181494625898155 0
          5.5885358039976376 10.185410554682877 0
          5.5954027020982471 10.189264013141933 0
          5.6023045257272424 10.193054598123927 0
          5.6092408168319388 10.196781773447439 0
          5.6162111805554602 10.200444867450182 0
          5.6232168923117509 10.204039928276424 0
          5.6302576069438004 10.207565976334552 0
          5.6373330046940522 10.21102193158643 0
          5.6444428266485742 10.214406528618628 0
          5.6515868474323847 10.21771835569869 0
          5.6587662715334215 10.220952738176925 0
          5.6659808543356069 10.224107934221703 0
          5.6732303451571786 10.227182089968334 0
          5.6805145158455357 10.230173154610329 0
          5.6878343524138746 10.233075846655071 0
          5.6951895379535777 10.235887761897608 0
          5.7025797329930956 10.238606328996001 0
          5.7100045665927723 10.241228804766738 0
          5.7174636269936032 10.243752268691175 0
          5.7249574321459766 10.246170577275779 0
          5.7324853588596358 10.248480449441709 0
          5.7400467210349451 10.250678364209742 0
          5.7476407430707406 10.252760592522563 0
          5.7552665576368573 10.254723141459698 0
          5.7629231676364512 10.256561824398062 0
          5.7706094419608496 10.258272201897004 0
          5.7783240972267906 10.259849560535713 0
          5.7860656770625916 10.26128888735273 0
          5.7938325282698369 10.262584839032714 0
          5.8016223151066475 10.263734815949267 0
          5.8094330260061184 10.264732702324226 0
          5.8172623659909588 10.265571853302694 0
          5.8251074150490769 10.266248400059554 0
          5.8329652846723965 10.266754533098487 0
          5.8408324863480052 10.26708500963508 0
          5.8486806390403112 10.267725381016698 0
          5.8564944054366563 10.268700434880801 0
          5.8642548202302374 10.270036276624936 0
          5.8719409788601098 10.271749500867498 0
          5.8795285709517398 10.273857883060735 0
          5.8869919623136457 10.276371922854164 0
          5.8942866620340126 10.279339192224896 0
          5.9014032026790666 10.282710775674408 0
          5.9083419386037015 10.286434051125347 0
          5.9151223030563536 10.290438083815573 0
          5.9218739156505471 10.294490027239432 0
        </DataArray>
      </Points>
      <Cells>
        <DataArray type="Int32" Name="connectivity" format="ascii">
          0 1 1 2 2 3 3 4 4 5 5 6 6 7 7 8 8 9 9 10 10 11 11 12 12 13 13 14 14 15 15 16 16 17 17 18 18 19 19 20 20 21 21 22 22 23 23 24 24 25 25 26 26 27 27 28 28 29 29 30 30 31 31 32 32 33 33 34 34 35 35 36 36 37 37 38 38 39 39 40 40 41 41 42 42 43 43 44 44 45 45 46 46 47 47 48 48 49 49 50 50 51 51 52 52 53 53 54 54 55 55 56 56 57 57 58 58 59 59 60 60 61 61 62 62 63 63 64 64 65 65 66 66 67 67 68 68 69 69 70 70 71 71 72 72 73 73 74 74 75 75 76 76 77 77 78 78 79 79 80 80 81 81 82 82 83 83 84 84 85 85 86 86 87 87 88 88 89 89 90 90 91 91 92 92 93 93 94 94 95 95 96 96 97 97 98 98 99 99 100 100 101 101 102 102 103 103 104 104 105 105 106 106 107 107 108 108 109 109 110 110 111 111 112 112 113 113 114 114 115 115 116 116 117 117 118 118 119 119 120 120 121 121 122 122 123 123 124 124 125 125 126 126 127 
        </DataArray>
        <DataArray type="Int32" Name="offsets" format="ascii">
          2 4 6 8 10 12 14 16 18 20 22 24 26 28 30 32 34 36 38 40 42 44 46 48 50 52 54 56 58 60 62 64 66 68 70 72 74 76 78 80 82 84 86 88 90 92 94 96 98 100 102 104 106 108 110 112 114 116 118 120 122 124 126 128 130 132 134 136 138 140 142 144 146 148 150 152 154 156 158 160 162 164 166 168 170 172 174 176 178 180 182 184 186 188 190 192 194 196 198 200 202 204 206 208 210 212 214 216 218 220 222 224 226 228 230 232 234 236 238 240 242 244 246 248 250 252 254 
        </DataArray>
        <DataArray type="Int32" Name="types" format="ascii">
          3 3 3 3 3 3 3 3 3 3 3 3 3 3 3 3 3 3 3 3 3 3 3 3 3 3 3 3 3 3 3 3 3 3 3 3 3 3 3 3 3 3 3 3 3 3 3 3 3 3 3 3 3 3 3 3 3 3 3 3 3 3 3 3 3 3 3 3 3 3 3 3 3 3 3 3 3 3 3 3 3 3 3 3 3 3 3 3 3 3 3 3 3 3 3 3 3 3 3 3 3 3 3 3 3 3 3 3 3 3 3 3 3 3 3 3 3 3 3 3 3 3 3 3 3 3 3         </DataArray>
      </Cells>
    </Piece>
  </UnstructuredGrid>
</VTKFile>
