<?xml version="1.0"?>
<VTKFile type="UnstructuredGrid" version="0.1" byte_order="LittleEndian">
  <UnstructuredGrid>
    <Piece NumberOfPoints="128" NumberOfCells="127">
      <PointData Scalars="W">
        <DataArray type="Float32" Name="W" NumberOfComponents="2">
          0 0 -0.37154389510575458 -0.72059663194549006 -0.56158988120710129 -1.0682629236254757 -0.71499718173956095 -1.3255035652717748 -0.85130194229264344 -1.5308677248790064 -0.97835600887049223 -1.700329443646009 -1.1002592428510372 -1.8425932016429063 -1.2194490616672577 -1.9630941970662172 -1.3374668683904343 -2.0654704101152919 -1.4552868588745205 -2.1522181681994681 -1.5735714107886889 -2.2251731660452894 -1.6927631646767629 -2.2856989553824651 -1.8131577321835977 -2.3348306231333633 -1.9348957962559503 -2.3733015506195043 -2.0579916556358939 -2.4016206981413215 -2.1823965833252275 -2.4201776108534814 -2.308058888034672 -2.4293194474504687 -2.4348365153429539 -2.4292629359606792 -2.5625352401303796 -2.4201557933703999 -2.6909704089875377 -2.402143521272833 -2.8199205796840152 -2.3753258842505729 -2.9491094061553875 -2.339751947649606 -3.0782681125271814 -2.2954789300695553 -3.207123999201376 -2.2425600843385265 -3.3353075772482219 -2.1809854402209341 -3.4625398474530322 -2.1108159854712754 -3.5884746602566233 -2.0320720031503994 -3.7126915755451853 -1.94474553721909 -3.8348066696956593 -1.8488684094429144 -3.9547897902287579 -1.7446347888360252 -4.0719320988116898 -1.6319214653545304 -4.1858337155288847 -1.5107875909987172 -4.2960930669594646 -1.3813045801762962 -4.4023126613619397 -1.2435569799585515 -4.5040669153576856 -1.0976333607156163 -4.6009555550553607 -0.94364188038486696 -4.6924673990396437 -0.78168350112650042 -4.7782365248336012 -0.61190472059138978 -4.8578792840592886 -0.43445179581445653 -4.9308709460135898 -0.24947018389818382 -4.9967196516336871 -0.05713539153947695 -5.0549452219156423 0.14235412004748416 3.3285311490162681 -0.11638673361112695 3.2658381495388813 -0.029325276549344883 3.142105302375072 0.051073931746514929 3.0141711598876304 0.12215223769104379 2.9426920089214801 0.18856382514590284 2.8097322066741914 0.24423146964049333 2.6739432582044844 0.29099572294744064 2.6008944296468695 0.33822569039831835 2.4639537591689931 0.37101226479543992 2.3262909341198634 0.39586213821773031 2.1883143643356497 0.41317468985222905 1.9775394727229898 0.4077279572527705 -15.603694514833686 -2.3441875926069984 -15.839845543703598 -0.3886915770051147 2.4748059668837592 -0.069660162418077237 2.4773603002198405 -0.021402080304497431 2.4258995459254171 0.025877281878179149 2.4249107996887842 0.072209824643194739 2.3726861112537132 0.11557798711672633 2.3205248244907013 0.15613402398708232 2.2169001827879549 0.18911312504478947 2.1658212597421191 0.22262608435732323 2.0633417977156885 0.24708898541090751 2.013838661045507 0.27428592935806995 1.9655789608487371 0.29947572421161728 1.9193018040698728 0.32292039544713014 1.8739652080412723 0.34459111673645276 1.8302926229288317 0.364736869380063 1.7883837801773161 0.38351779343498899 1.7483317233361289 0.40109393418691591 1.7618529288791971 0.43062402123566335 1.7259672742942582 0.44784617969929963 1.691526964911291 0.46414490721635693 1.6591804378460833 0.47981560814539703 1.6289693162015817 0.49500916932004163 1.6009185630893652 0.50987076649251395 1.5750671542441959 0.52454937481955721 1.5514234238571187 0.5391837016601756 1.5299961402258822 0.55391157956568582 1.5594588300353267 0.58756002625245907 1.5419823453923083 0.60412552087531712 1.5266831754014707 0.62116024604248066 1.5135627352305006 0.63880271037256875 1.5025942628404467 0.6571809262205518 1.4937533113443522 0.67642466501948828 1.5319692189564662 0.71809253786334937 1.5267266854370802 0.74063873424561322 1.5234840741788145 0.76443589399778034 1.5221918119238471 0.78961545936449695 1.565105141089896 0.83937281692702315 1.56639820250504 0.86860967684913026 1.5700250257081609 0.89995617864456945 1.575364956530789 0.93326926811830824 1.6218907316267512 0.99332072670944982 1.6297238502236437 1.0322385443990285 1.6390159914699649 1.0736308774625938 1.6497041695072445 1.117696905323198 1.6616991907745986 1.164634891246298 1.7111492136260267 1.2414037066914529 1.7245940389586631 1.2959762226917648 1.7390045081893186 1.3541451742196284 1.754291857801987 1.4162100474266015 1.7703406106533628 1.4824861848775688 1.7870367157615104 1.553332771921202 1.8042539314917296 1.6291502164508727 1.8218807990872306 1.7104154946108625 1.8402280808135634 1.7981071196084497 1.8582335231851914 1.8919668502452511 1.8766776163448695 1.9936604918470053 1.8647222861018224 2.0693359393525967 1.8837613992222975 2.1867386097080983 1.8737338335576292 2.2789699690840752 1.8940897578143612 2.4184053661864087 1.8852256465474824 2.5326596616887072 1.9064264567435825 2.7020827716174884 -2.6538967628297545 -3.7220341495952987 -3.1623106760615172 -4.0933242463439203 -3.5769836433544926 -4.2466504516800514 -4.186397988167351 -4.5285233513789587 -4.9546157518297402 -4.8341058496484637 -5.952142690703881 -5.165776387060089 -5.7267747215473674 -4.4016148430877244 -5.3847900922647058 -3.6929742227731563 -4.6443503122108076 -2.8726257909436423 -0.68352843219701676 -0.39985285407032445 0 0
        </DataArray>
        <DataArray type="Float32" Name="u" NumberOfComponents="1">
          0 0.007874015748031496 0.015748031496062992 0.023622047244094488 0.031496062992125984 0.03937007874015748 0.047244094488188976 0.055118110236220472 0.062992125984251968 0.070866141732283464 0.07874015748031496 0.086614173228346455 0.094488188976377951 0.10236220472440945 0.11023622047244094 0.11811023622047244 0.12598425196850394 0.13385826771653545 0.14173228346456693 0.14960629921259844 0.15748031496062992 0.16535433070866143 0.17322834645669291 0.18110236220472442 0.1889763779527559 0.19685039370078741 0.20472440944881889 0.2125984251968504 0.22047244094488189 0.2283464566929134 0.23622047244094488 0.24409448818897639 0.25196850393700787 0.25984251968503935 0.26771653543307089 0.27559055118110237 0.28346456692913385 0.29133858267716534 0.29921259842519687 0.30708661417322836 0.31496062992125984 0.32283464566929132 0.33070866141732286 0.33858267716535434 0.34645669291338582 0.3543307086614173 0.36220472440944884 0.37007874015748032 0.37795275590551181 0.38582677165354329 0.39370078740157483 0.40157480314960631 0.40944881889763779 0.41732283464566927 0.42519685039370081 0.43307086614173229 0.44094488188976377 0.44881889763779526 0.45669291338582679 0.46456692913385828 0.47244094488188976 0.48031496062992124 0.48818897637795278 0.49606299212598426 0.50393700787401574 0.51181102362204722 0.51968503937007871 0.52755905511811019 0.53543307086614178 0.54330708661417326 0.55118110236220474 0.55905511811023623 0.56692913385826771 0.57480314960629919 0.58267716535433067 0.59055118110236215 0.59842519685039375 0.60629921259842523 0.61417322834645671 0.62204724409448819 0.62992125984251968 0.63779527559055116 0.64566929133858264 0.65354330708661412 0.66141732283464572 0.6692913385826772 0.67716535433070868 0.68503937007874016 0.69291338582677164 0.70078740157480313 0.70866141732283461 0.71653543307086609 0.72440944881889768 0.73228346456692917 0.74015748031496065 0.74803149606299213 0.75590551181102361 0.76377952755905509 0.77165354330708658 0.77952755905511806 0.78740157480314965 0.79527559055118113 0.80314960629921262 0.8110236220472441 0.81889763779527558 0.82677165354330706 0.83464566929133854 0.84251968503937003 0.85039370078740162 0.8582677165354331 0.86614173228346458 0.87401574803149606 0.88188976377952755 0.88976377952755903 0.89763779527559051 0.90551181102362199 0.91338582677165359 0.92125984251968507 0.92913385826771655 0.93700787401574803 0.94488188976377951 0.952755905511811 0.96062992125984248 0.96850393700787396 0.97637795275590555 0.98425196850393704 0.99212598425196852 1
        </DataArray>
      </PointData>
      <CellData Scalars="P">
        <DataArray type="Float32" Name="P" NumberOfComponents="1">
          -0.015055680721247548 -0.042974669484124116 -0.066827464369518377 -0.085691915742248048 -0.099029450712991005 -0.10652091861975947 -0.10798389488569522 -0.10332357105389811 -0.092501761418189637 -0.07551737514576834 -0.052391480080384814 -0.023156931135300447 0.012149414411608127 0.053490747303908535 0.1008328360910683 0.15414709325458814 0.21341465649408067 0.27862628846599402 0.34978293691627449 0.42689807842885646 0.50999782151309514 0.59911990506474233 0.69431481131188932 0.79564615258786031 0.9031871138044042 1.0170241649198064 1.1372542447758358 1.2639814496523034 1.3973180666611258 1.5373987101154754 1.6843513370685415 1.8383093558787906 1.9994105885232742 2.1677963854686202 2.3436092448950161 2.5269926968624765 2.7180849645629959 2.9170241371000061 3.1239460041050355 3.3389759007073083 3.5622285360906911 3.7938067901006356 3.5975227445625633 3.3965106744959717 3.1960500505564871 2.9981560003929841 2.8008690366981721 2.6093070062672568 2.4248514769290685 2.2445064914688468 2.0731667814399901 1.9115580990337049 1.7602078893473483 1.6239138923456458 2.4716038081304226 3.2708543524697209 3.1232178946890752 2.9747883521059069 2.8289918650566381 2.6837017325942205 2.542101823130412 2.4046196015443755 2.2742397228992184 2.1485707307431214 2.0303521777468512 1.9171590998885528 1.8090792580184596 1.7061320962650941 1.6083521252277801 1.5157141887028389 1.4281656752067096 1.3456306833431653 1.266278211414039 1.1918408486228869 1.122226124026644 1.0573123760917806 0.99697164712117903 0.94107246174223891 0.8894816100697045 0.84206664577735046 0.7986973581956166 0.75868267386681087 0.72259412661321609 0.69031902298816739 0.66175044565836627 0.63678785059149323 0.6153371928208623 0.59745276103480172 0.58301928827044358 0.57196319466878276 0.56421659194032814 0.56023195663438119 0.55951763038321378 0.56202778598960856 0.56771369407618655 0.57733101165193834 0.59010487035439796 0.60599555616665113 0.62496603364952685 0.64698112960602372 0.67305525440031988 0.70215362242365298 0.73424760712458592 0.76931207450270056 0.80732535277096873 0.84827035017033836 0.89213555943477041 0.93891747579285778 0.98863994038002256 1.0413031907867349 1.0969606719241873 1.154347514744442 1.2148442134297934 1.2772317291031832 1.343018200813787 1.4109956512769222 1.4828609391292551 1.325614817717371 1.14985214536237 0.96507083954788164 0.76889787902303075 0.56400957374567018 0.37044989801558109 0.2158348678568531 0.10100147225230673 0.027914567482918658 0.0085686494757596307
        </DataArray>
      </CellData>
      <Points>
        <DataArray type="Float32" NumberOfComponents="3" format="ascii">
          6.4694718191353395 10.458987648463372 0
          6.4764825848686103 10.455401139583579 0
          6.4834703035625312 10.451769946935304 0
          6.4904231871500091 10.448072512006096 0
          6.4973317208463532 10.444292883540699 0
          6.5041874511462687 10.440418327175246 0
          6.5109824986878024 10.436438334900386 0
          6.5177093038845904 10.432344085292854 0
          6.5243604756949916 10.428128106469249 0
          6.5309286959792434 10.423784050483608 0
          6.5374066590447892 10.419306538519065 0
          6.5437870305374721 10.414691047045952 0
          6.5500624199654238 10.409933823258569 0
          6.5562253623450992 10.405031820881243 0
          6.5622683094581031 10.399982654684484 0
          6.568183628947879 10.394784568918691 0
          6.573963607326756 10.389436413153865 0
          6.5796004531684726 10.383937620748728 0
          6.5850863059056177 10.378288195408928 0
          6.5904132478633946 10.372488702025588 0
          6.5955733157009107 10.366540257652122 0
          6.600558514134728 10.360444525318076 0
          6.6053608330679197 10.354203710987655 0
          6.6099722642505556 10.347820560013421 0
          6.6143848181843214 10.341298353836649 0
          6.6185905470298865 10.334640910608767 0
          6.6225815619038455 10.327852581413325 0
          6.6263500543405218 10.320938249012558 0
          6.6298883223613636 10.313903328345511 0
          6.6331887942808638 10.306753764559929 0
          6.6362440305763162 10.299496020977402 0
          6.6390467678434693 10.292137086739153 0
          6.6415899435948287 10.284684473143738 0
          6.6438667211640059 10.277146209224357 0
          6.6458705143580286 10.269530836511596 0
          6.6475950138526638 10.261847403546398 0
          6.6490342120194006 10.254105459177937 0
          6.6501824346307314 10.246315046307055 0
          6.6510343635591056 10.238486692805315 0
          6.6515850605760134 10.23063140244791 0
          6.6518299999003254 10.222760645895031 0
          6.6517650987090589 10.214886349808472 0
          6.6513867469245023 10.207020884543271 0
          6.6512147933929269 10.199148246253518 0
          6.6512453472500432 10.191273831906015 0
          6.6514707329632241 10.183402626438394 0
          6.6518830147491039 10.17553903651064 0
          6.6524777577309573 10.167687177928894 0
          6.6532467151046149 10.15985050128509 0
          6.6541814649566016 10.152031904827249 0
          6.6552774759844935 10.144234314351054 0
          6.6565262555268934 10.136459760975159 0
          6.65791926649106 10.128709783443549 0
          6.6594479526858139 10.120985452898358 0
          6.661099244476695 10.113286429882391 0
          6.6617830803116185 10.105442065498881 0
          6.6614848192869296 10.097573603968023 0
          6.6613400004656178 10.089700841739853 0
          6.6613487811729497 10.081826768492054 0
          6.6615079699170732 10.073954313755367 0
          6.661817504692805 10.066086348014515 0
          6.6622741469726279 10.058225558382206 0
          6.6628746623085275 10.050374457618931 0
          6.6636126256301305 10.042535088903335 0
          6.6644848698793027 10.034709528249875 0
          6.6654850412737918 10.026899290674233 0
          6.6666100707169669 10.019106060560064 0
          6.6678569663192837 10.011331397894388 0
          6.6692228592129954 10.003576754522765 0
          6.6707049389392443 9.9958434723696676 0
          6.672300498292163 9.988132798882992 0
          6.6740069394923589 9.9804458969702559 0
          6.6758217799458661 9.9727838549284709 0
          6.677745858604399 9.9651485026289581 0
          6.6797769512646168 9.9575409067126959 0
          6.6819129233695209 9.9499620766663064 0
          6.6841517702025186 9.9424129831454451 0
          6.6864916194597273 9.9348945673342151 0
          6.6889307327896983 9.9274077499499054 0
          6.6914675082022521 9.9199534404829137 0
          6.6941004805779345 9.9125325457992659 0
          6.6968283222047855 9.9051459786883118 0
          6.699652860399147 9.8977958258610172 0
          6.7025730123203049 9.8904831143595526 0
          6.7055878300891072 9.8832089004394188 0
          6.7086965008704977 9.8759742781564128 0
          6.7118983452095504 9.8687803873017437 0
          6.7151928155114771 9.8616284214455536 0
          6.7185822814695717 9.8545209654506305 0
          6.7220664184477865 9.8474594179085635 0
          6.725645025747399 9.8404452550702928 0
          6.7293180235310865 9.8334800389898369 0
          6.7330880724160957 9.8265668565750577 0
          6.7369552526896417 9.8197075216151681 0
          6.7409197892637991 9.8129039787766139 0
          6.7449820131973839 9.8061582947129242 0
          6.7491448087280972 9.7994741948702107 0
          6.7534086613171445 9.7928540934917656 0
          6.757774146821582 9.7863005582641627 0
          6.7622419275916341 9.7798163226562664 0
          6.7668127469440611 9.7734042982006546 0
          6.7714896700065959 9.7670692468790534 0
          6.7762735298352847 9.760814553520424 0
          6.7811652193130678 9.7546438258962631 0
          6.786165685652934 9.7485609132790501 0
          6.7912759232457995 9.7425699259838368 0
          6.7964969665974886 9.7366752576290718 0
          6.8018298825106278 9.730881609954146 0
          6.8072757631833394 9.7251940223860505 0
          6.8128357454795605 9.7196179327145327 0
          6.8185109450919317 9.7141591610535603 0
          6.8243025049280126 9.7088240131461472 0
          6.8302096836917787 9.7036171807145291 0
          6.8362336613061156 9.6985459433473924 0
          6.8423738161630787 9.6936160191827767 0
          6.8486314099493777 9.6888360538056215 0
          6.8550058933709543 9.6842131307833288 0
          6.8614985805932296 9.6797577549996863 0
          6.8678268446661486 9.6750714911493798 0
          6.8739591913085629 9.6701312647809168 0
          6.8798699329106627 9.6649275048184879 0
          6.8855213063083447 9.6594426438399417 0
          6.8908656933920733 9.6536576117276454 0
          6.8958406693130758 9.6475524198098803 0
          6.9004602753184292 9.6411744781773354 0
          6.9047457793914493 9.6345677360104531 0
          6.9087431467750413 9.6277830618125062 0
          6.9126979871349414 9.6209738368065434 0
        </DataArray>
      </Points>
      <Cells>
        <DataArray type="Int32" Name="connectivity" format="ascii">
          0 1 1 2 2 3 3 4 4 5 5 6 6 7 7 8 8 9 9 10 10 11 11 12 12 13 13 14 14 15 15 16 16 17 17 18 18 19 19 20 20 21 21 22 22 23 23 24 24 25 25 26 26 27 27 28 28 29 29 30 30 31 31 32 32 33 33 34 34 35 35 36 36 37 37 38 38 39 39 40 40 41 41 42 42 43 43 44 44 45 45 46 46 47 47 48 48 49 49 50 50 51 51 52 52 53 53 54 54 55 55 56 56 57 57 58 58 59 59 60 60 61 61 62 62 63 63 64 64 65 65 66 66 67 67 68 68 69 69 70 70 71 71 72 72 73 73 74 74 75 75 76 76 77 77 78 78 79 79 80 80 81 81 82 82 83 83 84 84 85 85 86 86 87 87 88 88 89 89 90 90 91 91 92 92 93 93 94 94 95 95 96 96 97 97 98 98 99 99 100 100 101 101 102 102 103 103 104 104 105 105 106 106 107 107 108 108 109 109 110 110 111 111 112 112 113 113 114 114 115 115 116 116 117 117 118 118 119 119 120 120 121 121 122 122 123 123 124 124 125 125 126 126 127 
        </DataArray>
        <DataArray type="Int32" Name="offsets" format="ascii">
          2 4 6 8 10 12 14 16 18 20 22 24 26 28 30 32 34 36 38 40 42 44 46 48 50 52 54 56 58 60 62 64 66 68 70 72 74 76 78 80 82 84 86 88 90 92 94 96 98 100 102 104 106 108 110 112 114 116 118 120 122 124 126 128 130 132 134 136 138 140 142 144 146 148 150 152 154 156 158 160 162 164 166 168 170 172 174 176 178 180 182 184 186 188 190 192 194 196 198 200 202 204 206 208 210 212 214 216 218 220 222 224 226 228 230 232 234 236 238 240 242 244 246 248 250 252 254 
        </DataArray>
        <DataArray type="Int32" Name="types" format="ascii">
          3 3 3 3 3 3 3 3 3 3 3 3 3 3 3 3 3 3 3 3 3 3 3 3 3 3 3 3 3 3 3 3 3 3 3 3 3 3 3 3 3 3 3 3 3 3 3 3 3 3 3 3 3 3 3 3 3 3 3 3 3 3 3 3 3 3 3 3 3 3 3 3 3 3 3 3 3 3 3 3 3 3 3 3 3 3 3 3 3 3 3 3 3 3 3 3 3 3 3 3 3 3 3 3 3 3 3 3 3 3 3 3 3 3 3 3 3 3 3 3 3 3 3 3 3 3 3         </DataArray>
      </Cells>
    </Piece>
  </UnstructuredGrid>
</VTKFile>
