<?xml version="1.0"?>
<VTKFile type="UnstructuredGrid" version="0.1" byte_order="LittleEndian">
  <UnstructuredGrid>
    <Piece NumberOfPoints="128" NumberOfCells="127">
      <PointData Scalars="W">
        <DataArray type="Float32" Name="W" NumberOfComponents="2">
          0 0 -0.063976316311697229 -0.43437362245142797 -0.098155155534908514 -0.64709592264253268 -0.12800754897080396 -0.81203513357170787 -0.15647816905853534 -0.94924599104395979 -0.18473746126790397 -1.0670702978859323 -0.21339051357022906 -1.1701917066577892 -0.24278667940850177 -1.2616318860785738 -0.27313269055928807 -1.343470805472069 -0.30453085508758904 -1.4171244172093922 -0.33703799225575715 -1.4836907181265067 -0.37067479422182137 -1.5440156161827423 -0.40543734298326084 -1.5987662912288245 -0.44128659821784788 -1.6484137679982995 -0.47814866416146207 -1.6932694056196551 -0.51594434002976608 -1.7336137241098921 -0.55460407868872186 -1.7697416891957489 -0.59403246971057455 -1.8018449593924553 -0.63412846123310018 -1.8300909655111455 -0.67480355493952937 -1.85467391458083 -0.71595700557521491 -1.8757402513119912 -0.75747800794392084 -1.8934033579612712 -0.79927095463050324 -1.9078089286218289 -0.84125166659295936 -1.9191164922126953 -0.88330985901246983 -1.9274138218994759 -0.92538543870442502 -1.9328892434479836 -0.96740098363690397 -1.9356735819039914 -1.0092509924577999 -1.9358320431851563 -1.0508728920714943 -1.9335070157429295 -1.0924089398153334 -1.9291797430536251 -1.1336614596576358 -1.9226834637267523 -1.1746122553198941 -1.9141780519286926 -1.2152668886229903 -1.9038388198660223 -1.2556504278054601 -1.8918451609133875 -1.2957946848132254 -1.8783595870079302 -1.3357698787450791 -1.8635727581258807 -1.3756043962113744 -1.8475894407768483 -1.4154423735373012 -1.8306448595913858 -1.455448026523718 -1.8129574488959619 -1.495711346218767 -1.7946173869937907 -1.5363749106178686 -1.7757543345107127 -1.5776223444125352 -1.7565137613876962 -2.5102221443751862 -2.6649398550042167 -2.3880780292418238 -2.398325681229617 -2.2424830123249633 -2.1399427619335385 -2.074764545772759 -1.8896849303047625 -2.2151152063961459 -1.9277046043685153 -2.028696279902106 -1.688652743642556 -2.0881033228008254 -1.6654415973672081 -2.1493831031214934 -1.6411127660375393 -1.9382591309567967 -1.4191480879568341 -1.9921413667558359 -1.4011064655576073 -2.0474391199938049 -1.3816774444376447 -2.3901570418591165 -1.541176771779446 -2.4568479816393949 -1.5068721477563265 -1.9289097129157773 -1.1302275230580217 -1.350106650879412 -0.76427398652053402 -1.0658427245417814 -0.58810862051599777 -0.76707078830954423 -0.41505840704304686 -0.078309873605761068 -0.041990846996237868 0.25900670807897774 0.1391524894709194 0.60602709791474429 0.32862068724875676 1.3868862836199718 0.76819731694930116 1.7619648638910632 1.0089961172232427 2.5852060667925123 1.5494055691064834 2.9659038682364001 1.88281869241124 2.8616028011252115 1.9286766362450154 2.7491453017947749 1.9623952181898352 3.0968245719157603 2.3471143726858732 2.9618576608392662 2.3894327258999599 2.8322623768694495 2.4270884130232702 3.1367669936010083 2.8637519732933807 2.9750122352306771 2.9023270203850227 2.8200339141719395 2.9353869390592617 3.0708867634669188 3.4231558083323423 2.8815136027755273 3.4533869203783389 2.700629329520734 3.477572197234978 2.5231794284556575 3.4899909390671469 2.6907019098288441 4.0190792855521718 2.4823945883581304 4.0286257777431134 2.2804657304285101 4.0262299023075032 2.0812303761390787 4.0043187150740751 2.1656139717843037 4.5815788128219479 1.943164325409829 4.5705055657931082 1.7295743244578416 4.5502280267148487 1.5221087001632669 4.5130439176743637 1.3272502954721972 4.4784789480444633 1.1412695988285706 4.4389283400689035 0.96200245420265029 4.3861720436012304 0.79354852612316407 4.3402401013641372 0.63285823132923269 4.292888437103465 0.47937838745332501 4.245127731358818 0.33183989949520915 4.1876306162256629 0.19150467635163024 4.1417263036972871 0.056297441927334081 4.0979714292937164 -0.074217915158384801 4.0464090492401645 -0.20094591386417582 4.0089171896976667 -0.32511884534382751 3.9756448872575616 -0.44622109998187837 3.9355763458236126 -0.56737212522106562 3.9112391711235666 -0.68885515681227194 3.8919287733257479 -0.80921855814761556 3.8667475062559684 -0.93386821343466675 3.8581447013079027 -1.0621328682503537 3.8549025757672193 -1.1916355430619279 3.8460497092777119 -1.3300589172276984 3.8534409346043441 -1.4713082843028382 3.8543825460561361 -1.6251594736169572 3.8715947542358515 -1.7890321571390235 3.892397312422581 -1.9586902655722898 3.905194909299702 -2.146560016269297 3.931741215181344 -2.342510874821488 3.9485546079181435 -2.5607502509058442 3.9763236902866215 -2.789326833019254 3.9914312085998915 -3.0359008540480987 4.002728256358739 -3.3021264085961874 4.0081299541388224 -3.5895698767984827 4.0050714458478778 -3.8990355450507259 3.9898737415213836 -1.3591051816987709 1.3113351522314229 -1.428377585055403 1.3370175492477858 -1.3734816423122653 1.2474923025777453 -1.207419126658412 1.0669544466375736 -1.0250640506101252 0.8847181057608563 -0.80138051955086564 0.67853145115155244 -0.23142629974402879 0.19384396824348341 1.4542438107628934 -1.23380548562395 3.5749685961917175 -3.1991269990676949 0 0
        </DataArray>
        <DataArray type="Float32" Name="u" NumberOfComponents="1">
          0 0.007874015748031496 0.015748031496062992 0.023622047244094488 0.031496062992125984 0.03937007874015748 0.047244094488188976 0.055118110236220472 0.062992125984251968 0.070866141732283464 0.07874015748031496 0.086614173228346455 0.094488188976377951 0.10236220472440945 0.11023622047244094 0.11811023622047244 0.12598425196850394 0.13385826771653545 0.14173228346456693 0.14960629921259844 0.15748031496062992 0.16535433070866143 0.17322834645669291 0.18110236220472442 0.1889763779527559 0.19685039370078741 0.20472440944881889 0.2125984251968504 0.22047244094488189 0.2283464566929134 0.23622047244094488 0.24409448818897639 0.25196850393700787 0.25984251968503935 0.26771653543307089 0.27559055118110237 0.28346456692913385 0.29133858267716534 0.29921259842519687 0.30708661417322836 0.31496062992125984 0.32283464566929132 0.33070866141732286 0.33858267716535434 0.34645669291338582 0.3543307086614173 0.36220472440944884 0.37007874015748032 0.37795275590551181 0.38582677165354329 0.39370078740157483 0.40157480314960631 0.40944881889763779 0.41732283464566927 0.42519685039370081 0.43307086614173229 0.44094488188976377 0.44881889763779526 0.45669291338582679 0.46456692913385828 0.47244094488188976 0.48031496062992124 0.48818897637795278 0.49606299212598426 0.50393700787401574 0.51181102362204722 0.51968503937007871 0.52755905511811019 0.53543307086614178 0.54330708661417326 0.55118110236220474 0.55905511811023623 0.56692913385826771 0.57480314960629919 0.58267716535433067 0.59055118110236215 0.59842519685039375 0.60629921259842523 0.61417322834645671 0.62204724409448819 0.62992125984251968 0.63779527559055116 0.64566929133858264 0.65354330708661412 0.66141732283464572 0.6692913385826772 0.67716535433070868 0.68503937007874016 0.69291338582677164 0.70078740157480313 0.70866141732283461 0.71653543307086609 0.72440944881889768 0.73228346456692917 0.74015748031496065 0.74803149606299213 0.75590551181102361 0.76377952755905509 0.77165354330708658 0.77952755905511806 0.78740157480314965 0.79527559055118113 0.80314960629921262 0.8110236220472441 0.81889763779527558 0.82677165354330706 0.83464566929133854 0.84251968503937003 0.85039370078740162 0.8582677165354331 0.86614173228346458 0.87401574803149606 0.88188976377952755 0.88976377952755903 0.89763779527559051 0.90551181102362199 0.91338582677165359 0.92125984251968507 0.92913385826771655 0.93700787401574803 0.94488188976377951 0.952755905511811 0.96062992125984248 0.96850393700787396 0.97637795275590555 0.98425196850393704 0.99212598425196852 1
        </DataArray>
      </PointData>
      <CellData Scalars="P">
        <DataArray type="Float32" Name="P" NumberOfComponents="1">
          0.018358258668032205 0.055714957829413651 0.094320064832314712 0.13453248857484951 0.17658543580184383 0.22062194397847126 0.2667154740663743 0.31488414780380675 0.36510118755660004 0.41730223441748926 0.47139254934755082 0.52725287931220721 0.58474462173796682 0.64371362162777612 0.70399348167457632 0.7654099467650548 0.82778556712538298 0.89094242498942378 0.95470561807219756 1.0189072221947177 1.0833889727547408 1.148004934441708 1.2126248939042297 1.2771372778347796 1.3414506914312374 1.4054976411254871 1.4692358799773821 1.5326495274096572 1.5957519332022692 1.6585916412458364 1.7212454807530431 1.7838242508669029 1.8464742342141318 1.9093785201737083 1.9727580569513476 2.0368733469410989 2.1020246840517252 2.1685555568152868 2.2368544244311162 2.3073549323503437 2.3805389553303193 2.4569398852093118 2.5536792268940562 2.6501072480611674 2.7457247218994345 2.8398655269459048 2.9419239959084491 3.0415964541196496 3.1470553333742481 3.2585483865353551 3.3656187681406591 3.4784278023362276 3.5970678744314055 3.7341961511567905 3.8774522184803817 3.998722810235726 4.0944320405076597 4.1778614801790441 4.2474258120731854 4.2812060325044854 4.2961174274311054 4.2900147165898774 4.2343571652805299 4.1499200095021571 4.0025564127720816 3.8157691471217294 3.6223340257869929 3.423480794835859 3.1789749790523087 2.928934054974496 2.6740771964596308 2.3689451538765107 2.0608251678048481 1.7508503792005421 1.3885304311460249 1.0280728707252023 0.67095881690068915 0.31946097023650566 -0.079768494526421679 -0.46894842283645838 -0.84571354987375258 -1.2068498919532957 -1.5507842976318928 -1.875363027750816 -2.1788747606579513 -2.4592918620340694 -2.7164159269239709 -2.949601471102306 -3.1578818260465553 -3.3417561150722963 -3.5012689732244509 -3.6366225011061273 -3.7477362936953469 -3.8355097553759312 -3.9004383190836718 -3.9428261221122498 -3.9635621162561741 -3.9632426617275796 -3.9423950514591204 -3.901752499433397 -3.8419030940344001 -3.7635316628824884 -3.6671723915002006 -3.5533967456872619 -3.4230418767624173 -3.2765084967504827 -3.1147924891019172 -2.9382693845152894 -2.7477256490793187 -2.5445272727201362 -2.3292814257430363 -2.1037366271191686 -1.8688707727319689 -1.6269943560450706 -1.3802586953357574 -1.1312015970702032 -0.88282031191855703 -0.63868170602783347 -0.53423833893085848 -0.43332125336107236 -0.34126782349096818 -0.26106282235841188 -0.19141819358129525 -0.13126266820735599 -0.083508726844030448 -0.053078381262741975 -0.024032041970464831
        </DataArray>
      </CellData>
      <Points>
        <DataArray type="Float32" NumberOfComponents="3" format="ascii">
          6.1166287481923929 10.473989623864355 0
          6.124420696541657 10.472855751688586 0
          6.1322086785228418 10.471694948267976 0
          6.1399905753310442 10.470494024745305 0
          6.1477645365707243 10.469242754783917 0
          6.155528797690164 10.467932631161284 0
          6.1632816074107559 10.466556348565222 0
          6.1710211902062095 10.465107513194948 0
          6.1787457246364408 10.463580455404539 0
          6.1864533305236566 10.461970100731197 0
          6.1941420626024746 10.460271882092121 0
          6.2018099069901806 10.458481671694228 0
          6.209454779896812 10.456595728573033 0
          6.2170745278608575 10.45461065721236 0
          6.2246669301624049 10.452523378325493 0
          6.2322297033971807 10.450331109535478 0
          6.239760506379322 10.448031347967284 0
          6.2472569444454091 10.4456218519441 0
          6.2547165753618366 10.443100629088629 0
          6.2621369155817312 10.440465925926389 0
          6.2695154457232638 10.437716215828619 0
          6.2768496168070174 10.434850189916354 0
          6.2841368571168132 10.431866750014292 0
          6.2913745781178996 10.428764999600986 0
          6.298560179666139 10.425544233900872 0
          6.3056910568354994 10.422203934425212 0
          6.312764603632897 10.418743757277809 0
          6.3197782177869666 10.415163525025601 0
          6.3267293072774313 10.41146322263776 0
          6.3336152942019517 10.407642988638431 0
          6.3404336059402748 10.4037030852458 0
          6.3471816873967439 10.39964390869336 0
          6.3538570021122256 10.395465979295917 0
          6.3604570319013236 10.391169930557226 0
          6.3669792752782213 10.386756498023368 0
          6.3734212454623158 10.382226509181786 0
          6.3797804659995538 10.377580871613294 0
          6.3860544689755416 10.372820566469819 0
          6.3922407860465178 10.367946633859525 0
          6.398336938220651 10.362960159271134 0
          6.4043404302386291 10.357862267951679 0
          6.4102487416875515 10.352654116834016 0
          6.4160593155627703 10.347336885482171 0
          6.4217139886567534 10.341854509646508 0
          6.4272203561198449 10.336223538825781 0
          6.4325874671257885 10.330460007797578 0
          6.4378257422667033 10.32457944317612 0
          6.4429265051719407 10.318579477212051 0
          6.4479013337665441 10.31247493572346 0
          6.4527465667482513 10.306267248153475 0
          6.4574584250510894 10.299957912725814 0
          6.4620500146957394 10.293560688502714 0
          6.4665180126635171 10.287076681360119 0
          6.4708590064285927 10.280507083224547 0
          6.4750517632250482 10.273841988198249 0
          6.4790921598753162 10.267083512699081 0
          6.4830129365337248 10.260255003949728 0
          6.486849987535356 10.253379141547969 0
          6.4906209470626006 10.246466832377877 0
          6.4943443488041348 10.239528788167787 0
          6.4980629074811365 10.232588117799118 0
          6.5017975498798206 10.225656028404316 0
          6.5055698065302945 10.218744241660584 0
          6.5094281150256901 10.211879978056409 0
          6.5133957568554104 10.20507813669084 0
          6.5175238180803241 10.198372183082819 0
          6.5218359501364391 10.191782757425917 0
          6.5263257244996504 10.185312686702902 0
          6.5309862059179302 10.178964051413956 0
          6.5358390172570697 10.17276068855943 0
          6.5408758330810191 10.166705223835033 0
          6.5460886593075376 10.160799999031935 0
          6.5514964615621079 10.155072093196825 0
          6.5570892557876128 10.149523918564089 0
          6.5628574758758385 10.14415754928168 0
          6.5688167810204776 10.13900326084174 0
          6.5749554695296641 10.134062971474091 0
          6.5812623626970099 10.129338226800925 0
          6.5877264912700237 10.124829843978359 0
          6.5943583624609916 10.120570705238835 0
          6.6011451143689719 10.116561453873405 0
          6.6080742851268903 10.112801992687698 0
          6.6151335843156041 10.109291013936117 0
          6.6223264544075322 10.106065273085736 0
          6.6296391037435223 10.103123926131074 0
          6.6370583035753761 10.100465571989565 0
          6.6445712145674172 10.098087774598538 0
          6.6521657884577268 10.095988274875959 0
          6.6598305332578285 10.094164518078806 0
          6.6675543762879625 10.092613142996241 0
          6.6753269183344761 10.09133122406066 0
          6.6831382422181536 10.090315758711686 0
          6.6909788773383463 10.089563729048731 0
          6.6988397195348783 10.089071522148753 0
          6.706712109816424 10.088836252186033 0
          6.7145877045434652 10.08885517356976 0
          6.7224584476507072 10.089125062419333 0
          6.7303165152776065 10.089643572674623 0
          6.7381542388066 10.090408624267294 0
          6.7459641365256289 10.091417719225415 0
          6.7537387210139057 10.092669338162697 0
          6.7614704813527782 10.094162275832366 0
          6.7691519730829093 10.095894964847878 0
          6.7767754837773468 10.097866867444569 0
          6.7843330745985053 10.100077779475605 0
          6.7918167277308736 10.102527149783578 0
          6.7992178706751449 10.105215435209381 0
          6.8065277539726097 10.108142693162689 0
          6.8137368456543861 10.11130999035028 0
          6.8208349912188577 10.11471861636614 0
          6.8278116763286762 10.118369364599495 0
          6.8346552568031766 10.122263881087949 0
          6.8413535866006541 10.126403208417438 0
          6.8478931372983345 10.130789068558391 0
          6.8542597389623579 10.13542239838689 0
          6.8604381054054837 10.140303898514018 0
          6.86641173170388 10.145433904005543 0
          6.8721627971415531 10.15081222534632 0
          6.877672115393163 10.156437920326214 0
          6.8830971473447127 10.162144897680919 0
          6.8884336059819713 10.167934756439745 0
          6.8936849029614988 10.173801953865564 0
          6.8988613438974209 10.179735307354132 0
          6.903974247282858 10.185723533276841 0
          6.9090374978382867 10.191753868533555 0
          6.9140864589469899 10.197796293560334 0
          6.9192257051088406 10.203762353645995 0
          6.9245868522624088 10.209530290380618 0
        </DataArray>
      </Points>
      <Cells>
        <DataArray type="Int32" Name="connectivity" format="ascii">
          0 1 1 2 2 3 3 4 4 5 5 6 6 7 7 8 8 9 9 10 10 11 11 12 12 13 13 14 14 15 15 16 16 17 17 18 18 19 19 20 20 21 21 22 22 23 23 24 24 25 25 26 26 27 27 28 28 29 29 30 30 31 31 32 32 33 33 34 34 35 35 36 36 37 37 38 38 39 39 40 40 41 41 42 42 43 43 44 44 45 45 46 46 47 47 48 48 49 49 50 50 51 51 52 52 53 53 54 54 55 55 56 56 57 57 58 58 59 59 60 60 61 61 62 62 63 63 64 64 65 65 66 66 67 67 68 68 69 69 70 70 71 71 72 72 73 73 74 74 75 75 76 76 77 77 78 78 79 79 80 80 81 81 82 82 83 83 84 84 85 85 86 86 87 87 88 88 89 89 90 90 91 91 92 92 93 93 94 94 95 95 96 96 97 97 98 98 99 99 100 100 101 101 102 102 103 103 104 104 105 105 106 106 107 107 108 108 109 109 110 110 111 111 112 112 113 113 114 114 115 115 116 116 117 117 118 118 119 119 120 120 121 121 122 122 123 123 124 124 125 125 126 126 127 
        </DataArray>
        <DataArray type="Int32" Name="offsets" format="ascii">
          2 4 6 8 10 12 14 16 18 20 22 24 26 28 30 32 34 36 38 40 42 44 46 48 50 52 54 56 58 60 62 64 66 68 70 72 74 76 78 80 82 84 86 88 90 92 94 96 98 100 102 104 106 108 110 112 114 116 118 120 122 124 126 128 130 132 134 136 138 140 142 144 146 148 150 152 154 156 158 160 162 164 166 168 170 172 174 176 178 180 182 184 186 188 190 192 194 196 198 200 202 204 206 208 210 212 214 216 218 220 222 224 226 228 230 232 234 236 238 240 242 244 246 248 250 252 254 
        </DataArray>
        <DataArray type="Int32" Name="types" format="ascii">
          3 3 3 3 3 3 3 3 3 3 3 3 3 3 3 3 3 3 3 3 3 3 3 3 3 3 3 3 3 3 3 3 3 3 3 3 3 3 3 3 3 3 3 3 3 3 3 3 3 3 3 3 3 3 3 3 3 3 3 3 3 3 3 3 3 3 3 3 3 3 3 3 3 3 3 3 3 3 3 3 3 3 3 3 3 3 3 3 3 3 3 3 3 3 3 3 3 3 3 3 3 3 3 3 3 3 3 3 3 3 3 3 3 3 3 3 3 3 3 3 3 3 3 3 3 3 3         </DataArray>
      </Cells>
    </Piece>
  </UnstructuredGrid>
</VTKFile>
