<?xml version="1.0"?>
<VTKFile type="UnstructuredGrid" version="0.1" byte_order="LittleEndian">
  <UnstructuredGrid>
    <Piece NumberOfPoints="128" NumberOfCells="127">
      <PointData Scalars="W">
        <DataArray type="Float32" Name="W" NumberOfComponents="2">
          0 0 0.29849960155752503 0.34952232680939388 0.44826974467797082 0.52012106333569585 0.56499196475308644 0.64753971846203484 0.66506651248130955 0.75104593011323606 0.75519703104098646 0.83854223986111864 0.83904352465241527 0.91434271801068501 0.91885336611130608 0.98107978156630216 0.99613829928416342 1.0404955523761217 1.0719197882372891 1.0937394101769389 1.1469713640731707 1.1416464479039199 1.2218774450133087 1.1848115551173808 1.297079169414511 1.2236483214587244 1.3728768185720666 1.2584050731208725 1.4494803034587949 1.289225737806645 1.527051849784324 1.3161965666341702 1.6057771265313507 1.3394091344953389 1.6857295853053547 1.3588462451707626 1.7669634788065469 1.3744696505097631 1.8495378296226237 1.3862391024893064 1.9334768524398638 1.3940818719341712 2.0187588753603452 1.3978896034407853 2.1053590410514129 1.3975524432397288 2.1932503168548139 1.3929587694992702 2.2823413089987805 1.3839572991974287 2.3726056922163958 1.3704396505093785 2.4639447071654326 1.3522541408539726 2.5561798922605803 1.3292131228886137 2.6491787805360594 1.3011651856800088 2.7431157206373329 1.2681024671059411 2.8375274756168491 1.2297100975136546 2.9322465721590922 1.1858392010401535 3.0270727908711668 1.1363353046687799 3.121822999374642 1.0810588594062913 3.2162770420431337 1.0198641180501968 3.3102091728937921 0.95261240272866421 3.4032763391652043 0.87914403020981036 3.495269310351131 0.7993510288442438 3.5859841316518604 0.71312781808944792 3.6750490283329067 0.62034151389940728 3.7621070507110166 0.52088281301622008 3.8468168414563841 0.41466160729852064 0.85124445135167337 0.075765454141435207 1.6632644976872599 0.1313935532585076 13.933473922029792 0.2417202051158738 13.983755174696256 -1.3030468449201669 13.861409720553905 -2.8682397612479864 13.558569872484512 -4.4337142145221016 13.07958430316798 -5.9818620945774788 12.416622352246611 -7.4898067801847015 11.570959868230709 -8.9347709826528412 -3.9427681002367465 3.2869630955568292 -3.9915257624467957 3.0652833259554502 -4.0182929646885786 2.8425288841644267 -1.992773836231061 1.3252176820353272 -1.9151577594544857 1.2234433861928125 -1.7583659843085755 1.081435965290314 -1.6171473604357316 0.96027226600132853 -1.5159142810545692 0.87109267441127769 -1.332186187424534 0.74283284105383274 -1.2205000364469871 0.66230818377026424 -1.0248448388778602 0.54289072014722395 -0.82310075382892711 0.42739274006083505 -0.70328223983671678 0.35915946789018854 -0.40696260058440792 0.20532110033908821 -0.28512985284929837 0.14276419296747983 -0.16444324949606384 0.081929838012463729 -0.046827047448448914 0.023276128020463027 0.069778778860518142 -0.034693436053733574 0.2767876069766072 -0.13814342396303322 0.38687943421988585 -0.19450461600037713 0.49299173200169882 -0.25025537915445467 0.59465707400727275 -0.30546941141294814 0.69019360768090376 -0.35952996136993803 0.78189498629595755 -0.41382990230084299 0.86806204863617131 -0.46765290661804931 0.94837967897321795 -0.52093117056671634 1.0225629996162597 -0.57355357879963953 1.0903598881022618 -0.62536686270146813 1.2442502964135811 -0.73131872524811325 1.2973542791554709 -0.78300645999780927 1.3420884070618562 -0.83248170617902451 1.3810072894833278 -0.88104184201955138 1.4126999208131445 -0.92752782646653631 1.4371456452851497 -0.97155947281015986 1.4543609803295374 -1.0127342012356484 1.4643721660025588 -1.0506121566572648 1.4673289437209998 -1.0848037126472809 1.4633293215047796 -1.1148520302905043 1.3681607525627675 -1.0731432366857299 1.3526737145379042 -1.0912296572818039 1.3308045222649327 -1.1039103823131102 1.3028085051487368 -1.1108233273000014 1.2676603119040364 -1.1104764140437164 1.2280227033787396 -1.1046015657184762 1.1829314594717313 -1.0918444129497877 1.132589269736856 -1.0718554137847316 1.0772144049112506 -1.0443332565113543 1.0169854833163712 -1.0089823068963168 0.95212449965771806 -0.96560429211499788 0.88275130281909975 -0.91396460983735384 0.80781634667410296 -0.85265644802336837 0.72969105411299306 -0.78396214543160081 0.64716856155952174 -0.70653700951368192 0.56020634579048445 -0.62033799505343901 0.46746376855045479 -0.52398524317568229 0.3709990609257659 -0.42004199294737948 0.26927389923883122 -0.30722401314195974 0.16061759743526202 -0.18420748410912133 0.11747249341543886 -0.13518007000034696 -0.0034743201359075317 0.0040035626328533544 -0.13335409716957272 0.15341318325599484 -0.19736971020447786 0.22615096549968769 -0.34547527175168452 0.39327182257853432 -0.42678117367327928 0.48134774797146684 -0.59782710196621791 0.66608984877103994 -0.70141647433498477 0.76961930380170962 -0.81391507288978082 0.87739618621279769 -1.029684613454525 1.0866405635938725 -1.4328079106544422 1.4703277731501614 -1.7196769225224127 1.7035914716903928 -1.4865821992241923 1.4216124806509265 -1.7426019840946083 1.6091931392347891 -2.0578804251158953 1.8248115795678477 -2.9852579794714749 2.5106142953913735 -3.5004847570263689 2.7525225544720451 -3.4514925099427995 2.5269107862969533 0 0
        </DataArray>
        <DataArray type="Float32" Name="u" NumberOfComponents="1">
          0 0.007874015748031496 0.015748031496062992 0.023622047244094488 0.031496062992125984 0.03937007874015748 0.047244094488188976 0.055118110236220472 0.062992125984251968 0.070866141732283464 0.07874015748031496 0.086614173228346455 0.094488188976377951 0.10236220472440945 0.11023622047244094 0.11811023622047244 0.12598425196850394 0.13385826771653545 0.14173228346456693 0.14960629921259844 0.15748031496062992 0.16535433070866143 0.17322834645669291 0.18110236220472442 0.1889763779527559 0.19685039370078741 0.20472440944881889 0.2125984251968504 0.22047244094488189 0.2283464566929134 0.23622047244094488 0.24409448818897639 0.25196850393700787 0.25984251968503935 0.26771653543307089 0.27559055118110237 0.28346456692913385 0.29133858267716534 0.29921259842519687 0.30708661417322836 0.31496062992125984 0.32283464566929132 0.33070866141732286 0.33858267716535434 0.34645669291338582 0.3543307086614173 0.36220472440944884 0.37007874015748032 0.37795275590551181 0.38582677165354329 0.39370078740157483 0.40157480314960631 0.40944881889763779 0.41732283464566927 0.42519685039370081 0.43307086614173229 0.44094488188976377 0.44881889763779526 0.45669291338582679 0.46456692913385828 0.47244094488188976 0.48031496062992124 0.48818897637795278 0.49606299212598426 0.50393700787401574 0.51181102362204722 0.51968503937007871 0.52755905511811019 0.53543307086614178 0.54330708661417326 0.55118110236220474 0.55905511811023623 0.56692913385826771 0.57480314960629919 0.58267716535433067 0.59055118110236215 0.59842519685039375 0.60629921259842523 0.61417322834645671 0.62204724409448819 0.62992125984251968 0.63779527559055116 0.64566929133858264 0.65354330708661412 0.66141732283464572 0.6692913385826772 0.67716535433070868 0.68503937007874016 0.69291338582677164 0.70078740157480313 0.70866141732283461 0.71653543307086609 0.72440944881889768 0.73228346456692917 0.74015748031496065 0.74803149606299213 0.75590551181102361 0.76377952755905509 0.77165354330708658 0.77952755905511806 0.78740157480314965 0.79527559055118113 0.80314960629921262 0.8110236220472441 0.81889763779527558 0.82677165354330706 0.83464566929133854 0.84251968503937003 0.85039370078740162 0.8582677165354331 0.86614173228346458 0.87401574803149606 0.88188976377952755 0.88976377952755903 0.89763779527559051 0.90551181102362199 0.91338582677165359 0.92125984251968507 0.92913385826771655 0.93700787401574803 0.94488188976377951 0.952755905511811 0.96062992125984248 0.96850393700787396 0.97637795275590555 0.98425196850393704 0.99212598425196852 1
        </DataArray>
      </PointData>
      <CellData Scalars="P">
        <DataArray type="Float32" Name="P" NumberOfComponents="1">
          -0.034115726806071278 -0.10166242720969045 -0.16791238734933087 -0.23251750475790026 -0.29521846570903848 -0.355798110832172 -0.4140592303010337 -0.46981311287895589 -0.52287287294261198 -0.57305044721382137 -0.62015403004135394 -0.66398688750750789 -0.70434701017063817 -0.74102802864750272 -0.77382005681740396 -0.80251014586123282 -0.82688113847514411 -0.84671432306905137 -0.86179000517522109 -0.87188741473370113 -0.87678585250900176 -0.87626638977873605 -0.87011227222340315 -0.85810923916997628 -0.84004815526964804 -0.81572285306601666 -0.78493307987088434 -0.74748807018846275 -0.70320510556559779 -0.65189631105486023 -0.59339605628366388 -0.52754872983952494 -0.45421036056931741 -0.37324791665963447 -0.28454106306095073 -0.18798242416800245 -0.083483439774885745 0.029032301837721358 0.14962967845572789 0.27835354620494812 0.41522954254915112 0.56026507202055753 0.55360155950493206 0.59551116653957215 1.3215904093929183 2.0674397081989766 2.8469743674023538 3.673154327971762 4.5581707262326683 5.5119867695834115 6.542223486906833 6.0621542332225156 5.5321283135971893 4.9629937811843794 4.64669538446873 4.3292598082171576 4.0257356128648913 3.7369982747686024 3.4593095161340517 3.2077766613735959 2.9724759981875071 2.768132672702774 2.5964519801719592 2.4445161797930446 2.3405086623216595 2.2560787427318552 2.1905689830481827 2.1428373885682159 2.1118930800807658 2.1096803450798856 2.1207886965203318 2.1434404566376593 2.175749169210905 2.2156007928392363 2.261175817574677 2.3104721459274362 2.3615081529987565 2.4123507190268239 2.4611418003287864 2.5137274375677316 2.5600983502810974 2.5986909160389153 2.6282976905028939 2.6477947086060594 2.656254231024235 2.6529538148302336 2.6373816933485705 2.6092423841217345 2.5684538043140535 2.5149191119527878 2.4498854050786396 2.3738252951957333 2.2873919227349071 2.1914414347654501 2.0869234985290532 1.9749474012452288 1.8567405399340107 1.7336274882128566 1.6070100052652982 1.4783406308513198 1.3491038517484575 1.2208822056801574 1.0950658067258296 0.97309370142837792 0.85634090313383338 0.74620864812870358 0.643783455521026 0.55013354881907317 0.46629901431011306 0.38617121720599523 0.31717346706769045 0.25985015051246574 0.20763610104694491 0.16746465787903231 0.13252538773730438 0.10908407476377026 0.090184659205933132 0.075042870378022458 0.068489163641747258 0.077779046044080716 0.091086887144898446 0.10233139288439635 0.10869793029934405 0.10809980804416032 0.09844718649601733 0.075740833188521914 0.031618754610645526
        </DataArray>
      </CellData>
      <Points>
        <DataArray type="Float32" NumberOfComponents="3" format="ascii">
          4.2122537003485432 9.4133757281092869 0
          4.2062565880223444 9.4184786518576722 0
          4.200277973742387 9.4236032568170014 0
          4.1943271384287932 9.4287601261918681 0
          4.1884113152371087 9.4339571649904563 0
          4.182536705810791 9.4392007952878547 0
          4.1767088957072716 9.4444964464422227 0
          4.1709330812384797 9.4498488226926192 0
          4.1652142087800934 9.455262066435866 0
          4.1595570684980201 9.4607398662750413 0
          4.1539663576913854 9.4662855282999612 0
          4.1484467287721314 9.4719020278709039 0
          4.1430028255243379 9.4775920465019823 0
          4.1376393104827178 9.4833579974979969 0
          4.1323608835786061 9.4892020413397677 0
          4.127172295182862 9.4951260945924698 0
          4.1220783561917811 9.501131835234581 0
          4.1170839495666156 9.5072207083146409 0
          4.1121940349131192 9.5133939248601678 0
          4.1074136518691668 9.5196524594786212 0
          4.1027479237867919 9.5259970478321474 0
          4.0982020592538042 9.5324281820957122 0
          4.0937813507674887 9.5389461042035233 0
          4.0894911732085522 9.5455507990003952 0
          4.0853369821778944 9.5522419872815334 0
          4.0813243083387647 9.5590191163703206 0
          4.0774587557924695 9.5658813533554916 0
          4.0737459959584532 9.5728275756407406 0
          4.0701917565071044 9.5798563592617363 0
          4.0668018131424901 9.5869659694495226 0
          4.0635820004167735 9.5941543600985 0
          4.0605381829874325 9.6014191541874361 0
          4.057676245218981 9.6087576344971666 0
          4.0550020787498129 9.6161667339805206 0
          4.0525215711159737 9.6236430270578648 0
          4.0502405920746822 9.6311827205280434 0
          4.0481649795778267 9.638781644918085 0
          4.046300518463207 9.6464352445298474 0
          4.0446529274463456 9.6541385706959986 0
          4.043227846437337 9.6618862751853669 0
          4.0420308134408902 9.6696726019150123 0
          4.0410672423732015 9.6774913801267601 0
          4.0403424018437839 9.6853360187563506 0
          4.0396704207979104 9.69318501839067 0
          4.0391016838727083 9.7010417971761473 0
          4.0393975634855801 9.7089136895443513 0
          4.0405612174152381 9.7167048344030498 0
          4.0425850906158782 9.7243180957193136 0
          4.0454504257074735 9.7316563128364582 0
          4.0491275313492974 9.738623392966602 0
          4.0535752951067634 9.7451257318099103 0
          4.0587412615034646 9.7510736278049137 0
          4.0636625782134486 9.7572256022971313 0
          4.0683362078926324 9.7635679001261977 0
          4.0727604782257378 9.7700866978904237 0
          4.0770610108009375 9.7766876744582216 0
          4.0812426250276879 9.7833645066796269 0
          4.085315051496627 9.790108369822855 0
          4.0892870553383087 9.7969117350566481 0
          4.0931649218180324 9.8037690622990858 0
          4.0969600528580417 9.8106723816162837 0
          4.1006793820292389 9.8176166912831384 0
          4.1043350506621223 9.8245945715582366 0
          4.1079395773496881 9.8315988468031961 0
          4.1115003990828018 9.8386252804341794 0
          4.1150358988025308 9.8456643145034608 0
          4.1185536371606393 9.8527120667012884 0
          4.122061103122558 9.8597647623254421 0
          4.1255655946315377 9.8668187627654902 0
          4.1290743463696904 9.8738704725005189 0
          4.1326001983755187 9.8809134705718265 0
          4.1361499800002726 9.887944263175001 0
          4.1397302732856556 9.8949593950853991 0
          4.1433473840320625 9.9019554450692286 0
          4.1470072375763074 9.908929064171323 0
          4.1507155210748339 9.9158768891721056 0
          4.1544775782168797 9.9227955870559583 0
          4.158298389761053 9.9296818591835336 0
          4.1621825559495322 9.9365324481458224 0
          4.1661342809545499 9.9433441472277977 0
          4.170163106273665 9.9501103899572048 0
          4.1742723250056377 9.9568279788985627 0
          4.1784647114859981 9.9634938542193332 0
          4.1827426797295031 9.9701050130976459 0
          4.187108196021768 9.9766585815729236 0
          4.1915627776979685 9.9831518380523629 0
          4.196107494217884 9.9895822382042869 0
          4.2007429688347182 9.9959474421625973 0
          4.2054693879105152 10.002245338616142 0
          4.2102865070146969 10.008474073069312 0
          4.2151884302329279 10.014636240654271 0
          4.2201742017272785 10.02073072775319 0
          4.2252424704259175 10.026756755703921 0
          4.2303915058388348 10.032713903211436 0
          4.2356191344635494 10.038602198827606 0
          4.2409229048435675 10.044422013548049 0
          4.2463000277564555 10.050174144780136 0
          4.2517473887421229 10.055859838018076 0
          4.2572615615941221 10.061480805540459 0
          4.2628388193905709 10.067039244769212 0
          4.2684751482149501 10.072537850607175 0
          4.2741662545442773 10.077979830042782 0
          4.2799075001089131 10.08336898943225 0
          4.2856940489325934 10.088709593116002 0
          4.2915207924532313 10.094006446886663 0
          4.2973823468598882 10.099264900787963 0
          4.3032729699013785 10.104490934797717 0
          4.3091866885653118 10.109691000116417 0
          4.3151172036478194 10.114872098972089 0
          4.3210577860906696 10.120041866907405 0
          4.3270057728906783 10.125203354549981 0
          4.3329536735430567 10.130365202732717 0
          4.3388934435134932 10.13553668822979 0
          4.3448211275833559 10.14072233755094 0
          4.3507275516238817 10.145932530812086 0
          4.3566076899048429 10.151172751693869 0
          4.3624509460773098 10.156454480392238 0
          4.3682509139619592 10.161784167563498 0
          4.3740006361801855 10.167168532926611 0
          4.3796867421261929 10.17262059323707 0
          4.3852842208105827 10.17816418736591 0
          4.3907752803537257 10.183813836430486 0
          4.3961734908788257 10.189551102665266 0
          4.401463066093398 10.195387674078908 0
          4.406624536125169 10.20133696712112 0
          4.4116010397884287 10.207442288975868 0
          4.4163605851484666 10.213718671098817 0
          4.4209061963903684 10.220152158424487 0
        </DataArray>
      </Points>
      <Cells>
        <DataArray type="Int32" Name="connectivity" format="ascii">
          0 1 1 2 2 3 3 4 4 5 5 6 6 7 7 8 8 9 9 10 10 11 11 12 12 13 13 14 14 15 15 16 16 17 17 18 18 19 19 20 20 21 21 22 22 23 23 24 24 25 25 26 26 27 27 28 28 29 29 30 30 31 31 32 32 33 33 34 34 35 35 36 36 37 37 38 38 39 39 40 40 41 41 42 42 43 43 44 44 45 45 46 46 47 47 48 48 49 49 50 50 51 51 52 52 53 53 54 54 55 55 56 56 57 57 58 58 59 59 60 60 61 61 62 62 63 63 64 64 65 65 66 66 67 67 68 68 69 69 70 70 71 71 72 72 73 73 74 74 75 75 76 76 77 77 78 78 79 79 80 80 81 81 82 82 83 83 84 84 85 85 86 86 87 87 88 88 89 89 90 90 91 91 92 92 93 93 94 94 95 95 96 96 97 97 98 98 99 99 100 100 101 101 102 102 103 103 104 104 105 105 106 106 107 107 108 108 109 109 110 110 111 111 112 112 113 113 114 114 115 115 116 116 117 117 118 118 119 119 120 120 121 121 122 122 123 123 124 124 125 125 126 126 127 
        </DataArray>
        <DataArray type="Int32" Name="offsets" format="ascii">
          2 4 6 8 10 12 14 16 18 20 22 24 26 28 30 32 34 36 38 40 42 44 46 48 50 52 54 56 58 60 62 64 66 68 70 72 74 76 78 80 82 84 86 88 90 92 94 96 98 100 102 104 106 108 110 112 114 116 118 120 122 124 126 128 130 132 134 136 138 140 142 144 146 148 150 152 154 156 158 160 162 164 166 168 170 172 174 176 178 180 182 184 186 188 190 192 194 196 198 200 202 204 206 208 210 212 214 216 218 220 222 224 226 228 230 232 234 236 238 240 242 244 246 248 250 252 254 
        </DataArray>
        <DataArray type="Int32" Name="types" format="ascii">
          3 3 3 3 3 3 3 3 3 3 3 3 3 3 3 3 3 3 3 3 3 3 3 3 3 3 3 3 3 3 3 3 3 3 3 3 3 3 3 3 3 3 3 3 3 3 3 3 3 3 3 3 3 3 3 3 3 3 3 3 3 3 3 3 3 3 3 3 3 3 3 3 3 3 3 3 3 3 3 3 3 3 3 3 3 3 3 3 3 3 3 3 3 3 3 3 3 3 3 3 3 3 3 3 3 3 3 3 3 3 3 3 3 3 3 3 3 3 3 3 3 3 3 3 3 3 3         </DataArray>
      </Cells>
    </Piece>
  </UnstructuredGrid>
</VTKFile>
