<?xml version="1.0"?>
<VTKFile type="UnstructuredGrid" version="0.1" byte_order="LittleEndian">
  <UnstructuredGrid>
    <Piece NumberOfPoints="128" NumberOfCells="127">
      <PointData Scalars="W">
        <DataArray type="Float32" Name="W" NumberOfComponents="2">
          0 0 0.24794251191971103 0.28027218342000049 0.42749064696081213 0.48716910163430394 0.56506159962789437 0.65172351356085789 0.67975597327617687 0.79601976625532633 0.77914759625500551 0.92901862777597455 0.86685490894808848 1.0551659499616881 0.94480519837968635 1.1769597200608495 1.0141164973437233 1.2959516899785888 1.075510664190827 1.4132258979215317 1.1294092173715335 1.5294993222532949 1.176070524672806 1.6452817919256018 1.2156343908819169 1.760924236723596 1.2482013440322861 1.8767243255084636 1.2738474292235489 1.9929537956812478 1.2925809940451973 2.1097945011291221 1.3043295754625372 2.2273035852868648 1.3090258953979317 2.3455453431039421 1.3065731207577735 2.4645364874342519 1.2968334529942416 2.5842164540366714 1.2796632169608282 2.7045047814289234 1.2549140362806552 2.8253053512979336 1.2224077550472432 2.9464468402371287 1.1819527117148716 3.0677011116252424 1.1333840008673897 3.1888822497202316 1.0764920769575606 3.3096525355062743 1.011094862390358 3.4296943881084569 0.93703464068023157 3.5487260993787015 0.85413483710885418 3.666350047720297 0.7621632956015203 3.7817573221346787 0.66107426659773627 3.8948097515175442 0.55074836164718499 4.0049797925822883 0.43109388130804882 4.1116857976324681 0.30205564637720583 4.2143053712433813 0.16362176597613937 4.3122118073590885 0.015823709248578802 4.4046996081499881 -0.14125617184492864 4.4911387110640408 -0.30747892611444039 4.5707098331318363 -0.48263112922135071 4.6425941789614695 -0.66644353918580257 4.7061019114850433 -0.85857953091187655 4.7604782456907255 -1.0586271588111513 4.8049447776605474 0.97430953249583474 -4.3871938181935874 0.80316235428021188 -4.3274296314914507 0.64026269392190716 -4.2587053902372922 0.48599034603714136 -4.1819653940940364 0.34202093857141269 -4.1191575621052099 0.20441278716159714 -4.0298951554259723 0.076008074192217806 -3.9516901954992147 -0.044754675944828168 -3.8694560147381916 -0.1569981925177549 -3.767479624935441 -0.26171835997182946 -3.6791336567623691 -0.35912943152932458 -3.5887586867356505 -0.45175853353672318 -3.5132555941231951 -0.53607730809054166 -3.4204449439530729 -0.60725397857471786 -3.2943979532613534 -0.66913297927465987 -3.1670594345225407 -0.72661116431396489 -3.0573217507217456 -0.77707402436119322 -2.9482496815171135 -0.81487330176565576 -2.8202890023138325 -0.85127593132493073 -2.713201638264052 -0.88175478975016153 -2.6077504580774744 -0.89834603139988622 -2.4818905161440226 -0.9167522828693101 -2.3796616253374645 -0.92040648876748443 -2.2560819953171007 -0.92806128148690314 -2.1576994763269961 -0.94334529000589773 -2.0873473332226764 -0.95667836329218714 -2.0201438118921504 -0.95532872842997774 -1.9303416514882161 -0.9644776119772146 -1.8693439591528411 -0.97222357985060182 -1.8109591781884853 -0.96462455067708108 -1.7302519410105079 -0.97011518887736981 -1.6786570720557232 -0.97497241166534432 -1.6297152058522024 -0.96360697114831428 -1.5582937302672948 -0.9678037259823713 -1.5161922995144925 -0.97206427479983915 -1.4767275579575805 -0.97682639498279533 -1.4402471727294013 -0.96456563769949766 -1.3816868491703715 -0.97030347028014607 -1.3515842410121901 -0.97717992799274034 -1.3243892677688724 -0.98568693835298493 -1.3004532437275031 -0.9755418102902732 -1.2537264656945846 -0.9864372340176053 -1.2356016250092203 -0.99928696121549354 -1.2202642998541697 -1.0145940364127628 -1.2080304749191362 -1.0319612196052774 -1.1981316042873047 -1.0296973756561214 -1.1660647067223817 -1.0520970400057474 -1.1623061127007792 -1.0771743660778412 -1.1607348380543918 -1.1054628040071943 -1.1616380655475598 -1.137194568952163 -1.1649378448655001 -1.1484485066063961 -1.1467304009682033 -1.1871766867392708 -1.1551785187766705 -1.230101024223736 -1.1657479253884282 -1.2778868443217477 -1.1786604792202136 -1.3300737768923439 -1.1930596390379224 -1.360335691796341 -1.1859250599558042 -1.4227626207323967 -1.2046236270964061 -1.4905523217730734 -1.2242764659836392 -1.564486992906341 -1.2449873923308683 -1.6160605078887027 -1.2445743256723074 -1.7027857554230772 -1.2674566570410399 -1.7969304174612148 -1.2904632776253211 -1.8679386201237194 -1.2920971671201815 -1.977628268006246 -1.3151457224259269 -2.0967869645580666 -1.3372190301121056 -2.1911772513792522 -1.3368432679160061 -2.3287207743822593 -1.355379097808443 -2.4417864579236093 -1.3514501256858753 -2.6007953374687638 -1.3637692353072575 -2.7726158807294663 -1.3709559732637298 -2.9184912727692591 -1.3539182886632279 -3.1162828514879344 -1.3482274015264157 -3.2881412328155335 -1.3171637904034137 -3.4727897006121333 -1.2774687974483481 -3.6710466451425448 -1.2274570518297117 -3.9301498038401745 -1.1782754176206498 -4.3459808976224341 -1.1441448331711344 5.5261152266848432 1.4834392677936146 5.4609903885361719 1.7333724171547096 5.1077952698097029 1.8722162585527979 4.781188316926948 1.9828791734572819 4.3758376049247403 2.02006971792474 3.7482117925688874 1.8945680765348225 2.7896851790208297 1.5132948423652399 -1.5046975226720167 -0.82744245028907348 0 0
        </DataArray>
        <DataArray type="Float32" Name="u" NumberOfComponents="1">
          0 0.007874015748031496 0.015748031496062992 0.023622047244094488 0.031496062992125984 0.03937007874015748 0.047244094488188976 0.055118110236220472 0.062992125984251968 0.070866141732283464 0.07874015748031496 0.086614173228346455 0.094488188976377951 0.10236220472440945 0.11023622047244094 0.11811023622047244 0.12598425196850394 0.13385826771653545 0.14173228346456693 0.14960629921259844 0.15748031496062992 0.16535433070866143 0.17322834645669291 0.18110236220472442 0.1889763779527559 0.19685039370078741 0.20472440944881889 0.2125984251968504 0.22047244094488189 0.2283464566929134 0.23622047244094488 0.24409448818897639 0.25196850393700787 0.25984251968503935 0.26771653543307089 0.27559055118110237 0.28346456692913385 0.29133858267716534 0.29921259842519687 0.30708661417322836 0.31496062992125984 0.32283464566929132 0.33070866141732286 0.33858267716535434 0.34645669291338582 0.3543307086614173 0.36220472440944884 0.37007874015748032 0.37795275590551181 0.38582677165354329 0.39370078740157483 0.40157480314960631 0.40944881889763779 0.41732283464566927 0.42519685039370081 0.43307086614173229 0.44094488188976377 0.44881889763779526 0.45669291338582679 0.46456692913385828 0.47244094488188976 0.48031496062992124 0.48818897637795278 0.49606299212598426 0.50393700787401574 0.51181102362204722 0.51968503937007871 0.52755905511811019 0.53543307086614178 0.54330708661417326 0.55118110236220474 0.55905511811023623 0.56692913385826771 0.57480314960629919 0.58267716535433067 0.59055118110236215 0.59842519685039375 0.60629921259842523 0.61417322834645671 0.62204724409448819 0.62992125984251968 0.63779527559055116 0.64566929133858264 0.65354330708661412 0.66141732283464572 0.6692913385826772 0.67716535433070868 0.68503937007874016 0.69291338582677164 0.70078740157480313 0.70866141732283461 0.71653543307086609 0.72440944881889768 0.73228346456692917 0.74015748031496065 0.74803149606299213 0.75590551181102361 0.76377952755905509 0.77165354330708658 0.77952755905511806 0.78740157480314965 0.79527559055118113 0.80314960629921262 0.8110236220472441 0.81889763779527558 0.82677165354330706 0.83464566929133854 0.84251968503937003 0.85039370078740162 0.8582677165354331 0.86614173228346458 0.87401574803149606 0.88188976377952755 0.88976377952755903 0.89763779527559051 0.90551181102362199 0.91338582677165359 0.92125984251968507 0.92913385826771655 0.93700787401574803 0.94488188976377951 0.952755905511811 0.96062992125984248 0.96850393700787396 0.97637795275590555 0.98425196850393704 0.99212598425196852 1
        </DataArray>
      </PointData>
      <CellData Scalars="P">
        <DataArray type="Float32" Name="P" NumberOfComponents="1">
          -0.0062357563623538243 -0.017978389157055786 -0.027930226325548996 -0.035382026106535902 -0.039744130596251724 -0.040486425455296564 -0.037115692555970893 -0.029165253115284812 -0.016189197236412774 0.0022421896974634289 0.026543681643926724 0.057116215830213111 0.094346957103715531 0.13861076835616368 0.19027191055430925 0.24968322900676243 0.31718320388827914 0.39309678298299944 0.47773413126146141 0.57138778195480822 0.67433161809462627 0.78681992069587747 0.90908365551309445 1.0413271472072108 1.1837291812096808 1.336434913934728 1.4995556086202104 1.6731693922706694 1.8573142848782818 2.051964844499476 2.2570663001523692 2.4725127120420449 2.6981425114089244 2.9337347145453143 3.1790072442638651 3.4336109468458029 3.6971327548842319 3.9690831026728839 4.2488946246902399 4.5359290281753513 4.8294722439000877 5.1287321952194302 4.8358772578942029 4.5373395312235125 4.2350847162486849 3.9309655965220953 3.6251263094961872 3.3206601655748633 3.0177720041208813 2.7177359351329615 2.4230178140224634 2.1333895604083279 1.8497846376821498 1.5717188928573123 1.3012264365309392 1.0415628722757608 0.79335875942376777 0.55567645774383179 0.32885731668156987 0.11468311386569476 -0.088196878969282647 -0.27970162726286546 -0.4582032752176704 -0.62535665917767325 -0.77966001758495662 -0.92290964903866513 -1.0569918079286735 -1.182105262124387 -1.296930178795846 -1.4032866537618653 -1.5013869803671496 -1.5901819989167645 -1.6713240649022347 -1.7450451411997963 -1.8105422795977373 -1.8692293487955243 -1.9213276272799382 -1.9670622077271402 -2.0059783420165447 -2.0390505948443791 -2.0664579452856957 -2.0883655671505417 -2.1046382331672562 -2.1157764206763749 -2.1218731551044154 -2.1229965266621433 -2.1191897656904732 -2.1107406390275205 -2.0974838894668606 -2.0793913620682418 -2.0564070721475298 -2.0284517820323824 -1.9962067615939325 -1.9588710509846687 -1.9163021129076103 -1.8683254285318811 -1.8147842761039168 -1.7567683638519411 -1.6928865703787934 -1.6229661958116277 -1.5468197791183316 -1.4658403921261915 -1.3783608439228392 -1.2842395576831294 -1.1851384195699832 -1.0792640039866042 -0.96656833108626472 -0.84906427185611333 -0.72495665032238454 -0.59643581263203183 -0.4618414220825508 -0.3215886050287235 -0.17830600966721333 -0.030691528427632373 0.11833882066779366 0.26768100778468695 0.41601728454564846 0.56362884273079128 0.71349028323698405 0.53947624783187509 0.3822135222524925 0.2514358562608362 0.14605925925907184 0.066876180648033981 0.015339036629296369 -0.0097624427613514364 -5.8776324637604228e-05
        </DataArray>
      </CellData>
      <Points>
        <DataArray type="Float32" NumberOfComponents="3" format="ascii">
          5.9141453975102252 10.527702317637731 0
          5.920035224196746 10.522476400131023 0
          5.9259404238362787 10.51726785918043 0
          5.9318721287487035 10.512089522215248 0
          5.9378388686199566 10.506951591470241 0
          5.9438477547748985 10.501863013197168 0
          5.949904949767741 10.496832033227818 0
          5.9560158917309494 10.491866472616607 0
          5.9621854138693111 10.48697388251742 0
          5.96841781377847 10.4821616403947 0
          5.9747168981996106 10.477437017236687 0
          5.9810860091522962 10.472807222011021 0
          5.9875280399514308 10.468279433276996 0
          5.9940454438728885 10.463860820945863 0
          6.0006402403836274 10.459558564738725 0
          6.0073140198535988 10.455379871036389 0
          6.0140679440701534 10.451331984156075 0
          6.0209027417419163 10.447422189895617 0
          6.027818704323999 10.443657819520645 0
          6.0348156800106407 10.440046250801249 0
          6.041893065187895 10.436594904256923 0
          6.0490497955218956 10.43331123816742 0
          6.0562843367556587 10.43020274261241 0
          6.0635946736595683 10.427276928847862 0
          6.0709782981445803 10.424541315159484 0
          6.0784321990344958 10.42200341533346 0
          6.0859528490706678 10.419670717714748 0
          6.0935361936199888 10.417550665513543 0
          6.1011776408936029 10.415650639335549 0
          6.1088720509967116 10.413977932525103 0
          6.1166137215325813 10.412539701007242 0
          6.1243963847645251 10.41134295471665 0
          6.1322132002125818 10.410394524884655 0
          6.1400567489674218 10.40970102797149 0
          6.1479190302690991 10.409268827072054 0
          6.1557914607702369 10.409103993054412 0
          6.1636648764881601 10.409212260813119 0
          6.1715295379123338 10.409598990199861 0
          6.1793751386215794 10.41026911522224 0
          6.1871908185192321 10.411227093273087 0
          6.1949651805295218 10.412476862355907 0
          6.2026863114721982 10.414021794283872 0
          6.2103418076074961 10.415864646414919 0
          6.2180577108510899 10.417435480066775 0
          6.2258234092084255 10.418738001012896 0
          6.2336288020762654 10.419776470615822 0
          6.2414643237937115 10.420555647272904 0
          6.2493210478106578 10.421079425599538 0
          6.2571904417513045 10.421353340450153 0
          6.2650645441137796 10.421382241113404 0
          6.2729358672451818 10.421171226696377 0
          6.2807974515324219 10.420726620376076 0
          6.2886428040595348 10.420053900207012 0
          6.29646588511633 10.419158670035788 0
          6.3042609516973602 10.418045611581828 0
          6.3120227758809584 10.416720479671216 0
          6.3197469442411247 10.415191089907369 0
          6.3274296198579041 10.413465337985224 0
          6.3350672388996943 10.411550028275981 0
          6.342656672531497 10.409451923869435 0
          6.350195576920977 10.407178959021742 0
          6.3576816950717463 10.404737773738704 0
          6.3651131373078362 10.40213490655362 0
          6.372488874850581 10.399378161409309 0
          6.3798077666334185 10.39647387698998 0
          6.3870695860940643 10.393429715780746 0
          6.3942738588726273 10.390251777895315 0
          6.4014196378099415 10.386944425406165 0
          6.4085060967204903 10.383511825118402 0
          6.4155333196243394 10.379959544989877 0
          6.422500739808946 10.376291366951985 0
          6.4294078775512089 10.372510910884563 0
          6.4362552044351098 10.368623180673206 0
          6.4430423806197146 10.364631375103171 0
          6.4497691055430284 10.360538528421145 0
          6.4564360844078283 10.356349068594158 0
          6.4630430576503199 10.352065605634651 0
          6.469589761757482 10.347690586025722 0
          6.4760759021251042 10.343226271164859 0
          6.4825022395906924 10.338676291341772 0
          6.488868419100001 10.334042512393953 0
          6.4951740150070432 10.329326619826629 0
          6.5014185005719103 10.324530097031131 0
          6.5076025055814561 10.319655840300783 0
          6.5137253552486865 10.314704972579275 0
          6.5197862536140478 10.309678443919317 0
          6.5257842523510208 10.304577011891656 0
          6.531718275394935 10.299401289230547 0
          6.5375884639898301 10.29415326287249 0
          6.543393430053106 10.288833164676733 0
          6.5491316194599118 10.283441090811007 0
          6.5548012789592534 10.277976983945754 0
          6.5604004417682429 10.272440638084815 0
          6.5659284109984686 10.266833180358944 0
          6.5713827860101084 10.261154085362174 0
          6.576760905922697 10.25540269607947 0
          6.5820598083449582 10.249578210134203 0
          6.5872762579138886 10.243679732883834 0
          6.5924083789661765 10.23770770432743 0
          6.5974523010243455 10.231660963021094 0
          6.6024038209584166 10.22553828825469 0
          6.6072583544591295 10.219338393621676 0
          6.6120127039886709 10.213061301848581 0
          6.6166614917995235 10.206705591655222 0
          6.6211988798607662 10.200269833970751 0
          6.6256204649954249 10.193753924192015 0
          6.6299194447549361 10.187156430430841 0
          6.6340884292021149 10.180475981222529 0
          6.638121564448924 10.173712596205419 0
          6.6420103198155216 10.166865123098813 0
          6.6457476826166975 10.159933801668258 0
          6.6493237902061209 10.152917865045824 0
          6.6527279849421541 10.145816864687061 0
          6.6559512181216398 10.138631853135671 0
          6.6589812204118699 10.131363180530894 0
          6.6618073306137182 10.124012769311792 0
          6.6644180936797763 10.116583077230663 0
          6.6668012098889449 10.109077201934355 0
          6.6689406047256741 10.101498191423195 0
          6.6708104816004532 10.09384816588017 0
          6.6730229999455837 10.086290408497954 0
          6.6755740998370348 10.078840367436543 0
          6.6784418627042994 10.071506611494826 0
          6.6816060273634097 10.06429596178719 0
          6.6850414569957639 10.057210686534475 0
          6.6887092389886487 10.05024297049523 0
          6.6925499513653302 10.043369141819452 0
          6.6962973584891285 10.036444035854949 0
        </DataArray>
      </Points>
      <Cells>
        <DataArray type="Int32" Name="connectivity" format="ascii">
          0 1 1 2 2 3 3 4 4 5 5 6 6 7 7 8 8 9 9 10 10 11 11 12 12 13 13 14 14 15 15 16 16 17 17 18 18 19 19 20 20 21 21 22 22 23 23 24 24 25 25 26 26 27 27 28 28 29 29 30 30 31 31 32 32 33 33 34 34 35 35 36 36 37 37 38 38 39 39 40 40 41 41 42 42 43 43 44 44 45 45 46 46 47 47 48 48 49 49 50 50 51 51 52 52 53 53 54 54 55 55 56 56 57 57 58 58 59 59 60 60 61 61 62 62 63 63 64 64 65 65 66 66 67 67 68 68 69 69 70 70 71 71 72 72 73 73 74 74 75 75 76 76 77 77 78 78 79 79 80 80 81 81 82 82 83 83 84 84 85 85 86 86 87 87 88 88 89 89 90 90 91 91 92 92 93 93 94 94 95 95 96 96 97 97 98 98 99 99 100 100 101 101 102 102 103 103 104 104 105 105 106 106 107 107 108 108 109 109 110 110 111 111 112 112 113 113 114 114 115 115 116 116 117 117 118 118 119 119 120 120 121 121 122 122 123 123 124 124 125 125 126 126 127 
        </DataArray>
        <DataArray type="Int32" Name="offsets" format="ascii">
          2 4 6 8 10 12 14 16 18 20 22 24 26 28 30 32 34 36 38 40 42 44 46 48 50 52 54 56 58 60 62 64 66 68 70 72 74 76 78 80 82 84 86 88 90 92 94 96 98 100 102 104 106 108 110 112 114 116 118 120 122 124 126 128 130 132 134 136 138 140 142 144 146 148 150 152 154 156 158 160 162 164 166 168 170 172 174 176 178 180 182 184 186 188 190 192 194 196 198 200 202 204 206 208 210 212 214 216 218 220 222 224 226 228 230 232 234 236 238 240 242 244 246 248 250 252 254 
        </DataArray>
        <DataArray type="Int32" Name="types" format="ascii">
          3 3 3 3 3 3 3 3 3 3 3 3 3 3 3 3 3 3 3 3 3 3 3 3 3 3 3 3 3 3 3 3 3 3 3 3 3 3 3 3 3 3 3 3 3 3 3 3 3 3 3 3 3 3 3 3 3 3 3 3 3 3 3 3 3 3 3 3 3 3 3 3 3 3 3 3 3 3 3 3 3 3 3 3 3 3 3 3 3 3 3 3 3 3 3 3 3 3 3 3 3 3 3 3 3 3 3 3 3 3 3 3 3 3 3 3 3 3 3 3 3 3 3 3 3 3 3         </DataArray>
      </Cells>
    </Piece>
  </UnstructuredGrid>
</VTKFile>
