<?xml version="1.0"?>
<VTKFile type="UnstructuredGrid" version="0.1" byte_order="LittleEndian">
  <UnstructuredGrid>
    <Piece NumberOfPoints="128" NumberOfCells="127">
      <PointData Scalars="W">
        <DataArray type="Float32" Name="W" NumberOfComponents="2">
          0 0 0.21745598732572927 0.064577204567749985 0.30495020789528721 0.089848817969704675 0.38197850587115872 0.11137505744853431 0.45422157616332093 0.13075179532218426 0.52401410617093513 0.1485720663021462 0.59277091031138229 0.16514540658383214 0.66143723575109603 0.18063004710368688 0.73068601049705528 0.19509043806657253 0.80090367114462591 0.2084968458938716 0.87241391793453349 0.22078836527157839 0.9454512758108351 0.2318663168632627 1.0201740755310842 0.24159912118277282 1.0966273322371805 0.24981616556673386 1.1747736826392254 0.25631962826884963 1.2545600144829194 0.26090260762272338 1.3359901904429965 0.26336419493796043 1.4189757800540974 0.2634787605385906 1.503413249135481 0.26101524183943003 1.5892312840634018 0.25574587695603729 1.67630542962191 0.24743180749889349 1.7644711933602315 0.23582908754594248 1.8535670025483333 0.22069720081566574 1.9434553408029354 0.20180116667732137 2.0339141901130633 0.17890066425553555 2.1248003425475535 0.15176856187876869 2.215889016100232 0.12017564876219074 2.3068555453709028 0.08389834653706256 2.3974294579263113 0.042731212844414779 2.4876970825357652 -0.0035221145788237812 2.5770249781573629 -0.055058523669066259 2.6651081934408372 -0.11204386233442276 2.7516039441260864 -0.17462519471686272 2.8361852390312228 -0.2429312067027305 2.9184676245211194 -0.3170656749175913 2.9980775398833788 -0.39710941821780932 3.0745308196827907 -0.48310114855318814 3.1474722281846552 -0.57506713503441498 3.2165475563017676 -0.67301212334178362 3.281218434975933 -0.77687339531828581 3.3410004099785198 -0.88655561428524099 3.3954313069683466 -1.001928011200693 -0.56314331803544715 0.17331357807755018 -0.2956482038612917 0.089845213779750466 -0.22513415438899964 0.067889805591878863 0.047956563909508837 -0.014423302755948596 0.11286193457002494 -0.034025516590138728 0.38604522384273271 -0.11724979893878817 0.44628411536915252 -0.13721820727172748 0.71731373106904195 -0.22432437454803356 0.76781285207552841 -0.24529741268158572 1.0379201304988332 -0.34016174082596234 1.0799986630799627 -0.36449580654838348 1.3410995208434691 -0.46772911149608959 2.0935804952908184 -0.76408295947841842 12.981118768194596 -5.7130897961465363 12.308132841970489 -7.1548740145535863 11.468999886498278 -8.5204679550590487 10.475349746637651 -9.7929805287603564 9.3337708877743317 -10.950627163539275 8.0600831973393543 -11.978996251143121 6.6689698350298379 -12.863650799009557 0.12419472473616906 -0.27811201374252154 0.12988039194363438 -0.29277710036682758 0.13552081348214001 -0.30763490473780247 0.14336883561324598 -0.32787610882224921 0.1520049226686935 -0.35040382022249295 0.16124974219296864 -0.37490565617231641 0.17093331259393754 -0.40108787641136062 0.18089371592992648 -0.42867140382810276 0.19097807176694181 -0.45739283653205082 0.20104251832190279 -0.48700303638549275 0.21095228685046641 -0.5172658427692659 0.14962975094270309 -0.37089735258180101 0.16033226394889968 -0.40120970920811594 0.1717940370842149 -0.43434751091739532 0.18163610942597039 -0.46438654040586519 0.19089203543499589 -0.49393633096692668 0.19951108782531207 -0.52289641907175266 0.14270579116311125 -0.37832120245872858 0.15122460487518086 -0.40493927382005285 0.1590002273809471 -0.43036107200893237 0.16597194157059469 -0.45441157775054319 0.17208847721163148 -0.47692294301281057 0.11868970605119761 -0.33245623754407588 0.12416176582849019 -0.35094529967887916 0.12876046603642566 -0.36744395697263038 0.13243559862360807 -0.38174840428097478 0.1351603215551537 -0.39370424838100848 0.081626435630223218 -0.23982386504429437 0.084194186404045634 -0.24902616360357269 0.084866763944308615 -0.25275081844641861 0.084533531290618386 -0.25352303276314869 0.03082156718536035 -0.092881133627271045 0.028852247028307906 -0.087164262831727624 0.026632460214012534 -0.080646228401777292 0.022399325200519366 -0.067968404834589907 -0.033488056418317737 0.10156839993847712 -0.040286430004890912 0.12180821424052041 -0.048495826474699424 0.14608510882571807 -0.058227189516051263 0.17462165480827457 -0.069564091287433266 0.20752301088701991 -0.13185230150171473 0.39012348311810535 -0.14769225855353285 0.4321139764098732 -0.1657715300520301 0.47906334771360493 -0.1872183590881801 0.53373835638128841 -0.21053551470496748 0.59130366095162479 -0.23690860428583957 0.65455766910962554 -0.26668511131702266 0.72373338761165718 -0.30031481051610687 0.79919871485095084 -0.28294903599423227 0.73842783114002064 -0.32363115779152701 0.8281607980479434 -0.36949824490049399 0.92521260393077309 -0.36079777583597428 0.88365885157048429 -0.41667989079589207 0.99759903967827812 -0.414756628887749 0.96997162810391679 -0.63348649892339837 1.4400904067956231 -0.73660005350953706 1.6163101042258454 -0.84777037513202846 1.7896087537735508 -0.98128219368060698 1.9859572437201927 -1.1297846479948315 2.1843087074022627 -1.2166168924119647 2.2426011059205582 -1.4271123495168645 2.5014238664647035 -1.5951859703067788 2.6492334462587808 -1.8037888099817154 2.8304141366482027 -2.0652275974549887 3.0505747912018548 -1.9786515373424201 2.7541152178569921 0 0
        </DataArray>
        <DataArray type="Float32" Name="u" NumberOfComponents="1">
          0 0.007874015748031496 0.015748031496062992 0.023622047244094488 0.031496062992125984 0.03937007874015748 0.047244094488188976 0.055118110236220472 0.062992125984251968 0.070866141732283464 0.07874015748031496 0.086614173228346455 0.094488188976377951 0.10236220472440945 0.11023622047244094 0.11811023622047244 0.12598425196850394 0.13385826771653545 0.14173228346456693 0.14960629921259844 0.15748031496062992 0.16535433070866143 0.17322834645669291 0.18110236220472442 0.1889763779527559 0.19685039370078741 0.20472440944881889 0.2125984251968504 0.22047244094488189 0.2283464566929134 0.23622047244094488 0.24409448818897639 0.25196850393700787 0.25984251968503935 0.26771653543307089 0.27559055118110237 0.28346456692913385 0.29133858267716534 0.29921259842519687 0.30708661417322836 0.31496062992125984 0.32283464566929132 0.33070866141732286 0.33858267716535434 0.34645669291338582 0.3543307086614173 0.36220472440944884 0.37007874015748032 0.37795275590551181 0.38582677165354329 0.39370078740157483 0.40157480314960631 0.40944881889763779 0.41732283464566927 0.42519685039370081 0.43307086614173229 0.44094488188976377 0.44881889763779526 0.45669291338582679 0.46456692913385828 0.47244094488188976 0.48031496062992124 0.48818897637795278 0.49606299212598426 0.50393700787401574 0.51181102362204722 0.51968503937007871 0.52755905511811019 0.53543307086614178 0.54330708661417326 0.55118110236220474 0.55905511811023623 0.56692913385826771 0.57480314960629919 0.58267716535433067 0.59055118110236215 0.59842519685039375 0.60629921259842523 0.61417322834645671 0.62204724409448819 0.62992125984251968 0.63779527559055116 0.64566929133858264 0.65354330708661412 0.66141732283464572 0.6692913385826772 0.67716535433070868 0.68503937007874016 0.69291338582677164 0.70078740157480313 0.70866141732283461 0.71653543307086609 0.72440944881889768 0.73228346456692917 0.74015748031496065 0.74803149606299213 0.75590551181102361 0.76377952755905509 0.77165354330708658 0.77952755905511806 0.78740157480314965 0.79527559055118113 0.80314960629921262 0.8110236220472441 0.81889763779527558 0.82677165354330706 0.83464566929133854 0.84251968503937003 0.85039370078740162 0.8582677165354331 0.86614173228346458 0.87401574803149606 0.88188976377952755 0.88976377952755903 0.89763779527559051 0.90551181102362199 0.91338582677165359 0.92125984251968507 0.92913385826771655 0.93700787401574803 0.94488188976377951 0.952755905511811 0.96062992125984248 0.96850393700787396 0.97637795275590555 0.98425196850393704 0.99212598425196852 1
        </DataArray>
      </PointData>
      <CellData Scalars="P">
        <DataArray type="Float32" Name="P" NumberOfComponents="1">
          -0.024711732491567932 -0.074023467306016 -0.12310251991237507 -0.17181037388447903 -0.21998449968745779 -0.26743723221231047 -0.31395461629825538 -0.35929560068285693 -0.40319150532785686 -0.44534691455048697 -0.48543983150022257 -0.52312255484920522 -0.55802307787498695 -0.58974787674656215 -0.61788530388710783 -0.64200851904497191 -0.6616769849752292 -0.67644138116092312 -0.68584743392545866 -0.68943854932448323 -0.68676096056459168 -0.67736905159869076 -0.6608295441157197 -0.63672479425536277 -0.60466034960887094 -0.56426615918496226 -0.51520427405932157 -0.4571782371602926 -0.38993559994215932 -0.31325376382668496 -0.2269808644417696 -0.13102438919890652 -0.025357734701606072 0.089976327743586021 0.21485805271542582 0.34908720175572994 0.4923720556371961 0.64433368121814627 0.80450282251512184 0.9723045060174369 1.1470583616131242 1.3279774408546634 1.2479162796084733 1.1871149839438717 1.1314016616003546 1.0945551572020022 1.0615939037225357 1.0453198793349274 1.0310111334344536 1.0299242545843481 1.0280355947340416 1.0350927507528673 1.0383537722383922 1.0453022532938869 1.0686352729532695 1.3548662457006606 1.5699528126093667 1.7293505135333385 1.8497476541369051 1.9484972432365377 2.043282002463271 2.1516004511472557 2.1085912336718677 2.0672711956371317 2.0275749061101784 1.9895564285653127 1.9532075376654361 1.9185048679429719 1.8854050819646107 1.853841704323723 1.8237235516609414 1.794934485961879 1.7673343003189976 1.7346604477769396 1.7028853057721376 1.6719371502324081 1.6415300692801416 1.6114585523769038 1.5815086237769069 1.5465153588107932 1.5114837791235316 1.4762046333369989 1.4404696764481044 1.4040765465179239 1.3637210981649817 1.3227187113351104 1.2809115070688772 1.2381581485872444 1.1943383772002503 1.1482536172064188 1.1013659493234504 1.0536069927026972 1.0049539279711168 0.95593787593709945 0.90646659682104658 0.85657087873032622 0.80634581199024635 0.75787543697545312 0.70966817667878368 0.66186958854373446 0.61464900113671461 0.56819516581725427 0.52608224708416307 0.48542241452578078 0.44643514066522577 0.4094190815027291 0.37453777139518585 0.3420202895029899 0.31208658519419158 0.28494420119609171 0.2560740468550855 0.2302726644754215 0.20766068544042685 0.18342107605560257 0.16247464851790802 0.13988588802038948 0.13097138749388121 0.12553084866790135 0.12257658348933005 0.12167064307534814 0.1215620856945327 0.11767145478507882 0.11288442043129555 0.10315325242134461 0.087089900050905861 0.062769586157749802 0.024904913764257752
        </DataArray>
      </CellData>
      <Points>
        <DataArray type="Float32" NumberOfComponents="3" format="ascii">
          4.5525548475158057 9.6945605977022637 0
          4.5503064985782995 9.702106940176062 0
          4.5480716359418807 9.7096572746671193 0
          4.5458556858804586 9.7172131628412348 0
          4.5436634248563044 9.7247759368672764 0
          4.5414993320159676 9.7323467974931237 0
          4.539367734094351 9.739926850406242 0
          4.5372728932424966 9.7475171251733048 0
          4.5352190657232665 9.7551185848711928 0
          4.5332105437137855 9.7627321299439256 0
          4.5312516793403175 9.7703585962457176 0
          4.5293469048206809 9.7779987511689779 0
          4.527500747076159 9.7856532874431892 0
          4.5257178376184397 9.7933228149036395 0
          4.524002915410378 9.8010078498476219 0
          4.522360824618751 9.8087088027094076 0
          4.5207965113899595 9.8164259651766237 0
          4.5193150241575442 9.8241594976814035 0
          4.5179215082265269 9.8319094153610234 0
          4.5166211994200856 9.8396755736829959 0
          4.5154194197225745 9.8474576542753507 0
          4.5143215696258876 9.8552551500686789 0
          4.5133331179911718 9.8630673501218702 0
          4.5124595920890282 9.8708933246590771 0
          4.511706569128612 9.8787319104480478 0
          4.5110796625437146 9.8865816958449368 0
          4.5105845131623568 9.8944410066542652 0
          4.5102267753141279 9.9023078918568199 0
          4.5100120967387296 9.9101801096836333 0
          4.5099461018500984 9.9180551148111462 0
          4.5100343971247518 9.9259300461160134 0
          4.5102825318454549 9.9338017143935442 0
          4.5106959792107304 9.9416665919977589 0
          4.5112801150916368 9.9495208036430292 0
          4.5120401977617064 9.9573601183424074 0
          4.5129813440558477 9.9651799428878718 0
          4.5141085061979611 9.9729753167520698 0
          4.5154264417596792 9.9807409095997652 0
          4.516939691610065 9.9884710195692534 0
          4.5186525579226071 9.9961595728874038 0
          4.5205690707488788 10.003800127669107 0
          4.5226929579291983 10.011385879740272 0
          4.5250276163783161 10.018909670659394 0
          4.5273272825436068 10.026444069398769 0
          4.5296085546319942 10.033983886048903 0
          4.5318758101979633 10.041527761012919 0
          4.5341459923431273 10.049070577818476 0
          4.536423129193464 10.056611124300508 0
          4.5387241671324512 10.064144229450465 0
          4.5410528432739232 10.0716686595865 0
          4.5434259678671722 10.07917900499076 0
          4.5458466724419324 10.086673971060939 0
          4.5483317075422445 10.094147668947629 0
          4.5508836811457725 10.101598596896441 0
          4.5535187829578163 10.109020349642011 0
          4.5562836708930812 10.116394525683562 0
          4.5598537593338824 10.123414481588794 0
          4.5641873521855842 10.129990773632125 0
          4.5692324455296562 10.136038674046931 0
          4.5749274469957619 10.141479218892448 0
          4.5812015827569503 10.146240560147865 0
          4.5879758769941521 10.150258860449313 0
          4.5951640610842972 10.153479189825646 0
          4.602359824581316 10.156682209219712 0
          4.6095635212868862 10.159867010415642 0
          4.6167755024985002 10.163032673448644 0
          4.6239962564748565 10.166177944484247 0
          4.6312263205105335 10.169301428017979 0
          4.6384662698076369 10.172401606261623 0
          4.6457167069301724 10.175476857369512 0
          4.6529782517612608 10.178525472751975 0
          4.6602515320233051 10.181545673413321 0
          4.6675371743598006 10.184535625402148 0
          4.6748357959832063 10.187493454453945 0
          4.6821436028250778 10.190428243136337 0
          4.6894612612110436 10.193338113667954 0
          4.696789484619452 10.196221013163344 0
          4.7041288863508548 10.199075081092447 0
          4.7114800435396367 10.201898487394709 0
          4.7188434940186212 10.204689438695709 0
          4.7262157232141 10.207456904054329 0
          4.7335972626955343 10.210199234943195 0
          4.740988598151703 10.212914857113796 0
          4.7483901656402088 10.215602281436038 0
          4.7558023484230834 10.218260114292287 0
          4.7632218424865274 10.220897316363313 0
          4.77064899112123 10.223512743123623 0
          4.7780840837100103 10.226105373524764 0
          4.7855273526298339 10.228674322621318 0
          4.792978971601678 10.231218851133157 0
          4.8004356277240383 10.233748502220985 0
          4.80789748498277 10.236262707102057 0
          4.8153645901683575 10.238761236675021 0
          4.8228369280055725 10.241244044942444 0
          4.8303111740342404 10.24372109365331 0
          4.8377872115713565 10.246192739049254 0
          4.8452649087155537 10.248659387129969 0
          4.8527440090479717 10.251121825892914 0
          4.8602210527311316 10.253590568442204 0
          4.867695624328416 10.256066871738366 0
          4.8751672212231698 10.258552243200976 0
          4.8826352467418355 10.261048454531752 0
          4.8900990049732442 10.263557548263375 0
          4.8975546386775939 10.266090848247593 0
          4.9050011727106098 10.268650961068303 0
          4.9124374933510255 10.271240801115088 0
          4.9198622782691022 10.27386376217429 0
          4.9272740894490745 10.276523417706688 0
          4.9346712995994029 10.279223694418112 0
          4.9420520705720348 10.281968886788217 0
          4.9494143254255505 10.284763679973743 0
          4.956759154598104 10.287604313016585 0
          4.9640840447228314 10.290496357360825 0
          4.971386160876575 10.293445839301905 0
          4.9786660584074358 10.296450192045068 0
          4.9859202818830228 10.299516491500501 0
          4.9931489680499404 10.302643036770418 0
          5.0003385438951096 10.305858993507877 0
          5.0074826198281128 10.309175305109965 0
          5.0145743059321157 10.312602736116023 0
          5.0216053241975436 10.316153482983179 0
          5.0285664653237721 10.319839869185794 0
          5.0354523538745912 10.323665535435858 0
          5.0422499283914224 10.327646562219343 0
          5.0489487651899321 10.331792149297758 0
          5.0555359223155278 10.33611357098334 0
          5.0619951751139745 10.34062452540998 0
          5.0683319413645824 10.345306680026139 0
        </DataArray>
      </Points>
      <Cells>
        <DataArray type="Int32" Name="connectivity" format="ascii">
          0 1 1 2 2 3 3 4 4 5 5 6 6 7 7 8 8 9 9 10 10 11 11 12 12 13 13 14 14 15 15 16 16 17 17 18 18 19 19 20 20 21 21 22 22 23 23 24 24 25 25 26 26 27 27 28 28 29 29 30 30 31 31 32 32 33 33 34 34 35 35 36 36 37 37 38 38 39 39 40 40 41 41 42 42 43 43 44 44 45 45 46 46 47 47 48 48 49 49 50 50 51 51 52 52 53 53 54 54 55 55 56 56 57 57 58 58 59 59 60 60 61 61 62 62 63 63 64 64 65 65 66 66 67 67 68 68 69 69 70 70 71 71 72 72 73 73 74 74 75 75 76 76 77 77 78 78 79 79 80 80 81 81 82 82 83 83 84 84 85 85 86 86 87 87 88 88 89 89 90 90 91 91 92 92 93 93 94 94 95 95 96 96 97 97 98 98 99 99 100 100 101 101 102 102 103 103 104 104 105 105 106 106 107 107 108 108 109 109 110 110 111 111 112 112 113 113 114 114 115 115 116 116 117 117 118 118 119 119 120 120 121 121 122 122 123 123 124 124 125 125 126 126 127 
        </DataArray>
        <DataArray type="Int32" Name="offsets" format="ascii">
          2 4 6 8 10 12 14 16 18 20 22 24 26 28 30 32 34 36 38 40 42 44 46 48 50 52 54 56 58 60 62 64 66 68 70 72 74 76 78 80 82 84 86 88 90 92 94 96 98 100 102 104 106 108 110 112 114 116 118 120 122 124 126 128 130 132 134 136 138 140 142 144 146 148 150 152 154 156 158 160 162 164 166 168 170 172 174 176 178 180 182 184 186 188 190 192 194 196 198 200 202 204 206 208 210 212 214 216 218 220 222 224 226 228 230 232 234 236 238 240 242 244 246 248 250 252 254 
        </DataArray>
        <DataArray type="Int32" Name="types" format="ascii">
          3 3 3 3 3 3 3 3 3 3 3 3 3 3 3 3 3 3 3 3 3 3 3 3 3 3 3 3 3 3 3 3 3 3 3 3 3 3 3 3 3 3 3 3 3 3 3 3 3 3 3 3 3 3 3 3 3 3 3 3 3 3 3 3 3 3 3 3 3 3 3 3 3 3 3 3 3 3 3 3 3 3 3 3 3 3 3 3 3 3 3 3 3 3 3 3 3 3 3 3 3 3 3 3 3 3 3 3 3 3 3 3 3 3 3 3 3 3 3 3 3 3 3 3 3 3 3         </DataArray>
      </Cells>
    </Piece>
  </UnstructuredGrid>
</VTKFile>
