<?xml version="1.0"?>
<VTKFile type="UnstructuredGrid" version="0.1" byte_order="LittleEndian">
  <UnstructuredGrid>
    <Piece NumberOfPoints="128" NumberOfCells="127">
      <PointData Scalars="W">
        <DataArray type="Float32" Name="W" NumberOfComponents="2">
          0 0 -0.073188330706678462 0.031585102211760363 -0.16611458795955922 0.071486240170181709 -0.24114109563524644 0.10327509018316126 -0.30750480724243245 0.13084334771050471 -0.36889738668867805 0.15570739037807457 -0.42700131592446872 0.17852511301918733 -0.48273043895400086 0.19962879313976559 -0.53661072378878116 0.21918900674392855 -0.58903613682384925 0.23732262644367336 -0.64025292304523318 0.25408718577838019 -0.69046348911541333 0.26952387455674304 -0.73983395337175362 0.2836603102791721 -0.78855853959271871 0.29653457910987358 -0.83682791540826951 0.30818108871368111 -0.88480444639072675 0.31862057242060116 -0.93256021576131098 0.3278387790700627 -0.98024041321087618 0.33584558638158657 -1.0279560341470644 0.34263505560594731 -1.0757822450213872 0.34818601832361978 -1.1237980571774593 0.35247580073277934 -1.1721061077520465 0.35548536444217477 -1.2207833680735767 0.35718307837098617 -1.2698819387454141 0.35752601020253866 -1.3195023571216431 0.35648050021372657 -1.3696469139510716 0.35398124910778689 -1.4203769968657751 0.34997564860791336 -1.4718169008268005 0.34441998860909423 -1.5240073601452717 0.33724258968244747 -1.5766556173667816 0.32829915911114554 -1.6301197738865822 0.31758455132012836 -1.6844117067020825 0.30500597640162969 -1.7395728545920794 0.29047047813933952 -1.7955932710549785 0.27387008507265442 -1.8524785390590102 0.2550944253403758 -1.9102160464218974 0.23402490947640031 -1.9688883441243648 0.21054700446287561 -2.0284144652084977 0.18451890138413524 -2.0886839133610091 0.15579532607421373 -2.1497310432250978 0.12423869553323023 -2.2115560766275748 0.089697897744131797 -2.274103127685418 0.052010212217388718 -12.372448590219584 -0.43133556776052301 -12.328058388818279 -1.6442638628042965 -12.163884111445794 -2.8582585912680325 -11.87633204975196 -4.0605205960552775 -11.467427291778218 -5.2388427938315143 -10.936360271753522 -6.3792659368864024 -10.287982376419654 -7.46961827043833 -9.5247046224964613 -8.4954374842298392 -8.6535857299268351 -9.4443619442481861 -7.6829969389204171 -10.305056975239847 -6.6205859052590457 -11.063911101260313 -5.4775241398343315 -11.709798839283204 -0.031874692737051999 -0.078370791497980791 -0.048187710338517639 -0.11876483692182825 0.10008747063185897 0.24629519206941083 0.081450261772603033 0.19934908300576229 0.4172092821697797 1.0063222257703679 0.79788887389301144 1.8597679589765717 1.4835548244159085 3.2576683273662819 1.8040667594500979 3.6641221528503305 2.4751908001284955 4.5944459516919993 2.9417050678550378 4.937205293376187 3.0846136439435257 4.6868517306715578 3.2340009489298112 4.4737701712080407 3.3659108581612442 4.2569834002616629 3.4807421540884635 4.038134321020598 3.560680652802076 3.7999324412674045 3.6416766353881851 3.5829099516371143 3.7069920435929911 3.3673408033999079 3.7589627534225247 3.1556947248075535 3.7978069438153401 2.9481870992229822 3.802123256655134 2.7301768939366915 3.8166093771548928 2.5348897366015906 3.8210888741393498 2.3457652183324078 3.8157126262474654 2.1627523277918437 3.8031776053826856 1.9871558973005334 3.7580967566639489 1.8068872316578481 3.7318093413331828 1.6472588494293721 3.7005091687332432 1.4948404854462736 3.6650800616266306 1.349578921470495 3.6254627190789681 1.2110665984304605 3.5842532320537313 1.0797505098876139 3.5131331790550822 0.94788341655167485 3.4688340151962009 0.83112612385592322 3.4242807009601175 0.72035487548664667 3.3791930588801544 0.61506036646880868 3.3359584497043837 0.51520706983247622 3.2942251691069409 0.4201782072079871 3.2245271892244549 0.32688507688274976 3.1862796939135913 0.24162508780531219 3.1518822875412238 0.15988063126495478 3.1208533264778788 0.081052478632528957 3.0935619037959921 0.0046231102340464625 3.0383891592676373 -0.068833676824116674 3.0196308612883125 -0.1405679107095138 3.0055967567521717 -0.2115874767242493 2.9965463124079199 -0.28249144639614093 2.9599748857562584 -0.34964474351128244 2.9617770465333781 -0.42067846511819296 2.9692381587816192 -0.49356706776081716 2.9825028609065209 -0.56903628906745873 2.9692711241212066 -0.64045437631205016 2.9941108326024235 -0.72169026487059507 3.0258898825094169 -0.80813440149926674 3.0309365635238703 -0.89046251158945255 3.0755310784324603 -0.9882564248252661 3.1262626723450855 -1.0941674076504528 3.1498565765866502 -1.1963265826879712 3.2137355494369628 -1.3207293140654679 3.2823649645470367 -1.4569353496610145 3.3230450811239183 -1.5904358807506183 3.4028617485104311 -1.75416322234956 3.4526885263249216 -1.915862004976461 3.5402634820870498 -2.1143228673344843 3.5959719645220325 -2.3122440867766234 3.7924090205839458 -2.6306168364343097 3.8494862923786695 -2.8875704897381604 3.9385017071148014 -3.2013106452745044 3.9831646034774004 -3.5177118281558162 -3.8559007233862279 3.4098253663890365 -5.2677432324295372 4.2353982296991832 -5.4415550256604623 3.91906292483245 -5.0735312442656175 3.2803934826304455 -4.4203978546134861 2.5899503285749215 -1.0700365248429693 0.59153736397230139 0 0
        </DataArray>
        <DataArray type="Float32" Name="u" NumberOfComponents="1">
          0 0.007874015748031496 0.015748031496062992 0.023622047244094488 0.031496062992125984 0.03937007874015748 0.047244094488188976 0.055118110236220472 0.062992125984251968 0.070866141732283464 0.07874015748031496 0.086614173228346455 0.094488188976377951 0.10236220472440945 0.11023622047244094 0.11811023622047244 0.12598425196850394 0.13385826771653545 0.14173228346456693 0.14960629921259844 0.15748031496062992 0.16535433070866143 0.17322834645669291 0.18110236220472442 0.1889763779527559 0.19685039370078741 0.20472440944881889 0.2125984251968504 0.22047244094488189 0.2283464566929134 0.23622047244094488 0.24409448818897639 0.25196850393700787 0.25984251968503935 0.26771653543307089 0.27559055118110237 0.28346456692913385 0.29133858267716534 0.29921259842519687 0.30708661417322836 0.31496062992125984 0.32283464566929132 0.33070866141732286 0.33858267716535434 0.34645669291338582 0.3543307086614173 0.36220472440944884 0.37007874015748032 0.37795275590551181 0.38582677165354329 0.39370078740157483 0.40157480314960631 0.40944881889763779 0.41732283464566927 0.42519685039370081 0.43307086614173229 0.44094488188976377 0.44881889763779526 0.45669291338582679 0.46456692913385828 0.47244094488188976 0.48031496062992124 0.48818897637795278 0.49606299212598426 0.50393700787401574 0.51181102362204722 0.51968503937007871 0.52755905511811019 0.53543307086614178 0.54330708661417326 0.55118110236220474 0.55905511811023623 0.56692913385826771 0.57480314960629919 0.58267716535433067 0.59055118110236215 0.59842519685039375 0.60629921259842523 0.61417322834645671 0.62204724409448819 0.62992125984251968 0.63779527559055116 0.64566929133858264 0.65354330708661412 0.66141732283464572 0.6692913385826772 0.67716535433070868 0.68503937007874016 0.69291338582677164 0.70078740157480313 0.70866141732283461 0.71653543307086609 0.72440944881889768 0.73228346456692917 0.74015748031496065 0.74803149606299213 0.75590551181102361 0.76377952755905509 0.77165354330708658 0.77952755905511806 0.78740157480314965 0.79527559055118113 0.80314960629921262 0.8110236220472441 0.81889763779527558 0.82677165354330706 0.83464566929133854 0.84251968503937003 0.85039370078740162 0.8582677165354331 0.86614173228346458 0.87401574803149606 0.88188976377952755 0.88976377952755903 0.89763779527559051 0.90551181102362199 0.91338582677165359 0.92125984251968507 0.92913385826771655 0.93700787401574803 0.94488188976377951 0.952755905511811 0.96062992125984248 0.96850393700787396 0.97637795275590555 0.98425196850393704 0.99212598425196852 1
        </DataArray>
      </PointData>
      <CellData Scalars="P">
        <DataArray type="Float32" Name="P" NumberOfComponents="1">
          -0.0040134271344242876 -0.011987107830871873 -0.019764063984324887 -0.027234007597691508 -0.034294351963283003 -0.040843848002012288 -0.046780977940211486 -0.052003312464277258 -0.056407449129884102 -0.059888589097780179 -0.062340748189045225 -0.063656580237387725 -0.063727256354468673 -0.062441698045720709 -0.059685995957190416 -0.055343114011762749 -0.04929359691467302 -0.041414081653849327 -0.031577184220386044 -0.01965153869809922 -0.0055012034117953223 0.011015425869072703 0.030045834509461206 0.051743544656112056 0.076269965663956205 0.10379288017826485 0.13448859941644503 0.16854466680266311 0.20615876310647124 0.24752951070335305 0.29287659080153688 0.34243207101306183 0.396442558426784 0.45516872855059587 0.51888710904537882 0.58789075498017218 0.66249452084418459 0.74303022320529744 0.82984652259369518 0.92331664132886826 1.0238389070376017 1.1318360640960619 1.7608307421038933 2.4058227524364439 3.0632582917526872 3.7289632084789393 4.3983927225569976 5.0664025519947424 5.727530657806045 6.3757861455002409 7.0048992764409315 7.6083823849327032 8.1794277651782803 8.7111376871531618 8.7044182499046663 8.6985684672853676 8.6722868018950585 8.6461445252192419 8.5675483482315329 8.4248528854461249 8.166923224843158 7.8524293429555954 7.4277952628131834 6.986483939433012 6.5337951647240562 6.0701626280370604 5.5997029169718813 5.1262543411494939 4.6559045689089578 4.1894049551943482 3.729752493958324 3.2794345521237021 2.8407286358056933 2.418244914432675 2.0110156223615725 1.6204379320153077 1.2477414475655133 0.89373443797406837 0.56151453736589907 0.24905120888456764 -0.043371864671656969 -0.315632652411938 -0.56768338411033192 -0.79974062361671605 -1.0102028787722412 -1.2013965546882088 -1.3737368692540342 -1.5276494196148662 -1.663699132756473 -1.7824297040131003 -1.8833128502709542 -1.9681339112102509 -2.0374901630327136 -2.0919354720137004 -2.132005878690443 -2.1578027338537233 -2.1703792582452754 -2.1701832907076297 -2.1576291966707632 -2.1332438294650089 -2.0973725655434272 -2.0503229061611012 -1.9923749165331541 -1.9244277330673254 -1.846218491212954 -1.7579569486234541 -1.6608406038973 -1.5542434507410483 -1.4384332450181483 -1.314957403615552 -1.1830175783217978 -1.0431208723478718 -0.89726893042481726 -0.74483307731837511 -0.58825404820067673 -0.42724721926619352 -0.26477865052658434 -0.096622477743237956 0.06901076124535642 0.23078312340693388 0.38381869524065843 0.26755049995556185 0.15152968179911416 0.060945110483550405 0.0042784346226647282 -0.020805262488178437 -0.0082438793311804381
        </DataArray>
      </CellData>
      <Points>
        <DataArray type="Float32" NumberOfComponents="3" format="ascii">
          3.8803450949702247 8.3488198991319091 0
          3.8834673315723531 8.356048443260887 0
          3.8865850303577902 8.3632789453834402 0
          3.889692429826821 8.3705138792532843 0
          3.8927848782965038 8.3777552157219226 0
          3.8958582611973136 8.3850046640013289 0
          3.8989087721837805 8.3922637656680283 0
          3.9019328088165208 8.3995339354450529 0
          3.9049269159008237 8.4068164817975379 0
          3.9078877528741862 8.4141126175039709 0
          3.9108120693784052 8.4214234668986645 0
          3.9136966899907857 8.4287500694358748 0
          3.9165385016736596 8.4360933822411486 0
          3.9193344434740913 8.443454281821694 0
          3.922081494481318 8.4508335664262741 0
          3.9247766620049278 8.4582319581774446 0
          3.9274169715080034 8.4656501043564152 0
          3.9299994621379795 8.4730885765192436 0
          3.9325211777250768 8.4805478711094242 0
          3.9349791599009225 8.4880284090902034 0
          3.9373704434386916 8.4955305346330476 0
          3.9396920513549349 8.5030545137130904 0
          3.9419409885466474 8.5106005329303098 0
          3.9441142370196234 8.5181686975502977 0
          3.9462087526587522 8.5257590288446181 0
          3.9482214589951479 8.533371462006345 0
          3.9501492470644561 8.5410058421041963 0
          3.9519889716009722 8.5486619208237116 0
          3.9537374433312746 8.5563393537603023 0
          3.9553914264483714 8.5640376959783211 0
          3.9569476567620758 8.5717563930682044 0
          3.9584028194956908 8.5794947808307658 0
          3.9597535485482727 8.5872520795275271 0
          3.9609964239236262 8.595027388120636 0
          3.9621279723447405 8.6028196775816657 0
          3.9631446669049084 8.6106277840513563 0
          3.9640429278464482 8.6184504014895573 0
          3.9648191174387657 8.6262860745762051 0
          3.9654695449940438 8.6341331899207105 0
          3.9659904737132563 8.6419899670558653 0
          3.9663781185509017 8.6498544499079024 0
          3.9666286461955158 8.6577244974268908 0
          3.9667381785284763 8.665597773496474 0
          3.9660806126151757 8.6734443108945438 0
          3.9646586992350161 8.6811889080061224 0
          3.962482615563355 8.6887562969008005 0
          3.9595701879902023 8.6960719368069004 0
          3.9559467665744457 8.7030627708979846 0
          3.9516452752726146 8.7096580916817352 0
          3.9467059111842442 8.7157902955909012 0
          3.9411759951389471 8.7213957795588311 0
          3.9351095341249684 8.7264157073785853 0
          3.9285667023496949 8.7307967123936034 0
          3.9216133672160605 8.7344917413382941 0
          3.9143203968234825 8.737460744077147 0
          3.907025551014736 8.7404248466835082 0
          3.8997277502314387 8.7433815725614856 0
          3.8924361173077959 8.7463535841334998 0
          3.8851494248623406 8.7493380004574011 0
          3.8778884036702865 8.7523848949876442 0
          3.8706765557325533 8.7555472409746748 0
          3.8635562660219471 8.7589118137708191 0
          3.8565472992813854 8.7625039314834972 0
          3.849691146444925 8.7663814643980089 0
          3.8430176318480025 8.7705652270661254 0
          3.8365356105240851 8.775039670126116 0
          3.8302543360028567 8.7797915599359833 0
          3.8241819767229539 8.7848074350400207 0
          3.8183256410587196 8.7900737080865348 0
          3.8126902734300478 8.7955755924493726 0
          3.8072808827311424 8.801299618040991 0
          3.8021015052804827 8.8072324067599119 0
          3.797155349837992 8.8133608256395508 0
          3.7924448113343776 8.8196720000581994 0
          3.7879701442762523 8.8261524047764652 0
          3.7837322337899679 8.832789926124585 0
          3.7797313450361312 8.8395728339379804 0
          3.7759671326587028 8.846489778235668 0
          3.7724388080625446 8.853529870064957 0
          3.7691435655085654 8.8606819310047626 0
          3.7660797650579907 8.8679360641974245 0
          3.7632454567184728 8.8752828206235641 0
          3.7606384352521398 8.8827131956948833 0
          3.7582562364996579 8.890218603864378 0
          3.7560962983288451 8.8977909062912364 0
          3.7541542048705141 8.9054219298814292 0
          3.7524272038364166 8.9131044393214278 0
          3.7509125278711291 8.9208315707131103 0
          3.749607377152675 8.9285967999213369 0
          3.7485090673793131 8.9363939403399293 0
          3.7476150079333701 8.9442171045856078 0
          3.7469208749441769 8.952060512729302 0
          3.7464242950150553 8.95991888323484 0
          3.7461231339709857 8.9677871525217121 0
          3.7460154669681662 8.9756604377728255 0
          3.7460996013511578 8.9835340048197061 0
          3.7463721162558703 8.9914033037121097 0
          3.7468318489378998 8.9992638912530243 0
          3.7474779299532908 9.0071113684068447 0
          3.7483097992289158 9.0149413431366874 0
          3.7493251907697291 9.0227496559857965 0
          3.750524218111547 9.0305319065785579 0
          3.7519073460029171 9.0382835793087999 0
          3.7534753993684635 9.0459999983238841 0
          3.7552275607320866 9.0536767391051729 0
          3.7571653734065018 9.0613087678135429 0
          3.7592908113094152 9.0688907273673305 0
          3.7616041913731335 9.0764175161363312 0
          3.7641082828770109 9.0838830727157109 0
          3.7668062360058618 9.0912808320145313 0
          3.7696995189111928 9.0986044618796846 0
          3.7727920978378648 9.10584624981289 0
          3.7760882340281618 9.1129977509343334 0
          3.7795904564904386 9.1200506884414807 0
          3.7833037211536924 9.1269949097839795 0
          3.7872311252966719 9.1338203884992346 0
          3.7913781070415427 9.1405148167903132 0
          3.795748129605053 9.1470659205223495 0
          3.8003533807702476 9.1534539503636907 0
          3.8051974092843777 9.1596629689511744 0
          3.810285744062647 9.1656735147318322 0
          3.8156211647287837 9.171465960875306 0
          3.8207177814865423 9.1774702936747943 0
          3.8254875242044357 9.1837371584942833 0
          3.8299196527805504 9.190246933135457 0
          3.8340370168657074 9.1969599898305372 0
          3.8378801427022129 9.2038334916726452 0
          3.8416567773651908 9.2107434308976615 0
        </DataArray>
      </Points>
      <Cells>
        <DataArray type="Int32" Name="connectivity" format="ascii">
          0 1 1 2 2 3 3 4 4 5 5 6 6 7 7 8 8 9 9 10 10 11 11 12 12 13 13 14 14 15 15 16 16 17 17 18 18 19 19 20 20 21 21 22 22 23 23 24 24 25 25 26 26 27 27 28 28 29 29 30 30 31 31 32 32 33 33 34 34 35 35 36 36 37 37 38 38 39 39 40 40 41 41 42 42 43 43 44 44 45 45 46 46 47 47 48 48 49 49 50 50 51 51 52 52 53 53 54 54 55 55 56 56 57 57 58 58 59 59 60 60 61 61 62 62 63 63 64 64 65 65 66 66 67 67 68 68 69 69 70 70 71 71 72 72 73 73 74 74 75 75 76 76 77 77 78 78 79 79 80 80 81 81 82 82 83 83 84 84 85 85 86 86 87 87 88 88 89 89 90 90 91 91 92 92 93 93 94 94 95 95 96 96 97 97 98 98 99 99 100 100 101 101 102 102 103 103 104 104 105 105 106 106 107 107 108 108 109 109 110 110 111 111 112 112 113 113 114 114 115 115 116 116 117 117 118 118 119 119 120 120 121 121 122 122 123 123 124 124 125 125 126 126 127 
        </DataArray>
        <DataArray type="Int32" Name="offsets" format="ascii">
          2 4 6 8 10 12 14 16 18 20 22 24 26 28 30 32 34 36 38 40 42 44 46 48 50 52 54 56 58 60 62 64 66 68 70 72 74 76 78 80 82 84 86 88 90 92 94 96 98 100 102 104 106 108 110 112 114 116 118 120 122 124 126 128 130 132 134 136 138 140 142 144 146 148 150 152 154 156 158 160 162 164 166 168 170 172 174 176 178 180 182 184 186 188 190 192 194 196 198 200 202 204 206 208 210 212 214 216 218 220 222 224 226 228 230 232 234 236 238 240 242 244 246 248 250 252 254 
        </DataArray>
        <DataArray type="Int32" Name="types" format="ascii">
          3 3 3 3 3 3 3 3 3 3 3 3 3 3 3 3 3 3 3 3 3 3 3 3 3 3 3 3 3 3 3 3 3 3 3 3 3 3 3 3 3 3 3 3 3 3 3 3 3 3 3 3 3 3 3 3 3 3 3 3 3 3 3 3 3 3 3 3 3 3 3 3 3 3 3 3 3 3 3 3 3 3 3 3 3 3 3 3 3 3 3 3 3 3 3 3 3 3 3 3 3 3 3 3 3 3 3 3 3 3 3 3 3 3 3 3 3 3 3 3 3 3 3 3 3 3 3         </DataArray>
      </Cells>
    </Piece>
  </UnstructuredGrid>
</VTKFile>
