<?xml version="1.0"?>
<VTKFile type="UnstructuredGrid" version="0.1" byte_order="LittleEndian">
  <UnstructuredGrid>
    <Piece NumberOfPoints="128" NumberOfCells="127">
      <PointData Scalars="W">
        <DataArray type="Float32" Name="W" NumberOfComponents="2">
          0 0 0.11124442081006758 -0.23024820427688492 0.15638851002682075 -0.32570320934816804 0.18089777602575641 -0.37973981286770336 0.19336715513758723 -0.40953786702965278 0.19749258682338752 -0.42222621287854939 0.19540992816691607 -0.42179594151195537 0.18849677406252699 -0.41075505229832321 0.17772574788820905 -0.39085624018698167 0.16378772568007771 -0.36334247092420469 0.14722166011587554 -0.32921596169923106 0.12841948644707904 -0.28923739627322853 0.10768140706708718 -0.24403870742936448 0.085227859689844157 -0.1941422023085751 0.061207971289583364 -0.13997269365534015 0.03572278006935875 -0.081904806478394765 0.0088583121007384125 -0.020334606411128556 -0.019364801629370116 0.044440103551091126 -0.04894164437659506 0.11210980458669431 -0.079881986777075878 0.18235466621242674 -0.11222819714174284 0.25488954747515469 -0.14605089917090522 0.32945728661492968 -0.18142725457640158 0.40578272721541603 -0.21845794659157011 0.48361459199494383 -0.25725270734640365 0.56269600036443601 -0.29790829756275011 0.64272091374850326 -0.34055055130244455 0.72343069986989939 -0.38532923388447632 0.80460292091046215 -0.4323622349795273 0.88593688832384587 -0.48163548425928904 0.96686652247805149 -0.53342948289259995 1.0474282635746153 -0.58785807141062374 1.1273118562895019 -0.6450220510103899 1.2061905705063187 -0.70501537106943057 1.2837384723907577 -0.76791270586730376 1.3596124285184739 -0.83379054407030817 1.4334945276209945 -0.90273755789854815 1.5051085058550175 -0.97475102546405823 1.5740503544999118 -1.0497902705419366 1.6398975792623396 -1.1278479841387343 1.702324694211218 -1.2088714450981914 1.7609766885645231 -1.2927546113623389 1.815468415870342 -1.0287885363339853 1.3980383650384014 -1.2985922460166757 1.7092912666407341 -1.3787345834521205 1.7512799697768473 -1.6764916977554365 2.0473522389181911 -2.0038647096506614 2.337563772567214 -2.6111632949870707 2.8820206271625843 -3.0232894938523476 3.1267409857292932 -3.7777157071094432 3.6228305849949192 -9.85791093340797 8.1918801129130898 -10.713614790112418 7.2042259677544269 -11.482800199090727 6.122419504108298 5.9609755233821256 -2.9893195955810645 -1.0820644366171017 0.57200131895835915 -1.0430786517109338 0.53884904455486504 -1.3571284630214602 0.68294425445609297 -1.436441572558673 0.70088483686862846 -1.5128627136366868 0.7141878349299805 -1.5943136382625505 0.72650205800652889 -1.6764545792612249 0.73554236200599066 -1.7590103542322264 0.74106372822211886 -1.8374227339452205 0.74115873006501376 -1.9199199229610726 0.73914974095887331 -2.2577825545538723 0.82397670480470342 -2.342653116864859 0.80427091306478904 -2.4264086080830243 0.77969228650495626 -2.5086581029351311 0.75015451118437348 -2.5892782609597376 0.71568279585325489 -2.667876880323607 0.67624701615102367 -2.7441517621597322 0.63187667980017725 -2.8178036235977499 0.58263123694076668 -2.8885380472682929 0.52859974135224252 -2.956067583694828 0.46990030308439545 -2.7460325049212635 0.37281360737223995 -2.8046161417491504 0.31801779918041073 -2.8596250417819968 0.25945719802688766 -2.9108100790275464 0.19731861800432851 -2.9579348729532575 0.13181442725614903 -3.0006870694434515 0.063180532680626844 -3.0390436181297811 -0.008317328382288873 -3.0774867326686515 -0.082588602097087238 -3.1063282960091785 -0.15919529161855789 -3.1301836467831943 -0.23777499193942403 -2.8835708096440431 -0.28813355318823153 -2.8983994370112951 -0.35685560799952254 -2.9085573477036548 -0.42645188284093982 -2.9138759939711441 -0.49658725400375597 -2.914297375869245 -0.56692403180187989 -2.9142735080393436 -0.63815410387330429 -2.6545104575208422 -0.64419859132005908 -2.6429079551090253 -0.70194895583737793 -2.6268074272035582 -0.75859074295762896 -2.6062056873232566 -0.81378989751593456 -2.5810408416488699 -0.86718120959464107 -2.3174442727175029 -0.83164707593527831 -2.2869908551579083 -0.87097994120660061 -2.2565624774338953 -0.90941773930298031 -2.217863868906484 -0.94337487187380065 -2.1749966105611986 -0.97401890256906887 -2.1281134043212293 -1.0010652506383682 -2.0771512599674651 -1.024129728398655 -2.0221209383151941 -1.0428529134031963 -1.9630304548212136 -1.0568696437945189 -1.8998811857294085 -1.0658085377086022 -1.8288382963866416 -1.0670164780758591 -1.757597732632342 -1.0645314510710633 -1.6822076712736553 -1.055812050957097 -1.6025806742025497 -1.0404454265281582 -1.5185841552445891 -1.0179992881863216 -1.4262631743357959 -0.98537731664227146 -1.5353165586061213 -1.0933561296927119 -1.4291868204774631 -1.0491205201611611 -1.5264866467891398 -1.1550151495862868 -1.4092293145622208 -1.0989475182242099 -1.4894737792757606 -1.1967979860793878 -1.3656847375568322 -1.1303114953546052 -0.70302453802521814 -0.59453315963719178 -0.53065474551788272 -0.4545982605582331 -0.55147428515202968 -0.47783741066150209 -0.33702223113562935 -0.29476686298521837 -0.2937004723154959 -0.2585941082270613 -0.016246598663488029 -0.014351587475991055 0.074748855047327312 0.065989237662960679 0.26844106589147204 0.2361246578646036 0.48609201963258936 0.42418152452350916 -0.15748200212116759 -0.13694851165491242 0 0
        </DataArray>
        <DataArray type="Float32" Name="u" NumberOfComponents="1">
          0 0.007874015748031496 0.015748031496062992 0.023622047244094488 0.031496062992125984 0.03937007874015748 0.047244094488188976 0.055118110236220472 0.062992125984251968 0.070866141732283464 0.07874015748031496 0.086614173228346455 0.094488188976377951 0.10236220472440945 0.11023622047244094 0.11811023622047244 0.12598425196850394 0.13385826771653545 0.14173228346456693 0.14960629921259844 0.15748031496062992 0.16535433070866143 0.17322834645669291 0.18110236220472442 0.1889763779527559 0.19685039370078741 0.20472440944881889 0.2125984251968504 0.22047244094488189 0.2283464566929134 0.23622047244094488 0.24409448818897639 0.25196850393700787 0.25984251968503935 0.26771653543307089 0.27559055118110237 0.28346456692913385 0.29133858267716534 0.29921259842519687 0.30708661417322836 0.31496062992125984 0.32283464566929132 0.33070866141732286 0.33858267716535434 0.34645669291338582 0.3543307086614173 0.36220472440944884 0.37007874015748032 0.37795275590551181 0.38582677165354329 0.39370078740157483 0.40157480314960631 0.40944881889763779 0.41732283464566927 0.42519685039370081 0.43307086614173229 0.44094488188976377 0.44881889763779526 0.45669291338582679 0.46456692913385828 0.47244094488188976 0.48031496062992124 0.48818897637795278 0.49606299212598426 0.50393700787401574 0.51181102362204722 0.51968503937007871 0.52755905511811019 0.53543307086614178 0.54330708661417326 0.55118110236220474 0.55905511811023623 0.56692913385826771 0.57480314960629919 0.58267716535433067 0.59055118110236215 0.59842519685039375 0.60629921259842523 0.61417322834645671 0.62204724409448819 0.62992125984251968 0.63779527559055116 0.64566929133858264 0.65354330708661412 0.66141732283464572 0.6692913385826772 0.67716535433070868 0.68503937007874016 0.69291338582677164 0.70078740157480313 0.70866141732283461 0.71653543307086609 0.72440944881889768 0.73228346456692917 0.74015748031496065 0.74803149606299213 0.75590551181102361 0.76377952755905509 0.77165354330708658 0.77952755905511806 0.78740157480314965 0.79527559055118113 0.80314960629921262 0.8110236220472441 0.81889763779527558 0.82677165354330706 0.83464566929133854 0.84251968503937003 0.85039370078740162 0.8582677165354331 0.86614173228346458 0.87401574803149606 0.88188976377952755 0.88976377952755903 0.89763779527559051 0.90551181102362199 0.91338582677165359 0.92125984251968507 0.92913385826771655 0.93700787401574803 0.94488188976377951 0.952755905511811 0.96062992125984248 0.96850393700787396 0.97637795275590555 0.98425196850393704 0.99212598425196852 1
        </DataArray>
      </PointData>
      <CellData Scalars="P">
        <DataArray type="Float32" Name="P" NumberOfComponents="1">
          -0.032964855341096208 -0.098627391868226055 -0.16397768203208318 -0.22917895653399756 -0.29445278373359973 -0.36002580853414301 -0.42610061701969321 -0.49283822319197856 -0.56034719818374112 -0.62867693420270654 -0.69781418713267029 -0.76768147626020511 -0.83813732847728306 -0.90897767953118525 -0.97993797787141113 -1.0506963721367963 -1.1208789501653171 -1.1900632393107602 -1.2577841281468807 -1.3235405436986669 -1.3868012514633405 -1.4470107634257778 -1.5035970091834374 -1.5559776792776743 -1.6035677641641357 -1.6457895437162919 -1.6820782235907645 -1.7118874648818081 -1.7347013083868021 -1.7500593547079748 -1.7575278335997226 -1.7567276751165923 -1.7473437765297051 -1.7291330995640926 -1.7019340219684933 -1.6656723273439322 -1.6203653070767954 -1.566139698143628 -1.5032413552283552 -1.4320344560809317 -1.353010944559921 -1.2667999972760391 -1.1938055515883028 -1.0905624752169385 -0.98317793736427428 -0.84727527909191047 -0.68307106732663092 -0.46450680774911018 -0.21819993842110902 0.085271045253148423 0.86419559227543652 1.6510639920323154 2.4578936071381157 1.9004921426460424 1.9292942326709315 1.9559027160559181 2.0108824698155621 2.0729880281625706 2.141347553861995 2.2157401169650313 2.2955122524410494 2.3799475862170296 2.467916255611319 2.5589639012540388 2.6725917169215423 2.7870624064597678 2.9015073386811796 3.0150570237859462 3.1268689071528137 3.2361153621567573 3.3419980013963961 3.4437549304769468 3.5406676144824214 3.6320673211306644 3.7035135194112678 3.7691725830538179 3.8284399281731614 3.8807630999767317 3.9256465241138288 3.9626526609268278 3.9914155944308503 4.0117691390709203 4.0233319583251221 4.0259502434217476 4.0144578773844737 3.9948178876155782 3.9669460842392876 3.9308202097331555 3.886482552240365 3.8340620839574937 3.7731564025447621 3.7052699806710176 3.6305435276298672 3.5491711788824518 3.4614007100313477 3.3700034863408441 3.2734287770011798 3.1718654952776095 3.0656622479116593 2.9551613498981504 2.8407444240741793 2.7228347784633931 2.6018941615307707 2.4784202709146017 2.3529437618602986 2.2261455781801507 2.0984949628670693 1.9705957542025203 1.8430676067669143 1.7165403603462797 1.5917901923920981 1.461508394523753 1.3342799920090078 1.2026442881032162 1.0754767087796337 0.94568125113083168 0.8217447168471993 0.72366424905363691 0.63282896597945992 0.54261747654892156 0.46023663517565089 0.38022871808310549 0.30777685861664095 0.23749824658952989 0.17024887240971157 0.10464031915131053 0.03420861650320868
        </DataArray>
      </CellData>
      <Points>
        <DataArray type="Float32" NumberOfComponents="3" format="ascii">
          4.0662382944157232 6.1260990705830993 0
          4.0733265927327045 6.129532590468477 0
          4.0804217289703226 6.1329517971217626 0
          4.0875264719527022 6.1363507548090945 0
          4.0946423214357228 6.1397261029809007 0
          4.1017700370547416 6.1430759882947203 0
          4.1089098658046144 6.146399621316311 0
          4.1160616735406537 6.1496970282730947 0
          4.1232250297915396 6.1529688950042569 0
          4.13039926763045 6.1562164578810163 0
          4.1375835261721834 6.1594414264253237 0
          4.1447767837099798 6.1626459209231461 0
          4.1519778817755997 6.1658324250677614 0
          4.1591855435389622 6.1690037466298069 0
          4.1663983872823502 6.17216298496181 0
          4.1736149354689429 6.175313504579953 0
          4.1808336208426464 6.1784589118857189 0
          4.1880527916080643 6.181603030583112 0
          4.1952707125652218 6.1847498832107215 0
          4.2024855652784172 6.1879036719670042 0
          4.2096954473419395 6.1910687589137208 0
          4.2168983696314717 6.1942496483455232 0
          4.224092251809715 6.1974509709076173 0
          4.2312749174320352 6.2006774666093394 0
          4.2384440875984799 6.2039339693281663 0
          4.245597374048721 6.2072253909747177 0
          4.2527322730645425 6.2105567026167465 0
          4.2598461575722633 6.2139329185479113 0
          4.2669362677629019 6.2173590826052401 0
          4.2739997036897304 6.2208402496380124 0
          4.2810334260492242 6.2243814505210731 0
          4.2880342386951877 6.2279876945313983 0
          4.2949987814855479 6.2316639502276203 0
          4.3019235239355318 6.2354151253074326 0
          4.3088047592930021 6.239246046513359 0
          4.3156385998056983 6.2431614384701142 0
          4.3224209718716082 6.2471659040844623 0
          4.3291476104280902 6.2512639075270418 0
          4.3358140590047354 6.2554597492873558 0
          4.342415672125445 6.2597575400779419 0
          4.3489476156338451 6.2641611807541775 0
          4.3554048698290506 6.2686743403999428 0
          4.3617822359028207 6.273300432540557 0
          4.368095559877597 6.2780131640209831 0
          4.3743280915553386 6.2828318370283736 0
          4.3804748725274161 6.2877590539968455 0
          4.3865174234805018 6.292813171274819 0
          4.3924354314050724 6.2980121784561982 0
          4.398191203503778 6.3033898231340721 0
          4.4037591829798455 6.3089612648991391 0
          4.4090925692047431 6.3147572401528418 0
          4.4138145919758118 6.3210617304129526 0
          4.417872086468094 6.3278135529035096 0
          4.4212172326286803 6.3349456746922552 0
          4.4249325200874416 6.3418926745176956 0
          4.4285806170516597 6.3488751110900878 0
          4.4321639498049796 6.3558909356325586 0
          4.4356630227476819 6.3629490762749059 0
          4.4390729172839665 6.3700506475337422 0
          4.4423888945218435 6.3771964763880851 0
          4.4456059033719582 6.3843873281738821 0
          4.448718849991244 6.391623765024832 0
          4.4517226148429696 6.398906130657827 0
          4.4546123356456944 6.4062344322681977 0
          4.4573828965340185 6.4136085461559276 0
          4.4600133300681017 6.4210337211801738 0
          4.4624983744846798 6.4285087351921097 0
          4.4648328372358863 6.4360320636100301 0
          4.4670116192459934 6.4436018740671699 0
          4.4690297225621247 6.4512160279640609 0
          4.4708822746954802 6.4588720786043927 0
          4.472564547378199 6.4665672730266257 0
          4.4740719751413973 6.4742985556946522 0
          4.4754001735932611 6.4820625740267035 0
          4.4765449572665137 6.4898556857287861 0
          4.4775193632856176 6.4976718819031563 0
          4.4783197599856353 6.5055077621259736 0
          4.4789427376070972 6.513359692250531 0
          4.4793851237727749 6.5212238160074358 0
          4.4796439981739429 6.5290960681932884 0
          4.479716711969604 6.53697218932788 0
          4.4796008892363561 6.5448477421511191 0
          4.4792941489369982 6.5527181170253179 0
          4.4787947059589603 6.5605785596328063 0
          4.4781010847945382 6.5684241932404523 0
          4.477228586936393 6.5762519049636365 0
          4.4761762961914799 6.5840574291578244 0
          4.4749435864304106 6.5918364459422509 0
          4.4735301320466556 6.5995846020360469 0
          4.4719359115522712 6.6072975317522529 0
          4.4701609314608239 6.6149708139224979 0
          4.4682213069252548 6.6226040825617973 0
          4.4661177622254398 6.6301937525831249 0
          4.4638513009496368 6.6377363078590861 0
          4.461423206161089 6.6452283219965187 0
          4.4588350441956655 6.6526664810468761 0
          4.456103166388365 6.6600529965626816 0
          4.4532294666407948 6.6673854264898118 0
          4.450215837513575 6.6746613845055602 0
          4.4470646845226529 6.681878762793219 0
          4.4437786717290972 6.6890356595022959 0
          4.4403607121853872 6.6961303964370593 0
          4.4368139717467923 6.7031615429266367 0
          4.4331418683017878 6.7101279381509666 0
          4.4293480711656157 6.717028713816906 0
          4.4254365008795835 6.7238633172139259 0
          4.4214115668293719 6.7306316758622762 0
          4.4172776900115798 6.7373339468928064 0
          4.4130395479088316 6.7439706747770662 0
          4.4087020797881076 6.7505428169315493 0
          4.4042704948014357 6.7570517705232991 0
          4.399750517049311 6.7634995645196927 0
          4.3951353856999456 6.7698795078837337 0
          4.3904316780723089 6.776194352550978 0
          4.3856333584373193 6.7824375410161686 0
          4.3807476901297111 6.7886125617678266 0
          4.3757696898715777 6.794713360524554 0
          4.3707070210785925 6.8007440747315071 0
          4.3656007569257103 6.8067379368337741 0
          4.3604615723869369 6.8127036363534019 0
          4.3552881616373673 6.8186397487862234 0
          4.3500938058144971 6.8245576409994628 0
          4.3448811721059748 6.8304595760056763 0
          4.3396674467058904 6.8363607165840889 0
          4.334458250152597 6.8422660692461879 0
          4.3292655711659256 6.8481862102885893 0
          4.3241028832526975 6.8541328321807429 0
          4.3189302158766223 6.860071205374938 0
        </DataArray>
      </Points>
      <Cells>
        <DataArray type="Int32" Name="connectivity" format="ascii">
          0 1 1 2 2 3 3 4 4 5 5 6 6 7 7 8 8 9 9 10 10 11 11 12 12 13 13 14 14 15 15 16 16 17 17 18 18 19 19 20 20 21 21 22 22 23 23 24 24 25 25 26 26 27 27 28 28 29 29 30 30 31 31 32 32 33 33 34 34 35 35 36 36 37 37 38 38 39 39 40 40 41 41 42 42 43 43 44 44 45 45 46 46 47 47 48 48 49 49 50 50 51 51 52 52 53 53 54 54 55 55 56 56 57 57 58 58 59 59 60 60 61 61 62 62 63 63 64 64 65 65 66 66 67 67 68 68 69 69 70 70 71 71 72 72 73 73 74 74 75 75 76 76 77 77 78 78 79 79 80 80 81 81 82 82 83 83 84 84 85 85 86 86 87 87 88 88 89 89 90 90 91 91 92 92 93 93 94 94 95 95 96 96 97 97 98 98 99 99 100 100 101 101 102 102 103 103 104 104 105 105 106 106 107 107 108 108 109 109 110 110 111 111 112 112 113 113 114 114 115 115 116 116 117 117 118 118 119 119 120 120 121 121 122 122 123 123 124 124 125 125 126 126 127 
        </DataArray>
        <DataArray type="Int32" Name="offsets" format="ascii">
          2 4 6 8 10 12 14 16 18 20 22 24 26 28 30 32 34 36 38 40 42 44 46 48 50 52 54 56 58 60 62 64 66 68 70 72 74 76 78 80 82 84 86 88 90 92 94 96 98 100 102 104 106 108 110 112 114 116 118 120 122 124 126 128 130 132 134 136 138 140 142 144 146 148 150 152 154 156 158 160 162 164 166 168 170 172 174 176 178 180 182 184 186 188 190 192 194 196 198 200 202 204 206 208 210 212 214 216 218 220 222 224 226 228 230 232 234 236 238 240 242 244 246 248 250 252 254 
        </DataArray>
        <DataArray type="Int32" Name="types" format="ascii">
          3 3 3 3 3 3 3 3 3 3 3 3 3 3 3 3 3 3 3 3 3 3 3 3 3 3 3 3 3 3 3 3 3 3 3 3 3 3 3 3 3 3 3 3 3 3 3 3 3 3 3 3 3 3 3 3 3 3 3 3 3 3 3 3 3 3 3 3 3 3 3 3 3 3 3 3 3 3 3 3 3 3 3 3 3 3 3 3 3 3 3 3 3 3 3 3 3 3 3 3 3 3 3 3 3 3 3 3 3 3 3 3 3 3 3 3 3 3 3 3 3 3 3 3 3 3 3         </DataArray>
      </Cells>
    </Piece>
  </UnstructuredGrid>
</VTKFile>
