<?xml version="1.0"?>
<VTKFile type="UnstructuredGrid" version="0.1" byte_order="LittleEndian">
  <UnstructuredGrid>
    <Piece NumberOfPoints="128" NumberOfCells="127">
      <PointData Scalars="W">
        <DataArray type="Float32" Name="W" NumberOfComponents="2">
          0 0 -0.17531127969618648 -0.46796683183506232 -0.27067303347962418 -0.7117428097795897 -0.35121354744632599 -0.90490430165483704 -0.42533933621806874 -1.0693250211093024 -0.49658080997056742 -1.2140246513677562 -0.56692771790333885 -1.3439844581709097 -0.63767069642405738 -1.4623391604971256 -0.70970386115324646 -1.5711650347936235 -0.78365558367028321 -1.6718351788986612 -0.8600161860426031 -1.7653417194906145 -0.93915841933690192 -1.8523631421599387 -1.0213869235830149 -1.9333872264806318 -1.1069004403258738 -2.0086592130993264 -1.1958164038068364 -2.0782605649859729 -1.2882072649075056 -2.1421946553257061 -1.3841409564263742 -2.200460226882611 -1.4836138328655843 -2.2529456020389378 -1.586560973226899 -2.2994659129676909 -1.6929177501532671 -2.3398630893128343 -1.802576390327872 -2.3739417996811683 -1.915368664595239 -2.4014573935625472 -2.0311184009543362 -2.4221916162562631 -2.1496146400719627 -2.4359178198092266 -2.2705531240106489 -2.4423443688393491 -2.3936822098882451 -2.4412832024449531 -2.5186745287822503 -2.4325040344121511 -2.6451247878465889 -2.4157498544392331 -2.772613957169936 -2.3908073162525758 -2.9010196362711871 -2.3577479914506485 -3.0296364902813573 -2.316185224945039 -3.1579908215823318 -2.2660018769297077 -3.2855844558148042 -2.2071110048120217 -3.4119162471296272 -2.1394705321345735 -3.5364519425710736 -2.0630627585910069 -3.658671996684725 -1.9779240912187417 -3.7779533588832526 -1.8840816974173118 -3.8937914417059525 -1.7816736845178578 -4.0056899419757661 -1.6708742437601005 -4.1130210634149584 -1.5518410491083772 -4.2151850337478809 -1.4247968427045172 -4.3116108770664399 -1.2900227608166253 5.2698540133407725 1.599516688817872 5.1435990762849002 1.8069568052966454 5.0096344033972446 2.0040733216304756 4.8686596679339562 2.1906350261167753 4.7215755631467555 2.3665575647868025 4.5692565135277716 2.5318369045594848 4.4123386655342554 2.6864129289939092 4.2517126229362239 2.8304384049542817 4.0879548267917976 2.9639452251775884 3.9218863693681758 3.087198128473049 3.753948808633468 3.2002445809585769 3.5848860832436968 3.3034264914763902 2.9474957693338668 2.9163086071485784 2.7967612110937039 2.9521219104864849 2.6641140345478203 2.9975068162844525 2.5027655706600194 2.9992195529229084 2.3448212937937054 2.9898487903717923 2.190681241399651 2.9696218324281949 2.0407036202386277 2.9387567956457392 1.8952066287304612 2.8974608770148214 1.7754744201595076 2.8810397081405661 1.6394138065033861 2.8231301890443135 1.5084406732841846 2.7553355897135718 1.400152339369036 2.7125368683391389 1.2973810109426758 2.6666105261737596 1.1986429529134559 2.614882527454407 1.1221031242354793 2.600677943994484 1.0317572432821305 2.5434026741118783 0.9622804754372255 2.5263870837961862 0.88071239588782335 2.4664049528601413 0.81792826994955836 2.4476722192193545 0.74359688014288183 2.382630047200553 0.68720151918018335 2.3631367128112015 0.62040211808384782 2.2956689887254056 0.57037960597386195 2.2780634663416595 0.51064417340141921 2.2091216135000211 0.46561034661561662 2.1907554532646163 0.42222333252853128 2.173341530308246 0.37156023635189145 2.1045120347368331 0.33315999030485854 2.0909890541686615 0.28837055538963241 2.0225455292937728 0.25379267144549084 2.0099415723479415 0.22020053819413318 1.9990586544305662 0.18255216246305669 1.9332910309005025 0.15241064763946516 1.9280089743435518 0.11931923817747002 1.8642163126295521 0.091700388222653528 1.8613289579663967 0.064334266215716043 1.860859182792524 0.036283086347317077 1.8020355617723887 0.010697719417131065 1.8088102986321706 -0.01518278468810718 1.8163657107285276 -0.039618123254459243 1.7639246326020825 -0.064743212589002827 1.7775858101274198 -0.090672355153550308 1.794562128163163 -0.11310456826282465 1.751959833302579 -0.13951073063803796 1.7759440710713241 -0.16070834044835555 1.7366793871936479 -0.18841694140299364 1.7684458268752716 -0.21837911473074467 1.8063878651849947 -0.2405870085971451 1.7774916756647807 -0.27326368397025413 1.8222442574489259 -0.2970494386789484 1.8028546604167643 -0.33400554984276676 1.8574003707882405 -0.35989856778852725 1.8440004665154652 -0.4031128546520269 1.911544162569738 -0.43300753860123936 1.9074068841726919 -0.48350373219093079 1.9845928771766996 -0.51984670235317887 1.9932108313506063 -0.55777555780231647 2.0042641285844507 -0.62326998854053717 2.1020373392528424 -0.67157388958048669 2.1282105222138279 -0.72337292929757346 2.1581275218145253 -0.78108088301446432 2.1971803827194671 -0.84498414773625841 2.2436660128962549 -0.87706957014612064 2.2025805152780054 -0.9485443083000985 2.2565495060861105 -0.93831860487710983 2.119958450218971 -0.91597467481737438 1.974313079090338 -1.1052684903726158 2.2712049031640951 -0.86950948731860711 1.7100309809520478 -0.72565658365568708 1.3800177744460804 -0.32168037683446082 0.59887843405960428 0.48680282490356724 -0.90930823684017636 1.838717524553434 -3.6061170107527381 2.0598561973335303 -4.4167016127387884 0 0
        </DataArray>
        <DataArray type="Float32" Name="u" NumberOfComponents="1">
          0 0.007874015748031496 0.015748031496062992 0.023622047244094488 0.031496062992125984 0.03937007874015748 0.047244094488188976 0.055118110236220472 0.062992125984251968 0.070866141732283464 0.07874015748031496 0.086614173228346455 0.094488188976377951 0.10236220472440945 0.11023622047244094 0.11811023622047244 0.12598425196850394 0.13385826771653545 0.14173228346456693 0.14960629921259844 0.15748031496062992 0.16535433070866143 0.17322834645669291 0.18110236220472442 0.1889763779527559 0.19685039370078741 0.20472440944881889 0.2125984251968504 0.22047244094488189 0.2283464566929134 0.23622047244094488 0.24409448818897639 0.25196850393700787 0.25984251968503935 0.26771653543307089 0.27559055118110237 0.28346456692913385 0.29133858267716534 0.29921259842519687 0.30708661417322836 0.31496062992125984 0.32283464566929132 0.33070866141732286 0.33858267716535434 0.34645669291338582 0.3543307086614173 0.36220472440944884 0.37007874015748032 0.37795275590551181 0.38582677165354329 0.39370078740157483 0.40157480314960631 0.40944881889763779 0.41732283464566927 0.42519685039370081 0.43307086614173229 0.44094488188976377 0.44881889763779526 0.45669291338582679 0.46456692913385828 0.47244094488188976 0.48031496062992124 0.48818897637795278 0.49606299212598426 0.50393700787401574 0.51181102362204722 0.51968503937007871 0.52755905511811019 0.53543307086614178 0.54330708661417326 0.55118110236220474 0.55905511811023623 0.56692913385826771 0.57480314960629919 0.58267716535433067 0.59055118110236215 0.59842519685039375 0.60629921259842523 0.61417322834645671 0.62204724409448819 0.62992125984251968 0.63779527559055116 0.64566929133858264 0.65354330708661412 0.66141732283464572 0.6692913385826772 0.67716535433070868 0.68503937007874016 0.69291338582677164 0.70078740157480313 0.70866141732283461 0.71653543307086609 0.72440944881889768 0.73228346456692917 0.74015748031496065 0.74803149606299213 0.75590551181102361 0.76377952755905509 0.77165354330708658 0.77952755905511806 0.78740157480314965 0.79527559055118113 0.80314960629921262 0.8110236220472441 0.81889763779527558 0.82677165354330706 0.83464566929133854 0.84251968503937003 0.85039370078740162 0.8582677165354331 0.86614173228346458 0.87401574803149606 0.88188976377952755 0.88976377952755903 0.89763779527559051 0.90551181102362199 0.91338582677165359 0.92125984251968507 0.92913385826771655 0.93700787401574803 0.94488188976377951 0.952755905511811 0.96062992125984248 0.96850393700787396 0.97637795275590555 0.98425196850393704 0.99212598425196852 1
        </DataArray>
      </PointData>
      <CellData Scalars="P">
        <DataArray type="Float32" Name="P" NumberOfComponents="1">
          0.00065252831510129769 0.0027853136653356375 0.0066466347811929838 0.01289796283455333 0.022109223496134173 0.034795478738075876 0.051434926121664615 0.072479130517849322 0.098358531371110516 0.12948444185352245 0.16625083472081539 0.20903412781241704 0.25819299501894788 0.31406500859101394 0.37696303933204195 0.44717263576640753 0.52495116008705156 0.61052311510085311 0.70407563325230571 0.80575732251120691 0.91567465662252723 1.0338873033879132 1.1604066303025649 1.2951927220978416 1.4381479666948147 1.589119770036806 1.7478955480016733 1.9141978855413786 2.0876840006747357 2.2679640871086715 2.4545661680510178 2.6469517685947919 2.844515842089824 3.0465882728254292 3.2524339173231414 3.461255724392998 3.6721916155299632 3.8843241239556039 4.0966836680623526 4.3082450619790622 4.5179332342352794 4.7246290919977172 4.4807361412459601 4.2314169906502341 3.9774638536996338 3.7196746245432299 3.4588384822053224 3.1957323735236174 2.9311311585867283 2.6657881068124265 2.4004505696355989 2.1358398569880213 1.8726734975045158 1.6116402956728297 1.3912988324726401 1.1758444581857823 0.964432603175301 0.76017086610252638 0.56358728748659548 0.37516391059063203 0.19533602636980529 0.024491318616677707 -0.13915408281456268 -0.29329606372223321 -0.437684378213967 -0.57400033204454548 -0.70226428483195769 -0.8223727879184306 -0.93632447071279012 -1.0421678726286583 -1.141877829510376 -1.2337012171034154 -1.3194862234850004 -1.397551772785371 -1.4697390455816757 -1.5345251625459155 -1.5936941215043763 -1.6458420418918227 -1.6925593131559828 -1.7339125406691844 -1.7688635051674408 -1.7987558971273307 -1.8227246753575634 -1.8418714844469475 -1.8562596567682972 -1.865418345132436 -1.8700931099264699 -1.8700403146215339 -1.8657244586100215 -1.8571759459281312 -1.84456169652506 -1.8278949702189 -1.8071805091081494 -1.7829896088695305 -1.7548754395880002 -1.7228030466871092 -1.6877209060776439 -1.6487266917123415 -1.6070828861659612 -1.5615249872786232 -1.511913283190323 -1.4599590643300546 -1.4039329300138137 -1.3457130572561598 -1.2833236447001088 -1.2189769156154471 -1.1502858665816373 -1.0797926404728428 -1.0049504138214032 -0.92839526192163557 -0.85038359632173632 -0.76808599988873327 -0.68451124437613908 -0.59998563031450036 -0.51469166230894581 -0.42894684862921073 -0.34654263558505172 -0.26479021310367468 -0.19083073698225544 -0.12524771463246254 -0.055381944509495615 -0.0060680244176901498 0.030555136865405966 0.047462422771182539 0.039748381156114461 0.0094483573211133678 -0.0052746159761597961
        </DataArray>
      </CellData>
      <Points>
        <DataArray type="Float32" NumberOfComponents="3" format="ascii">
          6.9423005652320882 10.093422402866333 0
          6.9496795863413485 10.090674592641513 0
          6.9570477372372066 10.087897768598634 0
          6.9643991050321521 10.085076816706957 0
          6.9717286959495901 10.082199761003812 0
          6.9790319140492718 10.079256407437486 0
          6.9863043423086877 10.076237784651207 0
          6.9935416192379742 10.073135835145951 0
          7.0007393588455251 10.069943220927852 0
          7.0078930951910365 10.066653194778509 0
          7.0149982434166738 10.063259515122162 0
          7.0220500693386594 10.059756384513054 0
          7.0290436663293088 10.056138407568605 0
          7.0359739364227813 10.052400560726511 0
          7.0428355779872431 10.048538177039449 0
          7.0496230784386977 10.044546941124199 0
          7.0563307097443406 10.040422888952532 0
          7.0629525242065254 10.0361624079294 0
          7.0694823546850749 10.031762243817402 0
          7.0759138186191235 10.027219512199261 0
          7.0822403220311676 10.022531708279013 0
          7.0884550662065733 10.017696718993575 0
          7.094551058121735 10.012712838182223 0
          7.1005211213650714 10.007578780119648 0
          7.1063579092151663 10.002293693569476 0
          7.1120539235037601 9.9968571798670691 0
          7.1176015302169064 9.9912693045806993 0
          7.1229929797914169 9.9855306117906988 0
          7.128220432242844 9.9796421400254438 0
          7.1332759831453716 9.9736054354900894 0
          7.1381516712207196 9.9674225476301679 0
          7.1428395220693055 9.961096053105269 0
          7.1473315775398891 9.954629063052522 0
          7.1516199266168119 9.9480252284776469 0
          7.1556967364914259 9.941288742864101 0
          7.1595542856860934 9.9344243432706598 0
          7.1631849962661613 9.9274373080741132 0
          7.166581472469109 9.9203334552846201 0
          7.1697365319886392 9.913119133982498 0
          7.1726432367447845 9.9058012135175986 0
          7.1752949318062944 9.8983870737325912 0
          7.1776852825750588 9.8908845911518277 0
          7.1798083101846268 9.8833021215496153 0
          7.1822580760862103 9.875818819201573 0
          7.1850267530241529 9.8684475455598957 0
          7.188106035762396 9.8612005220325489 0
          7.1914871844645747 9.8540893156532832 0
          7.1951610805376731 9.8471248338552151 0
          7.1991182808465419 9.8403173242244772 0
          7.2033490571529697 9.8336763707787131 0
          7.2078434513324279 9.8272109034416797 0
          7.2125913111097022 9.8209292000262334 0
          7.2175823409647286 9.8148389026508358 0
          7.2228061295029198 9.8089470206882883 0
          7.2282521955760366 9.8032599519661083 0
          7.2338810142128338 9.7977537005866786 0
          7.2396832395129369 9.792430487198196 0
          7.2456506472433713 9.7872931257209004 0
          7.2517732331292013 9.7823417227068656 0
          7.2580412038760835 9.7775756974972428 0
          7.2644450019723452 9.7729937963096258 0
          7.2709753278988654 9.7685941057558914 0
          7.2776231598600312 9.7643740656832065 0
          7.2843810739070918 9.7603326579401308 0
          7.2912406332060851 9.7564662922443475 0
          7.2981937162840351 9.7527707653783047 0
          7.3052336085419256 9.7492434236739172 0
          7.312353937452956 9.7458814195132568 0
          7.3195485805352973 9.7426815455503917 0
          7.326812792126943 9.7396429207465243 0
          7.3341409700853717 9.736761993795513 0
          7.3415288066878652 9.7340377093679926 0
          7.3489712440692134 9.7314663483014048 0
          7.356464389485561 9.7290467487978223 0
          7.3640036337716843 9.7267748779514136 0
          7.3715854803310759 9.7246495268021551 0
          7.3792057870420562 9.72266651203892 0
          7.3868614524957747 9.7208247417432965 0
          7.3945487726132919 9.7191199411937799 0
          7.4022649553321003 9.7175509713182393 0
          7.4100073107099895 9.7161167520992766 0
          7.4177726972890774 9.7148130157829424 0
          7.4255587344033174 9.7136389236007084 0
          7.4333626448840793 9.7125902317328769 0
          7.4411822851347287 9.7116661584105213 0
          7.449015572702586 9.7108660285903028 0
          7.4568601733698445 9.7101857643919764 0
          7.4647142187506992 9.7096250380583236 0
          7.4725756573381199 9.70917989419012 0
          7.4804427772770854 9.7088501535474396 0
          7.4883138824198001 9.7086357868121596 0
          7.4961872340395264 9.7085331467492075 0
          7.504061246557594 9.7085426532681467 0
          7.5119343161337531 9.7086647747217274 0
          7.5198049285526238 9.7088962597161874 0
          7.5276715269878904 9.7092379552585726 0
          7.5355325048077582 9.7096909139504639 0
          7.5433864723604449 9.7102524945791906 0
          7.5512317936280695 9.7109241843740453 0
          7.5590671558134934 9.7117035492139525 0
          7.5668908423484957 9.7125925589991375 0
          7.5747009969722319 9.7135935666122251 0
          7.5824962446760482 9.7147047810920064 0
          7.5902745611021984 9.7159289778184554 0
          7.598034473736349 9.7172649555212924 0
          7.6057736930736439 9.7187160970618258 0
          7.6134906163060698 9.7202815728876786 0
          7.6211825660511074 9.7219655721227607 0
          7.6288476917216075 9.7237678399454648 0
          7.636482864586319 9.7256931637936859 0
          7.6440858345227038 9.727742080233206 0
          7.6516542533606628 9.7299152771860591 0
          7.6591840625841465 9.7322188195178825 0
          7.6666722709188493 9.7346543333928199 0
          7.6741156706309299 9.7372236776170507 0
          7.6815106877533994 9.7399292780143263 0
          7.6888533643431431 9.7427740219218517 0
          7.6961417179261531 9.7457553682479698 0
          7.7033713219485112 9.7488766701373404 0
          7.7105428219486321 9.7521294675705761 0
          7.7176576171401194 9.7555047407896538 0
          7.7247039703395473 9.7590209082630395 0
          7.7316965330162883 9.7626431919872445 0
          7.7386442559530551 9.7663511484939445 0
          7.7455722494009587 9.770096367588966 0
          7.7525307660475429 9.7737853611271834 0
          7.759603879332543 9.7772509233521756 0
          7.7668054979237384 9.7804427777042342 0
        </DataArray>
      </Points>
      <Cells>
        <DataArray type="Int32" Name="connectivity" format="ascii">
          0 1 1 2 2 3 3 4 4 5 5 6 6 7 7 8 8 9 9 10 10 11 11 12 12 13 13 14 14 15 15 16 16 17 17 18 18 19 19 20 20 21 21 22 22 23 23 24 24 25 25 26 26 27 27 28 28 29 29 30 30 31 31 32 32 33 33 34 34 35 35 36 36 37 37 38 38 39 39 40 40 41 41 42 42 43 43 44 44 45 45 46 46 47 47 48 48 49 49 50 50 51 51 52 52 53 53 54 54 55 55 56 56 57 57 58 58 59 59 60 60 61 61 62 62 63 63 64 64 65 65 66 66 67 67 68 68 69 69 70 70 71 71 72 72 73 73 74 74 75 75 76 76 77 77 78 78 79 79 80 80 81 81 82 82 83 83 84 84 85 85 86 86 87 87 88 88 89 89 90 90 91 91 92 92 93 93 94 94 95 95 96 96 97 97 98 98 99 99 100 100 101 101 102 102 103 103 104 104 105 105 106 106 107 107 108 108 109 109 110 110 111 111 112 112 113 113 114 114 115 115 116 116 117 117 118 118 119 119 120 120 121 121 122 122 123 123 124 124 125 125 126 126 127 
        </DataArray>
        <DataArray type="Int32" Name="offsets" format="ascii">
          2 4 6 8 10 12 14 16 18 20 22 24 26 28 30 32 34 36 38 40 42 44 46 48 50 52 54 56 58 60 62 64 66 68 70 72 74 76 78 80 82 84 86 88 90 92 94 96 98 100 102 104 106 108 110 112 114 116 118 120 122 124 126 128 130 132 134 136 138 140 142 144 146 148 150 152 154 156 158 160 162 164 166 168 170 172 174 176 178 180 182 184 186 188 190 192 194 196 198 200 202 204 206 208 210 212 214 216 218 220 222 224 226 228 230 232 234 236 238 240 242 244 246 248 250 252 254 
        </DataArray>
        <DataArray type="Int32" Name="types" format="ascii">
          3 3 3 3 3 3 3 3 3 3 3 3 3 3 3 3 3 3 3 3 3 3 3 3 3 3 3 3 3 3 3 3 3 3 3 3 3 3 3 3 3 3 3 3 3 3 3 3 3 3 3 3 3 3 3 3 3 3 3 3 3 3 3 3 3 3 3 3 3 3 3 3 3 3 3 3 3 3 3 3 3 3 3 3 3 3 3 3 3 3 3 3 3 3 3 3 3 3 3 3 3 3 3 3 3 3 3 3 3 3 3 3 3 3 3 3 3 3 3 3 3 3 3 3 3 3 3         </DataArray>
      </Cells>
    </Piece>
  </UnstructuredGrid>
</VTKFile>
