<?xml version="1.0"?>
<VTKFile type="UnstructuredGrid" version="0.1" byte_order="LittleEndian">
  <UnstructuredGrid>
    <Piece NumberOfPoints="128" NumberOfCells="127">
      <PointData Scalars="W">
        <DataArray type="Float32" Name="W" NumberOfComponents="2">
          0 0 -0.011281625054764171 -0.029659298685047825 -0.021916619367586546 -0.057682464447486662 -0.025250885437699749 -0.066562817922865225 -0.024082088346144882 -0.063586855348300872 -0.019621705718898579 -0.051885703916573309 -0.012484323946263479 -0.033048019876904013 -0.0030512955203029633 -0.0080815029611348219 0.0084251967577546882 0.022310495845256004 0.021750449193946187 0.057538157628477034 0.036802860529785451 0.097166107016760289 0.053487953280749914 0.14079165579171721 0.071736588891661707 0.18804087396014019 0.091502944640537529 0.238564681431188 0.11275828038215756 0.29202455140746142 0.1354921272624639 0.34809820666350189 0.15974362783814355 0.40656164628191466 0.18553661244658284 0.46712368223164924 0.21291895987703116 0.52953031876692425 0.24196610154590933 0.59357380379096403 0.27276016622666815 0.65904128648004434 0.30538091377603754 0.72569595037993662 0.33992008295096987 0.79331494948386883 0.37647991214623644 0.86168706246762816 0.41515734134546856 0.93057844511495791 0.45608379427571261 0.99982379446010294 0.49936695463418335 1.0691956876235742 0.54508864133841217 1.1384099129984762 0.59336722510431328 1.2072615813507757 0.64446635279154363 1.2758274979245603 0.69833621254321643 1.3435486157520562 0.75508288899569187 1.41019958931429 0.81480334762159257 1.475543101681406 0.87759183531702922 1.5393439463003866 0.9435298906530033 1.6013527903808455 1.0126935176666643 1.6613211681303157 1.0850843105204329 1.7188948567397291 1.1607710007594936 1.773849509103987 1.2398241510166628 1.8259714781464176 1.3222186106688323 1.8749192299439017 1.4079274593610955 1.9203774460315639 1.4969206727851836 1.9620523030854446 2.5285085311012563 3.1438521969342972 3.5080856704575041 4.0459048510556332 8.8432672746640488 8.8552962239817976 9.7610897055163708 8.0075348295949276 10.607034017533438 7.0573343073700707 11.364892455919209 6.0070822122752325 12.033971472637386 4.8684981460738603 12.592119435282349 3.6430942609221426 13.026539095885909 2.3410201723922954 -6.3275030425370176 -0.96194333534252152 -6.1398810435263167 -1.2495333553358563 -5.930866030460006 -1.5116665617821912 -2.0290350306876839 -0.58786055881448318 -1.8750680283007122 -0.57602822348060978 -1.592847008451447 -0.51440602002484159 -1.3649182301460676 -0.45936200533716764 -1.208260320334839 -0.42110335512643088 -0.91641069813492915 -0.32853826961769517 -0.62307163239024921 -0.22791962529456644 -0.46739856068305818 -0.17340430382457145 -0.17108903288773869 -0.063996655428129892 0.13145731183471523 0.049197199622981143 0.43376783177455802 0.16116146334952641 0.58906002891184983 0.21598421925617772 0.9006258294914633 0.32385997081494677 1.0547655308833708 0.36958104058490326 1.2051185802304833 0.40956397564087677 1.3564956554626808 0.44497139832810034 1.506058993195369 0.47435234366207296 1.6534714486519899 0.49721172440957068 1.798359474223608 0.5131146006574353 2.1073714630570355 0.56507231538523572 2.2475681792082804 0.56017728077526752 2.3838608956223886 0.54686972871532913 2.512974094476117 0.52448822900747172 2.6397748231041271 0.494195866990915 2.7609621406087177 0.45539717879872943 2.8759236919692346 0.40823584696712073 2.9840380757470957 0.3529486163499837 3.0846185782808981 0.28986106048534754 3.1771810206247628 0.21941197552374642 3.2610659510544906 0.14211086020195865 3.3357063130708453 0.058566062115131982 3.4005730113241093 -0.030527386786484527 3.4551853738259339 -0.12439295227303185 3.4990545249197473 -0.22217413020130738 3.5319474047124229 -0.32295822750666425 3.5535147122532855 -0.42576673599556686 3.5635490034169122 -0.52957440053201799 3.5618672348163778 -0.63330734837251579 3.5485540655304919 -0.73589751811569082 3.5236008406799626 -0.83623562233841886 3.4871501249679682 -0.93322016298626109 3.4393744335380831 -1.025743706488466 3.3779762136888896 -1.1118339649275009 3.1471297020865796 -1.1315109298216257 3.0711037526573981 -1.1957348112706578 2.985699600700054 -1.251847552330196 2.8914783642298869 -1.2990520652954758 2.7888671349588896 -1.3365440305716476 2.6783577192126176 -1.3635985522250678 2.5604385852303371 -1.379552634662339 2.4330075584206505 -1.382307366595632 2.4488714968725289 -1.4643365401562589 2.3076288886151639 -1.4496122240148284 2.1581430989089876 -1.4194574356595222 2.0059379799462307 -1.3768566500049157 1.8486255929685358 -1.3199056216038547 1.8261884653520406 -1.3538637993085583 1.6553963722296909 -1.2718602209308945 1.4771861565983118 -1.1721377738412406 1.4383182118973892 -1.1762558932594611 1.2487129458765498 -1.0501536894227357 1.1941205427262345 -1.0302745900193548 1.1426202665685656 -1.0104472634573631 0.92703616339231099 -0.8380265105197604 0.84993592761637449 -0.78308245505821905 0.17578377277251145 -0.16375244060966293 0.053991347629975268 -0.050420828528374248 -0.1278793681665043 0.11932733697648309 -0.48724970338105278 0.45166157658730055 -0.58169854176672409 0.53305540762997417 -0.97129544654777822 0.87543168630940427 -1.423726327472514 1.2510309507645418 -1.1552586445157143 0.98791458590522141 0 0
        </DataArray>
        <DataArray type="Float32" Name="u" NumberOfComponents="1">
          0 0.007874015748031496 0.015748031496062992 0.023622047244094488 0.031496062992125984 0.03937007874015748 0.047244094488188976 0.055118110236220472 0.062992125984251968 0.070866141732283464 0.07874015748031496 0.086614173228346455 0.094488188976377951 0.10236220472440945 0.11023622047244094 0.11811023622047244 0.12598425196850394 0.13385826771653545 0.14173228346456693 0.14960629921259844 0.15748031496062992 0.16535433070866143 0.17322834645669291 0.18110236220472442 0.1889763779527559 0.19685039370078741 0.20472440944881889 0.2125984251968504 0.22047244094488189 0.2283464566929134 0.23622047244094488 0.24409448818897639 0.25196850393700787 0.25984251968503935 0.26771653543307089 0.27559055118110237 0.28346456692913385 0.29133858267716534 0.29921259842519687 0.30708661417322836 0.31496062992125984 0.32283464566929132 0.33070866141732286 0.33858267716535434 0.34645669291338582 0.3543307086614173 0.36220472440944884 0.37007874015748032 0.37795275590551181 0.38582677165354329 0.39370078740157483 0.40157480314960631 0.40944881889763779 0.41732283464566927 0.42519685039370081 0.43307086614173229 0.44094488188976377 0.44881889763779526 0.45669291338582679 0.46456692913385828 0.47244094488188976 0.48031496062992124 0.48818897637795278 0.49606299212598426 0.50393700787401574 0.51181102362204722 0.51968503937007871 0.52755905511811019 0.53543307086614178 0.54330708661417326 0.55118110236220474 0.55905511811023623 0.56692913385826771 0.57480314960629919 0.58267716535433067 0.59055118110236215 0.59842519685039375 0.60629921259842523 0.61417322834645671 0.62204724409448819 0.62992125984251968 0.63779527559055116 0.64566929133858264 0.65354330708661412 0.66141732283464572 0.6692913385826772 0.67716535433070868 0.68503937007874016 0.69291338582677164 0.70078740157480313 0.70866141732283461 0.71653543307086609 0.72440944881889768 0.73228346456692917 0.74015748031496065 0.74803149606299213 0.75590551181102361 0.76377952755905509 0.77165354330708658 0.77952755905511806 0.78740157480314965 0.79527559055118113 0.80314960629921262 0.8110236220472441 0.81889763779527558 0.82677165354330706 0.83464566929133854 0.84251968503937003 0.85039370078740162 0.8582677165354331 0.86614173228346458 0.87401574803149606 0.88188976377952755 0.88976377952755903 0.89763779527559051 0.90551181102362199 0.91338582677165359 0.92125984251968507 0.92913385826771655 0.93700787401574803 0.94488188976377951 0.952755905511811 0.96062992125984248 0.96850393700787396 0.97637795275590555 0.98425196850393704 0.99212598425196852 1
        </DataArray>
      </PointData>
      <CellData Scalars="P">
        <DataArray type="Float32" Name="P" NumberOfComponents="1">
          -0.036245975142791695 -0.1087165098295047 -0.18117750144806297 -0.25367219425522969 -0.32624279552155044 -0.39891683598304783 -0.4716988485221647 -0.54456482539396756 -0.61745849311773682 -0.69028930376435815 -0.76293110402333997 -0.83522213232630294 -0.90696585756314962 -0.97793249580732267 -1.0478612396866691 -1.116462885291938 -1.1834211414756999 -1.2483968875560707 -1.311030924448529 -1.3709462703704105 -1.4277515645286425 -1.4810452432864423 -1.5304187759522476 -1.5754598455175473 -1.6157567530727184 -1.6508992082766727 -1.6804840741451266 -1.7041216424115342 -1.7214357130709015 -1.7320516242049275 -1.735631845696513 -1.7318631930569885 -1.7204606269097982 -1.7011702022966697 -1.6737729610148089 -1.6380878720445173 -1.5939823831143867 -1.5413666846632144 -1.4801953048041863 -1.4104795817811768 -1.3322890858058334 -1.2457530278226661 -1.0223663430480252 -0.69831856935708791 0.11669386855964252 0.97749212450603118 1.8972592973821734 2.8877673259662826 3.9604609320847226 5.1239683538786727 6.3845614136600153 5.6033833107614122 4.7566919665628697 3.8615418625978033 3.5025497219266954 3.1521462282724917 2.8359650308327895 2.5497634656658628 2.2845655235701674 2.0672153672853235 1.9005892655178607 1.7609954125336986 1.675039564470751 1.643930452162347 1.6668422114342829 1.7158193330382996 1.817223540898403 1.9410897036939432 2.0849564485101109 2.2470100750610151 2.4248060971643159 2.6157409779746676 2.8170842419146802 3.049346049735989 3.2852372741042517 3.5218366102266514 3.7559193208388333 3.9849791527648124 4.2062486340804552 4.4170727740123583 4.6149382787082693 4.7974962444143632 4.9626045243667667 5.1083352775402577 5.2330025732515653 5.3351815089246992 5.4137242681867326 5.4677704645097291 5.4967631236659953 5.5004460506204751 5.478867362386441 5.4323757402776334 5.361614249586184 5.2675064988595164 5.1512415976170054 5.0142555557374688 4.858275635690374 4.6901965317573451 4.5078256396125225 4.3131224581729146 4.108147304039754 3.8950381932739813 3.6759793147049558 3.4531713301485851 3.2289621109164637 2.9957366961239975 2.7649159014966185 2.5388324276156062 2.3193237694502105 2.1082374354953606 1.8969186837421541 1.6972702425890038 1.5108409662073279 1.3282310257461218 1.1609135587320227 0.99979620497705191 0.84522048992838861 0.70798782880825517 0.57917466776014814 0.4906394073984402 0.40917499832367354 0.33600212937644314 0.27512279715341387 0.21426733085512153 0.15841363655098584 0.10292510078161544 0.03655032218158661
        </DataArray>
      </CellData>
      <Points>
        <DataArray type="Float32" NumberOfComponents="3" format="ascii">
          4.2450222728405702 7.5690367114065582 0
          4.2376623404683524 7.5718372907334945 0
          4.2303017413510746 7.5746360183468271 0
          4.2229398314800584 7.5774311506617442 0
          4.2155764132705693 7.5802221336154254 0
          4.2082115644260796 7.5830091498775101 0
          4.2008455638604758 7.5857929242419289 0
          4.1934788541991539 7.5885746248426313 0
          4.1861120185468206 7.5913558004790778 0
          4.1787457651595972 7.5941383368647575 0
          4.1713809156176911 7.5969244199506845 0
          4.1640183974890164 7.5997165088517731 0
          4.1566592386451768 7.6025173108212369 0
          4.1493045631268251 7.6053297580258601 0
          4.1419555884379271 7.6081569858770868 0
          4.1346136238857962 7.6110023120293286 0
          4.1272800700430201 7.6138692163967718 0
          4.1199564212761084 7.6167613272726529 0
          4.1126442673169805 7.6196824032907404 0
          4.1053452963187729 7.6226363176992358 0
          4.0980612996141543 7.6256270455070778 0
          4.0907941768839491 7.628658650318318 0
          4.0835459411746537 7.6317352696837837 0
          4.076318724655053 7.6348611013211345 0
          4.0691147850208136 7.6380403900570322 0
          4.0619365115680717 7.6412774133671748 0
          4.0547864334031996 7.6445764711661317 0
          4.047667226179092 7.6479418717447629 0
          4.04058171722646 7.6513779141847564 0
          4.0335328929508121 7.6548888756897133 0
          4.0265239152383092 7.6584790163831107 0
          4.0195581184235021 7.6621525446731189 0
          4.0126390159243748 7.6659136033069428 0
          4.0057703063123791 7.6697662546792991 0
          3.9989558792146425 7.6737144662680796 0
          3.9921998204290565 7.6777620951899657 0
          3.9855064166971981 7.6819128728057775 0
          3.9788801558628637 7.6861703827613095 0
          3.9723257311962712 7.690538047079527 0
          3.9658480458338468 7.6950191129128251 0
          3.9594522112821045 7.6996166313573555 0
          3.953143545813075 7.704333437888601 0
          3.9469275726688 7.7091721341259074 0
          3.9408688338466589 7.7142056212858954 0
          3.9350280987657515 7.7194898063337769 0
          3.9297358336858812 7.7253235135724845 0
          3.9250490218698704 7.7316542002252859 0
          3.9210201984676836 7.7384229627439156 0
          3.9176964444325817 7.7455646832187508 0
          3.9151193432649323 7.753008753857654 0
          3.9133236053051572 7.7606791693688457 0
          3.9123362725312214 7.7684951548098553 0
          3.9109561713239582 7.7762517093385917 0
          3.9091949049950494 7.7839309806934098 0
          3.9070654059275509 7.7915166933220483 0
          3.9048099487840564 7.7990659129902458 0
          3.9024380921929489 7.8065793720585344 0
          3.899967359700049 7.8140608846475441 0
          3.8974119034677517 7.8215138610106836 0
          3.8947814495098281 7.8289406750322437 0
          3.8920941195976582 7.8363470619155615 0
          3.8893681278834515 7.8437392568512134 0
          3.8866131387494645 7.8511206433626848 0
          3.8838475500480518 7.8584980020469688 0
          3.881090146242145 7.8658783480297423 0
          3.8783596961632121 7.8732686200419346 0
          3.8756658381294153 7.880672220359652 0
          3.8730279136143291 7.8880958329417306 0
          3.8704554876920083 7.8955422947763614 0
          3.8679578897840545 7.9030140866850385 0
          3.8655445123769532 7.9105134051417947 0
          3.8632246348319623 7.9180420724112874 0
          3.8610074024683003 7.9256015058437335 0
          3.858901803387174 7.9331926909078847 0
          3.8569270131352327 7.9408188395974513 0
          3.8550917265351443 7.9484796464928316 0
          3.8534043955507542 7.9561742840802001 0
          3.8518730260122598 7.9639013619269248 0
          3.8505054797311336 7.9716589985681976 0
          3.8493092696364526 7.9794447847833112 0
          3.8482915218012037 7.9872557925703846 0
          3.8474589369125791 7.9950885898973825 0
          3.8468177476958001 8.0029392609696028 0
          3.8463736889120916 8.0108034335114091 0
          3.8461319564876262 8.0186763104453185 0
          3.8460971723836583 8.026552707698702 0
          3.8462733518301477 8.0344270973858887 0
          3.8466638735721563 8.0422936560428209 0
          3.847271449616569 8.0501463178210706 0
          3.8480981108564309 8.0579788311518232 0
          3.8491451854927905 8.065784819494807 0
          3.850413286264359 8.0735578449750882 0
          3.8519022991986449 8.0812914750283209 0
          3.8536113889728263 8.0889793486666584 0
          3.8555389984925594 8.0966152452983486 0
          3.8576828578536446 8.1041931530488363 0
          3.8600399951641635 8.1117073374392046 0
          3.8626065942120915 8.1191524637771 0
          3.86536833294636 8.1265273220572638 0
          3.868320489858494 8.1338279340067388 0
          3.8714577625408593 8.1410508249304918 0
          3.8747743025842669 8.1481930730919174 0
          3.8782637421592479 8.1552523595387125 0
          3.8819192246014769 8.1622270129947196 0
          3.8857334347801515 8.169116050908201 0
          3.8896984688500744 8.1759193095843639 0
          3.8938153073688393 8.1826317075075607 0
          3.898075192338422 8.1892541661578502 0
          3.9024688559642802 8.1957885639845465 0
          3.9069868631047444 8.202237551213738 0
          3.9116194632224213 8.2086046679166706 0
          3.9163652687216062 8.2148878169575603 0
          3.9212136961546791 8.22109209264047 0
          3.9261537033554776 8.2272236878728684 0
          3.9311828887264926 8.2332823577588528 0
          3.9362895063771464 8.2392759316425437 0
          3.9414701832133208 8.2452056541814596 0
          3.9467217401503349 8.2510727682206362 0
          3.9520308247806142 8.2568879769574437 0
          3.9573926740410528 8.2626547025738137 0
          3.9627654945808137 8.2684113516682736 0
          3.9681417499107612 8.2741649674013438 0
          3.9735101778440489 8.2799260922098927 0
          3.9788485044388522 8.2857153483276687 0
          3.9841508911034085 8.2915378079606423 0
          3.9893931868457746 8.2974147232134463 0
          3.9945473396387627 8.3033694104395064 0
          3.9996300390096078 8.3093856111442257 0
        </DataArray>
      </Points>
      <Cells>
        <DataArray type="Int32" Name="connectivity" format="ascii">
          0 1 1 2 2 3 3 4 4 5 5 6 6 7 7 8 8 9 9 10 10 11 11 12 12 13 13 14 14 15 15 16 16 17 17 18 18 19 19 20 20 21 21 22 22 23 23 24 24 25 25 26 26 27 27 28 28 29 29 30 30 31 31 32 32 33 33 34 34 35 35 36 36 37 37 38 38 39 39 40 40 41 41 42 42 43 43 44 44 45 45 46 46 47 47 48 48 49 49 50 50 51 51 52 52 53 53 54 54 55 55 56 56 57 57 58 58 59 59 60 60 61 61 62 62 63 63 64 64 65 65 66 66 67 67 68 68 69 69 70 70 71 71 72 72 73 73 74 74 75 75 76 76 77 77 78 78 79 79 80 80 81 81 82 82 83 83 84 84 85 85 86 86 87 87 88 88 89 89 90 90 91 91 92 92 93 93 94 94 95 95 96 96 97 97 98 98 99 99 100 100 101 101 102 102 103 103 104 104 105 105 106 106 107 107 108 108 109 109 110 110 111 111 112 112 113 113 114 114 115 115 116 116 117 117 118 118 119 119 120 120 121 121 122 122 123 123 124 124 125 125 126 126 127 
        </DataArray>
        <DataArray type="Int32" Name="offsets" format="ascii">
          2 4 6 8 10 12 14 16 18 20 22 24 26 28 30 32 34 36 38 40 42 44 46 48 50 52 54 56 58 60 62 64 66 68 70 72 74 76 78 80 82 84 86 88 90 92 94 96 98 100 102 104 106 108 110 112 114 116 118 120 122 124 126 128 130 132 134 136 138 140 142 144 146 148 150 152 154 156 158 160 162 164 166 168 170 172 174 176 178 180 182 184 186 188 190 192 194 196 198 200 202 204 206 208 210 212 214 216 218 220 222 224 226 228 230 232 234 236 238 240 242 244 246 248 250 252 254 
        </DataArray>
        <DataArray type="Int32" Name="types" format="ascii">
          3 3 3 3 3 3 3 3 3 3 3 3 3 3 3 3 3 3 3 3 3 3 3 3 3 3 3 3 3 3 3 3 3 3 3 3 3 3 3 3 3 3 3 3 3 3 3 3 3 3 3 3 3 3 3 3 3 3 3 3 3 3 3 3 3 3 3 3 3 3 3 3 3 3 3 3 3 3 3 3 3 3 3 3 3 3 3 3 3 3 3 3 3 3 3 3 3 3 3 3 3 3 3 3 3 3 3 3 3 3 3 3 3 3 3 3 3 3 3 3 3 3 3 3 3 3 3         </DataArray>
      </Cells>
    </Piece>
  </UnstructuredGrid>
</VTKFile>
