<?xml version="1.0"?>
<VTKFile type="UnstructuredGrid" version="0.1" byte_order="LittleEndian">
  <UnstructuredGrid>
    <Piece NumberOfPoints="128" NumberOfCells="127">
      <PointData Scalars="W">
        <DataArray type="Float32" Name="W" NumberOfComponents="2">
          0 0 -0.38162142685002087 0.17379526740737605 -0.65947586088830146 0.29675944295114337 -0.87811357354348007 0.38816794943629934 -1.0660366037253328 0.46063451991512089 -1.2347307693859928 0.51916169908371501 -1.3898789145460064 0.56619171435035653 -1.5346917100433026 0.60310495704560296 -1.6711129509401341 0.63076143942323981 -1.8004761705231025 0.64978441773966578 -1.9236328854670783 0.66062230270510458 -2.0411621719487383 0.66363730464601911 -2.1534808735714095 0.6591482944478988 -2.2609108146682702 0.64745313599491083 -2.3637101688089848 0.62883633805310268 -2.4620599059859973 0.60356425125056845 -2.5559864710263058 0.57187073280302581 -2.6455738766974748 0.53401184455558204 -2.7308582093543969 0.49023590904174874 -2.8118018322456049 0.4407822429145738 -2.8883857466202238 0.38589952462527938 -2.9606056598571171 0.32584045882952289 -3.0284183245635701 0.26085369593455571 -3.0917571039759149 0.19118865284612313 -3.1506099725892143 0.11709980954427736 -3.204869904124295 0.038837820881928505 -3.2544911425482765 -0.043340699426599134 -3.2995227545773953 -0.12918444895439757 -3.3399461233047876 -0.21844980540461748 -3.3753762083213266 -0.31085889197247774 -3.4061402494825064 -0.40618274331648657 -3.4322210310626708 -0.50418761189568273 -3.4536280617298445 -0.60464874447318417 -3.4703450732488919 -0.7073431928567494 -3.4823966765518417 -0.81206154617122772 -3.4897944788316124 -0.91859986750065004 -3.4926585989652574 -1.0267947664018211 -3.4909542154235846 -1.1364539615643627 -3.4846488005414971 -1.2473858105392603 -3.4738814629097532 -1.3594681839796499 -3.4587285889650445 -1.4725797730534109 -3.4392484807766479 -1.5866100608581242 0.21421131812682639 0.10247696500009401 0.62342146401114806 0.29544715726193016 1.0552340347566631 0.49068915695590887 1.4994678017286032 0.67719190894712356 1.473315770422333 0.64279349653106466 1.9368738960423217 0.81159605281262714 1.9080196340274804 0.76305918559098418 1.8741631000872165 0.71498091936935615 1.8351637171345918 0.66752893819216685 1.7908663166481966 0.62085890218033313 1.7416069199438027 0.57527709818857653 1.6872962607591042 0.53091177271997125 1.6168391333421046 0.48465859916327164 1.0215577254827539 0.29419733353433658 2.0039848740462531 0.5503742381854797 2.4822483113509701 0.633183967039882 2.9889581305835313 0.69223693454737678 3.5107109521892115 0.71672766581305258 4.0624868412559669 0.70166639925060748 4.6269841420567319 0.63501172750531532 4.543428556813887 0.45586007591681221 4.4425930754523604 0.28682252136212327 4.334633988258334 0.12943736394630817 4.2416836820061112 -0.016705479035654853 4.1344749721788974 -0.15280782425589254 4.0349833742614951 -0.27954253608737056 3.9337144400066886 -0.39735612616239213 3.8203343390147446 -0.50497868628697906 3.7175861134484038 -0.60539853842677915 3.6153021207934852 -0.69815948451677512 3.5027453513320239 -0.78106471726481452 3.4029970719556384 -0.85933135563493468 3.3050451119554518 -0.93142047894191282 3.1982537032498697 -0.99425539627086057 3.1056699280151689 -1.0551255189695294 3.0159366489683834 -1.1114362260961379 2.9294392567584326 -1.1637624407019724 2.8354032890170675 -1.2077980871394602 2.75619385073963 -1.2532179468352569 2.680717114613858 -1.2962365003594039 2.6092017871848601 -1.3374285681709386 2.5304294086647952 -1.3710251077423317 2.4668207592401066 -1.4093126072438631 2.4071236211443248 -1.4471535562020921 2.3405284724350808 -1.4780295579355476 2.2888507810925316 -1.5158711990652554 2.240940879941558 -1.5546220066308489 2.1968433059758641 -1.594816466942198 2.1561603313277198 -1.6366804808959434 2.108458832091709 -1.6722712808828568 2.0749704781878666 -1.7186183291919741 2.0444424095731564 -1.7679010265156772 2.0168132226262867 -1.8206514791454209 1.9819697698085703 -1.8677773129767492 1.959844956908334 -1.9283243249787281 1.9398669495105711 -1.9936408231454574 1.9121707347972117 -2.0536903218280762 1.8959837559451054 -2.1294917494565069 1.8810286893669876 -2.2116069817329764 1.8666051364812446 -2.3002305917626398 1.8433873045202613 -2.3841360785701657 1.8294324816184899 -2.4873336822078409 1.8143589585815199 -2.5985977785989163 1.7893770941178113 -2.705886154793359 1.7707647352545055 -2.8348608163771565 1.7410141546694071 -2.9601636793922319 1.715397381927303 -3.1092207758586401 1.6843665360984035 -3.2696492257849843 1.6396057394182166 -3.4269268625821945 1.587572420165829 -3.5952375508328482 1.5332769247741327 -3.7919711338535906 1.4613342476163569 -3.9856200174716254 1.3822467338363646 -4.2094645384953751 1.2819117437841154 -4.4300847947526103 1.1640814499064136 -4.6640931809709896 1.0396679413152676 -4.9850510387801643 0.87545687001140149 -5.2734206330714679 0.11381707921818399 -0.80614313021607353 0.088731090352448028 -0.65598127650145777 0.042756902704262231 -0.32565250433150883 -0.0018949401608944392 0.014572010044531434 -0.050493895751351388 0.38355280297373345 -0.20148635263143538 1.4488726839557444 -0.55839459094748822 3.5065031211936168 -1.1847990581415484 5.9712097192713101 0 0
        </DataArray>
        <DataArray type="Float32" Name="u" NumberOfComponents="1">
          0 0.007874015748031496 0.015748031496062992 0.023622047244094488 0.031496062992125984 0.03937007874015748 0.047244094488188976 0.055118110236220472 0.062992125984251968 0.070866141732283464 0.07874015748031496 0.086614173228346455 0.094488188976377951 0.10236220472440945 0.11023622047244094 0.11811023622047244 0.12598425196850394 0.13385826771653545 0.14173228346456693 0.14960629921259844 0.15748031496062992 0.16535433070866143 0.17322834645669291 0.18110236220472442 0.1889763779527559 0.19685039370078741 0.20472440944881889 0.2125984251968504 0.22047244094488189 0.2283464566929134 0.23622047244094488 0.24409448818897639 0.25196850393700787 0.25984251968503935 0.26771653543307089 0.27559055118110237 0.28346456692913385 0.29133858267716534 0.29921259842519687 0.30708661417322836 0.31496062992125984 0.32283464566929132 0.33070866141732286 0.33858267716535434 0.34645669291338582 0.3543307086614173 0.36220472440944884 0.37007874015748032 0.37795275590551181 0.38582677165354329 0.39370078740157483 0.40157480314960631 0.40944881889763779 0.41732283464566927 0.42519685039370081 0.43307086614173229 0.44094488188976377 0.44881889763779526 0.45669291338582679 0.46456692913385828 0.47244094488188976 0.48031496062992124 0.48818897637795278 0.49606299212598426 0.50393700787401574 0.51181102362204722 0.51968503937007871 0.52755905511811019 0.53543307086614178 0.54330708661417326 0.55118110236220474 0.55905511811023623 0.56692913385826771 0.57480314960629919 0.58267716535433067 0.59055118110236215 0.59842519685039375 0.60629921259842523 0.61417322834645671 0.62204724409448819 0.62992125984251968 0.63779527559055116 0.64566929133858264 0.65354330708661412 0.66141732283464572 0.6692913385826772 0.67716535433070868 0.68503937007874016 0.69291338582677164 0.70078740157480313 0.70866141732283461 0.71653543307086609 0.72440944881889768 0.73228346456692917 0.74015748031496065 0.74803149606299213 0.75590551181102361 0.76377952755905509 0.77165354330708658 0.77952755905511806 0.78740157480314965 0.79527559055118113 0.80314960629921262 0.8110236220472441 0.81889763779527558 0.82677165354330706 0.83464566929133854 0.84251968503937003 0.85039370078740162 0.8582677165354331 0.86614173228346458 0.87401574803149606 0.88188976377952755 0.88976377952755903 0.89763779527559051 0.90551181102362199 0.91338582677165359 0.92125984251968507 0.92913385826771655 0.93700787401574803 0.94488188976377951 0.952755905511811 0.96062992125984248 0.96850393700787396 0.97637795275590555 0.98425196850393704 0.99212598425196852 1
        </DataArray>
      </PointData>
      <CellData Scalars="P">
        <DataArray type="Float32" Name="P" NumberOfComponents="1">
          0.011083230804724228 0.034164210164955591 0.059452064543629009 0.087759069275591878 0.11968841153916622 0.15570431447517744 0.19616049584673725 0.24131579786148757 0.29134413330797831 0.34634376583191956 0.40634325224461054 0.4713075551163276 0.54114434382746468 0.61571055589859847 0.69481892966297931 0.77824366514626386 0.86572366053175653 0.9569704677973776 1.0516735629481251 1.1495046943254001 1.250124418343679 1.3531884345425169 1.4583523693975797 1.5652768207493999 1.6736343185507825 1.7831121996568804 1.893419466091705 2.0042942730245428 2.1155069479889521 2.2268554113952526 2.3381878890335015 2.4493981737771375 2.5604302719042327 2.6712815215101191 2.7820071300326648 2.8927231500305299 3.003612156168268 3.1149223477426777 3.2269702871308543 3.3401475523469419 3.4549215542731821 3.5718373230152665 3.5816765086810647 3.5779319245192394 3.557314237826132 3.5161192871021827 3.4693801438323333 3.3952533647420737 3.3130069195903631 3.2227980054298433 3.1250255513336445 3.0203205010330594 2.9095007883836819 2.7935770546373919 2.6745453132465316 2.5941110059646517 2.4293280284162342 2.2167524923666404 1.9520949211302194 1.6328112232032117 1.2558027762560888 0.8805186838297181 0.50918189726518648 0.14533326242071154 -0.20865658752900751 -0.55270151451368899 -0.88418332508628084 -1.2027066805689404 -1.5071617223789411 -1.7956905321671099 -2.0686019077369768 -2.3254215229473134 -2.5649264916727943 -2.7878969013515396 -2.9942839882150891 -3.1833597623415493 -3.3561529834454356 -3.5128956251570251 -3.6538909312402295 -3.7788691658962485 -3.8888968176204068 -3.9843818142790366 -4.065751447658263 -4.1329964968875084 -4.1870311612982452 -4.2282652917242647 -4.2568285021993155 -4.273423693023739 -4.2783975694000533 -4.2720712952810098 -4.2547338480303569 -4.2266573835965016 -4.1881237362318693 -4.1393304682423544 -4.080446527430853 -4.0118352887833346 -3.9334495675520316 -3.8453821239393289 -3.7480789059291411 -3.6412839701046127 -3.5250437327242272 -3.3994171195676781 -3.2650136765957054 -3.121396182472596 -2.9686722012382312 -2.8076273198638506 -2.6378358695794262 -2.4602589807229269 -2.274545573743004 -2.0811208808709654 -1.8813205117212666 -1.6759033024278358 -1.4649542564313669 -1.250381267059818 -1.032729439808685 -0.81444089547989296 -0.5974886722268391 -0.38134819345878362 -0.17097516227462747 -0.12446291802160127 -0.08478328125230937 -0.055333233035048689 -0.03370925887957972 -0.017549774255281883 -0.012688189747803835 -0.018235083684017224 -0.014480677645604336
        </DataArray>
      </CellData>
      <Points>
        <DataArray type="Float32" NumberOfComponents="3" format="ascii">
          3.9366348427788793 8.7692756866702037 0
          3.9399101107223062 8.7764361887868798 0
          3.9431617178896952 8.7836074658356491 0
          3.9463724371954658 8.7907971414536501 0
          3.949528713060054 8.7980108829336281 0
          3.9526188942664922 8.8052531832602909 0
          3.955632521830954 8.8125276712678797 0
          3.9585599766597119 8.819837263064235 0
          3.9613922804809043 8.8271842476246007 0
          3.9641209753217908 8.8345703401244702 0
          3.9667380408208608 8.8419967205955334 0
          3.9692358414231719 8.8494640617426708 0
          3.9716070904648464 8.8569725514176696 0
          3.97384482431351 8.8645219124066728 0
          3.9759423823971658 8.8721114209156084 0
          3.9778933911763956 8.8797399242276249 0
          3.9796917528999529 8.8874058572343433 0
          3.9813316439375841 8.8951072569516558 0
          3.9828075095400806 8.9028417784108971 0
          3.9841140615671975 8.9106067100683486 0
          3.9852462807828828 8.9183989886539852 0
          3.9861994179914126 8.9262152145976987 0
          3.9869689942583153 8.9340516677016613 0
          3.9875508035433489 8.9419043225572246 0
          3.9879409167807811 8.9497688640046658 0
          3.988135682571083 8.95764070290166 0
          3.9881317337608841 8.9655149916488472 0
          3.9879259902224571 8.9733866400786368 0
          3.9875156557526745 8.9812503310080523 0
          3.9868982191681122 8.989100535308328 0
          3.9860714781214668 8.9969315290911602 0
          3.9850335187531254 9.0047374078546518 0
          3.9837827167026436 9.0125121009179647 0
          3.9823177364656375 9.0202493852904428 0
          3.9806375323524916 9.02794289942101 0
          3.9787413469163013 9.0355861561003561 0
          3.9766287101921494 9.0431725550161079 0
          3.9742994322124838 9.0506953927861407 0
          3.9717536051375082 9.0581478747765036 0
          3.9689916052509835 9.0655231268732344 0
          3.9660140843187741 9.0728142029367653 0
          3.962821964845118 9.0800140921994092 0
          3.9594164364589748 9.0871157259880224 0
          3.9560243901343779 9.0942233082775026 0
          3.9526711829795316 9.1013488466442904 0
          3.9493835652831075 9.108504493035781 0
          3.9461890500865686 9.1157018628081694 0
          3.9430859756938244 9.1229388889743532 0
          3.9401030495958618 9.1302260991730311 0
          3.9372384474550666 9.1375605562938329 0
          3.9344900403076464 9.1449393520248297 0
          3.9318553855414211 9.1523596169054056 0
          3.9293317169141848 9.1598185296779722 0
          3.9269159649745258 9.1673133360367238 0
          3.924604751072184 9.1748413563882742 0
          3.9223936988866406 9.1823997927836132 0
          3.9202458895485295 9.1899768794707857 0
          3.9182222451487205 9.1975886201095829 0
          3.9163524387413333 9.2052402605321202 0
          3.9146679262772039 9.2129355883283512 0
          3.9132011213522579 9.2206762616461031 0
          3.9119863320074559 9.2284614989708977 0
          3.9110588553911536 9.2362857262240947 0
          3.9104134558017654 9.2441378365364031 0
          3.9100438292994033 9.2520073540516297 0
          3.9099432342680558 9.2598845293979188 0
          3.9101058649775084 9.267760314864649 0
          3.9105250352024599 9.2756262871308675 0
          3.9111945418157799 9.2834746062452353 0
          3.9121080754171649 9.2912979867230341 0
          3.913258578957294 9.2990897752991817 0
          3.9146396586062013 9.306843766301391 0
          3.9162449526044907 9.3145542290007697 0
          3.9180674648935572 9.3222160430951 0
          3.92010099673054 9.3298243758679966 0
          3.9223394632176394 9.3373747769122115 0
          3.9247762332925715 9.344863368402974 0
          3.9274055590729131 9.3522863937403997 0
          3.9302218710992736 9.3596403779340314 0
          3.9332198019985722 9.3669220919064031 0
          3.9363935180130709 9.3741288192055219 0
          3.9397381059345218 9.3812577566799149 0
          3.9432488848428675 9.3883062489087585 0
          3.9469214201257983 9.3952717525951392 0
          3.9507508276141126 9.4021521941129738 0
          3.9547331639105852 9.4089452081781886 0
          3.9588647284497069 9.4156484562223888 0
          3.9631413930846677 9.422260030470067 0
          3.9675599548470908 9.4287775905964999 0
          3.9721174444533909 9.435198739136311 0
          3.97681112901541 9.4415209884160696 0
          3.9816384873376212 9.4477417466141489 0
          3.9865965629553459 9.4538588102076329 0
          3.9916832806483575 9.4598693083771099 0
          3.9968967486514599 9.465770187845056 0
          4.0022352548392108 9.4715581799430346 0
          4.0076966396592084 9.4772303643517208 0
          4.0132795320785135 9.4827829884039616 0
          4.0189826940727293 9.4882120034764963 0
          4.0248044089713133 9.4935136872697043 0
          4.0307436736356648 9.4986833407241242 0
          4.0367995612333072 9.5037158731803455 0
          4.0429711778220438 9.508605790342191 0
          4.0492570841515274 9.5133478903388102 0
          4.0556564152535781 9.5179357751258937 0
          4.0621682367672136 9.5223625464777157 0
          4.068790999995497 9.5266215526229114 0
          4.0755235511436352 9.5307047972064982 0
          4.0823640458594888 9.5346045115082365 0
          4.0893108960941094 9.5383114540187925 0
          4.0963621781497821 9.5418156781869019 0
          4.1035151171402955 9.545107432811557 0
          4.1107664873579859 9.5481762826288854 0
          4.1181129228907309 9.5510100301128826 0
          4.1255499638520572 9.5535966689750342 0
          4.1330727074589948 9.5559223207215478 0
          4.1406749338060616 9.5579733067099237 0
          4.1483493384841319 9.5597351181196615 0
          4.1560882087468967 9.5611878549890132 0
          4.163881364765766 9.5623136376942011 0
          4.1716816256572562 9.563389445469241 0
          4.1794874639698101 9.564424591338188 0
          4.1872960663544507 9.5654395604358555 0
          4.1951047106558388 9.5664554538113276 0
          4.2029104407936169 9.5674951593468105 0
          4.2107039851208032 9.5686247565930049 0
          4.218463364083509 9.5699718979527635 0
          4.2261490961867327 9.57168934978435 0
        </DataArray>
      </Points>
      <Cells>
        <DataArray type="Int32" Name="connectivity" format="ascii">
          0 1 1 2 2 3 3 4 4 5 5 6 6 7 7 8 8 9 9 10 10 11 11 12 12 13 13 14 14 15 15 16 16 17 17 18 18 19 19 20 20 21 21 22 22 23 23 24 24 25 25 26 26 27 27 28 28 29 29 30 30 31 31 32 32 33 33 34 34 35 35 36 36 37 37 38 38 39 39 40 40 41 41 42 42 43 43 44 44 45 45 46 46 47 47 48 48 49 49 50 50 51 51 52 52 53 53 54 54 55 55 56 56 57 57 58 58 59 59 60 60 61 61 62 62 63 63 64 64 65 65 66 66 67 67 68 68 69 69 70 70 71 71 72 72 73 73 74 74 75 75 76 76 77 77 78 78 79 79 80 80 81 81 82 82 83 83 84 84 85 85 86 86 87 87 88 88 89 89 90 90 91 91 92 92 93 93 94 94 95 95 96 96 97 97 98 98 99 99 100 100 101 101 102 102 103 103 104 104 105 105 106 106 107 107 108 108 109 109 110 110 111 111 112 112 113 113 114 114 115 115 116 116 117 117 118 118 119 119 120 120 121 121 122 122 123 123 124 124 125 125 126 126 127 
        </DataArray>
        <DataArray type="Int32" Name="offsets" format="ascii">
          2 4 6 8 10 12 14 16 18 20 22 24 26 28 30 32 34 36 38 40 42 44 46 48 50 52 54 56 58 60 62 64 66 68 70 72 74 76 78 80 82 84 86 88 90 92 94 96 98 100 102 104 106 108 110 112 114 116 118 120 122 124 126 128 130 132 134 136 138 140 142 144 146 148 150 152 154 156 158 160 162 164 166 168 170 172 174 176 178 180 182 184 186 188 190 192 194 196 198 200 202 204 206 208 210 212 214 216 218 220 222 224 226 228 230 232 234 236 238 240 242 244 246 248 250 252 254 
        </DataArray>
        <DataArray type="Int32" Name="types" format="ascii">
          3 3 3 3 3 3 3 3 3 3 3 3 3 3 3 3 3 3 3 3 3 3 3 3 3 3 3 3 3 3 3 3 3 3 3 3 3 3 3 3 3 3 3 3 3 3 3 3 3 3 3 3 3 3 3 3 3 3 3 3 3 3 3 3 3 3 3 3 3 3 3 3 3 3 3 3 3 3 3 3 3 3 3 3 3 3 3 3 3 3 3 3 3 3 3 3 3 3 3 3 3 3 3 3 3 3 3 3 3 3 3 3 3 3 3 3 3 3 3 3 3 3 3 3 3 3 3         </DataArray>
      </Cells>
    </Piece>
  </UnstructuredGrid>
</VTKFile>
