<?xml version="1.0"?>
<VTKFile type="UnstructuredGrid" version="0.1" byte_order="LittleEndian">
  <UnstructuredGrid>
    <Piece NumberOfPoints="128" NumberOfCells="127">
      <PointData Scalars="W">
        <DataArray type="Float32" Name="W" NumberOfComponents="2">
          0 0 -0.076369689976731991 -0.081336691062245739 -0.07689272755965447 -0.081749280370303559 -0.073985317526422692 -0.078521776255363676 -0.067642972262573375 -0.071673742640564017 -0.05804614438428677 -0.061416314560816664 -0.045588313696601247 -0.048177836573064542 -0.030713162435790319 -0.032429344695803684 -0.01380524289201763 -0.014569209533819129 0.0048442832207761738 0.0051118352124397042 0.024967677793240155 0.026355661268999762 0.046346614230620295 0.048963111298145977 0.068784671429825611 0.072763990350260987 0.09216995104022746 0.097682594390673866 0.1164524404217516 0.12371390742109235 0.14158176431802716 0.15085795676961861 0.16746634761808771 0.17907611606650228 0.19407124954304233 0.20839528455324424 0.22138541777772131 0.23887401081958529 0.24935829691066747 0.27053470867991652 0.27794384120076099 0.30341080438599927 0.3071228970687041 0.33757187616796419 0.33684818452492821 0.37306425214419542 0.36706438145057024 0.40993269757205342 0.39777587498186517 0.44829715088822464 0.42888806598241136 0.4881758847588607 0.4603454933617821 0.5296393051389785 0.49213062870948898 0.57281200740257987 0.52419120040679168 0.61779102742623493 0.55619888146925289 0.66435410714165377 0.58829831959985779 0.71284591404822295 0.62038872049606897 0.76333803635682196 0.6523613777900662 0.81590407913039709 0.68408989275519538 0.87060742980950034 0.71544493398151321 0.92751951448056447 0.74627205222325987 0.98669114442863659 0.77646390078320959 1.0482484851417335 0.80581572197031748 1.1122015897515258 0.83411532632936825 1.1785569204640822 0.86121885769921747 1.247427399776555 0.88695559949786351 1.3189059315115064 0.91112333448327021 1.3930556823254909 5.9177426976643659 10.187086747953721 4.9733022421521706 10.753049628502795 3.9692185570721192 11.234650363204333 2.9119176887217488 11.622077757622208 1.8104955433781484 11.909782165558759 0.67444685846126395 12.093146361007316 -0.48607479556145428 12.164257968776754 -1.6597312759456624 12.12186271718863 -2.8341704131775205 11.960254377134204 -3.9972090661857922 11.680850768929393 -5.1341366760963565 11.279505335671086 -6.2320319702931428 10.760886816935374 -0.4625105167421858 0.71018955911062009 -0.27464610396043221 0.4168716392771899 -0.30603054893251641 0.46034700855227023 0.12790324821584997 -0.19187034082948742 0.58844574017436224 -0.89260281159680344 1.0625224935569351 -1.6544121943789152 1.5332096209536321 -2.4915659065946838 1.9786214155050628 -3.4194686602631879 2.0483824685629557 -3.8225785482501324 2.3885615664225557 -4.9024735630572014 2.3694723195567078 -5.4758145689801703 2.0777629582958945 -5.4906577444449685 1.7847718851491861 -5.4583442180322388 1.5112049697919872 -5.4353383824347388 1.2472613003938287 -5.3961033931151912 0.99386364651949233 -5.3421569895977878 0.75172869465361736 -5.2750326712138893 0.51889426125264326 -5.165094643579847 0.30318035536682092 -5.0760799231018767 0.099688490772922161 -4.9785257615079699 -0.091563989224782219 -4.873802817571339 -0.27069337590264786 -4.7632557332780836 -0.43445245183235481 -4.6172112869587059 -0.58776571816457901 -4.4978133581308297 -0.73013637916770635 -4.3773199469530644 -0.8619775682948545 -4.2555476784963435 -0.98385115667939016 -4.1333846827102008 -1.0873861768091833 -3.9807480179349941 -1.1888967807525315 -3.8596903530718558 -1.2827582721370825 -3.7415602879287304 -1.369394411008422 -3.6258214109276938 -1.4495228138541782 -3.5129522539041549 -1.5098350243211884 -3.3731989719997615 -1.5769367754518182 -3.2671041615029104 -1.6402375174969541 -3.1659609764337588 -1.7000373415373489 -3.0689934426428174 -1.7570626555747992 -2.9763701529566258 -1.7927930053357111 -2.8584248771579692 -1.8448752813288172 -2.7758368886871048 -1.8963988474042532 -2.6978475407195539 -1.9480677855960284 -2.6244400027364567 -1.9999473507674514 -2.5547641381560093 -2.0309817036207107 -2.4631665306712716 -2.0858938795315116 -2.4041909625039919 -2.1431283426298391 -2.3486393969118993 -2.2046945281802803 -2.2977537592426351 -2.2442066304362811 -2.2249279824774804 -2.3140303938638369 -2.1823439677348411 -2.3897467834743202 -2.1427571015849485 -2.4420840902117442 -2.0808077272668064 -2.5305514967602742 -2.0473746556063626 -2.6272386295466887 -2.0154968063365652 -2.7007816393471646 -1.9617835134787227 -2.8150927587669998 -1.9326216708170301 -2.9400925939744513 -1.9027663036506435 -3.0415907407578509 -1.850544196680032 -3.1902266460525559 -1.8185880120487237 -3.3514158475659515 -1.7820222799841836 -3.488762262307914 -1.7217224760605787 -3.6789646814030945 -1.674814054938099 -3.8436766811510816 -1.6019804059910292 -4.0219095836093928 -1.521037286274989 -4.2594861343195172 -1.4443399805300723 -4.6180791261139191 -1.3792583622571326 -4.901182144360873 -1.2584067407453914 -5.1589073888931374 -1.1029605787433903 5.6648142529429162 1.2232561781330269 5.6439295283144455 1.4922514298023961 5.5686831614247367 1.7498365433614129 5.1860921627667373 1.8882312566427679 4.5634547378339692 1.877638648646589 3.6500845630657373 1.654377931704236 0.11077396635910604 0.052395319322015473 0 0
        </DataArray>
        <DataArray type="Float32" Name="u" NumberOfComponents="1">
          0 0.007874015748031496 0.015748031496062992 0.023622047244094488 0.031496062992125984 0.03937007874015748 0.047244094488188976 0.055118110236220472 0.062992125984251968 0.070866141732283464 0.07874015748031496 0.086614173228346455 0.094488188976377951 0.10236220472440945 0.11023622047244094 0.11811023622047244 0.12598425196850394 0.13385826771653545 0.14173228346456693 0.14960629921259844 0.15748031496062992 0.16535433070866143 0.17322834645669291 0.18110236220472442 0.1889763779527559 0.19685039370078741 0.20472440944881889 0.2125984251968504 0.22047244094488189 0.2283464566929134 0.23622047244094488 0.24409448818897639 0.25196850393700787 0.25984251968503935 0.26771653543307089 0.27559055118110237 0.28346456692913385 0.29133858267716534 0.29921259842519687 0.30708661417322836 0.31496062992125984 0.32283464566929132 0.33070866141732286 0.33858267716535434 0.34645669291338582 0.3543307086614173 0.36220472440944884 0.37007874015748032 0.37795275590551181 0.38582677165354329 0.39370078740157483 0.40157480314960631 0.40944881889763779 0.41732283464566927 0.42519685039370081 0.43307086614173229 0.44094488188976377 0.44881889763779526 0.45669291338582679 0.46456692913385828 0.47244094488188976 0.48031496062992124 0.48818897637795278 0.49606299212598426 0.50393700787401574 0.51181102362204722 0.51968503937007871 0.52755905511811019 0.53543307086614178 0.54330708661417326 0.55118110236220474 0.55905511811023623 0.56692913385826771 0.57480314960629919 0.58267716535433067 0.59055118110236215 0.59842519685039375 0.60629921259842523 0.61417322834645671 0.62204724409448819 0.62992125984251968 0.63779527559055116 0.64566929133858264 0.65354330708661412 0.66141732283464572 0.6692913385826772 0.67716535433070868 0.68503937007874016 0.69291338582677164 0.70078740157480313 0.70866141732283461 0.71653543307086609 0.72440944881889768 0.73228346456692917 0.74015748031496065 0.74803149606299213 0.75590551181102361 0.76377952755905509 0.77165354330708658 0.77952755905511806 0.78740157480314965 0.79527559055118113 0.80314960629921262 0.8110236220472441 0.81889763779527558 0.82677165354330706 0.83464566929133854 0.84251968503937003 0.85039370078740162 0.8582677165354331 0.86614173228346458 0.87401574803149606 0.88188976377952755 0.88976377952755903 0.89763779527559051 0.90551181102362199 0.91338582677165359 0.92125984251968507 0.92913385826771655 0.93700787401574803 0.94488188976377951 0.952755905511811 0.96062992125984248 0.96850393700787396 0.97637795275590555 0.98425196850393704 0.99212598425196852 1
        </DataArray>
      </PointData>
      <CellData Scalars="P">
        <DataArray type="Float32" Name="P" NumberOfComponents="1">
          -0.0021269881224106439 -0.0063927759402002517 -0.010682665522184978 -0.015006261270008049 -0.019367694604469805 -0.023763296968715892 -0.028180227656297057 -0.032595804989194267 -0.036977144569006318 -0.041280854508591126 -0.045453134617788063 -0.04942985465901667 -0.053136849069291912 -0.056489567060187755 -0.059392515323002763 -0.061739163581524981 -0.063412535265287992 -0.064284404636913955 -0.064214618174149946 -0.063051541398624872 -0.060631784724968822 -0.056779226510164642 -0.051305248194946459 -0.044008573126457187 -0.034672788000429382 -0.023068800062673235 -0.0089530164902063437 0.0079351125387697504 0.027872994335299269 0.051142648650064966 0.078053170744705122 0.1089313816679244 0.14412263006380652 0.18399106686375988 0.22892081983669851 0.27931577673618407 0.33560461847754147 0.39823554859203009 0.46767667994622175 0.54442341519041171 0.62899882023680176 0.72195321554791414 1.4168527270663895 2.1362209243082351 2.8754357669046704 3.6290877926999716 4.3912569024547059 5.1555488532254552 5.9148724682786886 6.6618666652074019 7.3886152812736077 8.0871040928006632 8.7488955940019952 9.3656982210214252 9.3976289694439661 9.4126813541519834 9.4310763269542655 9.4042881699975283 9.3232890951528891 9.1771380814354835 8.9528856550064582 8.6355762304675192 8.2662375368735059 7.7792144228894795 7.2787965589053245 6.7654194200186328 6.2465964249036672 5.7239858334509375 5.2015941208692462 4.6830832679755758 4.1717633722574732 3.6738222243407197 3.1886502536704531 2.718489301725671 2.2652561871932768 1.8305542275289544 1.4186850029574312 1.0277311610116415 0.65835305616798145 0.31109425074921021 -0.013707402175819132 -0.31333660287357457 -0.59041436423610727 -0.84518623198369103 -1.0779270330105761 -1.2890110253008371 -1.4769837165950812 -1.6443912012433124 -1.7918654637855762 -1.9200086517775325 -2.0294427345784039 -2.1196388368099721 -2.1925771108091716 -2.2488699751247201 -2.2891104408568119 -2.3138527534726636 -2.3233608841168416 -2.3186111607349327 -2.3000639100301998 -2.2681463093075567 -2.2235989619647669 -2.1665905044284699 -2.0974398756280492 -2.017265641701067 -1.9256830715949651 -1.8229668603678919 -1.7105973068446303 -1.587817695879314 -1.4549865971839271 -1.3140327431897219 -1.1640364575986843 -1.0056917588304872 -0.84151193258387968 -0.67085751579686381 -0.49680286180936817 -0.32097878858286938 -0.1435556697670074 0.036813472435710294 0.21328121606340159 0.3807324466367733 0.25653628462382599 0.1513266254640768 0.066776476458537543 0.0079887085507719773 -0.024292673877100962 -0.031873292785462505 -0.010335329795247065
        </DataArray>
      </CellData>
      <Points>
        <DataArray type="Float32" NumberOfComponents="3" format="ascii">
          7.1254053753556912 9.9368458060422391 0
          7.131148089427759 9.931458527677739 0
          7.1368860668829592 9.9260662077988879 0
          7.1426192745294266 9.9206688215511196 0
          7.1483478921615902 9.915266569498721 0
          7.1540723127217012 9.9098598765182384 0
          7.1597931310583629 9.9044493787549222 0
          7.1655111194984364 9.89903589709232 0
          7.171227200316217 9.8936204079662478 0
          7.1769424218743136 9.8882040186794686 0
          7.1826579405584354 9.8827879493871542 0
          7.1883750041669705 9.8773735171020363 0
          7.19409493836603 9.8719621233543968 0
          7.1998191345041489 9.8665552436466637 0
          7.2055490426686983 9.8611544227655905 0
          7.2112861685802834 9.8557612744763237 0
          7.2170320704655513 9.8503774815284046 0
          7.2227883533763766 9.8450047932645237 0
          7.2285566670210963 9.8396450272912759 0
          7.2343387050775041 9.8343000731115708 0
          7.2401362020572098 9.8289718935161101 0
          7.2459509304501486 9.8236625266570918 0
          7.2517846995369295 9.8183740903628731 0
          7.2576393524578284 9.813108785010634 0
          7.2635167627835946 9.8078688963017431 0
          7.2694188347887154 9.8026568026974932 0
          7.2753474975879033 9.7974749765512019 0
          7.2813047016995522 9.7923259884723173 0
          7.2872924179614271 9.7872125150500686 0
          7.293312634292624 9.7821373448682643 0
          7.2993673353403672 9.7771033647236614 0
          7.3054585114517296 9.7721135809939117 0
          7.311588152428202 9.7671711240745545 0
          7.317758240789999 9.7622792529412106 0
          7.3239707439437227 9.7574413590785145 0
          7.3302276061684246 9.7526609709077743 0
          7.3365307390445764 9.7479417569369282 0
          7.34288201480358 9.7432875335830325 0
          7.3492832536378536 9.7387022657963396 0
          7.3557362105501696 9.7341900674624693 0
          7.3622425664396838 9.7297552084059831 0
          7.3688039175224311 9.7254021201537242 0
          7.3754217627985739 9.7211353998554291 0
          7.3824065173198736 9.7175002847364329 0
          7.3896996263598211 9.7145318659656539 0
          7.3972388372487394 9.712260004545044 0
          7.4049585977150088 9.7107087230481461 0
          7.4127906197761693 9.7098958615590121 0
          7.4206644683517959 9.7098327914189557 0
          7.4285081906738579 9.7105239246594426 0
          7.4362490191859383 9.7119666362284143 0
          7.4438141372481592 9.7141509101660724 0
          7.4511314344194295 9.7170594274712894 0
          7.4581304183606489 9.7206673089135833 0
          7.4647430158887333 9.7249424044073702 0
          7.471326840893143 9.7292614705747607 0
          7.4778935906983603 9.7336063521096481 0
          7.4844413724152004 9.73797977918729 0
          7.4909971490115543 9.7423413532967 0
          7.4975895484103159 9.7466476741500436 0
          7.5042480582196012 9.7508515571193506 0
          7.51100198304212 9.7549011425309278 0
          7.5178790951808097 9.7587389310294608 0
          7.5248838777931031 9.7623399375900934 0
          7.5320376525406676 9.7656371796174746 0
          7.5393382851954156 9.7685945947444459 0
          7.5467676701379007 9.7712112856189339 0
          7.5543076234839255 9.7734892798587047 0
          7.561941170608403 9.7754300275776291 0
          7.5696519363006587 9.7770359848822537 0
          7.5774242017824909 9.7783105194820585 0
          7.5852429489302367 9.7792578153701335 0
          7.5930937369235592 9.7798847108493394 0
          7.6009631899789492 9.7801967451442557 0
          7.6088386917639212 9.7801999856896913 0
          7.6167083862493543 9.7799009430716417 0
          7.6245611702878646 9.7793064876112403 0
          7.6323868937010682 9.7784256897917103 0
          7.640176055969544 9.7772659659627852 0
          7.6479198357421128 9.7758347989950654 0
          7.6556100650247094 9.7741397497116385 0
          7.6632391942055866 9.7721884018736294 0
          7.6708008102028176 9.7699902279547182 0
          7.6782886264472019 9.7675527407888882 0
          7.685696830702712 9.7648832705747513 0
          7.6930200586858621 9.7619889982247603 0
          7.7002533495064194 9.7588769257688455 0
          7.7073929702648742 9.7555557215698645 0
          7.7144347674925786 9.752031965905962 0
          7.7213748231688317 9.7483119312824531 0
          7.7282094360683118 9.7444016306194854 0
          7.7349350767007179 9.7403068068589747 0
          7.741549535311961 9.7360347725540972 0
          7.7480495883638483 9.7315906472822675 0
          7.7544320466261576 9.7269792650165332 0
          7.7606937115155814 9.7222051752102612 0
          7.766831371041369 9.7172726955438744 0
          7.7728431052452773 9.712187502489062 0
          7.7787255134955418 9.7069532494928747 0
          7.7844750508082559 9.7015733773786756 0
          7.7900879032513686 9.6960510373662654 0
          7.7955616240099861 9.6903907405237266 0
          7.8008918864599419 9.6845951226893305 0
          7.8060739981980793 9.6786666335936395 0
          7.8111047161747065 9.6726091088782891 0
          7.8159785565477176 9.6664246160793095 0
          7.8206895253115611 9.6601151260338707 0
          7.8252330632706553 9.6536839626689002 0
          7.8296020825698118 9.6471329277709241 0
          7.8337888319304447 9.6404638658610473 0
          7.8377870170068222 9.6336800073298541 0
          7.841587419427265 9.6267833263451319 0
          7.8451800415104902 9.6197760826522014 0
          7.8485563634953888 9.6126620065205071 0
          7.8517045864753134 9.6054439985627393 0
          7.854614491453602 9.5981265657325583 0
          7.8572750196183039 9.5907147176120571 0
          7.8596714299772508 9.5832132018424794 0
          7.861781473777417 9.5756260496832901 0
          7.863587582906483 9.5679607487962635 0
          7.865073761501451 9.5602269318922826 0
          7.8669112216992305 9.5525691860091069 0
          7.8690986480496052 9.5450041615735923 0
          7.8716313575503012 9.5375478042536717 0
          7.8744856092270084 9.5302086777312631 0
          7.8776227795428451 9.5229861117284536 0
          7.8809862213109767 9.5158662520872568 0
          7.8843564609873686 9.508749790215246 0
        </DataArray>
      </Points>
      <Cells>
        <DataArray type="Int32" Name="connectivity" format="ascii">
          0 1 1 2 2 3 3 4 4 5 5 6 6 7 7 8 8 9 9 10 10 11 11 12 12 13 13 14 14 15 15 16 16 17 17 18 18 19 19 20 20 21 21 22 22 23 23 24 24 25 25 26 26 27 27 28 28 29 29 30 30 31 31 32 32 33 33 34 34 35 35 36 36 37 37 38 38 39 39 40 40 41 41 42 42 43 43 44 44 45 45 46 46 47 47 48 48 49 49 50 50 51 51 52 52 53 53 54 54 55 55 56 56 57 57 58 58 59 59 60 60 61 61 62 62 63 63 64 64 65 65 66 66 67 67 68 68 69 69 70 70 71 71 72 72 73 73 74 74 75 75 76 76 77 77 78 78 79 79 80 80 81 81 82 82 83 83 84 84 85 85 86 86 87 87 88 88 89 89 90 90 91 91 92 92 93 93 94 94 95 95 96 96 97 97 98 98 99 99 100 100 101 101 102 102 103 103 104 104 105 105 106 106 107 107 108 108 109 109 110 110 111 111 112 112 113 113 114 114 115 115 116 116 117 117 118 118 119 119 120 120 121 121 122 122 123 123 124 124 125 125 126 126 127 
        </DataArray>
        <DataArray type="Int32" Name="offsets" format="ascii">
          2 4 6 8 10 12 14 16 18 20 22 24 26 28 30 32 34 36 38 40 42 44 46 48 50 52 54 56 58 60 62 64 66 68 70 72 74 76 78 80 82 84 86 88 90 92 94 96 98 100 102 104 106 108 110 112 114 116 118 120 122 124 126 128 130 132 134 136 138 140 142 144 146 148 150 152 154 156 158 160 162 164 166 168 170 172 174 176 178 180 182 184 186 188 190 192 194 196 198 200 202 204 206 208 210 212 214 216 218 220 222 224 226 228 230 232 234 236 238 240 242 244 246 248 250 252 254 
        </DataArray>
        <DataArray type="Int32" Name="types" format="ascii">
          3 3 3 3 3 3 3 3 3 3 3 3 3 3 3 3 3 3 3 3 3 3 3 3 3 3 3 3 3 3 3 3 3 3 3 3 3 3 3 3 3 3 3 3 3 3 3 3 3 3 3 3 3 3 3 3 3 3 3 3 3 3 3 3 3 3 3 3 3 3 3 3 3 3 3 3 3 3 3 3 3 3 3 3 3 3 3 3 3 3 3 3 3 3 3 3 3 3 3 3 3 3 3 3 3 3 3 3 3 3 3 3 3 3 3 3 3 3 3 3 3 3 3 3 3 3 3         </DataArray>
      </Cells>
    </Piece>
  </UnstructuredGrid>
</VTKFile>
