<?xml version="1.0"?>
<VTKFile type="UnstructuredGrid" version="0.1" byte_order="LittleEndian">
  <UnstructuredGrid>
    <Piece NumberOfPoints="128" NumberOfCells="127">
      <PointData Scalars="W">
        <DataArray type="Float32" Name="W" NumberOfComponents="2">
          0 0 -0.31580184461724459 0.23497008417554469 -0.52026163898972744 0.38379698476560309 -0.68165963081469461 0.49671211068809995 -0.82172765447919327 0.58963839524108153 -0.94939119170667252 0.66901584630036826 -1.0692077739567747 0.738050764462718 -1.1838975612966725 0.79858662384798706 -1.2952271194142415 0.85175724995389701 -1.4044688364180564 0.89832044240611486 -1.5125117986747203 0.93874599127199987 -1.620055840356464 0.97335199129845063 -1.7276635398625015 1.0023416001133361 -1.8357852064646827 1.0258221227290161 -1.944812421573459 1.0438385445278331 -2.0550744350214152 1.0563721288767236 -2.166766589091532 1.0633083591572168 -2.2801120034258089 1.0645241583537368 -2.3952572713024427 1.059834414395493 -2.5122803593072338 1.0490019850725494 -2.6312298002990344 1.0317588320541129 -2.7521434887167793 1.0078132279946328 -2.8750092583422093 0.97683439608612599 -2.9997651133729502 0.93845618289979749 -3.1263203500000003 0.89228635231178488 -3.2544757196751375 0.83788704351982823 -3.3840452104903229 0.77481416978998874 -3.5148497536091519 0.70260852210641933 -3.6465568918377014 0.62076318373779327 -3.7784639127203525 0.52871706883735814 -3.9104935635472109 0.42601009119688144 -4.0421287020130157 0.31209297958514204 -4.172771864912094 0.18641125227662617 -4.3017328504587633 0.048411822476490889 -4.4282432102401295 -0.10244877199211483 -4.5514382394910067 -0.26669738448337543 -4.6704573917735273 -0.44484651665370217 -4.7841831436680282 -0.6373686155674354 -4.8913617680532449 -0.84467374086252178 -4.9907661602643723 -1.0671273282821185 -5.0810120635162219 -1.3050193267791026 -5.160553929170951 -1.5585370399737277 2.4170421786134999 0.75975254248605628 2.227210345814544 0.65356723070968004 2.0279309356996889 0.55690581085276203 1.8875010226976892 0.48608829278130167 1.6760552032106268 0.40587331985756625 1.5285559548149601 0.34923816727300117 1.3799364784436281 0.29828900031758321 1.2296308570469086 0.25231070591373467 1.0790977468925926 0.21101407515762152 0.92902291687249561 0.17391299887923284 0.78002489703945754 0.14050272227469349 0.63266135499394549 0.11027191085563787 0.5554453558110436 0.094098504541142866 0.41285008563719933 0.06830037497078835 0.3390717416086152 0.055050039465883549 0.2042513589151414 0.032707088229607537 0.072444080394933177 0.0115186134997429 -0.1218561213368157 -0.019399748235748134 -0.31399732395130558 -0.050548818082113971 -0.50368318453369665 -0.082772017685642518 -0.69064584525621575 -0.11688096428885897 -0.8745940817615665 -0.15364441980420102 -1.0543519655054334 -0.19362318986852592 -1.1505735409790485 -0.22181894443822212 -1.3224484037853323 -0.26859772509862923 -1.4070100459449395 -0.30189526262735378 -1.4851249226533316 -0.33681977761113358 -1.5556250508200331 -0.37297631771823264 -1.6203648237878454 -0.41063891289656163 -1.6782441542528947 -0.44936305891427053 -1.7291342158888123 -0.48887484665962277 -1.7729676698188259 -0.52887649307504403 -1.8086863444296934 -0.5687136482677928 -1.8382810104723433 -0.60864785397532184 -1.9410238270490616 -0.67669841306831213 -1.9553827625880744 -0.71764602027011759 -1.9625674099384456 -0.75721632140430317 -1.9626639573102249 -0.79497301008217003 -1.9548035033376745 -0.83004962475368915 -1.9411089228854297 -0.86283068836897059 -1.9207498030273218 -0.89249124816806946 -1.8939161384897405 -0.91861144506765335 -1.8608194572629186 -0.9407869012298743 -1.8217024490565712 -0.95863953892657816 -1.702280129464814 -0.93030264242154259 -1.6531159352682954 -0.93616111482737296 -1.5977137140730786 -0.93621853146230516 -1.5382564960660037 -0.93132784225545351 -1.474007095652214 -0.92071203566198068 -1.4051615858549535 -0.90414839520919044 -1.2634641196364982 -0.83556440100597029 -1.1871532169699186 -0.80506452488608804 -1.1067521782205441 -0.76836900594768553 -1.0223843627886502 -0.72542314471900837 -0.93409942655982692 -0.67617911686431631 -0.84194969659571051 -0.62065353709236659 -0.68137348785449281 -0.51018167707878748 -0.58204710179003805 -0.44149407673367891 -0.47851878013773874 -0.3669396845758538 -0.37060594378487577 -0.28668059435456911 -0.2580492931664593 -0.20090803186285444 -0.14053366004546494 -0.10986440411403384 -0.016682677131229687 -0.013063079233489649 0.11208343898277062 0.087678789624754963 0.18436240658025729 0.14378040568090633 0.32630071095652707 0.25314135853262182 0.47684438557907233 0.36688958565356522 0.63486078091684872 0.48292367776501727 0.73619649258587494 0.55218557325167272 0.91428331006921593 0.67426131314759818 1.1028685823452777 0.79671861539592437 1.2354625978518337 0.87140856821989787 1.4500385598954944 0.9950388294240714 1.6079771082037764 1.0693876820381711 1.7777988686406125 1.1419145833056481 2.0442953443939338 1.2623093288830256 2.2521050539021861 1.3298797882312847 2.3916940685353341 1.3450461082760738 -0.095526292054928033 -0.052424829593344498 0.50271227231176474 0.27469470747211472 0.31882123106220528 0.17268988926328149 1.1663221567348001 0.62177085367676987 2.0020025315777907 1.0313648920328824 3.4421385744138759 1.6702879916315037 4.6398018028173906 2.0538545971689417 0 0
        </DataArray>
        <DataArray type="Float32" Name="u" NumberOfComponents="1">
          0 0.007874015748031496 0.015748031496062992 0.023622047244094488 0.031496062992125984 0.03937007874015748 0.047244094488188976 0.055118110236220472 0.062992125984251968 0.070866141732283464 0.07874015748031496 0.086614173228346455 0.094488188976377951 0.10236220472440945 0.11023622047244094 0.11811023622047244 0.12598425196850394 0.13385826771653545 0.14173228346456693 0.14960629921259844 0.15748031496062992 0.16535433070866143 0.17322834645669291 0.18110236220472442 0.1889763779527559 0.19685039370078741 0.20472440944881889 0.2125984251968504 0.22047244094488189 0.2283464566929134 0.23622047244094488 0.24409448818897639 0.25196850393700787 0.25984251968503935 0.26771653543307089 0.27559055118110237 0.28346456692913385 0.29133858267716534 0.29921259842519687 0.30708661417322836 0.31496062992125984 0.32283464566929132 0.33070866141732286 0.33858267716535434 0.34645669291338582 0.3543307086614173 0.36220472440944884 0.37007874015748032 0.37795275590551181 0.38582677165354329 0.39370078740157483 0.40157480314960631 0.40944881889763779 0.41732283464566927 0.42519685039370081 0.43307086614173229 0.44094488188976377 0.44881889763779526 0.45669291338582679 0.46456692913385828 0.47244094488188976 0.48031496062992124 0.48818897637795278 0.49606299212598426 0.50393700787401574 0.51181102362204722 0.51968503937007871 0.52755905511811019 0.53543307086614178 0.54330708661417326 0.55118110236220474 0.55905511811023623 0.56692913385826771 0.57480314960629919 0.58267716535433067 0.59055118110236215 0.59842519685039375 0.60629921259842523 0.61417322834645671 0.62204724409448819 0.62992125984251968 0.63779527559055116 0.64566929133858264 0.65354330708661412 0.66141732283464572 0.6692913385826772 0.67716535433070868 0.68503937007874016 0.69291338582677164 0.70078740157480313 0.70866141732283461 0.71653543307086609 0.72440944881889768 0.73228346456692917 0.74015748031496065 0.74803149606299213 0.75590551181102361 0.76377952755905509 0.77165354330708658 0.77952755905511806 0.78740157480314965 0.79527559055118113 0.80314960629921262 0.8110236220472441 0.81889763779527558 0.82677165354330706 0.83464566929133854 0.84251968503937003 0.85039370078740162 0.8582677165354331 0.86614173228346458 0.87401574803149606 0.88188976377952755 0.88976377952755903 0.89763779527559051 0.90551181102362199 0.91338582677165359 0.92125984251968507 0.92913385826771655 0.93700787401574803 0.94488188976377951 0.952755905511811 0.96062992125984248 0.96850393700787396 0.97637795275590555 0.98425196850393704 0.99212598425196852 1
        </DataArray>
      </PointData>
      <CellData Scalars="P">
        <DataArray type="Float32" Name="P" NumberOfComponents="1">
          -0.028743300943842743 -0.085589677108901766 -0.14099485466033757 -0.19443546750314886 -0.24546975899986651 -0.29368405143651816 -0.33867002866707296 -0.38001188759053578 -0.41727851938098959 -0.45001737415965976 -0.47775124226262472 -0.49997468457179717 -0.51615109560857597 -0.52571041661435935 -0.52804633669380652 -0.52251402068839103 -0.50843065853593072 -0.48507154169106281 -0.45166950379599474 -0.40741466236952928 -0.35145301962403763 -0.28288426425900204 -0.20076128347441102 -0.10408996241186938 0.0081718550136213892 0.1371108369659147 0.28386079365733946 0.44960552936204695 0.63557164722620241 0.84300429487085538 1.0732100635874335 1.3275291775640794 1.6073297570962699 1.9140001494244221 2.2489413625520576 2.6135568892928447 3.0092508193543126 3.4374004208227902 3.8993364076423234 4.3963383250513992 4.9296097981886966 5.5002497394009247 5.150736012653466 4.8140939248454426 4.495262319888929 4.1888786392368154 3.9076400946059953 3.6441986182440211 3.400246579567805 3.1772449406339347 2.9761316819415735 2.797453312445441 2.641393836798716 2.5078048500962677 2.3861526171349277 2.2859518640769187 2.1968345153717719 2.1271039201408879 2.0755569662190778 2.0495645463977392 2.0472297977798881 2.0664520019203847 2.104960757581976 2.1603436562215586 2.2299811569365948 2.3030652420868174 2.38559489913699 2.4673576056647963 2.5465578543108638 2.6214159606572136 2.6904251358416027 2.7521194365352666 2.8051674908542421 2.8483861302208262 2.8807038662734148 2.9013107925566133 2.9120003640663987 2.9091735335545894 2.8925184802186164 2.8619043532632817 2.8173758118225884 2.7591655986843473 2.6876643777606706 2.6034236472362786 2.5071462713632826 2.399675048542973 2.2846572730884187 2.1609350548428647 2.0296888712330734 1.8920960770195954 1.7494422498983266 1.6030672691128611 1.4590416249293454 1.3143330089350935 1.170295675363034 1.0282739962272647 0.8895905870850388 0.75552833150110166 0.63312142146772166 0.51783309509281705 0.41071498678832485 0.31273149162168401 0.2247497713061718 0.1475279520677259 0.081799777495848977 0.027988890602578403 -0.019446509219680795 -0.054270682729346958 -0.076299245813280722 -0.085697055880163936 -0.088346540341220747 -0.078784002825424818 -0.057707981527640076 -0.031054064586254333 0.0055188762252076735 0.046019770261995635 0.089354802589588847 0.13890295297931937 0.18860122655751577 0.23289136713026068 0.18833668584651697 0.1626259611322719 0.12602410437499267 0.10394253684588997 0.085389768209539627 0.066577981121190649 0.029131671575144111
        </DataArray>
      </CellData>
      <Points>
        <DataArray type="Float32" NumberOfComponents="3" format="ascii">
          4.1502629431895723 6.0785140624051488 0
          4.1549730898021142 6.0848240981702268 0
          4.1596636603325496 6.091148708339877 0
          4.1643219801548952 6.097497123829724 0
          4.1689380439939221 6.1038763484494165 0
          4.1735031687573603 6.1102921465204494 0
          4.1780094402169601 6.1167494423038278 0
          4.1824494304555424 6.1232525188566864 0
          4.1868160292109069 6.1298051323585181 0
          4.1911023343328511 6.1364105824210391 0
          4.1953015728740448 6.1430717590740391 0
          4.199407045943345 6.1497911718877099 0
          4.2034120852915882 6.1565709696851396 0
          4.2073100184069725 6.1634129531251123 0
          4.2110941405714932 6.1703185813390338 0
          4.2147576905590274 6.177288974701483 0
          4.2182938301988715 6.1843249136476066 0
          4.2216956322433932 6.1914268315494745 0
          4.2249560665142987 6.1985948070597132 0
          4.228067990795382 6.2058285526065138 0
          4.2310241459822304 6.2131273996603031 0
          4.2338171530587623 6.2204902820825234 0
          4.2364395107351811 6.227915718003425 0
          4.2388835961921556 6.2354017892762839 0
          4.2411416689171464 6.24294611873571 0
          4.2432058763232741 6.2505458458364096 0
          4.2450682661021517 6.2581975994604111 0
          4.246720797758571 6.265897470336105 0
          4.2481553537172827 6.2736409825174375 0
          4.2493637599456582 6.2814230619023883 0
          4.2503378295435805 6.2892380013897844 0
          4.2510693675456031 6.2970794322984851 0
          4.2515502030087795 6.3049402902536356 0
          4.2517722260864206 6.3128127807482111 0
          4.2517274308583604 6.3206883447897058 0
          4.2514079630192745 6.3285576251427154 0
          4.2508061735424496 6.3364104336007898 0
          4.2499146720907177 6.3442357191480694 0
          4.2487263963726694 6.3520215386052188 0
          4.2472346899536371 6.359755031145534 0
          4.2454333784213683 6.3674223955798022 0
          4.2433168553061105 6.3750088723249503 0
          4.2408801780124472 6.3824987317417978 0
          4.2385934507107397 6.3900356959146789 0
          4.2364448969041648 6.397613172636035 0
          4.2344221539202778 6.4052251606135906 0
          4.2325165089063663 6.412867265150239 0
          4.2307148445615583 6.4205345055109122 0
          4.2290080097078713 6.4282233671475959 0
          4.2273867838669439 6.4359306884038956 0
          4.2258418421884176 6.4436536160688078 0
          4.2243638459396493 6.4513895874531251 0
          4.222943485055862 6.4591363002199671 0
          4.2215715165160557 6.4668916810610471 0
          4.2202387989406152 6.4746538539673208 0
          4.2189405417556269 6.4824218179271753 0
          4.217667899834459 6.4901939719276394 0
          4.2164162962535698 6.4979694961073298 0
          4.2151773685696545 6.5057470038469001 0
          4.2139429414647642 6.5135251801532776 0
          4.2127009642762259 6.5213021038956187 0
          4.2114395206321316 6.5290758397652544 0
          4.2101468468668228 6.5368443859984167 0
          4.2088113486647263 6.5446056240773354 0
          4.2074216191471621 6.5523572710971409 0
          4.2059665118137985 6.5600968450689301 0
          4.2044400608254513 6.5678225979162415 0
          4.2028316094053775 6.5755316264785248 0
          4.201135915420644 6.5832218668149043 0
          4.1993481367001202 6.5908911542895137 0
          4.1974639034195622 6.598537248108709 0
          4.1954792030779826 6.6061578142763535 0
          4.193390448670776 6.6137504532029929 0
          4.1911944866351263 6.6213127167019925 0
          4.1888886009813371 6.6288421264627155 0
          4.1864705788549816 6.6363362146559686 0
          4.1839385870607746 6.6437925076674897 0
          4.1812862572383152 6.6512067870367773 0
          4.1785127007142551 6.6585765171385942 0
          4.1756174734287868 6.6658992480139148 0
          4.1726005705450291 6.6731726424136646 0
          4.1694624802728066 6.6803945295252554 0
          4.1662040522142849 6.6875628810826164 0
          4.1628265488081704 6.6946758625176166 0
          4.1593316335150865 6.7017318589734929 0
          4.1557213576724443 6.7087295003568359 0
          4.1519981454224428 6.7156676847578147 0
          4.1481693991995048 6.7225481745383737 0
          4.144238165225234 6.7293706114134455 0
          4.140207876017838 6.7361349968812689 0
          4.1360822150467893 6.7428416393190327 0
          4.1318651624424589 6.7494912021492972 0
          4.1275609828532049 6.7560847176380623 0
          4.1231784576716111 6.7626264429720973 0
          4.1187223138279832 6.7691182743767975 0
          4.1141975315150505 6.7755624922917219 0
          4.1096093365830919 6.7819617647694797 0
          4.1049631975134915 6.7883191504527343 0
          4.100264822235105 6.7946380975612168 0
          4.0955241622120155 6.8009254601650557 0
          4.0907473705282902 6.8071855026785668 0
          4.085940860873313 6.813422853466812 0
          4.0811113189587882 6.8196424948275851 0
          4.0762657187035796 6.8258497511687803 0
          4.071411341893505 6.8320502740132731 0
          4.0665558636836465 6.8382500721827375 0
          4.0617072646250936 6.8444553992012462 0
          4.056870021169642 6.8506697426820491 0
          4.0520529320259113 6.8568998914779966 0
          4.0472653306882966 6.8631529068592378 0
          4.0425170153192376 6.8694359922676611 0
          4.0378142676905577 6.875753453294708 0
          4.033168133462123 6.8821128688968622 0
          4.0285903112379735 6.8885218420484478 0
          4.0240890258456901 6.8949850162334778 0
          4.0196775918726519 6.9015100678145131 0
          4.0153658098931482 6.9081016198471499 0
          4.0111642194395865 6.9147641829179873 0
          4.0070893629516338 6.9215052334060498 0
          4.0031541412660294 6.9283289751465551 0
          3.9993672210385536 6.9352363667109218 0
          3.9955747454988901 6.942139828039628 0
          3.991813786117322 6.9490597256603497 0
          3.9880728682948616 6.9559898423369111 0
          3.9844045074447254 6.9629580976115184 0
          3.9808604665439344 6.9699899688196938 0
          3.9775299798482586 6.9771251516818191 0
          3.9744871508709121 6.9843877397933563 0
        </DataArray>
      </Points>
      <Cells>
        <DataArray type="Int32" Name="connectivity" format="ascii">
          0 1 1 2 2 3 3 4 4 5 5 6 6 7 7 8 8 9 9 10 10 11 11 12 12 13 13 14 14 15 15 16 16 17 17 18 18 19 19 20 20 21 21 22 22 23 23 24 24 25 25 26 26 27 27 28 28 29 29 30 30 31 31 32 32 33 33 34 34 35 35 36 36 37 37 38 38 39 39 40 40 41 41 42 42 43 43 44 44 45 45 46 46 47 47 48 48 49 49 50 50 51 51 52 52 53 53 54 54 55 55 56 56 57 57 58 58 59 59 60 60 61 61 62 62 63 63 64 64 65 65 66 66 67 67 68 68 69 69 70 70 71 71 72 72 73 73 74 74 75 75 76 76 77 77 78 78 79 79 80 80 81 81 82 82 83 83 84 84 85 85 86 86 87 87 88 88 89 89 90 90 91 91 92 92 93 93 94 94 95 95 96 96 97 97 98 98 99 99 100 100 101 101 102 102 103 103 104 104 105 105 106 106 107 107 108 108 109 109 110 110 111 111 112 112 113 113 114 114 115 115 116 116 117 117 118 118 119 119 120 120 121 121 122 122 123 123 124 124 125 125 126 126 127 
        </DataArray>
        <DataArray type="Int32" Name="offsets" format="ascii">
          2 4 6 8 10 12 14 16 18 20 22 24 26 28 30 32 34 36 38 40 42 44 46 48 50 52 54 56 58 60 62 64 66 68 70 72 74 76 78 80 82 84 86 88 90 92 94 96 98 100 102 104 106 108 110 112 114 116 118 120 122 124 126 128 130 132 134 136 138 140 142 144 146 148 150 152 154 156 158 160 162 164 166 168 170 172 174 176 178 180 182 184 186 188 190 192 194 196 198 200 202 204 206 208 210 212 214 216 218 220 222 224 226 228 230 232 234 236 238 240 242 244 246 248 250 252 254 
        </DataArray>
        <DataArray type="Int32" Name="types" format="ascii">
          3 3 3 3 3 3 3 3 3 3 3 3 3 3 3 3 3 3 3 3 3 3 3 3 3 3 3 3 3 3 3 3 3 3 3 3 3 3 3 3 3 3 3 3 3 3 3 3 3 3 3 3 3 3 3 3 3 3 3 3 3 3 3 3 3 3 3 3 3 3 3 3 3 3 3 3 3 3 3 3 3 3 3 3 3 3 3 3 3 3 3 3 3 3 3 3 3 3 3 3 3 3 3 3 3 3 3 3 3 3 3 3 3 3 3 3 3 3 3 3 3 3 3 3 3 3 3         </DataArray>
      </Cells>
    </Piece>
  </UnstructuredGrid>
</VTKFile>
