<?xml version="1.0"?>
<VTKFile type="UnstructuredGrid" version="0.1" byte_order="LittleEndian">
  <UnstructuredGrid>
    <Piece NumberOfPoints="128" NumberOfCells="127">
      <PointData Scalars="W">
        <DataArray type="Float32" Name="W" NumberOfComponents="2">
          0 0 -0.15273759980757204 -0.90152339778979929 -0.23801331230687031 -1.3324788908653262 -0.31468349888414093 -1.6478125362119236 -0.39068596949652101 -1.8986289706430781 -0.46889570871219644 -2.1060210376097674 -0.5505930544022748 -2.2813859877502929 -0.63638768371807397 -2.4317783955017673 -0.72655422470797026 -2.561890930237293 -0.82116746206848046 -2.6749383808027773 -0.92020997235903457 -2.7732747565294269 -1.0236070612252028 -2.8586481796778966 -1.1312545976497841 -2.9323879150695982 -1.2430028550929573 -2.9954456840939065 -1.358660194374183 -3.048489816957844 -1.478022627253444 -3.0920319911252028 -1.6009089770362812 -3.1265234469020537 -1.7271014547753414 -3.1522492958336299 -1.8563641849972643 -3.1694012520225971 -1.9884826852333015 -3.1781597810626958 -2.1232314285065406 -3.1786407537892969 -2.2603571152063018 -3.1708862053498379 -2.3996217420920352 -3.154938457471804 -2.5407945125329703 -3.130825090308424 -2.6835784705381958 -3.0984764300077954 -2.8277523532517597 -3.0579048679532348 -2.9730494117840029 -3.0090538741139952 -3.1191459958005585 -2.9518074776138903 -3.2657490524574166 -2.8860855030922226 -3.4128672441746675 -2.8120456560283893 -3.5599457060490622 -2.7293412510768551 -3.7066797781797081 -2.6378695204913307 -3.8527613998581738 -2.5375226691632382 -3.9978819673436092 -2.4281886591368824 -4.1417023413983722 -2.3097332514688329 -4.2838981180472944 -2.1820284111301769 -4.4240330598457058 -2.0448894919341702 -4.5617901330373787 -1.8981936701679278 -4.6968229606261591 -1.7417912198876981 -4.8286341575147116 -1.5754726022719141 -4.9567316187129977 -1.3990441908755535 -5.0806064378113085 -1.2123158821116833 2.0215053631516997 0.45592307323087128 1.9407321394846582 0.4705118596601196 1.7671188070770569 0.45668962810850372 1.5920712728049058 0.43478156074362267 1.5115349476446438 0.43347551290261604 1.3367218543773529 0.40030818978031624 1.1608265342249806 0.36067910448026436 1.0873897477400809 0.34896365098650883 0.91460939295438692 0.30190030501405707 0.74234367015756386 0.25071273246232273 0.57063657707757542 0.19620019526487914 0.28307659012764946 0.09845638057164377 -15.438983754961024 -4.3183739505482528 -15.943343299826605 -2.3456592906762248 1.1399600414470799 0.099528841205145838 1.1776651713745243 0.11370423675841299 1.1278953719565541 0.11929531833601592 1.1626361187283443 0.13364737185335807 1.1144397480063666 0.13831344374055321 1.0676194420389529 0.14190289675661041 0.93726706887983036 0.13218448050425344 0.89421308795586874 0.13276418087530825 0.76723445731439321 0.11910476064129759 0.72798324280144033 0.11745897939391881 0.69124351867076894 0.11555079887303235 0.65813229779300153 0.11366468872888717 0.62683254428645196 0.11157744783708907 0.59845203704012517 0.10955483887747207 0.57307840998310899 0.10769064615555506 0.55079668152563621 0.10607416217489023 0.61808248419581546 0.1220405119413813 0.60302454899702085 0.1221420397484731 0.59025075658621351 0.12250439916261711 0.58080453117646968 0.12340074824015626 0.57472194680516464 0.12490623367801031 0.57201587055757697 0.12708996767836228 0.57272722721612068 0.13002705484020555 0.57684870198804383 0.1337825147813857 0.58437657482548466 0.13842329120438768 0.67909241903380835 0.16453226231679988 0.69317571844738568 0.17203247290303011 0.71058533889883213 0.18065817505198259 0.73131780805904134 0.19050029803444427 0.75532173400349212 0.20164348062802601 0.78254987153451128 0.21417972894363221 0.8922083953433747 0.25076837816384556 0.92539465541319244 0.26754237891339155 0.96159371464965926 0.28609432768341009 1.0007184853826647 0.30654820278859329 1.1186004394617455 0.35338187879436811 1.1619269826945973 0.37915837770701127 1.2088862930111948 0.4076817654090964 1.2583720941438705 0.43881564994514266 1.3826110958152071 0.49932080489940744 1.4361981060181164 0.53795872511570253 1.4918745207706878 0.57990795528350902 1.5495297967958406 0.62541456812359475 1.6090032562167274 0.67472521212497105 1.7382296100411014 0.75840105776805533 1.7999582281464388 0.81823838295032747 1.8628979169309798 0.88286328811127524 1.926893840050752 0.95263519620183379 1.9917423394449205 1.0279259081341714 2.0572453903415959 1.1091496264310563 2.1231865279131661 1.1967575363320526 2.1893859128483673 1.2912778001063057 2.2565104650963366 1.3938459788476258 2.3225436031248154 1.5040375093913589 2.3891192757437167 1.6237940890862215 2.3940906242713735 1.7088175243741428 2.4606382087704062 1.8458626267621407 2.4676197053060909 1.9473351683884634 2.5363838756207584 2.1081660304105814 2.5447633322011121 2.2309182183728429 2.6161584206051653 2.4232908836685989 -2.4838399279905206 -2.3039693628557902 -2.6997649175943224 -2.3696052186881857 -2.6390485857644155 -2.1901684569375726 -2.8822395733225794 -2.2591310085999909 -2.5078312086678616 -1.8597170114652311 -2.3218396088077982 -1.6387225360862927 -1.7420415915368406 -1.1793752394982553 -1.1665840420464786 -0.76656079918675546 -0.1663281384871802 -0.10780548692477551 4.9875810939466305 3.3979737526047389 0 0
        </DataArray>
        <DataArray type="Float32" Name="u" NumberOfComponents="1">
          0 0.007874015748031496 0.015748031496062992 0.023622047244094488 0.031496062992125984 0.03937007874015748 0.047244094488188976 0.055118110236220472 0.062992125984251968 0.070866141732283464 0.07874015748031496 0.086614173228346455 0.094488188976377951 0.10236220472440945 0.11023622047244094 0.11811023622047244 0.12598425196850394 0.13385826771653545 0.14173228346456693 0.14960629921259844 0.15748031496062992 0.16535433070866143 0.17322834645669291 0.18110236220472442 0.1889763779527559 0.19685039370078741 0.20472440944881889 0.2125984251968504 0.22047244094488189 0.2283464566929134 0.23622047244094488 0.24409448818897639 0.25196850393700787 0.25984251968503935 0.26771653543307089 0.27559055118110237 0.28346456692913385 0.29133858267716534 0.29921259842519687 0.30708661417322836 0.31496062992125984 0.32283464566929132 0.33070866141732286 0.33858267716535434 0.34645669291338582 0.3543307086614173 0.36220472440944884 0.37007874015748032 0.37795275590551181 0.38582677165354329 0.39370078740157483 0.40157480314960631 0.40944881889763779 0.41732283464566927 0.42519685039370081 0.43307086614173229 0.44094488188976377 0.44881889763779526 0.45669291338582679 0.46456692913385828 0.47244094488188976 0.48031496062992124 0.48818897637795278 0.49606299212598426 0.50393700787401574 0.51181102362204722 0.51968503937007871 0.52755905511811019 0.53543307086614178 0.54330708661417326 0.55118110236220474 0.55905511811023623 0.56692913385826771 0.57480314960629919 0.58267716535433067 0.59055118110236215 0.59842519685039375 0.60629921259842523 0.61417322834645671 0.62204724409448819 0.62992125984251968 0.63779527559055116 0.64566929133858264 0.65354330708661412 0.66141732283464572 0.6692913385826772 0.67716535433070868 0.68503937007874016 0.69291338582677164 0.70078740157480313 0.70866141732283461 0.71653543307086609 0.72440944881889768 0.73228346456692917 0.74015748031496065 0.74803149606299213 0.75590551181102361 0.76377952755905509 0.77165354330708658 0.77952755905511806 0.78740157480314965 0.79527559055118113 0.80314960629921262 0.8110236220472441 0.81889763779527558 0.82677165354330706 0.83464566929133854 0.84251968503937003 0.85039370078740162 0.8582677165354331 0.86614173228346458 0.87401574803149606 0.88188976377952755 0.88976377952755903 0.89763779527559051 0.90551181102362199 0.91338582677165359 0.92125984251968507 0.92913385826771655 0.93700787401574803 0.94488188976377951 0.952755905511811 0.96062992125984248 0.96850393700787396 0.97637795275590555 0.98425196850393704 0.99212598425196852 1
        </DataArray>
      </PointData>
      <CellData Scalars="P">
        <DataArray type="Float32" Name="P" NumberOfComponents="1">
          -0.031198178560732124 -0.090838979702676237 -0.14560039726332952 -0.19465783347041199 -0.23767386991450629 -0.27456393287619996 -0.30538244010586235 -0.33025828184110806 -0.34935602418761458 -0.36285248832940209 -0.37092010126939789 -0.37371599494517155 -0.37137433202033504 -0.36400253819948247 -0.35167909945672593 -0.33445093533010162 -0.31232989007598233 -0.28529298732896519 -0.25328197376377909 -0.21620120561238818 -0.17391742394930507 -0.12626039336652142 -0.073021541106924992 -0.013953112499559946 0.051229272359859399 0.12285065587300942 0.20127508940521607 0.28690356631811947 0.38017598183543028 0.48158561346695478 0.59165363688520511 0.71094159336451435 0.84005190729838064 0.97962861174992322 1.1303566909549008 1.2929637201312325 1.4682151351067578 1.656921321438122 1.8599373782203505 2.0781561629358505 2.312509498702521 2.5639681767335332 2.3876728869986081 2.2106570745253156 2.0414382815781882 1.8821230932568629 1.7272768108674144 1.5849384269240252 1.4559688519447114 1.3333292838801261 1.2243982798091648 1.1288941005016524 1.046218182492261 0.9827361821815036 1.7755732291242126 2.519223551785724 2.4129483108493432 2.3044714334951841 2.1986568410760792 2.0916136198417621 1.9878614439399698 1.8875787580433072 1.7948069960944846 1.7054586476044704 1.6230941919849917 1.5438017333159477 1.467416003017175 1.3937188373255278 1.3225500623673379 1.2537096377965047 1.1870016679656648 1.1222402149060708 1.0577130186120873 0.99510649583605904 0.93431816680584945 0.87525138599097008 0.81783527911302523 0.76202600798112885 0.70780714004775358 0.65518939521498376 0.60420949586747708 0.55601094768809012 0.50986562165175564 0.46587307289737356 0.4241493110198809 0.38482277625308819 0.34803082115192707 0.31628444864548599 0.287552232840733 0.26197181272517861 0.23967428232687932 0.22369484842463319 0.2113253999256863 0.20269540630803279 0.19787747335513073 0.20013496807381403 0.20636591046286426 0.21657593443829171 0.23074735455414538 0.24883633595374172 0.27407879161869436 0.30309776658907245 0.33578430057593817 0.37201207655226887 0.41163823515486181 0.45450769712952399 0.50045724261238811 0.54932334272897809 0.60099091226617884 0.65527075703418092 0.71208752485754667 0.76841280698894243 0.82716729621956586 0.88554350955220273 0.94654375833562954 1.0074890278566595 1.0715872010157828 0.92063454802486377 0.76632071180366879 0.62291037135427418 0.48060090824480517 0.36193081968280705 0.25901114604260533 0.17820053896659283 0.11315092268184773 0.061411526707686286 0.02703243749620568
        </DataArray>
      </CellData>
      <Points>
        <DataArray type="Float32" NumberOfComponents="3" format="ascii">
          6.3852489226471958 10.466021442797956 0
          6.3930198610151034 10.464733648133851 0
          6.4007813205391226 10.463389918012544 0
          6.4085280102562852 10.461963513478057 0
          6.4162551737096871 10.460434869344425 0
          6.4239580960962641 10.45878842338432 0
          6.4316319257436936 10.457011307604457 0
          6.4392715945942305 10.455092641090655 0
          6.4468717803296887 10.45302309230002 0
          6.4544268893005246 10.450794587902378 0
          6.4619310518636981 10.448400113320776 0
          6.4693781234478749 10.445833566682223 0
          6.4767616891764028 10.443089650363278 0
          6.4840750703199994 10.440163788525778 0
          6.4913113335811294 10.437052068079076 0
          6.4984633029812047 10.433751197226789 0
          6.5055235725161049 10.430258473734252 0
          6.5124845173982546 10.426571756946599 0
          6.5193383075722808 10.422689450115099 0
          6.5260769223546822 10.418610488518905 0
          6.5326921637480888 10.414334328284882 0
          6.5391756704426687 10.40986093921534 0
          6.5455189335426471 10.405190802196886 0
          6.551713311345666 10.40032490659115 0
          6.5577500436769487 10.395264748539663 0
          6.5636202703304152 10.390012335302391 0
          6.569315044815303 10.384570184503408 0
          6.5748253509271049 10.378941327651832 0
          6.5801421228511208 10.373129317349587 0
          6.5852562633695149 10.367138232276636 0
          6.5901586433497235 10.360972667414508 0
          6.5948401362003874 10.354637755563926 0
          6.5992916368046624 10.348139173725638 0
          6.6035040806663954 10.341483149790628 0
          6.6074684630919043 10.334676469490597 0
          6.6111758602681263 10.327726484722701 0
          6.614617449428124 10.320641121485746 0
          6.6177845359569707 10.313428891324898 0
          6.6206685731026171 10.306098898936192 0
          6.6232611835085162 10.298660851435338 0
          6.6255541901164765 10.291125071332431 0
          6.6275396467421599 10.283502508513495 0
          6.6292098696928372 10.275804751997207 0
          6.6310054745842466 10.268135458603034 0
          6.6329214425861638 10.260495527740963 0
          6.6349469948726005 10.252884100726174 0
          6.6370712650116905 10.245299816674363 0
          6.6392892520682008 10.237742587576259 0
          6.6415901067395726 10.230210353210072 0
          6.643962914060217 10.222700652050833 0
          6.6464031168379769 10.215212749156528 0
          6.648899995922692 10.207743721076691 0
          6.651442865546759 10.200290388060097 0
          6.6540210760366456 10.192849363622862 0
          6.6566167933137468 10.185414583433445 0
          6.6582550781981986 10.177712030652598 0
          6.6589046632493547 10.169864044113035 0
          6.6596249303277206 10.162022334912749 0
          6.6604182156942384 10.154187772227981 0
          6.6612814313200417 10.146360695547882 0
          6.6622167301062483 10.138541985713395 0
          6.663221122269384 10.130731925134391 0
          6.6642917037287983 10.12293072944906 0
          6.6654203912203522 10.115137790544805 0
          6.6666045150035433 10.107353137117309 0
          6.6678362019290809 10.099575916085408 0
          6.6691130187194858 10.091806017888084 0
          6.6704326880440279 10.084043316743889 0
          6.6717931577471203 10.076287688299859 0
          6.6731924881606357 10.068538995827224 0
          6.6746289207642029 10.060797106708273 0
          6.6761008835954154 10.053061898271253 0
          6.6776069965001046 10.045333263347354 0
          6.6791514325608441 10.037612185408173 0
          6.6807332596235742 10.029898664503154 0
          6.6823516872265252 10.022192717059946 0
          6.6840061312809906 10.014494392844369 0
          6.6856962162988163 10.006803779641906 0
          6.6874217761832897 9.9991210075648631 0
          6.689182856761688 9.9914462537313469 0
          6.6909797153289645 9.9837797463181612 0
          6.6928128204160915 9.9761217687325274 0
          6.6946880462955329 9.9684739375823295 0
          6.6966062680385443 9.9608367146081154 0
          6.6985685669963004 9.9532106317243993 0
          6.7005762305864618 9.945596296675232 0
          6.7026307491089696 9.9379943982975423 0
          6.7047338128189686 9.9304057122400238 0
          6.7068922229796986 9.9228325084590736 0
          6.7091080393800571 9.9152758265212935 0
          6.7113835086537117 9.9077368166926938 0
          6.7137210588767893 9.9002167476321343 0
          6.716128001507192 9.8927185270492259 0
          6.7186070251957464 9.8852437547405962 0
          6.7211610438488734 9.8777942013207021 0
          6.7237931280226197 9.8703717997249445 0
          6.7265109834138581 9.8629803077221752 0
          6.729317934769715 9.8556221245891766 0
          6.7322174363252545 9.8482998553375349 0
          6.7352130649301616 9.8410163259576784 0
          6.7383085100655267 9.8337745986932923 0
          6.7415117861614231 9.826579870457012 0
          6.7448267221350999 9.8194358569903173 0
          6.7482572218055781 9.8123465711775513 0
          6.7518072542706227 9.8053163453004881 0
          6.7554808412576541 9.7983498540545781 0
          6.7592820448258966 9.7914521401913532 0
          6.7632149539279425 9.7846286424498459 0
          6.7672836732458403 9.7778852282602138 0
          6.7714923645300349 9.7712282641571946 0
          6.775845121565979 9.7646645892969506 0
          6.7803460714814552 9.7582016359093391 0
          6.7849955219783711 9.7518446787036588 0
          6.789797598172636 9.7456022216403984 0
          6.7947527324078054 9.7394805590813522 0
          6.7998651871461799 9.7334896695934159 0
          6.805135481719959 9.7276371665450512 0
          6.8105680419835615 9.721934983926392 0
          6.8158461807247805 9.7160902953119344 0
          6.8209566102464905 9.710098974173512 0
          6.8259031811453657 9.7039720962307143 0
          6.8306708946535641 9.6977053225474048 0
          6.8352830273610357 9.6913233624876156 0
          6.8397511674592382 9.6848398529174879 0
          6.8441113115894909 9.6782832051735266 0
          6.8483991842904226 9.6716789408855082 0
          6.852676852525156 9.6650678248574309 0
          6.8572637526995814 9.6586674337747418 0
        </DataArray>
      </Points>
      <Cells>
        <DataArray type="Int32" Name="connectivity" format="ascii">
          0 1 1 2 2 3 3 4 4 5 5 6 6 7 7 8 8 9 9 10 10 11 11 12 12 13 13 14 14 15 15 16 16 17 17 18 18 19 19 20 20 21 21 22 22 23 23 24 24 25 25 26 26 27 27 28 28 29 29 30 30 31 31 32 32 33 33 34 34 35 35 36 36 37 37 38 38 39 39 40 40 41 41 42 42 43 43 44 44 45 45 46 46 47 47 48 48 49 49 50 50 51 51 52 52 53 53 54 54 55 55 56 56 57 57 58 58 59 59 60 60 61 61 62 62 63 63 64 64 65 65 66 66 67 67 68 68 69 69 70 70 71 71 72 72 73 73 74 74 75 75 76 76 77 77 78 78 79 79 80 80 81 81 82 82 83 83 84 84 85 85 86 86 87 87 88 88 89 89 90 90 91 91 92 92 93 93 94 94 95 95 96 96 97 97 98 98 99 99 100 100 101 101 102 102 103 103 104 104 105 105 106 106 107 107 108 108 109 109 110 110 111 111 112 112 113 113 114 114 115 115 116 116 117 117 118 118 119 119 120 120 121 121 122 122 123 123 124 124 125 125 126 126 127 
        </DataArray>
        <DataArray type="Int32" Name="offsets" format="ascii">
          2 4 6 8 10 12 14 16 18 20 22 24 26 28 30 32 34 36 38 40 42 44 46 48 50 52 54 56 58 60 62 64 66 68 70 72 74 76 78 80 82 84 86 88 90 92 94 96 98 100 102 104 106 108 110 112 114 116 118 120 122 124 126 128 130 132 134 136 138 140 142 144 146 148 150 152 154 156 158 160 162 164 166 168 170 172 174 176 178 180 182 184 186 188 190 192 194 196 198 200 202 204 206 208 210 212 214 216 218 220 222 224 226 228 230 232 234 236 238 240 242 244 246 248 250 252 254 
        </DataArray>
        <DataArray type="Int32" Name="types" format="ascii">
          3 3 3 3 3 3 3 3 3 3 3 3 3 3 3 3 3 3 3 3 3 3 3 3 3 3 3 3 3 3 3 3 3 3 3 3 3 3 3 3 3 3 3 3 3 3 3 3 3 3 3 3 3 3 3 3 3 3 3 3 3 3 3 3 3 3 3 3 3 3 3 3 3 3 3 3 3 3 3 3 3 3 3 3 3 3 3 3 3 3 3 3 3 3 3 3 3 3 3 3 3 3 3 3 3 3 3 3 3 3 3 3 3 3 3 3 3 3 3 3 3 3 3 3 3 3 3         </DataArray>
      </Cells>
    </Piece>
  </UnstructuredGrid>
</VTKFile>
