<?xml version="1.0"?>
<VTKFile type="UnstructuredGrid" version="0.1" byte_order="LittleEndian">
  <UnstructuredGrid>
    <Piece NumberOfPoints="128" NumberOfCells="127">
      <PointData Scalars="W">
        <DataArray type="Float32" Name="W" NumberOfComponents="2">
          0 0 -0.45406660924265291 0.37819918857685181 -0.74843562864515345 0.61563697775849824 -0.97786136769580434 0.79008636082090467 -1.1748758888775863 0.92839078719837809 -1.3526760358851864 1.0414375127992996 -1.5179129523779933 1.1347327284199156 -1.6743975021795616 1.2114653789787793 -1.8244789442373586 1.2736471512709151 -1.9697623969275186 1.3226896869908982 -2.1112792141781584 1.3595583599143914 -2.2497245449933772 1.3849627658334731 -2.3855647684394783 1.3994431466859334 -2.5191508158365958 1.4034484654483361 -2.6507465996805499 1.3973539657447145 -2.7805060683043799 1.3814521858292677 -2.9084237373413693 1.3559400400697599 -3.0345004649885121 1.3210094921899005 -3.1586798624780634 1.2768149346187263 -3.2808119591073863 1.2234652110206057 -3.4007393804878676 1.1610645453754054 -3.5182850256488241 1.0897062513037874 -3.6332275559934777 1.0094664306415633 -3.7452747762554512 0.92040307824111323 -3.8541707792362465 0.82258801201896437 -3.9595376295562095 0.71607109328145468 -4.0610264413261703 0.60092160157213748 -4.1583521090943538 0.47722376492541629 -4.2511327429681556 0.34505135556615985 -4.3385862156986379 0.20447588187603169 -4.4205996846175495 0.055642989797593093 -4.4966999443069149 -0.10132686371920499 -4.5664104002311507 -0.26629203589644468 -4.629198548833493 -0.43908420857879654 -4.6845454064797236 -0.6195073376385013 -4.7318932613586533 -0.80733116864973353 -4.7707611157454393 -1.0023088204360313 -4.8005100741925606 -1.2041315214321424 -4.8204767972183635 -1.4124306656724237 -4.8301543630660309 -1.626833007679596 -4.8289741760269296 -1.8469108149079856 -4.8163372328571006 -2.0721764619118299 3.7964058898413504 1.6529323701660792 3.7651005002275704 1.4967872551118624 3.7238657446999848 1.3460107129834313 3.6902801629392212 1.2064239942515149 3.6329653579699426 1.0674175656988711 3.5857494658285538 0.93957744680646438 3.5332670018528165 0.8175930782980767 3.475648420841543 0.70150041685572906 3.4141441929700282 0.59152762150790972 3.3665454653146862 0.48994309922385254 3.3152812339047251 0.39296151911224175 3.2450998986931801 0.29941101746145427 3.1730393533592047 0.21180929539157586 3.096610555220717 0.1299200714545076 3.0216727082937487 0.053881980130370551 2.9462714026861923 -0.016701398028654987 2.8877192996999441 -0.082734079164131696 2.812755290626463 -0.14387102060085219 2.7384058718506363 -0.20026958606607387 2.6649790461805223 -0.25219744578781306 2.5929912803016228 -0.29995949021464408 2.5221984364137628 -0.34378211266088532 2.4370914189077144 -0.38130647293085179 2.3699274509628139 -0.41752650617185916 2.3048047124514928 -0.45069161033653277 2.241869324968754 -0.48107511847242757 2.1812566520565491 -0.50894786004432568 2.1230760222410474 -0.53457387618425811 2.0674236056252187 -0.55821204003572911 2.0143809473309444 -0.58011509791434479 1.9640137463763876 -0.60052861292797266 1.9163843083145322 -0.61969432071546904 1.8715357440091021 -0.63784515070347247 1.8449508529099412 -0.66087544013448485 1.8055932368709107 -0.67814073636306293 1.7688590690518655 -0.6949485373327825 1.7352410193099714 -0.71169640199485718 1.7045027031819362 -0.72850383615681358 1.6766510461736484 -0.74557864489941195 1.6516788360890273 -0.76312211769314919 1.6295765784531338 -0.78133452533839309 1.6103297318630909 -0.80041473659174056 1.6080134815894074 -0.82794455443912784 1.5939891798608037 -0.84963802427176394 1.5829634948657618 -0.87290674134216018 1.5746804249837476 -0.89784332075555173 1.5690998190528929 -0.92465601762137928 1.5661754542292956 -0.95355783480771561 1.578616919337763 -0.99292544517503112 1.5806007200001011 -1.0270489147154978 1.5850497059976465 -1.0639460002257093 1.5918854976130747 -1.1038636162420328 1.6010190494763017 -1.1470602966943455 1.6240513414574735 -1.202617257394933 1.6371818001019671 -1.2535839322879123 1.6522485824593296 -1.3087010016707208 1.6691021593252628 -1.3682931285610582 1.6875725037520577 -1.4327062620455706 1.707298893231846 -1.5021602353470844 1.728400498426508 -1.5773441068718783 1.7608032013938062 -1.6685345985338385 1.7831313894383565 -1.7566084847352894 1.8057678723715656 -1.8516567941076509 1.8186161401831837 -1.9436056251631237 1.8411426029883948 -2.0538272700235205 1.8627122988836038 -2.1727592084946172 1.8829004965850948 -2.3012633648577507 1.9007763444664896 -2.4397568507557534 1.9070414879918081 -2.5771646452052028 1.9188732726786035 -2.7380980120747913 1.9261265406746932 -2.9121633451055788 1.9194618490594262 -3.0869691644718857 1.9144577260608782 -3.2901290532986254 1.8933015464959289 -3.4959773927876339 1.000994373521682 -1.9607699465120223 0.96630094047451809 -1.9766789249174008 0.96908315067647344 -2.0745428820353942 0.94496802421926818 -2.1226416771014924 0.94870180462142351 -2.243254522772328 0.96096847786925421 -2.4037480911111366 0.91053234073697298 -2.4194698875458518 0.82897757083211399 -2.3437107048760191 0.75809920874491088 -2.2822241618400501 0.41788672196394056 -1.3238117722185285 0.24630743059987892 -0.80482634211953374 0 0
        </DataArray>
        <DataArray type="Float32" Name="u" NumberOfComponents="1">
          0 0.007874015748031496 0.015748031496062992 0.023622047244094488 0.031496062992125984 0.03937007874015748 0.047244094488188976 0.055118110236220472 0.062992125984251968 0.070866141732283464 0.07874015748031496 0.086614173228346455 0.094488188976377951 0.10236220472440945 0.11023622047244094 0.11811023622047244 0.12598425196850394 0.13385826771653545 0.14173228346456693 0.14960629921259844 0.15748031496062992 0.16535433070866143 0.17322834645669291 0.18110236220472442 0.1889763779527559 0.19685039370078741 0.20472440944881889 0.2125984251968504 0.22047244094488189 0.2283464566929134 0.23622047244094488 0.24409448818897639 0.25196850393700787 0.25984251968503935 0.26771653543307089 0.27559055118110237 0.28346456692913385 0.29133858267716534 0.29921259842519687 0.30708661417322836 0.31496062992125984 0.32283464566929132 0.33070866141732286 0.33858267716535434 0.34645669291338582 0.3543307086614173 0.36220472440944884 0.37007874015748032 0.37795275590551181 0.38582677165354329 0.39370078740157483 0.40157480314960631 0.40944881889763779 0.41732283464566927 0.42519685039370081 0.43307086614173229 0.44094488188976377 0.44881889763779526 0.45669291338582679 0.46456692913385828 0.47244094488188976 0.48031496062992124 0.48818897637795278 0.49606299212598426 0.50393700787401574 0.51181102362204722 0.51968503937007871 0.52755905511811019 0.53543307086614178 0.54330708661417326 0.55118110236220474 0.55905511811023623 0.56692913385826771 0.57480314960629919 0.58267716535433067 0.59055118110236215 0.59842519685039375 0.60629921259842523 0.61417322834645671 0.62204724409448819 0.62992125984251968 0.63779527559055116 0.64566929133858264 0.65354330708661412 0.66141732283464572 0.6692913385826772 0.67716535433070868 0.68503937007874016 0.69291338582677164 0.70078740157480313 0.70866141732283461 0.71653543307086609 0.72440944881889768 0.73228346456692917 0.74015748031496065 0.74803149606299213 0.75590551181102361 0.76377952755905509 0.77165354330708658 0.77952755905511806 0.78740157480314965 0.79527559055118113 0.80314960629921262 0.8110236220472441 0.81889763779527558 0.82677165354330706 0.83464566929133854 0.84251968503937003 0.85039370078740162 0.8582677165354331 0.86614173228346458 0.87401574803149606 0.88188976377952755 0.88976377952755903 0.89763779527559051 0.90551181102362199 0.91338582677165359 0.92125984251968507 0.92913385826771655 0.93700787401574803 0.94488188976377951 0.952755905511811 0.96062992125984248 0.96850393700787396 0.97637795275590555 0.98425196850393704 0.99212598425196852 1
        </DataArray>
      </PointData>
      <CellData Scalars="P">
        <DataArray type="Float32" Name="P" NumberOfComponents="1">
          -0.011368646963975878 -0.032517703480877701 -0.050208921668361696 -0.063417524266588962 -0.071448138339325465 -0.073791959384184744 -0.070063307690098234 -0.059964075397380169 -0.043261363772211771 -0.019770092711021647 0.010657269363100842 0.048139282958663591 0.092772300711049319 0.14463726113861522 0.20380532339811644 0.2703412458318315 0.3443037415092336 0.42574993368752523 0.51473716363116928 0.61132283299537771 0.71556663449772473 0.82753202263434689 0.94728643575129157 1.0749001020613886 1.2104486767996312 1.3540094045051261 1.5056629649270401 1.6654967924112869 1.833601539646093 2.0100534573470825 2.1949436786161538 2.3883623059753947 2.5903977987883988 2.8011336195048 3.0206479036186029 3.249010319417005 3.4862846023997003 3.7325186019272372 3.9877404550344608 4.2519646265566209 4.5251858537407923 4.8073741546639823 4.5485908158724477 4.2817413957782797 4.00912036592129 3.7316461331094217 3.452432903387507 3.1719858180977032 2.8918517630026588 2.6134810102803283 2.3381389850728698 2.0655935426491623 1.7969203560596405 1.5343326365435597 1.2786149751966915 1.0306685909518956 0.79086108342467354 0.55964426766546183 0.33610668117511655 0.1217927280452812 -0.083103125077030937 -0.27845991086668742 -0.46423902613535512 -0.64042636060649116 -0.80604861494274427 -0.96227797220875455 -1.1092569168248689 -1.2471599295443538 -1.3761882976711537 -1.4965642953916662 -1.6085263974397663 -1.7123246822002525 -1.8082164841093804 -1.8964628919977502 -1.9773248326780193 -2.0515848883120911 -2.118910872113497 -2.1795376114457339 -2.2337031283670323 -2.2816251479081848 -2.3235070475308719 -2.3595362464607743 -2.3898831311753135 -2.4147001665994958 -2.4341742979783105 -2.4483123893299381 -2.4572108051995971 -2.4609458917389953 -2.4595751738859328 -2.4531378675710918 -2.4414429174239674 -2.4246617316209176 -2.4027840482302523 -2.3757854787420811 -2.343629148278553 -2.3058823605847256 -2.2628368831690198 -2.2144310910657037 -2.1605997501345708 -2.1012769388003614 -2.0364072941195674 -1.9659259413725829 -1.8892311073305639 -1.8068212615708148 -1.7186831252040737 -1.6254253899866151 -1.526505120923072 -1.4219962907119021 -1.3120054737403577 -1.196707471940297 -1.0769660613217982 -0.95242899403528369 -0.82344794708364832 -0.69111927164639908 -0.55532584286339226 -0.41735463988829402 -0.35258690827809985 -0.29161863775951297 -0.23191792136494049 -0.17630818207785784 -0.12334118200886963 -0.07332572532395322 -0.03170130193053243 -0.0011697966963102205 0.01845582181715523 0.017043947777195062 0.0067098923350126811
        </DataArray>
      </CellData>
      <Points>
        <DataArray type="Float32" NumberOfComponents="3" format="ascii">
          4.4683640835047891 9.46131590319394 0
          4.4734177565586171 9.4673547247862899 0
          4.4784432733091064 9.4734169961487993 0
          4.4834223803838071 9.4795174394775312 0
          4.4883408515044554 9.4856668713687622 0
          4.4931864702153801 9.4918738672323393 0
          4.4979482115640339 9.498145436350784 0
          4.5026158296718695 9.5044873632885931 0
          4.5071796214274764 9.5109044056224139 0
          4.5116302808121223 9.5174004186764254 0
          4.5159587993687751 9.5239784430527674 0
          4.5201564022494338 9.5306407644916078 0
          4.5242145051100655 9.5373889578721123 0
          4.52812468519119 9.5442239207129447 0
          4.5318786595572478 9.5511459010133262 0
          4.5354682687318597 9.558154520523356 0
          4.5388854671516441 9.5652487928863277 0
          4.5421223235058479 9.5724271358520223 0
          4.545171020682651 9.5796873831832094 0
          4.5480238592650588 9.5870267942326652 0
          4.5506732668292784 9.5944420606960481 0
          4.5531118077020185 9.6019293130784575 0
          4.5553321939407487 9.6094841264845492 0
          4.5573272990567402 9.6171015253415728 0
          4.5590901761313427 9.6247759869996798 0
          4.5606140736819452 9.6325014461894334 0
          4.5618924590940075 9.6402712981178613 0
          4.5629190402515549 9.6480784027685882 0
          4.563687783212651 9.6559150901287847 0
          4.5641929358856457 9.6637731647677469 0
          4.5644290765215665 9.6716439102750442 0
          4.5643911207074073 9.6795180982953966 0
          4.5640743507032129 9.6873859960015594 0
          4.5634744449889126 9.6952373748806391 0
          4.5625875112773437 9.7030615211741527 0
          4.5614101186885812 9.710847248036961 0
          4.5599393323251896 9.7185829098170533 0
          4.5581727430905268 9.7262564173659101 0
          4.5561085072969458 9.7338552571859047 0
          4.553745387789224 9.7413665142872059 0
          4.5510827853692408 9.7487768953318561 0
          4.5481207740443894 9.7560727551557136 0
          4.5448601381611136 9.763240127003403 0
          4.5418348957580337 9.7705099728277762 0
          4.5390431044935537 9.7778726109652023 0
          4.5364822064255961 9.785318692733755 0
          4.5341501178688199 9.7928395635627634 0
          4.5320432840078668 9.800426604763949 0
          4.5301587761958322 9.8080718902777129 0
          4.5284933393351592 9.8157678571944551 0
          4.5270433999694255 9.8235073079690789 0
          4.5258051438141704 9.8312834245647611 0
          4.5247756188121038 9.8390899092340636 0
          4.523951645740822 9.8469207496309252 0
          4.5233288726020904 9.8547701460328962 0
          4.5229028309648882 9.8626326675848315 0
          4.5226687816417686 9.8705032376247726 0
          4.5226220779599968 9.8783771423110434 0
          4.5227580445858084 9.8862500060214096 0
          4.5230730509180175 9.8941177353737704 0
          4.5235624488771311 9.9019765404465403 0
          4.5242216285529375 9.90982292511171 0
          4.525046037298142 9.9176536704360636 0
          4.5260312117468589 9.9254658157756523 0
          4.5271727626752609 9.9332566447356427 0
          4.5284654134305722 9.9410238314033492 0
          4.5299049998891778 9.9487651307691749 0
          4.5314874845347033 9.9564784872292869 0
          4.5332089655153469 9.9641620176376531 0
          4.5350656850343842 9.9718139945134965 0
          4.5370540361266984 9.9794328296698573 0
          4.5391705686196939 9.9870170581626727 0
          4.5414119941876869 9.9945653226198594 0
          4.5437751904240713 10.002076358015838 0
          4.5462572047033349 10.009548976683428 0
          4.5488552568532619 10.016982053871724 0
          4.5515676990628693 10.024374162202205 0
          4.5543920916666609 10.031724231794241 0
          4.5573261576913842 10.039031221126045 0
          4.5603678134011423 10.046294092382057 0
          4.5635151536426433 10.053511804044287 0
          4.5667664522755596 10.060683298007357 0
          4.5701201617266758 10.067807487097429 0
          4.5735749124028073 10.074883242654005 0
          4.5771295117911226 10.081909382198418 0
          4.5807838170629589 10.088884199181182 0
          4.5845369595878749 10.095806349051658 0
          4.5883882567003722 10.102674389570033 0
          4.5923371958316528 10.109486775064751 0
          4.5963834320235897 10.11624184351707 0
          4.6005267850665481 10.122937803350768 0
          4.6047680274124341 10.129572213845737 0
          4.60910728327746 10.136142959587717 0
          4.6135448297923638 10.142647753150035 0
          4.6180810921474542 10.149084119777871 0
          4.6227166380765876 10.155449381351177 0
          4.6274528970121382 10.161740093072314 0
          4.6322906846573666 10.167953094911809 0
          4.6372309368636921 10.174084969422136 0
          4.6422747003648199 10.180132021595671 0
          4.6474231222398412 10.186090257401238 0
          4.6526774275551848 10.191955370142864 0
          4.6580389267531581 10.197722697710223 0
          4.6635096309016442 10.203386585076608 0
          4.6690909267038787 10.208941570562398 0
          4.6747842200971581 10.214381759848843 0
          4.6805903104582569 10.219701450887364 0
          4.6865105971698906 10.224893808081022 0
          4.6925464204103191 10.229951455469918 0
          4.6986990348088469 10.234866423245 0
          4.7049695517275909 10.239630121853008 0
          4.7113583630029856 10.244234029003593 0
          4.7178662054396447 10.248668162890471 0
          4.7244935319972861 10.252921726931525 0
          4.7312399330306976 10.256983878431244 0
          4.7381051015071769 10.260842015540973 0
          4.7450877292061859 10.264483369377057 0
          4.752132544717047 10.268003176606975 0
          4.7592374127549144 10.271400451225478 0
          4.7664025210009209 10.274669122440269 0
          4.7736263929083469 10.277806206252263 0
          4.7809092785017562 10.280804218840268 0
          4.7882519577661427 10.28365320061955 0
          4.7956513311883624 10.286352173738733 0
          4.803102377953806 10.288905836484421 0
          4.8106007449942716 10.29131800141246 0
          4.8181254299182692 10.293648150288821 0
          4.8256658869170552 10.295928505295567 0
        </DataArray>
      </Points>
      <Cells>
        <DataArray type="Int32" Name="connectivity" format="ascii">
          0 1 1 2 2 3 3 4 4 5 5 6 6 7 7 8 8 9 9 10 10 11 11 12 12 13 13 14 14 15 15 16 16 17 17 18 18 19 19 20 20 21 21 22 22 23 23 24 24 25 25 26 26 27 27 28 28 29 29 30 30 31 31 32 32 33 33 34 34 35 35 36 36 37 37 38 38 39 39 40 40 41 41 42 42 43 43 44 44 45 45 46 46 47 47 48 48 49 49 50 50 51 51 52 52 53 53 54 54 55 55 56 56 57 57 58 58 59 59 60 60 61 61 62 62 63 63 64 64 65 65 66 66 67 67 68 68 69 69 70 70 71 71 72 72 73 73 74 74 75 75 76 76 77 77 78 78 79 79 80 80 81 81 82 82 83 83 84 84 85 85 86 86 87 87 88 88 89 89 90 90 91 91 92 92 93 93 94 94 95 95 96 96 97 97 98 98 99 99 100 100 101 101 102 102 103 103 104 104 105 105 106 106 107 107 108 108 109 109 110 110 111 111 112 112 113 113 114 114 115 115 116 116 117 117 118 118 119 119 120 120 121 121 122 122 123 123 124 124 125 125 126 126 127 
        </DataArray>
        <DataArray type="Int32" Name="offsets" format="ascii">
          2 4 6 8 10 12 14 16 18 20 22 24 26 28 30 32 34 36 38 40 42 44 46 48 50 52 54 56 58 60 62 64 66 68 70 72 74 76 78 80 82 84 86 88 90 92 94 96 98 100 102 104 106 108 110 112 114 116 118 120 122 124 126 128 130 132 134 136 138 140 142 144 146 148 150 152 154 156 158 160 162 164 166 168 170 172 174 176 178 180 182 184 186 188 190 192 194 196 198 200 202 204 206 208 210 212 214 216 218 220 222 224 226 228 230 232 234 236 238 240 242 244 246 248 250 252 254 
        </DataArray>
        <DataArray type="Int32" Name="types" format="ascii">
          3 3 3 3 3 3 3 3 3 3 3 3 3 3 3 3 3 3 3 3 3 3 3 3 3 3 3 3 3 3 3 3 3 3 3 3 3 3 3 3 3 3 3 3 3 3 3 3 3 3 3 3 3 3 3 3 3 3 3 3 3 3 3 3 3 3 3 3 3 3 3 3 3 3 3 3 3 3 3 3 3 3 3 3 3 3 3 3 3 3 3 3 3 3 3 3 3 3 3 3 3 3 3 3 3 3 3 3 3 3 3 3 3 3 3 3 3 3 3 3 3 3 3 3 3 3 3         </DataArray>
      </Cells>
    </Piece>
  </UnstructuredGrid>
</VTKFile>
