<?xml version="1.0"?>
<VTKFile type="UnstructuredGrid" version="0.1" byte_order="LittleEndian">
  <UnstructuredGrid>
    <Piece NumberOfPoints="128" NumberOfCells="127">
      <PointData Scalars="W">
        <DataArray type="Float32" Name="W" NumberOfComponents="2">
          0 0 -0.080891256944314413 0.023417494214663336 -0.17378398197088435 0.05011283128896845 -0.24388623990200017 0.069875976124301631 -0.30103008830138245 0.085522063048950728 -0.34920243004730178 0.09820455709019496 -0.39032245903459239 0.10849631221356813 -0.42550976226336684 0.11675118472874176 -0.45546978306837665 0.12321273929513209 -0.48076587429801748 0.12808871042358058 -0.50178934665152997 0.13154196386138245 -0.51889257020753221 0.13372552582797029 -0.53237071831117155 0.13477650116875953 -0.54248970828200005 0.13482253173796632 -0.54951773549376559 0.13398867534235115 -0.5537056145361855 0.13239146095974944 -0.55520952073011043 0.13012050480992551 -0.5542485442761812 0.12727628317985518 -0.55099540944749581 0.12394347695867251 -0.54558603422800134 0.12019395833561973 -0.53816966581351644 0.11609821348019429 -0.52891325154473523 0.11172568080892858 -0.51795968010920901 0.10713562611427628 -0.5054695906864678 0.10238612748835957 -0.49159845548654585 0.09752916586127218 -0.47644930992920775 0.092601778476516419 -0.46018664000873244 0.087648907234194787 -0.44301604784299292 0.082718388277236099 -0.42506027582638739 0.077837878206819353 -0.40615687723725946 0.072980922137118251 -0.38681648862718299 0.068240185209280782 -0.36718490283206595 0.063636483917407963 -0.3473999391551939 0.059186578939529062 -0.32761691574792451 0.054907893017742203 -0.30799754021180686 0.05081676382302442 -0.28873674396399213 0.046933060153384352 -0.27009739896104923 0.043285649140660708 -0.2522145343674711 0.039881238170028949 -0.23521545051117271 0.036725035602323326 -0.21936629265659441 0.033843547529714045 -0.20490510553883645 0.031258042585423973 -0.19205033707990748 0.028986465079463258 -5.3440888205088948 0.68682316103722607 -5.0191831659406283 0.43658170457351198 -4.8449346137227476 0.23189192961669927 -4.6577398971324788 0.048374903658253109 -4.4588624752608306 -0.11380805273396141 -4.2495001826100021 -0.25460970299913804 -4.0307371540099064 -0.37409424310006567 -4.0123198160144469 -0.50174680231253643 -4.0019656819237204 -0.63056493083182696 -3.9837121977823204 -0.75870658988876938 -3.9541876450689228 -0.88473123679767274 -3.922892209970875 -1.010140605639225 -3.8853993227453194 -1.1337300925727114 -3.8441572315326513 -1.2558890216847705 -3.383993717966721 -1.2193825178626734 -2.9052975477365779 -1.1345447125747765 -2.4148749794354409 -1.0064459261856888 -1.9030738508374117 -0.83475124331725847 -1.3756053449771806 -0.62671491532471701 -0.81191314530471803 -0.37923602156774755 -0.51983309395486632 -0.24648701525552094 0.085887244829587595 0.040923836817180093 0.73424245833837309 0.3466421983879675 0.72957736615126834 0.33877911368558278 1.0864535346470241 0.4941433776275258 1.0935404271070224 0.48500193726642199 1.4670305008173588 0.63143572196690878 1.4648615588975387 0.6088564871322979 1.8563395442840491 0.74101942118884156 1.8666977754992509 0.71131293076124058 1.8750163754554563 0.6809286465809905 2.2743890415874333 0.78164451682080271 2.2830482484541972 0.73664534491570999 2.2891135327518404 0.69121831481728901 2.7183991296901526 0.76031858199427793 2.7232749975597317 0.69694040348128339 2.7123630510757013 0.63082007249922123 3.1576449429210252 0.65603497751556616 3.1553061860262428 0.57260826636837991 3.1484975679613996 0.48985835564537383 3.1372379332210145 0.40805876389304202 3.5786056487931317 0.36889117838890662 3.5599907408840856 0.26569564247780436 3.5360768933676447 0.16454050349762861 3.9946927114316066 0.067218599089863176 3.9596988598378315 -0.057431880686597506 3.9186342192317336 -0.17860322384318833 4.3735574024537014 -0.343026162081569 4.3035720467740735 -0.48666494068295113 4.2404230567124737 -0.6258949986855955 4.6822363829945619 -0.86255807102875537 4.5985060591828022 -1.0258290400620895 4.5079093211993202 -1.1818268199178894 4.411136162554536 -1.3302810156341101 4.8154617751057591 -1.6553560380372077 4.6799502391207906 -1.8202425654239813 5.0580794721734126 -2.2132525095338207 4.9040127163053624 -2.4036541613566773 4.7438655940480574 -2.5824699274221392 5.0657016360148495 -3.0579562682714765 4.8555529157873227 -3.2470330557725609 5.1234751648569894 -3.7952344886715683 4.8798832702670421 -4.0075204937966511 4.6314712880236861 -4.2041817760899134 4.8025735642103697 -4.8330937231762947 4.8994918879657954 -5.5155501200874353 4.5351814194494935 -5.7431222212879476 4.5287219004118828 -6.5024005986070748 4.0846726416247208 -6.7202639184275155 3.6455012541218759 -6.9291267914645687 3.202065663910322 -7.1180191512286486 2.749243899297396 -7.2739381977535853 2.298733155463327 -7.4282556951918295 1.8389690230697397 -7.5512743700151432 1.3775265026426153 -7.6762612988244037 0.90572267086542024 -7.7695751420601331 0.42657819478807801 -7.8491721292237315 0.033379568530777441 -3.5184060659011958 -0.05023843584863074 -3.0600878735266228 -0.098243476537447957 -2.5497566017651376 -0.11669522355274707 -2.0570220246877358 -0.10864581216357286 -1.5314159690671207 -0.028661425913810407 -0.36523590296058989 0.15079717333610773 2.1073331570306646 0.21692021110717921 4.9892760988752496 0 0
        </DataArray>
        <DataArray type="Float32" Name="u" NumberOfComponents="1">
          0 0.007874015748031496 0.015748031496062992 0.023622047244094488 0.031496062992125984 0.03937007874015748 0.047244094488188976 0.055118110236220472 0.062992125984251968 0.070866141732283464 0.07874015748031496 0.086614173228346455 0.094488188976377951 0.10236220472440945 0.11023622047244094 0.11811023622047244 0.12598425196850394 0.13385826771653545 0.14173228346456693 0.14960629921259844 0.15748031496062992 0.16535433070866143 0.17322834645669291 0.18110236220472442 0.1889763779527559 0.19685039370078741 0.20472440944881889 0.2125984251968504 0.22047244094488189 0.2283464566929134 0.23622047244094488 0.24409448818897639 0.25196850393700787 0.25984251968503935 0.26771653543307089 0.27559055118110237 0.28346456692913385 0.29133858267716534 0.29921259842519687 0.30708661417322836 0.31496062992125984 0.32283464566929132 0.33070866141732286 0.33858267716535434 0.34645669291338582 0.3543307086614173 0.36220472440944884 0.37007874015748032 0.37795275590551181 0.38582677165354329 0.39370078740157483 0.40157480314960631 0.40944881889763779 0.41732283464566927 0.42519685039370081 0.43307086614173229 0.44094488188976377 0.44881889763779526 0.45669291338582679 0.46456692913385828 0.47244094488188976 0.48031496062992124 0.48818897637795278 0.49606299212598426 0.50393700787401574 0.51181102362204722 0.51968503937007871 0.52755905511811019 0.53543307086614178 0.54330708661417326 0.55118110236220474 0.55905511811023623 0.56692913385826771 0.57480314960629919 0.58267716535433067 0.59055118110236215 0.59842519685039375 0.60629921259842523 0.61417322834645671 0.62204724409448819 0.62992125984251968 0.63779527559055116 0.64566929133858264 0.65354330708661412 0.66141732283464572 0.6692913385826772 0.67716535433070868 0.68503937007874016 0.69291338582677164 0.70078740157480313 0.70866141732283461 0.71653543307086609 0.72440944881889768 0.73228346456692917 0.74015748031496065 0.74803149606299213 0.75590551181102361 0.76377952755905509 0.77165354330708658 0.77952755905511806 0.78740157480314965 0.79527559055118113 0.80314960629921262 0.8110236220472441 0.81889763779527558 0.82677165354330706 0.83464566929133854 0.84251968503937003 0.85039370078740162 0.8582677165354331 0.86614173228346458 0.87401574803149606 0.88188976377952755 0.88976377952755903 0.89763779527559051 0.90551181102362199 0.91338582677165359 0.92125984251968507 0.92913385826771655 0.93700787401574803 0.94488188976377951 0.952755905511811 0.96062992125984248 0.96850393700787396 0.97637795275590555 0.98425196850393704 0.99212598425196852 1
        </DataArray>
      </PointData>
      <CellData Scalars="P">
        <DataArray type="Float32" Name="P" NumberOfComponents="1">
          0.015435148519270036 0.046359896505329894 0.07744842578200957 0.10874881552395553 0.14027754709060888 0.17202881202608022 0.20397929984692106 0.2360919269793465 0.26831896882438161 0.30060516103170681 0.33289024650239246 0.3651115455164366 0.39720617670324443 0.42911307672013821 0.460774798385921 0.4921389705477443 0.52315946651741951 0.55379751227756679 0.58402244361243116 0.613812340474439 0.64315443208628464 0.67204521213570034 0.70049043420281099 0.72850479096364118 0.75611146410124519 0.78334183314199801 0.81023440723333817 0.83683354860123849 0.86318903703901473 0.88935778251836028 0.91539670268171724 0.94136455918023532 0.96732097147855856 0.99332522127562484 1.0194352750968416 1.0457066518756322 1.0721911386264875 1.0989381159047706 1.1259948304173717 1.1534055332253603 1.1812131517274915 1.2094615269602373 1.2035684517687359 1.2046228701735295 1.2107403611664083 1.2212507896563154 1.2355443414657987 1.253072530948302 1.2733483123724081 1.2953840522100308 1.3188001784265617 1.3432148709404534 1.3682130530793004 1.393330412390468 1.4180834957724187 1.4419624543495204 1.4656017076481955 1.4892136878694546 1.5132019458107286 1.5381439050646033 1.5646567000719309 1.5934097063260462 1.6234412589998104 1.6563584466271515 1.6921580157427287 1.7275268214848394 1.7635738076485996 1.7986445458679658 1.8331562603708322 1.8658757190963178 1.8963282101925922 1.9240165600351578 1.9487712034356819 1.9684105224651838 1.9841090108626152 1.9957958968056713 1.9990813591723844 1.9974210989774841 1.9910536255481972 1.9730210133729518 1.9494383227124996 1.920553056720919 1.8867037304142813 1.8381211321065465 1.7844777341358582 1.7263031138399398 1.6511762913561545 1.5718674707062357 1.4890954669574037 1.3883948376855346 1.2855360831029956 1.1810092511381491 1.0588054451677025 0.93639080252693152 0.81479316157054305 0.69508238026254854 0.56058507802482371 0.43064843121889929 0.28814836804628191 0.15228159329836644 0.024162635142177754 -0.11160845416475081 -0.23624525211187414 -0.36420818110501063 -0.47821897183712708 -0.57727963274245508 -0.67195773010719673 -0.7581442020514465 -0.82324378441243451 -0.86653468638794173 -0.88743566624117176 -0.88625396642118215 -0.86369443188929096 -0.82102666662129997 -0.76004608774019167 -0.6831304863246821 -0.59301137861928277 -0.49317372305848112 -0.38752347401116238 -0.32222450190599844 -0.26169904451243603 -0.2067196629792169 -0.15707858403324457 -0.11257022736499624 -0.075621860422714127 -0.047182533317510204 -0.018867892626818684
        </DataArray>
      </CellData>
      <Points>
        <DataArray type="Float32" NumberOfComponents="3" format="ascii">
          4.2135948721879322 6.3617571373406694 0
          4.2157869627142901 6.3693199068123683 0
          4.2179740377024633 6.3768841274237333 0
          4.2201503375915035 6.3844514537935968 0
          4.2223115158765845 6.3920231108213521 0
          4.224454029507025 6.3996000682004457 0
          4.2265748916935717 6.4071831119275808 0
          4.2286715529167163 6.4147728798206538 0
          4.2307418315116898 6.4223698834618581 0
          4.2327838699307545 6.4299745233044723 0
          4.2347960998151448 6.437587101559334 0
          4.236777217733585 6.4452078323002508 0
          4.2387261633350102 6.4528368509600993 0
          4.2406421010473752 6.4604742228404142 0
          4.2425244035902203 6.4681199510348231 0
          4.2443726353459272 6.4757739841928856 0
          4.2461865368085281 6.4834362237556817 0
          4.247966014900161 6.4911065295234245 0
          4.2497111293868164 6.4987847258970088 0
          4.2514220821688511 6.5064706071408995 0
          4.2530992088536212 6.5141639418525541 0
          4.2547429695018693 6.5218644773466643 0
          4.2563539382769315 6.5295719439752054 0
          4.2579327945858516 6.5372860588176138 0
          4.2594803131202994 6.5450065292982398 0
          4.2609973542182011 6.5527330564267166 0
          4.2624848574768999 6.5604653371128059 0
          4.2639438315568334 6.5682030669724849 0
          4.2653753414364326 6.5759459433145926 0
          4.2667805008048925 6.5836936668775454 0
          4.2681604821378247 6.5914459402124423 0
          4.2695164850412448 6.5992024734531052 0
          4.270849727216814 6.6069629856328929 0
          4.2721614359219631 6.6147272057516009 0
          4.2734528383455181 6.6224948738852207 0
          4.2747251515875 6.6302657422300548 0
          4.2759795705791346 6.6380395763678353 0
          4.2772172517900273 6.6458161570906116 0
          4.278439304862018 6.6535952808537226 0
          4.2796467847220825 6.6613767601382188 0
          4.2808406750849173 6.6691604251360186 0
          4.2820218736965021 6.6769461251130879 0
          4.2831911787908643 6.6847337295688352 0
          4.2840290719200818 6.6925638877800173 0
          4.2845557061157926 6.7004210752307403 0
          4.2847818922151193 6.7082925978665484 0
          4.2847192436062649 6.716167074979138 0
          4.2843800978379152 6.7240344491681574 0
          4.2837774423005959 6.7318859892307827 0
          4.2829248469604382 6.7397142861429531 0
          4.2818234574297733 6.7475114298107011 0
          4.2804739186731844 6.7552694379238387 0
          4.2788773649213185 6.762980369762623 0
          4.2770356288122349 6.7706364154556118 0
          4.2749506523095757 6.7782298030848214 0
          4.2726247612428843 6.7857528732807904 0
          4.2700605135210932 6.793198055139932 0
          4.2672864456035153 6.8005676073331189 0
          4.2643322433158293 6.8078667854813455 0
          4.261228319449998 6.815103528033192 0
          4.2580064119358179 6.8222884770155252 0
          4.2546992292293444 6.8294345285699034 0
          4.2513417245367728 6.8365570252129251 0
          4.247952006968915 6.843664200970748 0
          4.244567632391842 6.8507738766677608 0
          4.2412287977973318 6.8579050105283041 0
          4.2379352085044459 6.8650571252177341 0
          4.2347089866346179 6.8722398617269871 0
          4.2315505667006521 6.8794526633735913 0
          4.2284831007209558 6.8867046192115691 0
          4.2255064503730262 6.8939943394746495 0
          4.2226448835801325 6.9013300304955694 0
          4.2198990402779701 6.9087098607590063 0
          4.2172694350022892 6.9161319556635972 0
          4.2147808278618735 6.9236025740175302 0
          4.2124337566983003 6.9311189349058155 0
          4.2102285995370741 6.938678229562397 0
          4.2081919753148558 6.9462847588469208 0
          4.2063241910007942 6.9539346003963018 0
          4.2046245754929092 6.9616236598342969 0
          4.2031207451407697 6.9693535184192701 0
          4.2018125633511039 6.9771190077485645 0
          4.2006996168622237 6.9849149994362802 0
          4.1997812166740189 6.9927364220925927 0
          4.1990847443264583 7.0005808638697999 0
          4.1986090573028214 7.0084419245122591 0
          4.198352684227018 7.0163133281994217 0
          4.1983440831327021 7.0241890563500267 0
          4.1985810978607434 7.0320613734496389 0
          4.1990611948788379 7.0399227576324304 0
          4.1998126103105617 7.0477630268864111 0
          4.2008310185109403 7.0555732621754972 0
          4.2021125164743385 7.0633448166159827 0
          4.2036845341728526 7.0710630246785016 0
          4.2055418933983866 7.0787177450353704 0
          4.2076789879248597 7.0862992859645937 0
          4.2100898262195399 7.0937984225250004 0
          4.2127995201385211 7.1011950000348936 0
          4.2157996753865783 7.1084787706622237 0
          4.2191137857351197 7.1156253622804657 0
          4.2227323074257459 7.1226229416352798 0
          4.2266453170163905 7.1294603939692678 0
          4.2308728248365517 7.1361082245591563 0
          4.2354018064718524 7.1425546778648075 0
          4.2402489373142966 7.1487657411089769 0
          4.2453991220213805 7.1547282145938143 0
          4.2508369650160862 7.1604298685557755 0
          4.2565731480845965 7.1658316684065424 0
          4.2626137604443697 7.1708912447361808 0
          4.268936240075405 7.1755944402017828 0
          4.2755389404974817 7.1798932786324556 0
          4.2823943105690132 7.1837744845301401 0
          4.2894751335963655 7.1872253161079369 0
          4.2967539522750249 7.1902342437695408 0
          4.304202744166199 7.1927917555957395 0
          4.3117936429683121 7.1948884119581766 0
          4.3194982145287906 7.1965166880397806 0
          4.3272879230210108 7.1976689126993456 0
          4.3351335874055668 7.1983393567072458 0
          4.3430055659704898 7.1985231221022286 0
          4.350879516911089 7.1984887417017838 0
          4.3587503575746567 7.1982646347965247 0
          4.3666152085350456 7.1978824361219447 0
          4.3744730173242345 7.1973726839524907 0
          4.3823243694098961 7.1967679530666988 0
          4.3901743261956669 7.1961405430267718 0
          4.3980341795318587 7.1956437903479102 0
          4.4059082488781289 7.1954564896706481 0
        </DataArray>
      </Points>
      <Cells>
        <DataArray type="Int32" Name="connectivity" format="ascii">
          0 1 1 2 2 3 3 4 4 5 5 6 6 7 7 8 8 9 9 10 10 11 11 12 12 13 13 14 14 15 15 16 16 17 17 18 18 19 19 20 20 21 21 22 22 23 23 24 24 25 25 26 26 27 27 28 28 29 29 30 30 31 31 32 32 33 33 34 34 35 35 36 36 37 37 38 38 39 39 40 40 41 41 42 42 43 43 44 44 45 45 46 46 47 47 48 48 49 49 50 50 51 51 52 52 53 53 54 54 55 55 56 56 57 57 58 58 59 59 60 60 61 61 62 62 63 63 64 64 65 65 66 66 67 67 68 68 69 69 70 70 71 71 72 72 73 73 74 74 75 75 76 76 77 77 78 78 79 79 80 80 81 81 82 82 83 83 84 84 85 85 86 86 87 87 88 88 89 89 90 90 91 91 92 92 93 93 94 94 95 95 96 96 97 97 98 98 99 99 100 100 101 101 102 102 103 103 104 104 105 105 106 106 107 107 108 108 109 109 110 110 111 111 112 112 113 113 114 114 115 115 116 116 117 117 118 118 119 119 120 120 121 121 122 122 123 123 124 124 125 125 126 126 127 
        </DataArray>
        <DataArray type="Int32" Name="offsets" format="ascii">
          2 4 6 8 10 12 14 16 18 20 22 24 26 28 30 32 34 36 38 40 42 44 46 48 50 52 54 56 58 60 62 64 66 68 70 72 74 76 78 80 82 84 86 88 90 92 94 96 98 100 102 104 106 108 110 112 114 116 118 120 122 124 126 128 130 132 134 136 138 140 142 144 146 148 150 152 154 156 158 160 162 164 166 168 170 172 174 176 178 180 182 184 186 188 190 192 194 196 198 200 202 204 206 208 210 212 214 216 218 220 222 224 226 228 230 232 234 236 238 240 242 244 246 248 250 252 254 
        </DataArray>
        <DataArray type="Int32" Name="types" format="ascii">
          3 3 3 3 3 3 3 3 3 3 3 3 3 3 3 3 3 3 3 3 3 3 3 3 3 3 3 3 3 3 3 3 3 3 3 3 3 3 3 3 3 3 3 3 3 3 3 3 3 3 3 3 3 3 3 3 3 3 3 3 3 3 3 3 3 3 3 3 3 3 3 3 3 3 3 3 3 3 3 3 3 3 3 3 3 3 3 3 3 3 3 3 3 3 3 3 3 3 3 3 3 3 3 3 3 3 3 3 3 3 3 3 3 3 3 3 3 3 3 3 3 3 3 3 3 3 3         </DataArray>
      </Cells>
    </Piece>
  </UnstructuredGrid>
</VTKFile>
