<?xml version="1.0"?>
<VTKFile type="UnstructuredGrid" version="0.1" byte_order="LittleEndian">
  <UnstructuredGrid>
    <Piece NumberOfPoints="128" NumberOfCells="127">
      <PointData Scalars="W">
        <DataArray type="Float32" Name="W" NumberOfComponents="2">
          0 0 0.22941330967745666 -0.74019085245914884 0.33793797006034837 -1.120623386514368 0.4106044884360735 -1.4146932570027881 0.45989257787885746 -1.6624227921726866 0.49101687359017132 -1.8801872702534983 0.5068515276766612 -2.0767517908009734 0.5092039863966531 -2.2574645615428728 0.49929243299000275 -2.4258285497669343 0.4779537705687531 -2.5841339686781044 0.44580608900588542 -2.7340201435275184 0.40330597745086705 -2.8766404117326685 0.35079399714832782 -3.0127915425374594 0.28852324158045345 -3.142948499341593 0.21669289108608544 -3.2673431609479064 0.13547499158557871 -3.386073244958729 0.045025328109719751 -3.499196227168087 -0.054515108493440753 -3.6066042030567598 -0.16300399605157778 -3.708102684510171 -0.28029531264627366 -3.8034921664956638 -0.40623285999274755 -3.8924813910578462 -0.54064033620749086 -3.9747066810265976 -0.68332219556456331 -4.0497954350194219 -0.83406343587641574 -4.117362761123764 -0.99260854613073624 -4.1769308825991942 -1.1586944152270375 -4.2281056395155385 -1.3320146924014042 -4.270410917979663 -1.5121998061847901 -4.3032841191274906 -1.6988559368635567 -4.3262249556862633 -1.8917055031454522 -4.3390743066135249 -2.0901723253693256 -4.3410094544390398 -2.2937533796696967 -4.331552105792662 -2.5018965329689666 -4.310217647031573 -2.7140188932027547 -4.276554753286578 -2.9294846471969436 -4.2301094636634664 -3.147626658652483 -4.1704650281518418 -3.3676749972086442 -4.0971545540214036 -3.588908492366512 -4.0098621938997105 -3.8105661927248824 -3.9082854888540677 -4.0317451299219789 -3.7920499647812105 -4.2515227056440841 -3.6608627817968906 -4.4689620682856352 -3.5145062156558726 2.9061496979701147 2.2484537161145832 2.7626047796032025 2.2662996111518301 2.619895955195747 2.2736171826037492 2.4961646130653508 2.2872035150150145 2.3739504814487553 2.2930533044032644 2.2373491863120822 2.2744574071215338 2.1209056980622889 2.2657404745241712 2.0074307249986112 2.2508377240823503 1.8973929650504393 2.2304114682502862 1.7910603420318165 2.2049886671779002 1.6886406949904165 2.1750893697622899 1.5902874300534133 2.1412222160620553 1.5096939658792012 2.1234111414522614 1.4186702158626994 2.0831557309181554 1.3446161243443469 2.0601094957112194 1.2733440256300677 2.0349544842081397 1.1825896291739981 1.970038855962462 1.1081563310885469 1.9227186489236261 1.0267303946123638 1.8539278008461775 0.95008678011159231 1.7835194795680984 0.88900674817944647 1.7336104533561048 0.82105162161595635 1.6618980994229338 0.75712526123439139 1.5890429643145561 0.70805373711027164 1.5396393357851725 0.65156404510834276 1.4667019155410947 0.6093143685174599 1.4187461455693917 0.57001195356126566 1.3721466832123486 0.53362884297123614 1.3273826852958766 0.49976377494776419 1.2839865222555205 0.46842158420898722 1.2424566585504271 0.43957206401383775 1.2032313887514774 0.41285582055605696 1.1658281902261407 0.38825833185650632 1.1306617362034868 0.36566978615822149 1.097882378803916 0.34496696720804582 1.0675815413722003 0.32613756402185123 1.0401853863171766 0.30886771692404053 1.0151427367140256 0.29315390647728629 0.99284860726841506 0.27890715133148575 0.97342700850830211 0.26612304566253359 0.95730094716288638 0.26125448148398722 0.96926203448023274 0.25042595724322569 0.95900104002033271 0.24069214480243431 0.95191254251302271 0.23195675790290599 0.94805569457757777 0.22413910248289648 0.94755313496031079 0.21722561200212467 0.95083885703628201 0.21632439214366758 0.98211031305885987 0.21028596709775249 0.99219114230510919 0.20476935391412351 1.0059443930230709 0.19966199193099204 1.0234431713678671 0.19485757114511112 1.0448308010260037 0.19443066295532174 1.0944472608991873 0.18947412653447271 1.1243371358674594 0.18432929199360842 1.1580634749677807 0.17890188727885667 1.196122784541906 0.17301118371337412 1.2386273366038354 0.16646853709123091 1.2857744568731628 0.15905302692985374 1.3376995581745053 0.15052023645128154 1.3945496882697972 0.14275429109150489 1.4802696365582042 0.13057482972918411 1.5476492554870174 0.11635583984481758 1.6210182003667069 0.098406232313292291 1.6759997935255129 0.079459488967698735 1.7607414486686168 0.057172942311352053 1.8518585868738644 0.03098487565690973 1.9496120229250964 0.00025773145846695177 2.0544044533299282 -0.035751579507523681 2.1669912427004934 -0.076823463451616475 2.2624230618581223 -0.12511025299276221 2.3907782814782799 -0.17946906554179287 2.5026759940244516 -0.24435342134043073 2.650069576339817 -0.3201573255772901 2.8073797063122266 -0.404894066619783 2.9499820929218843 -0.50269867531591639 3.1049380579401187 -0.62148323507918568 3.3005167033312803 0.30592918565684007 -1.5648499637664881 0.33111291002123727 -1.8249532566080648 0.31742710337768149 -1.9116208604043858 0.33127344380818674 -2.2207947756566546 0.34161159493267756 -2.6384662277624344 0.36759018781286495 -3.5086781240842031 0.34236524250700262 -4.7698242142648688 0.17209559870564173 -7.8186882494695658 -0.14166457252756171 -4.9809047595936757 0 0
        </DataArray>
        <DataArray type="Float32" Name="u" NumberOfComponents="1">
          0 0.007874015748031496 0.015748031496062992 0.023622047244094488 0.031496062992125984 0.03937007874015748 0.047244094488188976 0.055118110236220472 0.062992125984251968 0.070866141732283464 0.07874015748031496 0.086614173228346455 0.094488188976377951 0.10236220472440945 0.11023622047244094 0.11811023622047244 0.12598425196850394 0.13385826771653545 0.14173228346456693 0.14960629921259844 0.15748031496062992 0.16535433070866143 0.17322834645669291 0.18110236220472442 0.1889763779527559 0.19685039370078741 0.20472440944881889 0.2125984251968504 0.22047244094488189 0.2283464566929134 0.23622047244094488 0.24409448818897639 0.25196850393700787 0.25984251968503935 0.26771653543307089 0.27559055118110237 0.28346456692913385 0.29133858267716534 0.29921259842519687 0.30708661417322836 0.31496062992125984 0.32283464566929132 0.33070866141732286 0.33858267716535434 0.34645669291338582 0.3543307086614173 0.36220472440944884 0.37007874015748032 0.37795275590551181 0.38582677165354329 0.39370078740157483 0.40157480314960631 0.40944881889763779 0.41732283464566927 0.42519685039370081 0.43307086614173229 0.44094488188976377 0.44881889763779526 0.45669291338582679 0.46456692913385828 0.47244094488188976 0.48031496062992124 0.48818897637795278 0.49606299212598426 0.50393700787401574 0.51181102362204722 0.51968503937007871 0.52755905511811019 0.53543307086614178 0.54330708661417326 0.55118110236220474 0.55905511811023623 0.56692913385826771 0.57480314960629919 0.58267716535433067 0.59055118110236215 0.59842519685039375 0.60629921259842523 0.61417322834645671 0.62204724409448819 0.62992125984251968 0.63779527559055116 0.64566929133858264 0.65354330708661412 0.66141732283464572 0.6692913385826772 0.67716535433070868 0.68503937007874016 0.69291338582677164 0.70078740157480313 0.70866141732283461 0.71653543307086609 0.72440944881889768 0.73228346456692917 0.74015748031496065 0.74803149606299213 0.75590551181102361 0.76377952755905509 0.77165354330708658 0.77952755905511806 0.78740157480314965 0.79527559055118113 0.80314960629921262 0.8110236220472441 0.81889763779527558 0.82677165354330706 0.83464566929133854 0.84251968503937003 0.85039370078740162 0.8582677165354331 0.86614173228346458 0.87401574803149606 0.88188976377952755 0.88976377952755903 0.89763779527559051 0.90551181102362199 0.91338582677165359 0.92125984251968507 0.92913385826771655 0.93700787401574803 0.94488188976377951 0.952755905511811 0.96062992125984248 0.96850393700787396 0.97637795275590555 0.98425196850393704 0.99212598425196852 1
        </DataArray>
      </PointData>
      <CellData Scalars="P">
        <DataArray type="Float32" Name="P" NumberOfComponents="1">
          -0.01252867919201736 -0.035502619770388988 -0.054442171359908836 -0.068258741440274079 -0.076205831222800405 -0.077733115183839782 -0.072414213481893641 -0.059904478849633146 -0.039914405065133524 -0.012194076395127247 0.023479656823327602 0.067311569840211652 0.11949379414278243 0.18020828628305494 0.24962805276247158 0.32791908094951633 0.41524371694218565 0.51175924191118971 0.61761761790427783 0.73296729004426064 0.85795148628623108 0.99270638910012177 1.1373611679511235 1.2920376354041316 1.4568460519170587 1.6318881263936265 1.8172526061318508 2.0130096671874509 2.2192119492028071 2.4359111943419873 2.663121366372847 2.9008335018021625 3.1490124533128325 3.4075956621114347 3.6764894464570608 3.9555674992258743 4.24466274883377 4.543573297179921 4.8520590365661818 5.1698301155568647 5.4965466199931612 5.8318180593220337 5.5814710710898501 5.3249870310949659 5.0647549018460492 4.8011747886257972 4.5361072397009581 4.2731876663707267 4.0120714296460998 3.7541432309793108 3.5006188127735198 3.2525638608477458 3.0108991410619637 2.7764067958266692 2.5477096096420637 2.3274158879910622 2.1139768590607342 1.907816711565081 1.7128645678994232 1.5273997543689273 1.3532961267148369 1.1904826415421466 1.0370022387498712 0.89444417130598897 0.76256613544356511 0.6392827791470731 0.5260148340076406 0.42068370305793595 0.32294810693753984 0.23243581397903468 0.14880544070740964 0.071690676590762226 0.0007120455847111041 -0.064473567287136449 -0.12421612865534719 -0.17885522397697046 -0.2287149102912916 -0.27411198744197551 -0.31532258335489477 -0.35261226204296653 -0.38622470230177597 -0.41638504177022234 -0.44362229413621757 -0.46767431597697778 -0.4886836022094736 -0.50676647146096632 -0.52201343644230624 -0.53448817366042589 -0.5440911441939994 -0.55090025767693873 -0.55490810410938729 -0.55608520865433486 -0.55438048744638002 -0.54926137412354359 -0.54103201663091149 -0.5295965444871058 -0.5148379355371876 -0.49662787292377375 -0.47482705815927584 -0.44928966843362517 -0.41986627073176641 -0.3855863559202552 -0.34708309883687871 -0.30419691795781006 -0.25771075572391106 -0.20662252270424875 -0.1508211369989727 -0.090218010086493994 -0.024747382906049772 0.045641591579892234 0.11992659164994396 0.19907169177608122 0.28196194938895952 0.36951587131155567 0.46151508333030672 0.55668244739677453 0.65471322464900306 0.75620846416951881 0.68162952315256753 0.60116525584511127 0.52215449550191717 0.43963476494772413 0.35390891786247897 0.25961397413810999 0.15936564261103905 0.046355278119911643 0.005060635887421107
        </DataArray>
      </CellData>
      <Points>
        <DataArray type="Float32" NumberOfComponents="3" format="ascii">
          4.5574472314713903 10.185979582302151 0
          4.5649615702619242 10.188333714885445 0
          4.5724901340059434 10.190641950185997 0
          4.5800396519426512 10.192880698625927 0
          4.5876146298781881 10.195031725753177 0
          4.5952181239970917 10.197079670560274 0
          4.6028520641988715 10.199011030095672 0
          4.6105174323118829 10.200813615962943 0
          4.6182143741656256 10.202476222692924 0
          4.6259422751254613 10.203988410534727 0
          4.6336998119857986 10.205340363446673 0
          4.6414849912956555 10.206522787447305 0
          4.6492951776702913 10.207526839101389 0
          4.6571271149085058 10.208344076115928 0
          4.6649769416865388 10.208966427890621 0
          4.6728402039091996 10.209386181141451 0
          4.6807118653786892 10.209595973843349 0
          4.6885863174554077 10.209588791668226 0
          4.6964573878016793 10.209357974677815 0
          4.7043183492083314 10.208897229385347 0
          4.7121619286509855 10.208200641128299 0
          4.719980316977705 10.207262692130426 0
          4.7277651798435407 10.206078284054191 0
          4.7355076698386958 10.204642761106431 0
          4.7431984398234777 10.202951933905913 0
          4.7508276587754432 10.201002109110156 0
          4.7583850281081421 10.198790113857147 0
          4.7658598006713726 10.196313325288388 0
          4.7732408036718583 10.193569705434202 0
          4.7805164630977774 10.190557832234765 0
          4.7876748209359974 10.187276909406096 0
          4.7947035709045842 10.18372681745282 0
          4.8015900896493315 10.179908143323674 0
          4.8083214709854625 10.1758222104582 0
          4.8148845620465961 10.171471106768603 0
          4.8212660027150935 10.166857712784248 0
          4.827452266994487 10.161985727488036 0
          4.8334297107555022 10.156859697261103 0
          4.8391846164583088 10.151485035460933 0
          4.8447032403409782 10.145868041168479 0
          4.8499718684132453 10.140015922399833 0
          4.8549768736667307 10.13393681425527 0
          4.859704774168125 10.127639792409928 0
          4.8646128597467513 10.121482202064387 0
          4.8696922285198259 10.11546514878906 0
          4.8749340305818896 10.109589085293369 0
          4.8803305931460867 10.10385485263304 0
          4.8858743376425702 10.098262812170844 0
          4.8915567933033799 10.092811809818508 0
          4.8973707396543524 10.087501303742195 0
          4.9033091404165834 10.082330368595917 0
          4.9093651725638825 10.07729773659273 0
          4.9155322429285864 10.072401830184864 0
          4.9218040010813429 10.067640794314343 0
          4.9281743488354852 10.063012527955223 0
          4.9346382894857106 10.05851592548823 0
          4.9411901794782747 10.05414848993745 0
          4.9478254277054923 10.049908791250408 0
          4.9545396155944665 10.045795268717123 0
          4.9613271163458315 10.041803896700713 0
          4.968183315358341 10.037931740438532 0
          4.9751031643934356 10.034174534106855 0
          4.9820819118203197 10.030527911630438 0
          4.9891157711922327 10.02698877787248 0
          4.9962005297347352 10.023552685991916 0
          5.0033322245460088 10.020215118330174 0
          5.0105078139125503 10.01697301122201 0
          5.0177237961481866 10.013821841988975 0
          5.0249775525952947 10.010758636825001 0
          5.0322666473524418 10.007780506065904 0
          5.0395888255363177 10.004884673894285 0
          5.0469419883978173 10.002068449344096 0
          5.0543241936184549 9.9993292572024579 0
          5.0617336534333743 9.996664665181541 0
          5.0691687123458431 9.9940723539995115 0
          5.0766278462240182 9.9915501430879967 0
          5.0841096554899172 9.9890959999118891 0
          5.0916128574777657 9.9867080456357602 0
          5.0991362856672398 9.9843845815449903 0
          5.1066788702252168 9.9821240548704093 0
          5.1142396377853592 9.9799250832786424 0
          5.1218177059301446 9.9777864625601698 0
          5.1294122829144833 9.9757071928564365 0
          5.1370230675409578 9.9736880158216046 0
          5.1446493892581371 9.9717282952943584 0
          5.1522906453776809 9.9698275918353456 0
          5.159946295105331 9.9679856663955952 0
          5.1676158545382558 9.9662024879217146 0
          5.1752988958208519 9.9644782602669473 0
          5.18299536355594 9.962814922554454 0
          5.1907048841024936 9.9612131000107755 0
          5.1984271161693414 9.9596736455912858 0
          5.2061617438383818 9.9581976445161455 0
          5.2139084699745712 9.9567864231606027 0
          5.2216672684823058 9.9554430582882425 0
          5.2294378327644866 9.9541694035277484 0
          5.2372198445611238 9.9529675504267878 0
          5.2450129681007267 9.9518398592439912 0
          5.2528168388969823 9.9507889659166953 0
          5.260631052053089 9.9498177943033763 0
          5.268455148565776 9.9489295645878801 0
          5.2762886001720739 9.9481278024059847 0
          5.2841309256818789 9.9474178236191229 0
          5.2919813707245442 9.9468038069234446 0
          5.299839054474794 9.9462903024913736 0
          5.3077028653500227 9.9458807204302246 0
          5.3155716294444142 9.9455803163385088 0
          5.3234439657705135 9.9453947412812198 0
          5.3313182514223678 9.9453300579799304 0
          5.3391925820302601 9.9453927658023957 0
          5.3470647256594024 9.9455898476221662 0
          5.3549321370854202 9.9459272227707061 0
          5.3627918230168001 9.9464128523656896 0
          5.3706404142708077 9.947053677288876 0
          5.3784738881643124 9.9478588397826204 0
          5.3862875447352137 9.9488380973223354 0
          5.3940761306547147 9.9500002957455731 0
          5.4018335820015517 9.9513550473374881 0
          5.4095525326588678 9.9529144837495771 0
          5.4172906685183575 9.9543769164174414 0
          5.4250495951899556 9.955726212727976 0
          5.4328285066862199 9.9569569921093493 0
          5.4406283204610233 9.9580500703518595 0
          5.4484497513662733 9.9589795256187195 0
          5.4562945237451324 9.9596913483569836 0
          5.4641612343356352 9.960107240770153 0
          5.4720396505031461 9.9600378796402556 0
          5.4799087736706751 9.9596593664143889 0
        </DataArray>
      </Points>
      <Cells>
        <DataArray type="Int32" Name="connectivity" format="ascii">
          0 1 1 2 2 3 3 4 4 5 5 6 6 7 7 8 8 9 9 10 10 11 11 12 12 13 13 14 14 15 15 16 16 17 17 18 18 19 19 20 20 21 21 22 22 23 23 24 24 25 25 26 26 27 27 28 28 29 29 30 30 31 31 32 32 33 33 34 34 35 35 36 36 37 37 38 38 39 39 40 40 41 41 42 42 43 43 44 44 45 45 46 46 47 47 48 48 49 49 50 50 51 51 52 52 53 53 54 54 55 55 56 56 57 57 58 58 59 59 60 60 61 61 62 62 63 63 64 64 65 65 66 66 67 67 68 68 69 69 70 70 71 71 72 72 73 73 74 74 75 75 76 76 77 77 78 78 79 79 80 80 81 81 82 82 83 83 84 84 85 85 86 86 87 87 88 88 89 89 90 90 91 91 92 92 93 93 94 94 95 95 96 96 97 97 98 98 99 99 100 100 101 101 102 102 103 103 104 104 105 105 106 106 107 107 108 108 109 109 110 110 111 111 112 112 113 113 114 114 115 115 116 116 117 117 118 118 119 119 120 120 121 121 122 122 123 123 124 124 125 125 126 126 127 
        </DataArray>
        <DataArray type="Int32" Name="offsets" format="ascii">
          2 4 6 8 10 12 14 16 18 20 22 24 26 28 30 32 34 36 38 40 42 44 46 48 50 52 54 56 58 60 62 64 66 68 70 72 74 76 78 80 82 84 86 88 90 92 94 96 98 100 102 104 106 108 110 112 114 116 118 120 122 124 126 128 130 132 134 136 138 140 142 144 146 148 150 152 154 156 158 160 162 164 166 168 170 172 174 176 178 180 182 184 186 188 190 192 194 196 198 200 202 204 206 208 210 212 214 216 218 220 222 224 226 228 230 232 234 236 238 240 242 244 246 248 250 252 254 
        </DataArray>
        <DataArray type="Int32" Name="types" format="ascii">
          3 3 3 3 3 3 3 3 3 3 3 3 3 3 3 3 3 3 3 3 3 3 3 3 3 3 3 3 3 3 3 3 3 3 3 3 3 3 3 3 3 3 3 3 3 3 3 3 3 3 3 3 3 3 3 3 3 3 3 3 3 3 3 3 3 3 3 3 3 3 3 3 3 3 3 3 3 3 3 3 3 3 3 3 3 3 3 3 3 3 3 3 3 3 3 3 3 3 3 3 3 3 3 3 3 3 3 3 3 3 3 3 3 3 3 3 3 3 3 3 3 3 3 3 3 3 3         </DataArray>
      </Cells>
    </Piece>
  </UnstructuredGrid>
</VTKFile>
