<?xml version="1.0"?>
<VTKFile type="UnstructuredGrid" version="0.1" byte_order="LittleEndian">
  <UnstructuredGrid>
    <Piece NumberOfPoints="128" NumberOfCells="127">
      <PointData Scalars="W">
        <DataArray type="Float32" Name="W" NumberOfComponents="2">
          0 0 -0.05337154487345324 0.023107369736285719 -0.13083269331746664 0.05652170361635795 -0.19151603330962991 0.082423946439699858 -0.24357383757603901 0.1042906946312077 -0.2902817172943245 0.1235053710149748 -0.33312667555726083 0.14068693046205255 -0.3729188835724685 0.15616869461157259 -0.41012930337125947 0.17014370408752716 -0.44512068135041877 0.18276246173226462 -0.47812584253621371 0.19412400124845239 -0.50934258341917693 0.20431525994085509 -0.53894169821278026 0.21341378433408248 -0.5671277522241629 0.2215109350728271 -0.59410541027314023 0.22869682561144464 -0.62005691426141307 0.23505081766580158 -0.64507850289595292 0.24061791514739922 -0.66934196492939346 0.24547002924226882 -0.69298991024159251 0.24966517891879098 -0.71613307718126862 0.25324712696217416 -0.73888909776769396 0.25625953856285355 -0.76140387127808828 0.25875252408564514 -0.78380162809952902 0.26076463587304433 -0.80618569185229683 0.26232368412586754 -0.82871222619442142 0.26347053013922539 -0.85144496391251101 0.26421186462578378 -0.87451068667449139 0.26457061017518585 -0.89810375714285595 0.26458404427873311 -0.92234138424353318 0.26425929141586968 -0.94701860060038923 0.26350953156588586 -0.97257752699750266 0.26242754046674555 -0.99912584710435071 0.26100032607538631 -1.0268076780037918 0.25921769067919181 -1.0557240372273078 0.2570508737169202 -1.0859993610059067 0.25446971354369224 -1.1177488518501417 0.25143370008726829 -1.1511906781470465 0.24791558778873188 -1.1863918666249864 0.24384372434807358 -1.2234006773754325 0.23913548583580688 -1.2624187691320103 0.23372890883312047 -1.3036262028910164 0.22754271146382155 -1.3471599298568069 0.22047310524276542 -11.387460405340191 1.2774132322558109 -11.483311621638245 0.24502296589548747 -11.485271248229177 -0.7966969399703876 -11.3901203880156 -1.8387232544864434 -11.198274562657385 -2.8717367419979132 -10.908543602305445 -3.885621395041027 -10.523590456155031 -4.87075044085688 -10.044668067449702 -5.8165184426930514 -9.4763102033973592 -6.7132296595041954 -8.8242186890383483 -7.551878786881649 -8.0935635143608256 -8.3225675199842133 -7.2920142272979396 -9.0168272969025356 -2.2095564659806124 -3.0992340526627982 -2.117495825565515 -3.166907219344135 -1.8838817226191682 -3.0021613328689947 -1.7991191260327575 -3.0531649183875817 -1.4468151374057039 -2.6061359882950903 -1.1101322173230956 -2.1030537328088883 -0.63322948451110728 -1.2440375474168102 -0.46554158475601004 -0.93677255291873618 -0.13685342037566608 -0.27911129576874655 0.026919029408600026 0.055037878985962213 0.58331863660010153 1.1764636623434515 0.59516787983618435 1.1698178384696949 0.81984674340292729 1.5642250050207511 1.0674589448759868 1.9609428766451324 1.0897308852350227 1.9210855062856464 1.1171238731044604 1.8921293259850518 1.4011178377246454 2.2725278367020798 1.4383427647348153 2.2270850222869063 1.7592533182653096 2.5924714304754679 1.7969958112023703 2.5132966003590282 2.157818451244911 2.8563414099126021 2.2143746226713117 2.7663506298422607 2.2633118078425487 2.6720587684850368 2.6710128113586351 2.970946765914801 2.7151170133009552 2.8368174618590873 2.7607966144879774 2.7126948617695459 3.21248590182761 2.9579520830553601 3.2609034065026874 2.8030590313252963 3.2969182868775864 2.6468001791071685 3.7890824161398857 2.8280836213507023 3.8089538180215339 2.6300949854387921 3.8289570778535871 2.4445177894109302 4.3550307359263751 2.5541205252704753 4.3679116040310833 2.3354928168767772 4.3663155295581157 2.1219907609838677 4.9199774650475891 2.1506562318500229 4.8902753906249021 1.8982986251366656 4.8617546353581913 1.6617991524282676 5.4343171966560755 1.6026906350093992 5.3881664842020083 1.333376786804384 5.3285462853302983 1.0762270800696654 5.8923634786401644 0.91689067982284234 5.8207809433341522 0.62991481098133895 5.7394318912850792 0.35672624655311602 5.6504890000180783 0.096948720181863013 5.5360828835223419 -0.14906880321796431 5.4380609783313378 -0.38240814025910141 5.3381668521493042 -0.60489368948910516 5.2379237520213495 -0.81773424053694266 5.1190686378980947 -1.0179674196617245 5.0219508586599737 -1.2140292050208237 4.9285471282287201 -1.4050526229168865 4.8195459929690507 -1.5857827455796933 4.73534377758366 -1.7702764652204894 4.6562180664363471 -1.9551548214492609 4.5630338552791088 -2.1329327366391664 4.4955359357311533 -2.3234004286803311 4.4325793426415192 -2.520396511996073 4.3553959284964554 -2.7142532022888211 4.3018388157287468 -2.9304289472592098 4.2321407699329807 -3.1461317091226788 4.1831250903861594 -3.3912110489573388 4.1151877553994556 -3.6389487385271182 4.1183352452406501 -3.9793593575576152 4.0408230791451434 -4.2785051720528786 3.9716058779341674 -4.6238478760868276 3.8682824863986713 -4.9755703145455996 0.031137709399594104 -0.042188344706156101 -0.50480232753883136 0.67949750513514373 -1.217283238866695 1.6006040346669552 -2.1366902336769433 2.6879192680182484 -4.4488857550680354 5.1552531026075483 -3.4123964880301467 3.6021909961211809 0 0
        </DataArray>
        <DataArray type="Float32" Name="u" NumberOfComponents="1">
          0 0.007874015748031496 0.015748031496062992 0.023622047244094488 0.031496062992125984 0.03937007874015748 0.047244094488188976 0.055118110236220472 0.062992125984251968 0.070866141732283464 0.07874015748031496 0.086614173228346455 0.094488188976377951 0.10236220472440945 0.11023622047244094 0.11811023622047244 0.12598425196850394 0.13385826771653545 0.14173228346456693 0.14960629921259844 0.15748031496062992 0.16535433070866143 0.17322834645669291 0.18110236220472442 0.1889763779527559 0.19685039370078741 0.20472440944881889 0.2125984251968504 0.22047244094488189 0.2283464566929134 0.23622047244094488 0.24409448818897639 0.25196850393700787 0.25984251968503935 0.26771653543307089 0.27559055118110237 0.28346456692913385 0.29133858267716534 0.29921259842519687 0.30708661417322836 0.31496062992125984 0.32283464566929132 0.33070866141732286 0.33858267716535434 0.34645669291338582 0.3543307086614173 0.36220472440944884 0.37007874015748032 0.37795275590551181 0.38582677165354329 0.39370078740157483 0.40157480314960631 0.40944881889763779 0.41732283464566927 0.42519685039370081 0.43307086614173229 0.44094488188976377 0.44881889763779526 0.45669291338582679 0.46456692913385828 0.47244094488188976 0.48031496062992124 0.48818897637795278 0.49606299212598426 0.50393700787401574 0.51181102362204722 0.51968503937007871 0.52755905511811019 0.53543307086614178 0.54330708661417326 0.55118110236220474 0.55905511811023623 0.56692913385826771 0.57480314960629919 0.58267716535433067 0.59055118110236215 0.59842519685039375 0.60629921259842523 0.61417322834645671 0.62204724409448819 0.62992125984251968 0.63779527559055116 0.64566929133858264 0.65354330708661412 0.66141732283464572 0.6692913385826772 0.67716535433070868 0.68503937007874016 0.69291338582677164 0.70078740157480313 0.70866141732283461 0.71653543307086609 0.72440944881889768 0.73228346456692917 0.74015748031496065 0.74803149606299213 0.75590551181102361 0.76377952755905509 0.77165354330708658 0.77952755905511806 0.78740157480314965 0.79527559055118113 0.80314960629921262 0.8110236220472441 0.81889763779527558 0.82677165354330706 0.83464566929133854 0.84251968503937003 0.85039370078740162 0.8582677165354331 0.86614173228346458 0.87401574803149606 0.88188976377952755 0.88976377952755903 0.89763779527559051 0.90551181102362199 0.91338582677165359 0.92125984251968507 0.92913385826771655 0.93700787401574803 0.94488188976377951 0.952755905511811 0.96062992125984248 0.96850393700787396 0.97637795275590555 0.98425196850393704 0.99212598425196852 1
        </DataArray>
      </PointData>
      <CellData Scalars="P">
        <DataArray type="Float32" Name="P" NumberOfComponents="1">
          0.010980165995473565 0.032978127300517746 0.055115261361498295 0.077456600113462337 0.10005206261025958 0.1229422010660037 0.14616017118636021 0.16973299403349357 0.1936824408127954 0.21802616871583358 0.2427784415128641 0.26795109476704537 0.29355445741695679 0.31959861061917982 0.34609445581425163 0.37305458808734399 0.4004936078319708 0.42842960264570235 0.45688485881795038 0.48588649841348247 0.51546743843090037 0.54566759703913048 0.57653467664512159 0.60812495535743083 0.64050493394367369 0.67375143170784679 0.70795349856806167 0.74321468350991671 0.77965360171206266 0.8174005961669174 0.85660886216767629 0.89745176551918759 0.94012561487762591 0.98485129374863367 1.0318772783611552 1.0814823310996449 1.1339811448087636 1.1897245492350639 1.2491024679941336 1.3125521646653717 1.3805627911899001 1.4536794666452988 1.9004159846603463 2.3613547638297256 2.8283150131273254 3.2928439854247533 3.746442540723375 4.1805901044416496 4.5869889383804949 4.9576072996567824 5.2849033657552305 5.5619583055300144 5.7825597946029292 5.9413798926386603 5.9933603153566155 6.0364627275921121 6.0708849565988903 6.0988426349708371 6.1218117535947156 6.1426983225340637 6.1648027223030155 6.1877390576021281 6.2127526284472632 6.2384234227051669 6.26387561566691 6.2862469563017083 6.3031272496964545 6.3112543250662556 6.3120527381113458 6.3051314440481789 6.2819158689827166 6.2485011528700261 6.1923714249919612 6.1242269077106295 6.0267591123223712 5.9150337768098424 5.7899416785132249 5.6278266457814841 5.4525552253569263 5.264927169190134 5.0345982765700521 4.792800843336523 4.5417754468561471 4.2450108326808582 3.9427227588988836 3.6364656125410573 3.2848479904008223 2.9333852425727134 2.5850686094320388 2.1955770229703968 1.8164362094840911 1.4493978487788894 1.049717595555792 0.66858812001148193 0.308932132476122 -0.025170012099690109 -0.33269926190094273 -0.61189653463654947 -0.86155365927264216 -1.0799666356913304 -1.2679182027150984 -1.4254530729812103 -1.5529098343358998 -1.6503373406461737 -1.7191574684618829 -1.7603093259819278 -1.7746492054899885 -1.7636430758907542 -1.7285191923010959 -1.6707145018307086 -1.5915923839650239 -1.4926328568835285 -1.3758328762536054 -1.2426123984722532 -1.0954547808428363 -0.93605680633068533 -0.76756451632915312 -0.59019085414756267 -0.41002347989911431 -0.23049943803379574 -0.057253062531314472 -0.028633094048528828 -0.014885811476926225 -0.013787249412799645 -0.019717144858340235 -0.035840726164883527 -0.01757262772118999
        </DataArray>
      </CellData>
      <Points>
        <DataArray type="Float32" NumberOfComponents="3" format="ascii">
          3.8797728193768979 8.3368085670666137 0
          3.882902927347236 8.3440337009945438 0
          3.8860297262143924 8.3512602674434842 0
          3.8891484133535505 8.3584903380517162 0
          3.8922552263907488 8.3657255187618649 0
          3.8953469377585188 8.3729671653661608 0
          3.8984206516069615 8.380216469279457 0
          3.9014737116091847 8.3874744959168215 0
          3.9045036507304718 8.3947422053626646 0
          3.9075081620283916 8.4020204643429608 0
          3.9104850761621583 8.4093100555605069 0
          3.9134323469569678 8.416611683839383 0
          3.9163480391399306 8.4239259815197514 0
          3.9192303177499372 8.4312535132706508 0
          3.922077435453502 8.4385947817595284 0
          3.924887719854194 8.4459502332446927 0
          3.9276595621920278 8.4533202625014106 0
          3.9303914113747953 8.4607052156180078 0
          3.9330817633249859 8.4681053944605456 0
          3.9357291521354409 8.4755210602763817 0
          3.9383321432006984 8.4829524364140969 0
          3.94088932592055 8.4903997110377212 0
          3.9433993046505122 8.4978630402407571 0
          3.9458606909952869 8.5053425504439257 0
          3.9482720973979264 8.5128383401272512 0
          3.9506321274521734 8.5203504823716028 0
          3.9529393719449564 8.5278790252819103 0
          3.9551924009890129 8.5354239934172451 0
          3.9573897519643406 8.5429853901111841 0
          3.9595299222423033 8.5505631979229992 0
          3.9616113818847563 8.5581573732642724 0
          3.9636325462203232 8.5657678521613523 0
          3.9655917691552895 8.5733945494602519 0
          3.9674873342238177 8.5810373582050303 0
          3.9693174483087246 8.5886961478654449 0
          3.9710802339081637 8.5963707624778838 0
          3.9727737219725903 8.6040610181446748 0
          3.974395838354464 8.611766701355883 0
          3.975944399626985 8.6194875645573781 0
          3.9774171100636582 8.6272233210381479 0
          3.9788115491022884 8.6349736410981546 0
          3.9801251601441638 8.6427381470174662 0
          3.9813552420221696 8.6505164066285332 0
          3.9818791390101684 8.6583739724998026 0
          3.9816908826154367 8.666246828017595 0
          3.9807903246567276 8.674070374552004 0
          3.9791833372371652 8.681779990515393 0
          3.9768817873884004 8.6893116088933446 0
          3.9739036113998467 8.6966023441203237 0
          3.9702726502304051 8.7035910887594934 0
          3.9660185725020343 8.7102191708320458 0
          3.9611765940612838 8.7164309548819165 0
          3.9557871251477867 8.7221744003029151 0
          3.9498954507053954 8.7274016750891281 0
          3.9435512556905437 8.7320696810975207 0
          3.9370701634921574 8.73654529195524 0
          3.9304578835024326 8.740824333714075 0
          3.9237289148086245 8.7449170420714282 0
          3.9168885102320923 8.7488202752342623 0
          3.9099585360406892 8.7525617694750775 0
          3.9029598853765366 8.7561727357932089 0
          3.8959221530632404 8.7597064518957239 0
          3.8888557290881369 8.7631819848482468 0
          3.8817809933252763 8.7666401238099319 0
          3.8747080833356633 8.7701015990625706 0
          3.8676714938668493 8.7736359479113695 0
          3.8606719233983342 8.7772427712967254 0
          3.8537232733389266 8.7809465342528377 0
          3.8468408641177483 8.7847718466427214 0
          3.8400260422137551 8.7887162536272996 0
          3.8332804758862022 8.7927779767489813 0
          3.8266217439401218 8.7969806199812073 0
          3.8200521296578405 8.80132138570319 0
          3.8135915038438979 8.8058229536249684 0
          3.8072421893060131 8.8104804377187627 0
          3.8010265372003427 8.8153151402040208 0
          3.7949480455465898 8.8203215075279164 0
          3.7890097452239195 8.8254937178246706 0
          3.7832369073857639 8.8308503450523403 0
          3.7776322734934977 8.8363830977444007 0
          3.7721986868207797 8.8420843023213429 0
          3.7669641622431427 8.8479692151474243 0
          3.7619317227099289 8.8540282538240103 0
          3.7571036250958456 8.860251747023451 0
          3.7525104118810235 8.8666509902307897 0
          3.7481533478518521 8.873213720802811 0
          3.7440337069160425 8.8799284422991871 0
          3.7401841529041882 8.8868020097141169 0
          3.7366055258576387 8.8938208743526399 0
          3.7332977673115422 8.9009718017027879 0
          3.7302952728764951 8.9082566313102092 0
          3.7275962507082077 8.9156597074795361 0
          3.7251989796826837 8.9231663570201931 0
          3.7231390509398898 8.930772977158 0
          3.7214136531926951 8.9384628795149457 0
          3.720019139879712 8.946220135662724 0
          3.7189907875631691 8.9540331503159525 0
          3.7183239764440188 8.9618842049608691 0
          3.7180135065581346 8.9697564480749268 0
          3.7180537316193991 8.9776338673934397 0
          3.7184374487165983 8.9855013066002893 0
          3.7191584932867108 8.9933443974148819 0
          3.7202106039588125 9.0011494423097798 0
          3.7215875148091273 9.008903337361442 0
          3.7232818203809415 9.0165937536739946 0
          3.7252874761112897 9.0242086143923785 0
          3.727598678199822 9.031736146857483 0
          3.7302086641092127 9.0391652076565272 0
          3.7331122157420511 9.0464844116099616 0
          3.736304434709627 9.0536823408755218 0
          3.7397795544818719 9.0607480092857084 0
          3.7435334033857322 9.0676696359511215 0
          3.747562092434082 9.0744350276330596 0
          3.7518608508971036 9.081032178997603 0
          3.7564263723154703 9.0874476945614688 0
          3.7612543485460104 9.0936682029576374 0
          3.7663417520766536 9.0996785063653132 0
          3.7716843805858131 9.1054632384982046 0
          3.7772824357521846 9.1110012817562254 0
          3.7831311169247881 9.1162740762472492 0
          3.7892261350513743 9.1212601952220584 0
          3.7955610845486825 9.125937815718423 0
          3.8018981811038799 9.1306129794414854 0
          3.8082042443748758 9.1353304881300179 0
          3.8144351565751244 9.1401475406396333 0
          3.8205339747802931 9.1451316907185678 0
          3.8263574194887204 9.1504362582551924 0
          3.8319688708006709 9.1559640880693713 0
        </DataArray>
      </Points>
      <Cells>
        <DataArray type="Int32" Name="connectivity" format="ascii">
          0 1 1 2 2 3 3 4 4 5 5 6 6 7 7 8 8 9 9 10 10 11 11 12 12 13 13 14 14 15 15 16 16 17 17 18 18 19 19 20 20 21 21 22 22 23 23 24 24 25 25 26 26 27 27 28 28 29 29 30 30 31 31 32 32 33 33 34 34 35 35 36 36 37 37 38 38 39 39 40 40 41 41 42 42 43 43 44 44 45 45 46 46 47 47 48 48 49 49 50 50 51 51 52 52 53 53 54 54 55 55 56 56 57 57 58 58 59 59 60 60 61 61 62 62 63 63 64 64 65 65 66 66 67 67 68 68 69 69 70 70 71 71 72 72 73 73 74 74 75 75 76 76 77 77 78 78 79 79 80 80 81 81 82 82 83 83 84 84 85 85 86 86 87 87 88 88 89 89 90 90 91 91 92 92 93 93 94 94 95 95 96 96 97 97 98 98 99 99 100 100 101 101 102 102 103 103 104 104 105 105 106 106 107 107 108 108 109 109 110 110 111 111 112 112 113 113 114 114 115 115 116 116 117 117 118 118 119 119 120 120 121 121 122 122 123 123 124 124 125 125 126 126 127 
        </DataArray>
        <DataArray type="Int32" Name="offsets" format="ascii">
          2 4 6 8 10 12 14 16 18 20 22 24 26 28 30 32 34 36 38 40 42 44 46 48 50 52 54 56 58 60 62 64 66 68 70 72 74 76 78 80 82 84 86 88 90 92 94 96 98 100 102 104 106 108 110 112 114 116 118 120 122 124 126 128 130 132 134 136 138 140 142 144 146 148 150 152 154 156 158 160 162 164 166 168 170 172 174 176 178 180 182 184 186 188 190 192 194 196 198 200 202 204 206 208 210 212 214 216 218 220 222 224 226 228 230 232 234 236 238 240 242 244 246 248 250 252 254 
        </DataArray>
        <DataArray type="Int32" Name="types" format="ascii">
          3 3 3 3 3 3 3 3 3 3 3 3 3 3 3 3 3 3 3 3 3 3 3 3 3 3 3 3 3 3 3 3 3 3 3 3 3 3 3 3 3 3 3 3 3 3 3 3 3 3 3 3 3 3 3 3 3 3 3 3 3 3 3 3 3 3 3 3 3 3 3 3 3 3 3 3 3 3 3 3 3 3 3 3 3 3 3 3 3 3 3 3 3 3 3 3 3 3 3 3 3 3 3 3 3 3 3 3 3 3 3 3 3 3 3 3 3 3 3 3 3 3 3 3 3 3 3         </DataArray>
      </Cells>
    </Piece>
  </UnstructuredGrid>
</VTKFile>
