<?xml version="1.0"?>
<VTKFile type="UnstructuredGrid" version="0.1" byte_order="LittleEndian">
  <UnstructuredGrid>
    <Piece NumberOfPoints="128" NumberOfCells="127">
      <PointData Scalars="W">
        <DataArray type="Float32" Name="W" NumberOfComponents="2">
          0 0 -0.043536102266791811 -0.41472629052950882 -0.066947335176628611 -0.61366465286348615 -0.089098027738727201 -0.77697638308513295 -0.11190635041362644 -0.92105022714525042 -0.13626903652150837 -1.0526458345506366 -0.16277010185973112 -1.1755409232739344 -0.19185806248907086 -1.2921346902110902 -0.22390816259429722 -1.4040171891522122 -0.25923793566798436 -1.5121779511162028 -0.29814539246737437 -1.6173239293317938 -0.34091112189518424 -1.7199270232502195 -0.38780281510822234 -1.8202849599627831 -0.43906236861397163 -1.9184982147089049 -0.49490044644132825 -2.0144996845518834 -0.55551697731010941 -2.1081790584728113 -0.62111190086140422 -2.1994269103031012 -0.69184951813454909 -2.2880118763490604 -0.76787138419197098 -2.3736572993295479 -0.84931016799173054 -2.4560932582422073 -0.93626224875104924 -2.5349794130989234 -1.0287845101709598 -2.6099197984731881 -1.1269140844752601 -2.6805279065630545 -1.2306621865847058 -2.7464109102558121 -1.3399710247138035 -2.8070847898277034 -1.4547868217051412 -2.8621471758545955 -1.5749883009503951 -2.9111244006748986 -1.7003682776120457 -2.9534672957748946 -1.8307048947579605 -2.9886960944049794 -1.965941114074359 -3.0166522254870825 -2.105583925998312 -3.0365496399918226 -2.2492649486542948 -3.0479291863408036 -2.3965715652187685 -3.0503577792744441 -2.5470424532976428 -3.0434251044639669 -2.7001510560822961 -3.0267296625199114 -2.8553413507349901 -2.9999258503905231 -3.0119349213611781 -2.9626311492196815 -3.1693180941259627 -2.9146244361187734 -3.3268321167078097 -2.8557157407407354 -3.4836615831280504 -2.7856655071657506 -3.6389886168084313 -2.704337571102799 -3.7919838621047508 -2.6116820225320168 4.4544332504470283 3.0890962090803571 4.2618503444482556 3.2314408284132723 4.0665939054680642 3.3602296107871146 3.869538886855548 3.4756460016104533 3.1126437132785951 3.0143884054102803 2.9389008644051815 3.0447437407363096 2.7685165859073089 3.0639322349015203 2.602008749338276 3.0724642206218649 2.4398348756530455 3.0708615102870396 2.3006159112906577 3.0848676987395951 2.1670616907179636 3.0955650120406117 2.0353319954112377 3.0978511163676354 1.9067252386455655 3.0933375409105253 1.781646218175402 3.0825892027517336 1.6313867482161277 3.0107807101494224 1.4878735786725024 2.9279968407841359 1.3513139457179795 2.8345782495978527 1.2218400886097236 2.7308143219939689 1.0994952761739716 2.6168961600591234 0.98426409991971864 2.492970405574805 0.87609294140234495 2.3592002485465589 0.79247922061152298 2.2676624956851428 0.67994552454737078 2.0643252377895025 0.62653696198122388 2.016003845373739 0.57577173582385821 1.9656736866580378 0.51286441068905675 1.8582565831770443 0.46985165535745332 1.807280310738077 0.41597304378047156 1.6990210958884222 0.37996622252263179 1.6483076811145583 0.34643278071282602 1.5981911623756486 0.30306145196509543 1.4870301846730809 0.275578914897747 1.4382766420655066 0.25045687575098452 1.3923799365019327 0.21641867033042739 1.2816104418563197 0.19600665799442529 1.2362442878283364 0.17724088546727559 1.1923542551115212 0.15102059044772503 1.0833011709863429 0.13637672417257113 1.0425747905028302 0.123236244315847 1.005610183357349 0.10333941403009408 0.89947252178519932 0.093211509517944824 0.86455734560935138 0.084039661241679789 0.83186486559218698 0.075745322776439666 0.80151726918790489 0.062120432041487428 0.70185480932482991 0.056165036464670408 0.67650572226422445 0.050829683120021688 0.65389634063818425 0.04096048054456905 0.56182314372446285 0.037345564302172 0.54506523550990471 0.034147535253760387 0.53148488001999405 0.031316599337198388 0.52124279899277537 0.024629133912394911 0.43756686825971086 0.022957148556582187 0.43448226486515101 0.02150444574758683 0.43531166010442013 0.016678654147403764 0.36057340151925515 0.016034941333865554 0.36970610249632008 0.015567386497274653 0.38541354589674642 0.012088530944622703 0.32148696521210557 0.012063100996068256 0.34492548697406955 0.012009904111912755 0.37368528904631554 0.0094906923856314766 0.32289261267221869 0.009694078048115444 0.36323442268213751 0.0096899952125724213 0.4098713927026475 0.0077497298250910097 0.37729720212103923 0.0075877802891365928 0.43786573219605229 0.0057970300628348457 0.41496026802371438 0.005129174557084221 0.4935539464399063 0.0035706843658028266 0.57869296288140148 0.00093333211791109521 0.57907353238397863 -0.0022983868936047296 0.68387850943853856 -0.0062188458429144272 0.70448391281073919 -0.01238426720569419 0.83229543937473416 -0.018897902728249517 0.87473017957931809 -0.026570812644681335 0.92579596855876622 -0.035859306561614415 0.98915108541047503 -0.047443810004344181 1.0691080364265233 -0.061992327490412689 1.1651331702039003 -0.080307731653400383 1.2773066628952836 -0.15148093333733345 1.9968363742789605 -0.20273276555424702 2.1910224900012647 -0.27484442674888376 2.4720515871005575 -0.36807866591412197 2.7814273941239471 -0.44285725600354192 2.8531193108832031 -0.58069500169009081 3.223026148758442 -0.67107343554136356 3.2407068552758069 -0.74853293510332064 3.1947666224317413 0 0
        </DataArray>
        <DataArray type="Float32" Name="u" NumberOfComponents="1">
          0 0.007874015748031496 0.015748031496062992 0.023622047244094488 0.031496062992125984 0.03937007874015748 0.047244094488188976 0.055118110236220472 0.062992125984251968 0.070866141732283464 0.07874015748031496 0.086614173228346455 0.094488188976377951 0.10236220472440945 0.11023622047244094 0.11811023622047244 0.12598425196850394 0.13385826771653545 0.14173228346456693 0.14960629921259844 0.15748031496062992 0.16535433070866143 0.17322834645669291 0.18110236220472442 0.1889763779527559 0.19685039370078741 0.20472440944881889 0.2125984251968504 0.22047244094488189 0.2283464566929134 0.23622047244094488 0.24409448818897639 0.25196850393700787 0.25984251968503935 0.26771653543307089 0.27559055118110237 0.28346456692913385 0.29133858267716534 0.29921259842519687 0.30708661417322836 0.31496062992125984 0.32283464566929132 0.33070866141732286 0.33858267716535434 0.34645669291338582 0.3543307086614173 0.36220472440944884 0.37007874015748032 0.37795275590551181 0.38582677165354329 0.39370078740157483 0.40157480314960631 0.40944881889763779 0.41732283464566927 0.42519685039370081 0.43307086614173229 0.44094488188976377 0.44881889763779526 0.45669291338582679 0.46456692913385828 0.47244094488188976 0.48031496062992124 0.48818897637795278 0.49606299212598426 0.50393700787401574 0.51181102362204722 0.51968503937007871 0.52755905511811019 0.53543307086614178 0.54330708661417326 0.55118110236220474 0.55905511811023623 0.56692913385826771 0.57480314960629919 0.58267716535433067 0.59055118110236215 0.59842519685039375 0.60629921259842523 0.61417322834645671 0.62204724409448819 0.62992125984251968 0.63779527559055116 0.64566929133858264 0.65354330708661412 0.66141732283464572 0.6692913385826772 0.67716535433070868 0.68503937007874016 0.69291338582677164 0.70078740157480313 0.70866141732283461 0.71653543307086609 0.72440944881889768 0.73228346456692917 0.74015748031496065 0.74803149606299213 0.75590551181102361 0.76377952755905509 0.77165354330708658 0.77952755905511806 0.78740157480314965 0.79527559055118113 0.80314960629921262 0.8110236220472441 0.81889763779527558 0.82677165354330706 0.83464566929133854 0.84251968503937003 0.85039370078740162 0.8582677165354331 0.86614173228346458 0.87401574803149606 0.88188976377952755 0.88976377952755903 0.89763779527559051 0.90551181102362199 0.91338582677165359 0.92125984251968507 0.92913385826771655 0.93700787401574803 0.94488188976377951 0.952755905511811 0.96062992125984248 0.96850393700787396 0.97637795275590555 0.98425196850393704 0.99212598425196852 1
        </DataArray>
      </PointData>
      <CellData Scalars="P">
        <DataArray type="Float32" Name="P" NumberOfComponents="1">
          0.0019459140291881133 0.0063664283215531534 0.011892053906530194 0.019017204852008685 0.028222844633175273 0.039990865358548316 0.054810806317618616 0.073183314288375753 0.095621288486204117 0.12264821426605811 0.15479715340667177 0.19260850959916609 0.23662714657851941 0.28739738401132153 0.34545675568072171 0.4113315825140515 0.48553357131255448 0.56855231871627132 0.66084920932821412 0.76285290567307606 0.87495175241654577 0.99748600743533244 1.1307425528871806 1.2749490626583764 1.4302636382046476 1.596773073635039 1.7744833332465297 1.9633088589835086 2.1630703674295062 2.3735110439227562 2.5942501092101966 2.8247978197415979 3.0645523120782023 3.3127966859431859 3.5686953530042325 3.8312946251047695 4.0995159350102632 4.3721667098310091 4.6479414223429778 4.9254151525144554 5.2030516425246995 5.4792110709246371 5.1672942228954728 4.8500980417981374 4.5285926050553833 4.2037542459470743 3.9303684645147765 3.6592256681348463 3.3911535005853342 3.1269359186106342 2.8673117338270533 2.6107513966272275 2.3574942292513019 2.1082334126143691 1.8635162001893775 1.6238390200338693 1.3941509262418186 1.1751284325326685 0.96739886979414302 0.77154067684931282 0.58808678976085205 0.41752323634077987 0.26028292341123549 0.11303716918618424 -0.01658355175659524 -0.13972422253464628 -0.2562762858857553 -0.36258419050712498 -0.46247548949278111 -0.55251304359167197 -0.63641289967787706 -0.71429421666973891 -0.78288358381712719 -0.84586861751447784 -0.90350689571160192 -0.95275310825339032 -0.99707108980364723 -1.0366584668992869 -1.0689411775440545 -1.0970728392397298 -1.1213355261565787 -1.139507996164093 -1.1543460297008599 -1.1660584563252379 -1.1748482039335326 -1.1792324112147494 -1.1812786185858359 -1.1811603628737504 -1.1779506213888782 -1.1730889808601586 -1.1666988895935175 -1.1588825918315417 -1.1494364328120292 -1.1389212984762602 -1.127361764093217 -1.1151302422569651 -1.1020398626172794 -1.0879983526714905 -1.0739717696811832 -1.0589842359177628 -1.0428551796136851 -1.0270997391059322 -1.0099406895108554 -0.99108576674469284 -0.97252440219051384 -0.95176074730037452 -0.93119741358369035 -0.90771117812907143 -0.88092854156174849 -0.85369701098015194 -0.82237842034642794 -0.79003006690343547 -0.75278603070952255 -0.71396070674861056 -0.67345133075172714 -0.63107601017351334 -0.58657967971859659 -0.53985453914669435 -0.49095933585691626 -0.42093090736501804 -0.34934342638204208 -0.27567141293170461 -0.2019844356312748 -0.13673468452861162 -0.077014947246895116 -0.032148865769775929 -0.0045935558172298325
        </DataArray>
      </CellData>
      <Points>
        <DataArray type="Float32" NumberOfComponents="3" format="ascii">
          6.1270563809292993 10.424030878317685 0
          6.1348888545874294 10.423221659139255 0
          6.1427186245813621 10.422386726370203 0
          6.1505442371170371 10.421513745661375 0
          6.1583643173600002 10.420592591592882 0
          6.1661774501985471 10.419614331558561 0
          6.1739821245104141 10.418570806657906 0
          6.1817766968755601 10.417454397467967 0
          6.1895593637156532 10.41625787528374 0
          6.1973281379900307 10.414974303525732 0
          6.2050808294778959 10.413596976380376 0
          6.2128150262762176 10.412119374960476 0
          6.2205280773814478 10.410535138039283 0
          6.2282170760735829 10.408838043583636 0
          6.2358788449015519 10.407022002517126 0
          6.2435099226066288 10.405081062873535 0
          6.2511065517127191 10.40300941662958 0
          6.2586646661170207 10.40080140648325 0
          6.2661798808912028 10.398451540192854 0
          6.2736474834936082 10.395954507724859 0
          6.2810624255330918 10.393305197984711 0
          6.2884193167834574 10.390498719914284 0
          6.2957124216472042 10.387530427038826 0
          6.3029356568444062 10.384395941428229 0
          6.3100825907090119 10.381091178050788 0
          6.3171464467640783 10.377612374781613 0
          6.3241201070486159 10.373956117349396 0
          6.3309961196299209 10.370119368704325 0
          6.3377667114427423 10.366099503067655 0
          6.3444238020386248 10.361894335678933 0
          6.3509590071169564 10.357502132629447 0
          6.3573636690868192 10.352921659599915 0
          6.3636288799023681 10.348152210330774 0
          6.3697455066412365 10.343193633476613 0
          6.3757042201030885 10.338046358048961 0
          6.3814955274530947 10.332711418312613 0
          6.3871098066925596 10.327190475216337 0
          6.3925373487182267 10.321485840112297 0
          6.3977683953675939 10.315600488468631 0
          6.4027931802590814 10.309538071650261 0
          6.4076019793447641 10.303302931773777 0
          6.4121851616160024 10.296900110151604 0
          6.4165332405203879 10.29033535038791 0
          6.4211575098007332 10.283962110813983 0
          6.4260460306028824 10.277789217434467 0
          6.4311866983327075 10.271824655872829 0
          6.4365672968979126 10.266075582749584 0
          6.4421408905361739 10.260513407081495 0
          6.4478967068913224 10.255140011354207 0
          6.4538241818030873 10.249956585674301 0
          6.45991299141469 10.244963659410628 0
          6.4661530805383682 10.240161133546998 0
          6.4725358175764729 10.235549876602819 0
          6.4790529222126985 10.231130551930143 0
          6.485696227223599 10.226903301413193 0
          6.4924577589959345 10.222867845371745 0
          6.499329762622577 10.219023517583441 0
          6.5063029210438179 10.215365866354364 0
          6.5133683353326512 10.211889759445963 0
          6.5205175375445643 10.208589405188105 0
          6.5277424989193777 10.205458370414668 0
          6.5350356325683716 10.202489592307231 0
          6.5423897925262828 10.199675387483937 0
          6.5497982704386617 10.197007462116337 0
          6.5572558812664905 10.194480140605842 0
          6.5647556451764526 10.192080815898652 0
          6.5722942506652062 10.189806491593421 0
          6.5798685500900662 10.187654046770087 0
          6.5874746421406023 10.185616821180275 0
          6.5951098598524673 10.183691653846861 0
          6.602770861754621 10.18187183229411 0
          6.6104554152860624 10.180154211850331 0
          6.6181614412389429 10.178535684872116 0
          6.6258862496489623 10.177009358981977 0
          6.6336281365197971 10.175572211054 0
          6.6413855442380481 10.174221395106859 0
          6.6491563616180596 10.172950043055511 0
          6.6569393231273359 10.171755341833034 0
          6.664733265320324 10.170634569912581 0
          6.6725365619082186 10.16958096566113 0
          6.680348305122493 10.168592003724886 0
          6.6881676804558214 10.16766539200105 0
          6.6959934539347339 10.166794549660677 0
          6.7038249979760227 10.165977311697155 0
          6.7116617443231386 10.165211650930962 0
          6.7195031791815643 10.164495685584361 0
          6.7273484579042284 10.163823236366206 0
          6.7351972119437935 10.163192731438873 0
          6.7430491112737201 10.162602768844076 0
          6.7509035445988133 10.162047639878361 0
          6.7587602888543152 10.161526305405106 0
          6.766619146925045 10.161037923311799 0
          6.7744799445649901 10.16058185847476 0
          6.7823422685435233 10.160152922877927 0
          6.7902060168570335 10.159750925186575 0
          6.7980711012331607 10.159375916751001 0
          6.8059372246593632 10.159023263716755 0
          6.8138043494852685 10.158693532265252 0
          6.8216724491333283 10.158387696238469 0
          6.8295413110404501 10.158101792125624 0
          6.83741093658855 10.157837273137373 0
          6.8452813256237564 10.157595922451362 0
          6.8531523261747811 10.157374590898959 0
          6.8610239546090002 10.157175779836161 0
          6.8688962146351287 10.157002381015539 0
          6.8767689913809713 10.15685237494546 0
          6.8846422794321898 10.156729517348111 0
          6.8925159742138087 10.156632388340986 0
          6.9003900396099578 10.156565861559219 0
          6.9082643845283354 10.156535216732788 0
          6.9161388533242132 10.156540478277426 0
          6.9240132518679598 10.156588145904774 0
          6.9318873460079171 10.156679498637304 0
          6.939760760384452 10.156822463653846 0
          6.9476331011430563 10.157019674445154 0
          6.9555039034022625 10.157274300221944 0
          6.9633726029122149 10.157590272905814 0
          6.9712384937650826 10.157972554742081 0
          6.9791006870281684 10.158427105429238 0
          6.9869580610092532 10.158960887355031 0
          6.9948061909790029 10.159618533443689 0
          7.0026419092548959 10.160412097038556 0
          7.0104607515715402 10.1613590201649 0
          7.01825694317996 10.162478506020539 0
          7.026025868036907 10.163775018538653 0
          7.0337589861371672 10.165271523464956 0
          7.0414507256920347 10.166969143767814 0
          7.0490963322081601 10.168865063648447 0
        </DataArray>
      </Points>
      <Cells>
        <DataArray type="Int32" Name="connectivity" format="ascii">
          0 1 1 2 2 3 3 4 4 5 5 6 6 7 7 8 8 9 9 10 10 11 11 12 12 13 13 14 14 15 15 16 16 17 17 18 18 19 19 20 20 21 21 22 22 23 23 24 24 25 25 26 26 27 27 28 28 29 29 30 30 31 31 32 32 33 33 34 34 35 35 36 36 37 37 38 38 39 39 40 40 41 41 42 42 43 43 44 44 45 45 46 46 47 47 48 48 49 49 50 50 51 51 52 52 53 53 54 54 55 55 56 56 57 57 58 58 59 59 60 60 61 61 62 62 63 63 64 64 65 65 66 66 67 67 68 68 69 69 70 70 71 71 72 72 73 73 74 74 75 75 76 76 77 77 78 78 79 79 80 80 81 81 82 82 83 83 84 84 85 85 86 86 87 87 88 88 89 89 90 90 91 91 92 92 93 93 94 94 95 95 96 96 97 97 98 98 99 99 100 100 101 101 102 102 103 103 104 104 105 105 106 106 107 107 108 108 109 109 110 110 111 111 112 112 113 113 114 114 115 115 116 116 117 117 118 118 119 119 120 120 121 121 122 122 123 123 124 124 125 125 126 126 127 
        </DataArray>
        <DataArray type="Int32" Name="offsets" format="ascii">
          2 4 6 8 10 12 14 16 18 20 22 24 26 28 30 32 34 36 38 40 42 44 46 48 50 52 54 56 58 60 62 64 66 68 70 72 74 76 78 80 82 84 86 88 90 92 94 96 98 100 102 104 106 108 110 112 114 116 118 120 122 124 126 128 130 132 134 136 138 140 142 144 146 148 150 152 154 156 158 160 162 164 166 168 170 172 174 176 178 180 182 184 186 188 190 192 194 196 198 200 202 204 206 208 210 212 214 216 218 220 222 224 226 228 230 232 234 236 238 240 242 244 246 248 250 252 254 
        </DataArray>
        <DataArray type="Int32" Name="types" format="ascii">
          3 3 3 3 3 3 3 3 3 3 3 3 3 3 3 3 3 3 3 3 3 3 3 3 3 3 3 3 3 3 3 3 3 3 3 3 3 3 3 3 3 3 3 3 3 3 3 3 3 3 3 3 3 3 3 3 3 3 3 3 3 3 3 3 3 3 3 3 3 3 3 3 3 3 3 3 3 3 3 3 3 3 3 3 3 3 3 3 3 3 3 3 3 3 3 3 3 3 3 3 3 3 3 3 3 3 3 3 3 3 3 3 3 3 3 3 3 3 3 3 3 3 3 3 3 3 3         </DataArray>
      </Cells>
    </Piece>
  </UnstructuredGrid>
</VTKFile>
