<?xml version="1.0"?>
<VTKFile type="UnstructuredGrid" version="0.1" byte_order="LittleEndian">
  <UnstructuredGrid>
    <Piece NumberOfPoints="128" NumberOfCells="127">
      <PointData Scalars="W">
        <DataArray type="Float32" Name="W" NumberOfComponents="2">
          0 0 -0.077345032791025448 -0.19280135922769215 -0.099688184537115615 -0.2471605655615042 -0.11247809283274308 -0.27709082080983766 -0.11883763707709065 -0.29074165686723447 -0.12008630751498797 -0.29172974962311049 -0.11704639060186751 -0.2823808241984288 -0.11030915207666744 -0.26438262206824986 -0.10032037423580509 -0.23899592991053881 -0.087405824213134864 -0.20712238627610777 -0.071857671607441248 -0.16951606727161012 -0.053931941224612923 -0.12678092502850913 -0.03386784399031352 -0.07942047206154261 -0.011866388944164195 -0.027791461195804248 0.011902558662225303 0.027876199812963395 0.037255658451506954 0.087373350634124256 0.063974286003803435 0.15045906298093112 0.091858627705958706 0.21698560282377402 0.12069727729849804 0.2868258321685323 0.15025064976186239 0.35983184205854996 0.18027667342279774 0.43589334224255699 0.21052920567313851 0.51493260407167862 0.24073220547714039 0.59683927083535415 0.2705886844328862 0.68148667066262103 0.29981893744236993 0.76882438642833784 0.32808641089380652 0.85868674140422452 0.35506638283383829 0.95095875750977599 0.38044911217684241 1.0455861556905048 0.4038851800083938 1.1424240964028134 0.42489591661601811 1.2409492541421274 0.44324273702231154 1.3413060020350713 0.45855928029323645 1.4432729006531937 0.47047606797525715 1.5465855902934917 0.47862887491965928 1.6509452825361965 0.48267175337150858 1.7560468143147292 0.48226211917626277 1.8615074239411369 0.47710370373785799 1.9670080738661919 0.46688564648595576 2.0720320884764321 0.45133993154610874 2.1760389809752492 0.43026984857468886 2.2785918351278895 0.40350913664078375 2.3791609616290037 0.37093895129810017 2.4771556917126571 -0.80313926720067808 -5.0156631830352039 -0.96828859857125094 -4.8225860430424321 -1.1133208956076748 -4.624567579864757 -1.2386006391511193 -4.422713351678766 -1.3807151379681124 -4.3249090441809406 -1.4762824221350326 -4.1192541963490283 -1.5871179424137902 -3.9935938139443801 -1.688925914383564 -3.8667013546137743 -1.7427570092035845 -3.6600827266927136 -1.8216585247796706 -3.5334866084690626 -1.8922170499515918 -3.406773777444942 -2.0009755026408556 -3.3553955073544497 -2.0600515989117496 -3.2268421552400484 -2.0083202951580694 -2.9525062548844883 -1.9309031664284664 -2.6797659078158458 -1.8910623804397215 -2.4891283981162 -1.8374646995295627 -2.3021870380048086 -1.6983973523682627 -2.0343535834918796 -1.6132809177709118 -1.8552385865899141 -1.5164504244758183 -1.6797741192767504 -1.320838013532462 -1.4153328022369409 -1.1955133706356991 -1.2445764323123845 -0.96378579657787933 -0.97913517661138472 -0.81305332084496607 -0.80976295479179194 -0.76233630240048456 -0.74612639475470455 -0.71148533099504441 -0.68517668594563186 -0.54805406723939576 -0.52058424331807474 -0.49330462344825898 -0.46331392057365284 -0.43615441653956416 -0.40554523072582305 -0.26347681984568261 -0.24314708525179513 -0.20603857306352361 -0.18918427626231837 -0.14677622723132389 -0.13426077732949221 0.031664505555958372 0.028928799358397976 0.089104141329043374 0.081511238091834345 0.14772730230208178 0.1354824527398697 0.20568078883245167 0.189349168960914 0.38323590787408174 0.35504805090004277 0.4384300376075238 0.40979814549148375 0.49227115769195207 0.46478282069038446 0.54272584804923996 0.51821988794362772 0.71670970393812061 0.69383930882738443 0.76337491820040415 0.75115449067514606 0.80768763783099751 0.80873470899835942 0.84771146534511965 0.86469067797994736 0.88680685835039519 0.92249152644248245 1.0445043799523903 1.1108261224173084 1.0728602267599718 1.1693629535347578 1.0994938124490166 1.2294779639167983 1.1225036994102808 1.2891154320617717 1.1417474200059965 1.3480281720755474 1.2714910292493549 1.5471924370818131 1.2784247238971853 1.6072852184052007 1.2810025219247185 1.6657467417428973 1.2775144186501171 1.7199308329477527 1.2712767844858746 1.7738506236906864 1.367522615876769 1.9828855660352946 1.3448717431070747 2.0319162865648837 1.3192454025273865 2.0792533709953536 1.2890904195422028 2.1219580940348659 1.3503602620342678 2.3284307618435345 1.3045870007614504 2.3637410490334259 1.2546949715443425 2.3922256115028651 1.288481725043165 2.5940837429047998 1.2232693460774782 2.6102437925552051 1.153700431154618 2.6139692158379297 1.1614336508857044 2.8060447620372413 1.0795324424692807 2.7942202593062389 1.0664619494867726 2.9727449919247606 0.97283994568095045 2.9373943951302257 0.8785973739903411 2.8834774076609495 0.8445812346684709 3.0341298590543317 0.74362391664972072 2.9477931126500714 0.69520390207840799 3.0693771588014562 0.63655597705820155 3.1799284583800356 0.5682255798893181 3.2769809032418076 0.45684833282454068 3.1016727681450895 0.26937127454425042 2.1367584948343654 0.23068190865316365 2.1171962328519744 0.16323210966783311 1.7458037978344128 0.12544264104294325 1.5618238475087272 0.10950279641455334 1.6178234143822359 0.073471248626297031 1.3101199604567544 0.065764386409222261 1.4571724571904785 0.05181099498346449 1.5600291313050845 0.041805552474703321 2.3518341072958213 0 0
        </DataArray>
        <DataArray type="Float32" Name="u" NumberOfComponents="1">
          0 0.007874015748031496 0.015748031496062992 0.023622047244094488 0.031496062992125984 0.03937007874015748 0.047244094488188976 0.055118110236220472 0.062992125984251968 0.070866141732283464 0.07874015748031496 0.086614173228346455 0.094488188976377951 0.10236220472440945 0.11023622047244094 0.11811023622047244 0.12598425196850394 0.13385826771653545 0.14173228346456693 0.14960629921259844 0.15748031496062992 0.16535433070866143 0.17322834645669291 0.18110236220472442 0.1889763779527559 0.19685039370078741 0.20472440944881889 0.2125984251968504 0.22047244094488189 0.2283464566929134 0.23622047244094488 0.24409448818897639 0.25196850393700787 0.25984251968503935 0.26771653543307089 0.27559055118110237 0.28346456692913385 0.29133858267716534 0.29921259842519687 0.30708661417322836 0.31496062992125984 0.32283464566929132 0.33070866141732286 0.33858267716535434 0.34645669291338582 0.3543307086614173 0.36220472440944884 0.37007874015748032 0.37795275590551181 0.38582677165354329 0.39370078740157483 0.40157480314960631 0.40944881889763779 0.41732283464566927 0.42519685039370081 0.43307086614173229 0.44094488188976377 0.44881889763779526 0.45669291338582679 0.46456692913385828 0.47244094488188976 0.48031496062992124 0.48818897637795278 0.49606299212598426 0.50393700787401574 0.51181102362204722 0.51968503937007871 0.52755905511811019 0.53543307086614178 0.54330708661417326 0.55118110236220474 0.55905511811023623 0.56692913385826771 0.57480314960629919 0.58267716535433067 0.59055118110236215 0.59842519685039375 0.60629921259842523 0.61417322834645671 0.62204724409448819 0.62992125984251968 0.63779527559055116 0.64566929133858264 0.65354330708661412 0.66141732283464572 0.6692913385826772 0.67716535433070868 0.68503937007874016 0.69291338582677164 0.70078740157480313 0.70866141732283461 0.71653543307086609 0.72440944881889768 0.73228346456692917 0.74015748031496065 0.74803149606299213 0.75590551181102361 0.76377952755905509 0.77165354330708658 0.77952755905511806 0.78740157480314965 0.79527559055118113 0.80314960629921262 0.8110236220472441 0.81889763779527558 0.82677165354330706 0.83464566929133854 0.84251968503937003 0.85039370078740162 0.8582677165354331 0.86614173228346458 0.87401574803149606 0.88188976377952755 0.88976377952755903 0.89763779527559051 0.90551181102362199 0.91338582677165359 0.92125984251968507 0.92913385826771655 0.93700787401574803 0.94488188976377951 0.952755905511811 0.96062992125984248 0.96850393700787396 0.97637795275590555 0.98425196850393704 0.99212598425196852 1
        </DataArray>
      </PointData>
      <CellData Scalars="P">
        <DataArray type="Float32" Name="P" NumberOfComponents="1">
          0.016978187988152239 0.051013492339433822 0.08510693593715786 0.11918063076579875 0.15313944624409914 0.18689194838418713 0.2203654515965546 0.25351702783552921 0.28634162754530995 0.31887841138131201 0.35121500420262175 0.38349036423630228 0.41589621451438297 0.4486781797704118 0.482136580059153 0.51662529954834413 0.55254842580103591 0.59035826418308524 0.63055144788415829 0.67366293857421466 0.72026064763125475 0.77093945129915231 0.82631213805561721 0.88699970058803757 0.95362494685641119 1.0267970321375535 1.1071024550441813 1.1950968986589545 1.2912886741780354 1.3961031737558764 1.5099090112528271 1.6329843767387953 1.7655012055739085 1.9075099929737152 2.0589269684712486 2.2195170316673956 2.3888875230606623 2.5664645721890804 2.7514832606749384 2.9429890009394182 3.139826772149346 3.340635098254809 3.027107847491914 2.7238540608691668 2.4306734987184386 2.1474591538484997 1.8660539467084387 1.5942528263138258 1.3257384414889719 1.0603378210250352 0.80445429668857205 0.55164671321415859 0.30190224725333004 0.048523733689174862 -0.20182674609484666 -0.43520264423479177 -0.65042438284221415 -0.85423724204959151 -1.0460373223730175 -1.2162426773927792 -1.3727685024897038 -1.5149187245493638 -1.631541562829131 -1.7318337794901864 -1.8037336724173487 -1.8573255817846768 -1.9045134777785504 -1.9453056892311378 -1.9668697864591556 -1.981870230349051 -1.9900981584848041 -1.9787685947344604 -1.9609968396827631 -1.9367016428612764 -1.8931735382913708 -1.8437965164810051 -1.788632899617387 -1.7279664516512943 -1.6498695194888759 -1.5672244842507095 -1.4804521496528258 -1.3901853430799043 -1.2851787204199181 -1.1779059538039471 -1.0689521224417897 -0.95907509609312214 -0.84874140020498345 -0.72885499184590852 -0.61045805405114728 -0.4941036423807767 -0.38047695097886214 -0.27024975250421002 -0.15698309649196709 -0.049051331705696213 0.05291158695934655 0.14824106297361389 0.23650062532558516 0.32129530990588395 0.39736301062825219 0.46443015657163877 0.52226341686347166 0.57201639623481937 0.61162829624914583 0.64119757962547641 0.66013415650518825 0.66889441543173833 0.66804605770301662 0.65531889138694899 0.63381925528431593 0.60034997169629756 0.55973594321882469 0.51346364070204698 0.45701385869785405 0.39776394837537921 0.33066915208295922 0.25696108288611558 0.17816692660368372 0.10432337426111431 0.061898722661738029 0.021724114413378747 -0.0045477394281765509 -0.022158306199265336 -0.036743497789693894 -0.038854067377677125 -0.037439492571951137 -0.029126778207433934 -0.015532581234031778
        </DataArray>
      </CellData>
      <Points>
        <DataArray type="Float32" NumberOfComponents="3" format="ascii">
          5.9703416843189725 10.523137601141556 0
          5.9776524400886437 10.520211726115781 0
          5.9849583934176209 10.517273898478598 0
          5.9922581548523279 10.51432074920279 0
          5.9995509282211019 10.511350423733123 0
          6.0068363166381928 10.508362076780315 0
          6.0141142405456032 10.505355648099735 0
          6.0213848866550217 10.502331718290199 0
          6.0286486712446505 10.499291404140616 0
          6.0359062124920957 10.496236280445611 0
          6.0431583102575006 10.493168324088467 0
          6.0504059279551141 10.49008986727334 0
          6.0576501766694015 10.487003560066588 0
          6.0648923003161546 10.483912339167107 0
          6.0721336631740872 10.480819405778123 0
          6.0793757393488645 10.477728211345855 0
          6.0866201014027297 10.4746424445868 0
          6.0938684067975144 10.471566016547804 0
          6.1011223855049543 10.468503051447243 0
          6.1083838268991002 10.465457878796093 0
          6.1156545649023855 10.462435024234278 0
          6.122936462978303 10.459439202702699 0
          6.1302313988722936 10.45647531363746 0
          6.1375412474993842 10.453548434144588 0
          6.1448678625333955 10.450663811166741 0
          6.1522130590678001 10.447826858381337 0
          6.1595785927518287 10.445043145956079 0
          6.1669661396596469 10.442318393451385 0
          6.1743772770875198 10.439658466489588 0
          6.1818134618897149 10.437069367812684 0
          6.1892760007991576 10.43455720487694 0
          6.1967660356312244 10.432128198847746 0
          6.2042845205627648 10.429788670916507 0
          6.2118321992146432 10.427545025958516 0
          6.2194095820563069 10.425403734057692 0
          6.2270169249393765 10.423371311636954 0
          6.2346542078350611 10.421454297777476 0
          6.2423211164381076 10.419659234488357 0
          6.2500170228605079 10.417992634720534 0
          6.2577409689759556 10.416460948901396 0
          6.2654916541795727 10.415070537887393 0
          6.2732674250297968 10.413827640159436 0
          6.2810662678247038 10.412738335230998 0
          6.288815327639754 10.411338012652587 0
          6.2965043617924952 10.409638643098399 0
          6.3041243748152711 10.407652504073406 0
          6.3116675959014614 10.405392111368215 0
          6.3191252129872426 10.402863528096937 0
          6.3264912975096266 10.400079506222694 0
          6.3337589762006363 10.397047836732012 0
          6.3409219355202664 10.393776387069522 0
          6.3479768347830765 10.390277969709409 0
          6.3549187808178553 10.386560434101167 0
          6.3617433977603755 10.38263163699594 0
          6.3684439429768611 10.378494762309295 0
          6.3750167524665153 10.374157780828652 0
          6.3814650293639756 10.369637706588023 0
          6.387793569653704 10.364951455469633 0
          6.3940048415022499 10.360110850939217 0
          6.4001021662580824 10.355127487548941 0
          6.4060941630819794 10.350017978377032 0
          6.4119861081163654 10.344793433249015 0
          6.4177840040068048 10.339464735724754 0
          6.4234999765148633 10.334048289291925 0
          6.4291417954266938 10.328554685663583 0
          6.4347238260940518 10.32300039027688 0
          6.4402554139626709 10.317395908627576 0
          6.4457397052396832 10.311745186771788 0
          6.4511798543862664 10.306052004004291 0
          6.4565859942337047 10.300326568577225 0
          6.4619615209510446 10.294572431163264 0
          6.4673099794583644 10.288793173249733 0
          6.472642075894389 10.28299886601325 0
          6.4779613730665373 10.277192854383904 0
          6.4832715467953514 10.271378542771876 0
          6.488583660626194 10.265566050274543 0
          6.4939012774553087 10.259758635534041 0
          6.4992280335132726 10.253959643218403 0
          6.5045675234995457 10.248172411408973 0
          6.5099307564152582 10.242407213211376 0
          6.515321156106431 10.236667440889837 0
          6.5207420625834214 10.230956501169022 0
          6.5261966059784173 10.22527770473271 0
          6.5316955747269532 10.219641938260285 0
          6.5372418644987746 10.214052752370764 0
          6.5428382252681496 10.208513714088431 0
          6.5484871412805106 10.203028289720809 0
          6.5541910394147367 10.197600059969895 0
          6.5599597004422847 10.192240698387563 0
          6.5657948863204316 10.186953831023104 0
          6.5716982525363905 10.181743181870132 0
          6.5776712302363229 10.17661244543844 0
          6.5837150174104782 10.171565271454893 0
          6.5898376651857129 10.166614004396921 0
          6.5960396097497354 10.161762367336824 0
          6.6023210176618541 10.157013982508344 0
          6.6086816797948966 10.152372207295246 0
          6.6151212170307847 10.147840383039892 0
          6.6216456086344291 10.143431467340001 0
          6.6282534596220248 10.13914849932773 0
          6.6349431910605858 10.134994413652914 0
          6.6417129437012514 10.130971858322868 0
          6.6485665332404 10.127093634747517 0
          6.6555011340582597 10.123361934080034 0
          6.6625136655803932 10.119778524991586 0
          6.6696062439599126 10.116355926163838 0
          6.6767748407043088 10.113095144320035 0
          6.6840151573486022 10.10999641598953 0
          6.6913276993538835 10.107071657933222 0
          6.6987074055582516 10.104320145158029 0
          6.7061534949554282 10.10175295840636 0
          6.7136601812533261 10.099367916821555 0
          6.7212216394327537 10.097161688747544 0
          6.7288357941888526 10.095143632899093 0
          6.7364964053879959 10.093308409683042 0
          6.74420050768025 10.091663580030135 0
          6.7519445042058814 10.090216024633174 0
          6.7597242004475193 10.088971791298905 0
          6.7675327136470518 10.087920028213031 0
          6.7753583755050553 10.087000866724999 0
          6.783198826944254 10.086213110133446 0
          6.7910498987593169 10.085533717577336 0
          6.7989092837349965 10.084951280175114 0
          6.8067760615244142 10.084469291976287 0
          6.814648041821517 10.084068657281051 0
          6.8225248532928884 10.083758529589192 0
          6.8304057594598939 10.08354532434625 0
          6.8382903919997231 10.083478296194416 0
        </DataArray>
      </Points>
      <Cells>
        <DataArray type="Int32" Name="connectivity" format="ascii">
          0 1 1 2 2 3 3 4 4 5 5 6 6 7 7 8 8 9 9 10 10 11 11 12 12 13 13 14 14 15 15 16 16 17 17 18 18 19 19 20 20 21 21 22 22 23 23 24 24 25 25 26 26 27 27 28 28 29 29 30 30 31 31 32 32 33 33 34 34 35 35 36 36 37 37 38 38 39 39 40 40 41 41 42 42 43 43 44 44 45 45 46 46 47 47 48 48 49 49 50 50 51 51 52 52 53 53 54 54 55 55 56 56 57 57 58 58 59 59 60 60 61 61 62 62 63 63 64 64 65 65 66 66 67 67 68 68 69 69 70 70 71 71 72 72 73 73 74 74 75 75 76 76 77 77 78 78 79 79 80 80 81 81 82 82 83 83 84 84 85 85 86 86 87 87 88 88 89 89 90 90 91 91 92 92 93 93 94 94 95 95 96 96 97 97 98 98 99 99 100 100 101 101 102 102 103 103 104 104 105 105 106 106 107 107 108 108 109 109 110 110 111 111 112 112 113 113 114 114 115 115 116 116 117 117 118 118 119 119 120 120 121 121 122 122 123 123 124 124 125 125 126 126 127 
        </DataArray>
        <DataArray type="Int32" Name="offsets" format="ascii">
          2 4 6 8 10 12 14 16 18 20 22 24 26 28 30 32 34 36 38 40 42 44 46 48 50 52 54 56 58 60 62 64 66 68 70 72 74 76 78 80 82 84 86 88 90 92 94 96 98 100 102 104 106 108 110 112 114 116 118 120 122 124 126 128 130 132 134 136 138 140 142 144 146 148 150 152 154 156 158 160 162 164 166 168 170 172 174 176 178 180 182 184 186 188 190 192 194 196 198 200 202 204 206 208 210 212 214 216 218 220 222 224 226 228 230 232 234 236 238 240 242 244 246 248 250 252 254 
        </DataArray>
        <DataArray type="Int32" Name="types" format="ascii">
          3 3 3 3 3 3 3 3 3 3 3 3 3 3 3 3 3 3 3 3 3 3 3 3 3 3 3 3 3 3 3 3 3 3 3 3 3 3 3 3 3 3 3 3 3 3 3 3 3 3 3 3 3 3 3 3 3 3 3 3 3 3 3 3 3 3 3 3 3 3 3 3 3 3 3 3 3 3 3 3 3 3 3 3 3 3 3 3 3 3 3 3 3 3 3 3 3 3 3 3 3 3 3 3 3 3 3 3 3 3 3 3 3 3 3 3 3 3 3 3 3 3 3 3 3 3 3         </DataArray>
      </Cells>
    </Piece>
  </UnstructuredGrid>
</VTKFile>
