<?xml version="1.0"?>
<VTKFile type="UnstructuredGrid" version="0.1" byte_order="LittleEndian">
  <UnstructuredGrid>
    <Piece NumberOfPoints="128" NumberOfCells="127">
      <PointData Scalars="W">
        <DataArray type="Float32" Name="W" NumberOfComponents="2">
          0 0 0.41856907231974044 0.23223964951750672 0.62527620458302668 0.34310193989129589 0.78490068979643057 0.42425852910445588 0.91879696873572048 0.48763720550473966 1.0356657432494674 0.53818068646717598 1.1401854700282952 0.57861953695574908 1.2351511827046773 0.61065302372427643 1.3223701831213821 0.63544247706626067 1.4030072292096218 0.6538070795249451 1.477909677080278 0.66639665583637919 1.54763982678641 0.67371630833782359 1.6125693181884155 0.6761795748426398 1.6729373434200367 0.67414110754329626 1.7288755804545752 0.66791284369320025 1.7804500202328115 0.65778518033132172 1.8277623355855963 0.64406489401143807 1.8708005062574966 0.62701975113549036 1.9095560315009801 0.60692413711565041 1.9440447021446232 0.58406287235898813 1.9742598943916212 0.5587142835485791 2.0001656405102088 0.53114946740906788 2.021737605320673 0.50164410923024405 2.0389659973526029 0.47047702985556977 2.0518234125771033 0.43792135421400769 2.0603660481665855 0.404264717763342 2.0645975031239119 0.36977694460588234 2.0644712717953291 0.33471546416336201 2.0600475706280861 0.29935147691751768 2.051721072538673 0.26398631437203929 2.0392059882683795 0.22881285334599441 2.0226029092597093 0.19407612635537988 2.0020223134755004 0.16000808667875249 1.9776009046710301 0.12682757168693687 1.9494779969595295 0.094736917176405006 1.9178242613260033 0.06392256090823048 1.8827088214253591 0.034550901929089946 1.8443742238180028 0.0067764004809927267 1.8031009947762664 -0.019271042903307941 1.7590382892069618 -0.043483311156571607 1.712380743048185 -0.065770592907797978 1.6633705045445941 -0.086064932783300824 -7.8961775295653744 0.2144060703926384 -7.8919254200326803 -0.27679211101261803 11.395714388938519 0.24231615777174886 11.303606520143299 -0.77281954195502511 11.120710754863827 -1.7631958304560209 10.850960969730302 -2.7205723190043303 10.499904758285984 -3.6375251527102743 10.072634726376039 -4.5070434749562285 9.5754064003192987 -5.3229451404327479 3.2377317058811279 -2.0553283387881276 3.122508474495485 -2.1160065671870667 2.812959154075632 -2.0255804313525299 2.8531497777565371 -2.1773898890516876 2.7391084492951747 -2.2144237129611009 2.6306427506464196 -2.2491098482549634 2.5209058162701266 -2.2759346884237086 2.2313601346139906 -2.1202388076587884 1.7680421425417667 -1.7553613167597097 1.5003307269765893 -1.5450765406422928 1.2331506040852618 -1.3101248732016346 0.769810793726592 -0.83704677641322767 0.51032757965665576 -0.56328824073431494 -0.21052431344272135 0.23319362651898914 -0.25794546535544244 0.28414735773514432 -0.3003666120277414 0.32871518005324374 -0.34869301978296918 0.37871787453356348 -0.64402543608316098 0.69146286063069995 -0.69666676530905702 0.73651066606357518 -0.75008567418703342 0.77999023964395531 -0.80422667639777745 0.82171398219349756 -1.1241143354949139 1.1240453230256757 -1.1795768252339813 1.1498177204768385 -1.2418028862896899 1.1788486232383661 -1.3047738124438522 1.2049957530808537 -1.3684770947670155 1.2282059596831572 -1.7257350489548671 1.4989691731699581 -1.7986792277248966 1.5056758167612638 -1.87196683625517 1.5083994713247169 -1.9453985871885984 1.5070415247084687 -2.0187725280252389 1.5015260645836626 -2.0918748765874717 1.4917923002074354 -2.4965944239891789 1.6988027459580211 -2.5782556859771879 1.665373310411322 -2.6587055395715611 1.6269649558704349 -2.7376477904698153 1.5836063174104182 -2.8147917086934529 1.5353545978624774 -2.8898430662549619 1.4822889079086905 -2.9625222291212769 1.4245184853949246 -3.4112524968136317 1.5256273977311843 -3.4870035952474003 1.4373744966791704 -3.5587424368173468 1.3442258505071816 -3.6261490604130686 1.2464270349354354 -3.68892038833713 1.1442500679476639 -3.7467778656596207 1.0379932152813482 -3.7995949069543413 0.92800670588424117 -4.2738144719760101 0.89732230346705721 -4.320005978388525 0.75263592372886712 -4.3589576755940938 0.60491481595788288 -4.3904472977591968 0.45464446953686649 -4.4142981017965166 0.30233007792240274 -4.4303685889077311 0.1484911940876901 -4.8794414273417939 -0.015443515775245326 -4.8780016483645579 -0.20306100341791017 -4.8581948591296564 -0.38958698716262957 -4.8369728399528613 -0.57535538462604729 -5.2548938600682655 -0.84010598692552518 -5.206334224514249 -1.0575730465949935 -5.1459627373600973 -1.2713002472049593 -5.5153223356891452 -1.6200939045164118 -5.4183234674039511 -1.8613882358590592 -5.3079311486312886 -2.0950859957790353 -5.6161649754441969 -2.525951824812612 -5.4590975571136644 -2.7801363863489761 -5.7105439602959605 -3.277899272227617 -5.4892864283097467 -3.5397251503388363 -5.6754779636613462 -4.103800000170712 -5.7983902289930507 -4.7184502697986748 -5.8825632116369846 -5.4146321855601034 -5.8565729071654822 -6.1386435262631762 -4.3177069654562281 -5.1039718005037056 -4.0770085874327693 -5.3714463922541373 -4.1664212971877577 -6.178019552835595 -3.3319272839953991 -5.5788412696187502 -2.2619131414230229 -4.1999786506640397 -1.458472690086055 -2.9264157963799602 0 0
        </DataArray>
        <DataArray type="Float32" Name="u" NumberOfComponents="1">
          0 0.007874015748031496 0.015748031496062992 0.023622047244094488 0.031496062992125984 0.03937007874015748 0.047244094488188976 0.055118110236220472 0.062992125984251968 0.070866141732283464 0.07874015748031496 0.086614173228346455 0.094488188976377951 0.10236220472440945 0.11023622047244094 0.11811023622047244 0.12598425196850394 0.13385826771653545 0.14173228346456693 0.14960629921259844 0.15748031496062992 0.16535433070866143 0.17322834645669291 0.18110236220472442 0.1889763779527559 0.19685039370078741 0.20472440944881889 0.2125984251968504 0.22047244094488189 0.2283464566929134 0.23622047244094488 0.24409448818897639 0.25196850393700787 0.25984251968503935 0.26771653543307089 0.27559055118110237 0.28346456692913385 0.29133858267716534 0.29921259842519687 0.30708661417322836 0.31496062992125984 0.32283464566929132 0.33070866141732286 0.33858267716535434 0.34645669291338582 0.3543307086614173 0.36220472440944884 0.37007874015748032 0.37795275590551181 0.38582677165354329 0.39370078740157483 0.40157480314960631 0.40944881889763779 0.41732283464566927 0.42519685039370081 0.43307086614173229 0.44094488188976377 0.44881889763779526 0.45669291338582679 0.46456692913385828 0.47244094488188976 0.48031496062992124 0.48818897637795278 0.49606299212598426 0.50393700787401574 0.51181102362204722 0.51968503937007871 0.52755905511811019 0.53543307086614178 0.54330708661417326 0.55118110236220474 0.55905511811023623 0.56692913385826771 0.57480314960629919 0.58267716535433067 0.59055118110236215 0.59842519685039375 0.60629921259842523 0.61417322834645671 0.62204724409448819 0.62992125984251968 0.63779527559055116 0.64566929133858264 0.65354330708661412 0.66141732283464572 0.6692913385826772 0.67716535433070868 0.68503937007874016 0.69291338582677164 0.70078740157480313 0.70866141732283461 0.71653543307086609 0.72440944881889768 0.73228346456692917 0.74015748031496065 0.74803149606299213 0.75590551181102361 0.76377952755905509 0.77165354330708658 0.77952755905511806 0.78740157480314965 0.79527559055118113 0.80314960629921262 0.8110236220472441 0.81889763779527558 0.82677165354330706 0.83464566929133854 0.84251968503937003 0.85039370078740162 0.8582677165354331 0.86614173228346458 0.87401574803149606 0.88188976377952755 0.88976377952755903 0.89763779527559051 0.90551181102362199 0.91338582677165359 0.92125984251968507 0.92913385826771655 0.93700787401574803 0.94488188976377951 0.952755905511811 0.96062992125984248 0.96850393700787396 0.97637795275590555 0.98425196850393704 0.99212598425196852 1
        </DataArray>
      </PointData>
      <CellData Scalars="P">
        <DataArray type="Float32" Name="P" NumberOfComponents="1">
          0.014836367495025248 0.045304930130489814 0.077298266987199049 0.11120676608125732 0.14725602637121599 0.18555459969949784 0.22611890851136635 0.26888814799136829 0.31373483930003604 0.36047227643738639 0.40886186489083154 0.45861872626294325 0.50941710843591748 0.56089578573679522 0.61266340063465596 0.66430418757858389 0.71538484812250747 0.76545955840558222 0.81407643687014331 0.86078410137114547 0.90513762495973871 0.946704443917747 0.98507052018095553 1.0198462676062305 1.0506721352300346 1.0772239937811117 1.0992178591339732 1.116414824943383 1.1286250014042187 1.1357074755725554 1.1375786175466491 1.1342120702029528 1.1256401538812302 1.1119542465709842 1.0933047691303059 1.069899798177115 1.0420063956018946 1.0099441672413876 0.97408043847191539 0.93483042091773505 0.89265167684507218 0.8480373885763639 1.2031239246544669 1.5633183323545221 1.0895140307771427 0.59887669591927628 0.090618534908030943 -0.43549221422556411 -0.97914898650916316 -1.539434840703487 -2.1148489239424832 -2.3007333628283089 -2.4916137053072096 -2.6712741975807623 -2.8651669643013018 -3.0604109276267542 -3.2564245710511073 -3.4520977623389126 -3.62923481446466 -3.7682277058969076 -3.8854337625840589 -3.9789717480818085 -4.0264181284787819 -4.0475805651157675 -3.9921568682229318 -3.932108725756541 -3.868165791316621 -3.7999359435843814 -3.7020649484473909 -3.6006279001826527 -3.4960113135812008 -3.3886245642308936 -3.2539291698659296 -3.1183241411617271 -2.981777770893939 -2.8448155794336891 -2.7079463794656817 -2.5490580705288637 -2.391957159354233 -2.2371971869840053 -2.0852997700131675 -1.93675053387747 -1.7919962607428006 -1.6332426816061181 -1.4799597716638908 -1.332546663185272 -1.1913457793869124 -1.0566415910413169 -0.92866052991089731 -0.80757090119505293 -0.68154947579459546 -0.5635883101164112 -0.4537542566000381 -0.35204944663129084 -0.25841418005548239 -0.1727302766580989 -0.094822984679983083 -0.018536023849276186 0.049525832993318059 0.10962825244968098 0.1620879030232335 0.20726702424015353 0.24556767680998623 0.27892693378356265 0.30556504346397312 0.32593425591496861 0.3405458697406672 0.3492030603531931 0.35256314671631045 0.3511630227539822 0.34357364901679033 0.3319029026587344 0.31674723450826536 0.29577602151722304 0.27228207757512546 0.24350812741244607 0.2134759708931688 0.17909617881404044 0.1410430107003269 0.099827384218915294 0.056753091850678276 0.028490558529947523 0.0035960753138781732 -0.016089946919093927 -0.024658011586220246 -0.020759130795454505 -0.0084412361853116961
        </DataArray>
      </CellData>
      <Points>
        <DataArray type="Float32" NumberOfComponents="3" format="ascii">
          3.9029186579659085 7.6457905731210989 0
          3.8990854742217533 7.6526685929592704 0
          3.8952782419193523 7.6595610118175941 0
          3.891509777017617 7.6664747031688192 0
          3.8877899763502288 7.6734146986786174 0
          3.8841271416040399 7.6803849277412448 0
          3.8805285187617211 7.6873885239342767 0
          3.8770005881636811 7.6944279943185343 0
          3.8735492377968597 7.7015053247975729 0
          3.8701798753436147 7.708622052125838 0
          3.8668975003925552 7.715779314704716 0
          3.8637067569703669 7.722977892879805 0
          3.8606119684002396 7.730218240266904 0
          3.8576171603396667 7.7375005094026728 0
          3.8547260756070143 7.7448245737461425 0
          3.851942182342968 7.7521900470336673 0
          3.849268678100378 7.7595963013002347 0
          3.8467084961476194 7.7670424859180844 0
          3.8442643047244047 7.7745275442183912 0
          3.8419385065174674 7.7820502305249208 0
          3.8397332396441515 7.7896091278361101 0
          3.8376503772482797 7.7972026651057691 0
          3.8356915252787842 7.8048291340765932 0
          3.8338580209917348 7.8124867063989445 0
          3.8321509323562717 7.8201734509445515 0
          3.8305710563707289 7.8278873507672939 0
          3.8291189225641213 7.8356263209635619 0
          3.8277947932384873 7.8433882254279297 0
          3.8265986606064302 7.8511708928396997 0
          3.8255302505469229 7.8589721335022746 0
          3.8245890470989052 7.8667897580494319 0
          3.8237742747665204 7.8746215894258444 0
          3.8230849047805164 7.8824654780995527 0
          3.8225196619725219 7.8903193164616132 0
          3.8220770332747844 7.8981810524105063 0
          3.8217552763806713 7.906048701911379 0
          3.8215524303477992 7.9139203605672757 0
          3.8214663199026706 7.9217942139457147 0
          3.8214945704954952 7.929668547162807 0
          3.8216346257071145 7.9375417529424244 0
          3.8218837565067845 7.9454123383226252 0
          3.8222390733260703 7.953278930225256 0
          3.8226975410747039 7.961140279668335 0
          3.8226663546174668 7.9690150468587024 0
          3.8221457533263345 7.9768727868763412 0
          3.822331867383518 7.9847456846979519 0
          3.8232190214002064 7.9925707956477821 0
          3.8247959131135518 8.0002867051273263 0
          3.8270458566704604 8.0078340389831144 0
          3.8299471258954925 8.0151559233604743 0
          3.8334732692315803 8.0221984190086744 0
          3.8375934967303933 8.0289109043375539 0
          3.8419145016339473 8.0354957849886421 0
          3.8464291316333679 8.0419493097674408 0
          3.8511181751848595 8.0482770910939347 0
          3.85598412725972 8.0544697311888935 0
          3.8610199119541599 8.060524943889547 0
          3.8662188002086775 8.0664405882525685 0
          3.8715739847974451 8.0722150102192387 0
          3.877067500371429 8.0778578683533322 0
          3.8826705984217695 8.0833917877897807 0
          3.8883666704778976 8.0888298128049758 0
          3.8941391422645713 8.0941865168928544 0
          3.8999592693491865 8.0994912340943301 0
          3.9058109592633961 8.1047609438857755 0
          3.9116494979491492 8.110045027253328 0
          3.9174719565041429 8.1153466530653446 0
          3.9232757157117746 8.1206685937122796 0
          3.929057789488648 8.1260139578606303 0
          3.9347998713007475 8.1314021406109482 0
          3.9404987080748657 8.1368359429810795 0
          3.946150997726027 8.1423180683101464 0
          3.9517533925699317 8.1478511106345231 0
          3.957286065644618 8.1534538195644828 0
          3.9627455870455783 8.1591278002938932 0
          3.9681281063982596 8.1648748596118406 0
          3.9734297260838947 8.1706966251022752 0
          3.9786465020259674 8.1765945418177903 0
          3.983756289630429 8.182585403876443 0
          3.9887545706534362 8.1886696334750138 0
          3.9936368043719681 8.1948474053309948 0
          3.9983984399967989 8.201118640509609 0
          4.0030349292625766 8.207483001661469 0
          4.007541739762539 8.2139398892026438 0
          4.011893780206865 8.2205021468317838 0
          4.016085985773632 8.2271677057924197 0
          4.0201133658490322 8.233934187734004 0
          4.0239710225263723 8.2407989064467468 0
          4.027654168773271 8.2477588713829579 0
          4.03115814682024 8.2548107925529095 0
          4.034478445646414 8.261951087306084 0
          4.0375872395527823 8.2691860336183822 0
          4.0404798258228363 8.276510158148433 0
          4.0431517504780166 8.2839176829726213 0
          4.0455988282777984 8.2914025408791083 0
          4.0478171616610403 8.2989583923214969 0
          4.0498031581518132 8.3065786440184048 0
          4.0515535383243853 8.3142564707950459 0
          4.0530388931407488 8.321989977970274 0
          4.0542563537608229 8.3297701883037316 0
          4.0552035009943177 8.3375879359351259 0
          4.0558783791396378 8.345433896655301 0
          4.0562795069715341 8.3532986194026329 0
          4.0564058865148027 8.3611725586485299 0
          4.0562296673102924 8.3690455574571789 0
          4.0557509370140821 8.3769059761480769 0
          4.0549709230017097 8.3847422427848812 0
          4.0538909409722139 8.3925428331801886 0
          4.0524850703021782 8.4002913406273088 0
          4.0507563208793149 8.4079742762123821 0
          4.0487084352918128 8.4155783836322602 0
          4.0463185005309068 8.423082046121344 0
          4.0435925281243881 8.4304702989764309 0
          4.0405373597040297 8.4377286493961652 0
          4.0371338657692135 8.4448303929065975 0
          4.0333917775971164 8.4517597672148206 0
          4.029295478193605 8.4584859199701903 0
          4.0248586719886834 8.4649926151021564 0
          4.0200697746278209 8.4712448875875062 0
          4.0149211136195211 8.4772046335557611 0
          4.0094074009089944 8.4828286896390335 0
          4.0035301606209535 8.4880721580534537 0
          3.9973848476499971 8.4929991638213469 0
          3.9909863114146313 8.4975931167799672 0
          3.9843298273214423 8.5018034184124094 0
          3.9774671325784827 8.5056673763210515 0
          3.9704645653752881 8.5092706136969216 0
          3.9633718830605091 8.5126921990473665 0
        </DataArray>
      </Points>
      <Cells>
        <DataArray type="Int32" Name="connectivity" format="ascii">
          0 1 1 2 2 3 3 4 4 5 5 6 6 7 7 8 8 9 9 10 10 11 11 12 12 13 13 14 14 15 15 16 16 17 17 18 18 19 19 20 20 21 21 22 22 23 23 24 24 25 25 26 26 27 27 28 28 29 29 30 30 31 31 32 32 33 33 34 34 35 35 36 36 37 37 38 38 39 39 40 40 41 41 42 42 43 43 44 44 45 45 46 46 47 47 48 48 49 49 50 50 51 51 52 52 53 53 54 54 55 55 56 56 57 57 58 58 59 59 60 60 61 61 62 62 63 63 64 64 65 65 66 66 67 67 68 68 69 69 70 70 71 71 72 72 73 73 74 74 75 75 76 76 77 77 78 78 79 79 80 80 81 81 82 82 83 83 84 84 85 85 86 86 87 87 88 88 89 89 90 90 91 91 92 92 93 93 94 94 95 95 96 96 97 97 98 98 99 99 100 100 101 101 102 102 103 103 104 104 105 105 106 106 107 107 108 108 109 109 110 110 111 111 112 112 113 113 114 114 115 115 116 116 117 117 118 118 119 119 120 120 121 121 122 122 123 123 124 124 125 125 126 126 127 
        </DataArray>
        <DataArray type="Int32" Name="offsets" format="ascii">
          2 4 6 8 10 12 14 16 18 20 22 24 26 28 30 32 34 36 38 40 42 44 46 48 50 52 54 56 58 60 62 64 66 68 70 72 74 76 78 80 82 84 86 88 90 92 94 96 98 100 102 104 106 108 110 112 114 116 118 120 122 124 126 128 130 132 134 136 138 140 142 144 146 148 150 152 154 156 158 160 162 164 166 168 170 172 174 176 178 180 182 184 186 188 190 192 194 196 198 200 202 204 206 208 210 212 214 216 218 220 222 224 226 228 230 232 234 236 238 240 242 244 246 248 250 252 254 
        </DataArray>
        <DataArray type="Int32" Name="types" format="ascii">
          3 3 3 3 3 3 3 3 3 3 3 3 3 3 3 3 3 3 3 3 3 3 3 3 3 3 3 3 3 3 3 3 3 3 3 3 3 3 3 3 3 3 3 3 3 3 3 3 3 3 3 3 3 3 3 3 3 3 3 3 3 3 3 3 3 3 3 3 3 3 3 3 3 3 3 3 3 3 3 3 3 3 3 3 3 3 3 3 3 3 3 3 3 3 3 3 3 3 3 3 3 3 3 3 3 3 3 3 3 3 3 3 3 3 3 3 3 3 3 3 3 3 3 3 3 3 3         </DataArray>
      </Cells>
    </Piece>
  </UnstructuredGrid>
</VTKFile>
