<?xml version="1.0"?>
<VTKFile type="UnstructuredGrid" version="0.1" byte_order="LittleEndian">
  <UnstructuredGrid>
    <Piece NumberOfPoints="128" NumberOfCells="127">
      <PointData Scalars="W">
        <DataArray type="Float32" Name="W" NumberOfComponents="2">
          0 0 0.79938089569274118 0.068800764330788966 1.1882292366953133 0.092874977377255322 1.4809792532445778 0.10006821796808568 1.7216168170817179 0.094495714557754878 1.9281421219401309 0.07802720187975512 2.1101489883810811 0.051785191655432876 2.2733986586547443 0.016535225179757491 2.4216439433629873 -0.027158044740037308 2.5573867711146789 -0.078855027389983151 2.6824294305291763 -0.13819988875257769 2.7980378623040889 -0.20489500088466239 2.9051223893986222 -0.27868356250868709 3.0042895837210524 -0.35933164386333777 3.0959318270706087 -0.44661623748289836 3.180324418763167 -0.54032385084389978 3.2577049262997608 -0.64025881052837519 3.3281383753148881 -0.74621339781987128 3.3916503785260441 -0.85798115191919577 3.4482485160310747 -0.97536126313098825 3.4978743650364827 -1.0981439153806514 3.540413084710929 -1.2261051028307959 3.5757307286968278 -1.359013112860801 3.6036885274326171 -1.4966328458891309 3.6240854207920563 -1.6386995565893701 3.6367825250282872 -1.784969545967771 3.6415663578968971 -1.9351603587526023 3.6381632490713947 -2.0889419139130605 3.6263645771976249 -2.2460000109475082 3.6062245299881996 -2.4061895048956199 3.5772220109513073 -2.5689922409278259 3.5391416067548866 -2.7340419429149141 3.4917556647759049 -2.9009428343469938 3.4348594346257149 -3.0692947802338097 3.3682356614644497 -3.2386631408181881 3.2916833474904874 -3.4085998944033515 3.2049550095062864 -3.5785722284864501 3.1079106966658423 -3.7481219017510345 3.0004280632393394 -3.9167923795845456 2.8823058435858648 -4.0839927795035367 2.7533838099600563 -4.2491230390238162 2.6135494936821622 -4.4115932048190674 -1.6712977373560156 2.8674780420139214 -1.6817301801641138 2.7222930044091638 -1.6815757817974684 2.5773370559156938 -1.7049634170509569 2.481137066751375 -1.6884322101217719 2.3388685490772865 -1.6625376259543161 2.1984209840025635 -1.6676630843660158 2.1096199287213988 -1.6288696701754461 1.9752253306827576 -1.5823365447641089 1.8437757610051333 -1.5289132575606381 1.7158418969369904 -1.5168323898909437 1.6423022083438152 -1.4040222669268985 1.4698189209192167 10.301986083933812 -12.031590965341492 8.75663255818524 -13.277003502202431 -1.2210646285269231 2.0844961970374194 -1.2889468826769748 2.1064127788462228 -1.3018348171343244 2.038305158718932 -1.3120021596149578 1.9713232779593062 -1.3193954993738406 1.905274280304577 -1.3248089376531502 1.8411627364171244 -1.2970605339015884 1.7377509162792337 -1.2973325024086511 1.6782267217748796 -1.2629250501926861 1.5797696218647543 -1.2588850804052678 1.5248498599412632 -1.2538766363375606 1.4720179520324861 -1.2481210436391428 1.4213316452300764 -1.2418180565196926 1.3728165473046117 -1.2351644470680136 1.3264907028285116 -1.2287572055598064 1.2827804369271287 -1.2219711919534597 1.2408286357746521 -1.2535137674369403 1.2382228297365023 -1.248261976258612 1.1995696054336009 -1.2434736692703645 1.1630452130785933 -1.2392966860384109 1.1286084212761052 -1.2363503576497101 1.0966316877158844 -1.2338540599306891 1.0662406745065014 -1.2323901555850532 1.0377979169494491 -1.2320833465509269 1.0112450545175573 -1.2330455560092428 0.98651427650508339 -1.2762137654948269 0.99496408453047114 -1.2808455378144827 0.97266972839779331 -1.2870502294852597 0.9519842112477912 -1.2949304857206707 0.9328290612838076 -1.3045846706644539 0.91512188150165541 -1.3161009508369537 0.89877206047070168 -1.3712420391031361 0.9109987109745159 -1.3874770511532168 0.89603782842086666 -1.4058371406654284 0.88213777957889872 -1.4264137606714211 0.8691951192396683 -1.4492980308746404 0.85710174147098095 -1.5165228329672904 0.86941786483561923 -1.5449406453988974 0.85752310925632735 -1.5759416685530141 0.84609157137452473 -1.6096199557203388 0.83498572828155171 -1.6878794757030371 0.84460322784422293 -1.7278483000032894 0.83247226059253754 -1.7708190371497639 0.82017415747994649 -1.8169137446011787 0.80753484552233257 -1.9073026632489387 0.81144257579534418 -1.9606711785403292 0.7962203933445664 -2.0176271751428128 0.78001456745969511 -2.0783660035909528 0.76259404114200424 -2.1436821470312015 0.74390056647574332 -2.2126891366764223 0.72325122463190894 -2.2862444047633566 0.70055502627798305 -2.3646788815726967 0.67547103218119764 -2.4490264659621319 0.64778087452369559 -2.5385307783882731 0.61671313379914794 -2.5902959037396327 0.57269830104857222 -2.6934302612379746 0.53571835465509088 -2.803871030491353 0.49376502929937088 -2.8778884247306697 0.43978466283002482 -3.0074528949491071 0.38780441678354677 -3.1019764471560292 0.3238402916658219 -3.2588182764387099 0.25755932266898574 4.5929437258463848 -0.38740339929232631 5.2204145605093286 -0.64541816952151487 5.5103324638375843 -0.92163256214380551 6.1141517818484363 -1.3182257970800126 6.7179446915295333 -1.8187507028039589 7.2623726700643942 -2.4224291530800008 6.7813882736349242 -2.7154409783267144 5.9355694176086411 -2.7612164141327922 4.8295905434337083 -2.5307523014800455 0.70138629410692588 -0.38984408777002694 0 0
        </DataArray>
        <DataArray type="Float32" Name="u" NumberOfComponents="1">
          0 0.007874015748031496 0.015748031496062992 0.023622047244094488 0.031496062992125984 0.03937007874015748 0.047244094488188976 0.055118110236220472 0.062992125984251968 0.070866141732283464 0.07874015748031496 0.086614173228346455 0.094488188976377951 0.10236220472440945 0.11023622047244094 0.11811023622047244 0.12598425196850394 0.13385826771653545 0.14173228346456693 0.14960629921259844 0.15748031496062992 0.16535433070866143 0.17322834645669291 0.18110236220472442 0.1889763779527559 0.19685039370078741 0.20472440944881889 0.2125984251968504 0.22047244094488189 0.2283464566929134 0.23622047244094488 0.24409448818897639 0.25196850393700787 0.25984251968503935 0.26771653543307089 0.27559055118110237 0.28346456692913385 0.29133858267716534 0.29921259842519687 0.30708661417322836 0.31496062992125984 0.32283464566929132 0.33070866141732286 0.33858267716535434 0.34645669291338582 0.3543307086614173 0.36220472440944884 0.37007874015748032 0.37795275590551181 0.38582677165354329 0.39370078740157483 0.40157480314960631 0.40944881889763779 0.41732283464566927 0.42519685039370081 0.43307086614173229 0.44094488188976377 0.44881889763779526 0.45669291338582679 0.46456692913385828 0.47244094488188976 0.48031496062992124 0.48818897637795278 0.49606299212598426 0.50393700787401574 0.51181102362204722 0.51968503937007871 0.52755905511811019 0.53543307086614178 0.54330708661417326 0.55118110236220474 0.55905511811023623 0.56692913385826771 0.57480314960629919 0.58267716535433067 0.59055118110236215 0.59842519685039375 0.60629921259842523 0.61417322834645671 0.62204724409448819 0.62992125984251968 0.63779527559055116 0.64566929133858264 0.65354330708661412 0.66141732283464572 0.6692913385826772 0.67716535433070868 0.68503937007874016 0.69291338582677164 0.70078740157480313 0.70866141732283461 0.71653543307086609 0.72440944881889768 0.73228346456692917 0.74015748031496065 0.74803149606299213 0.75590551181102361 0.76377952755905509 0.77165354330708658 0.77952755905511806 0.78740157480314965 0.79527559055118113 0.80314960629921262 0.8110236220472441 0.81889763779527558 0.82677165354330706 0.83464566929133854 0.84251968503937003 0.85039370078740162 0.8582677165354331 0.86614173228346458 0.87401574803149606 0.88188976377952755 0.88976377952755903 0.89763779527559051 0.90551181102362199 0.91338582677165359 0.92125984251968507 0.92913385826771655 0.93700787401574803 0.94488188976377951 0.952755905511811 0.96062992125984248 0.96850393700787396 0.97637795275590555 0.98425196850393704 0.99212598425196852 1
        </DataArray>
      </PointData>
      <CellData Scalars="P">
        <DataArray type="Float32" Name="P" NumberOfComponents="1">
          -0.015290027550057197 -0.043645019257080912 -0.067887699432741241 -0.087105113885968075 -0.1007679174803847 -0.10856272985637937 -0.11030971602410707 -0.1059156923133191 -0.095344191444901624 -0.078596508846544913 -0.055696898874818046 -0.026683011955669762 0.0084014796483610835 0.049511342784144471 0.09660321037471338 0.14963920725436344 0.20859125013997359 0.27344074389866391 0.3441806658194127 0.42081767356829514 0.503372269136246 0.59187859939942344 0.68638493111197563 0.7869542930440655 0.89366276009180257 1.0066019065248419 1.125876078750609 1.2515994795480097 1.3838979904602084 1.5229206192301903 1.6688132123303263 1.8217300589397818 1.9818318068738336 2.1492849418814144 2.3242592136133511 2.5069263573679437 2.6974544504333919 2.8960118505274779 3.1027662246378314 3.3178756248149059 3.5414871643673096 3.7737365628236597 3.5789679240228764 3.3825286818576799 3.1866676326878012 2.9898577861979851 2.7971909485590092 2.6102563680575561 2.4264250531174536 2.2505729847143954 2.0836404278189145 1.9263291514173935 1.7749228810537663 1.6382121017561373 2.4803637615935035 3.2735603915331422 3.129752052776781 2.9824112855389293 2.8376084738972196 2.6959165460589207 2.5578540738823494 2.4238126334356083 2.2967139841265833 2.1742102611077119 2.0590069900551402 1.948698273614722 1.8433662989079873 1.7430507155163728 1.6477548456609561 1.5574503175127752 1.4720603619617652 1.3915298689335747 1.3140519528366166 1.2413519086387372 1.1733173610342491 1.1098275171763294 1.0507415877090058 0.99594515771589864 0.94530758846183738 0.89869927443745501 0.85599336475370136 0.8165307144779117 0.78085610553252482 0.74886091040122915 0.72044264483088627 0.69550534221441407 0.67395970194647958 0.65588227818318046 0.64114452912637698 0.62967793326411692 0.62141980612915704 0.61631280593030868 0.61491736690095211 0.61665557601190246 0.62148350880859649 0.62936043026351129 0.64112414339706558 0.65592631779514743 0.67373388211963514 0.69451563163865848 0.71928179874775111 0.74700911039172724 0.77767392502251087 0.81125596488551355 0.84775509379999603 0.88714458471560043 0.92941993656852695 0.97458473539216683 1.0226717685177638 1.0736914662240757 1.1263929788380855 1.1821552690915267 1.2410519298662657 1.3018773230984653 1.3661416558021371 1.4326962619019601 1.5032497384737171 1.3435937645155518 1.1636785751577479 0.97613661337156787 0.7755617238231568 0.567622568000693 0.3774809271596426 0.21950294634058404 0.10299913654245105 0.028940556889480707 0.0088865271192568266
        </DataArray>
      </CellData>
      <Points>
        <DataArray type="Float32" NumberOfComponents="3" format="ascii">
          3.8116160666590937 7.3749206282930695 0
          3.8109160036536069 7.3827643822784905 0
          3.8102655144811557 7.3906123957033074 0
          3.8096887134066373 7.398466158325431 0
          3.8092037548924029 7.4063261142826331 0
          3.8088255614423066 7.4141919167455761 0
          3.8085669399259197 7.4220625436404575 0
          3.8084391765732892 7.4299363671397547 0
          3.8084523942871984 7.4378112010630497 0
          3.808615785398672 7.4456843358445646 0
          3.8089377668460829 7.453552565759237 0
          3.8094260919634158 7.4614122109635019 0
          3.8100879290047653 7.4692591359321465 0
          3.8109299176132763 7.4770887653671592 0
          3.8119582064513855 7.4848960986908333 0
          3.8131784775466318 7.4926757238633872 0
          3.8145959633751354 7.5004218306118329 0
          3.8162154616035786 7.5081282225548058 0
          3.8180413391300694 7.5157883300750594 0
          3.8200775336795543 7.5233952231144663 0
          3.8223275542796964 7.5309416236190518 0
          3.8247944776426093 7.5384199185429059 0
          3.8274809410468911 7.5458221737323194 0
          3.8303891340338247 7.5531401482881604 0
          3.8335207898034329 7.5603653091385912 0
          3.836877172746862 7.5674888474504609 0
          3.8404590698333787 7.5745016937360132 0
          3.8442667773705859 7.5813945353633203 0
          3.8483000840315276 7.5881578370204732 0
          3.8525582579146693 7.5947818601955781 0
          3.8570400498998074 7.6012566721742987 0
          3.8617436613300571 7.6075721781683834 0
          3.8666667306486122 7.6137181440270538 0
          3.8718063192760002 7.61968422077857 0
          3.8771588989070573 7.6254599694430505 0
          3.8827203380322199 7.631034887986031 0
          3.8884858894667205 7.6363984391029947 0
          3.8944501749972469 7.6415400832629663 0
          3.9006071766967554 7.6464493071293163 0
          3.906950229331307 7.6511156518761352 0
          3.9134720078737315 7.6555287498368232 0
          3.9201645175628226 7.6596783617233406 0
          3.9270190869250987 7.6635544132199982 0
          3.9337699836871431 7.6676082508161185 0
          3.9404165629226791 7.6718308691091153 0
          3.94695883629824 7.6762132772649032 0
          3.9533953568419729 7.6807495087338484 0
          3.9597271518305299 7.685430740082773 0
          3.9659558292125641 7.690248261194828 0
          3.9720810744923041 7.6951965653992547 0
          3.9781052954731124 7.7002673186990265 0
          3.9840313799025959 7.7054523701293416 0
          3.9898626427884287 7.7107437871531914 0
          3.995599836474125 7.7161370108459835 0
          4.0012499574566345 7.7216213467402959 0
          4.0075388179728257 7.7263597007816704 0
          4.0143706026881496 7.7302748559404861 0
          4.0211266629970046 7.7343192434863974 0
          4.027802793139049 7.7384942229112026 0
          4.0343981960392989 7.7427955716682737 0
          4.040912243227571 7.7472191371564412 0
          4.0473444781437742 7.7517608247503009 0
          4.0536945669047455 7.7564166600767432 0
          4.0599642314378279 7.7611802321309904 0
          4.0661534565421036 7.7660478512383682 0
          4.0722643769853848 7.7710134139157159 0
          4.0782972447980992 7.7760735162076013 0
          4.0842523719546495 7.7812248836774653 0
          4.0901301166490418 7.7864643749747522 0
          4.0959308709082807 7.7917889834095364 0
          4.1016550483909633 7.7971958380584363 0
          4.1073030473706957 7.8026822301825591 0
          4.1128752894970226 7.8082455600767267 0
          4.1183698196803915 7.8138856672653318 0
          4.1237869641606268 7.8196001564633653 0
          4.1291270203348365 7.8253867643472148 0
          4.1343902475916741 7.8312433569882787 0
          4.1395768289086776 7.8371679529317309 0
          4.1446869192603861 7.843158668985855 0
          4.1497206095091297 7.8492137426877449 0
          4.1546779186749836 7.8553315286773113 0
          4.1595587869984243 7.8615104944861383 0
          4.16436053730816 7.8677511642757878 0
          4.1690828820948793 7.8740521563971697 0
          4.1737254362397938 7.8804121888560088 0
          4.178287710654085 7.8868300744437025 0
          4.1827691061841827 7.8933047156255833 0
          4.1871689081498342 7.8998350989207831 0
          4.1914836964015025 7.9064219818664041 0
          4.1957124635388201 7.9130644368295213 0
          4.1998540703506348 7.9197616018457815 0
          4.2039072401510689 7.926512674206835 0
          4.2078705531366403 7.933316903759648 0
          4.2117398396567101 7.9401750529365058 0
          4.2155133367654081 7.947086383659161 0
          4.2191891213420289 7.954050186481469 0
          4.2227651042676522 7.9610657720684737 0
          4.2262364317032937 7.9681337351029127 0
          4.2296006245458182 7.9752533225080935 0
          4.2328550175953863 7.9824237707869301 0
          4.235996751995696 7.989644295238306 0
          4.2390202220601036 7.9969151362644357 0
          4.2419221180742595 8.0042353489271978 0
          4.2446989079554553 8.0116039272868171 0
          4.2473468251462183 8.0190197900874978 0
          4.249861819353014 8.0264817771464863 0
          4.2522396115267522 8.0339886070465809 0
          4.2544756406956203 8.0415388714956606 0
          4.256565043448072 8.0491310141999506 0
          4.2585025898228803 8.0567633173236377 0
          4.2602827302166855 8.0644338536943554 0
          4.261902255360102 8.0721398943389655 0
          4.2633547706307047 8.0798791456676966 0
          4.2646334284586409 8.0876490058284034 0
          4.2657336399269106 8.0954461282332382 0
          4.266647371773149 8.1032672895004119 0
          4.2673687636000359 8.1111085241884631 0
          4.267888090849433 8.1189657223124279 0
          4.268692224627844 8.1267990633662279 0
          4.2698201015331527 8.1345926026588735 0
          4.2712897401992507 8.1423292653434594 0
          4.2731386467421553 8.1499845281113519 0
          4.2754043557744605 8.1575274293881428 0
          4.2781204112123117 8.1649197473004484 0
          4.2812569415141057 8.1721433685960605 0
          4.2847614596976582 8.1791955027182599 0
          4.2885653598464009 8.1860904847788305 0
          4.2924126168499654 8.1929610506214772 0
        </DataArray>
      </Points>
      <Cells>
        <DataArray type="Int32" Name="connectivity" format="ascii">
          0 1 1 2 2 3 3 4 4 5 5 6 6 7 7 8 8 9 9 10 10 11 11 12 12 13 13 14 14 15 15 16 16 17 17 18 18 19 19 20 20 21 21 22 22 23 23 24 24 25 25 26 26 27 27 28 28 29 29 30 30 31 31 32 32 33 33 34 34 35 35 36 36 37 37 38 38 39 39 40 40 41 41 42 42 43 43 44 44 45 45 46 46 47 47 48 48 49 49 50 50 51 51 52 52 53 53 54 54 55 55 56 56 57 57 58 58 59 59 60 60 61 61 62 62 63 63 64 64 65 65 66 66 67 67 68 68 69 69 70 70 71 71 72 72 73 73 74 74 75 75 76 76 77 77 78 78 79 79 80 80 81 81 82 82 83 83 84 84 85 85 86 86 87 87 88 88 89 89 90 90 91 91 92 92 93 93 94 94 95 95 96 96 97 97 98 98 99 99 100 100 101 101 102 102 103 103 104 104 105 105 106 106 107 107 108 108 109 109 110 110 111 111 112 112 113 113 114 114 115 115 116 116 117 117 118 118 119 119 120 120 121 121 122 122 123 123 124 124 125 125 126 126 127 
        </DataArray>
        <DataArray type="Int32" Name="offsets" format="ascii">
          2 4 6 8 10 12 14 16 18 20 22 24 26 28 30 32 34 36 38 40 42 44 46 48 50 52 54 56 58 60 62 64 66 68 70 72 74 76 78 80 82 84 86 88 90 92 94 96 98 100 102 104 106 108 110 112 114 116 118 120 122 124 126 128 130 132 134 136 138 140 142 144 146 148 150 152 154 156 158 160 162 164 166 168 170 172 174 176 178 180 182 184 186 188 190 192 194 196 198 200 202 204 206 208 210 212 214 216 218 220 222 224 226 228 230 232 234 236 238 240 242 244 246 248 250 252 254 
        </DataArray>
        <DataArray type="Int32" Name="types" format="ascii">
          3 3 3 3 3 3 3 3 3 3 3 3 3 3 3 3 3 3 3 3 3 3 3 3 3 3 3 3 3 3 3 3 3 3 3 3 3 3 3 3 3 3 3 3 3 3 3 3 3 3 3 3 3 3 3 3 3 3 3 3 3 3 3 3 3 3 3 3 3 3 3 3 3 3 3 3 3 3 3 3 3 3 3 3 3 3 3 3 3 3 3 3 3 3 3 3 3 3 3 3 3 3 3 3 3 3 3 3 3 3 3 3 3 3 3 3 3 3 3 3 3 3 3 3 3 3 3         </DataArray>
      </Cells>
    </Piece>
  </UnstructuredGrid>
</VTKFile>
