<?xml version="1.0"?>
<VTKFile type="UnstructuredGrid" version="0.1" byte_order="LittleEndian">
  <UnstructuredGrid>
    <Piece NumberOfPoints="128" NumberOfCells="127">
      <PointData Scalars="W">
        <DataArray type="Float32" Name="W" NumberOfComponents="2">
          0 0 0.62414087889098269 0.26643166214417729 0.94537304247712228 0.39608299774266886 1.1919233968171596 0.48667126948871248 1.3987730807268095 0.55327104975041685 1.580201502902749 0.60215569175359007 1.7438545861034915 0.63676923975066613 1.894339600103734 0.65924884786137328 2.0346739171830159 0.67103696463742424 2.1668597730317125 0.67313482561366256 2.2923417273579672 0.6662905507428537 2.4121575037003384 0.65106813076697556 2.5270446566006237 0.62789795234576962 2.6374745178083043 0.59710474967735605 2.7437420156001338 0.55894736874272943 2.8460374098820864 0.5136456278155066 2.9445490622211556 0.46140274379195251 3.0392929507949002 0.40237919235318664 3.1302431681376217 0.33672568315522039 3.2173664182927704 0.26458834202253506 3.3005755591572181 0.18610480965717965 3.3797211451095066 0.10140992771105718 3.4546481447393202 0.010643107828245879 3.5251987803657228 -0.086052405766157511 3.5911416450356461 -0.18852573624867233 3.6523268622750247 -0.29662168182287929 3.7085244756861995 -0.41017544590690846 3.7594264080723234 -0.52899951571552006 3.8047912629356406 -0.65289638436757624 3.8447188374057757 -0.78173079041284466 3.8786224968384713 -0.91523770514779068 3.9062646918548154 -1.0531834253684991 3.9273909063400549 -1.1953157417716829 3.9417826819348964 -1.3413784613900004 3.9492025616873536 -1.4910964089208925 3.9494278828124751 -1.6441847364664905 3.9421470387741966 -1.8003013863537174 3.9272015702510825 -1.9591484143857878 3.9044540703777164 -2.1204338937436646 3.8736367783850572 -2.2837842149668579 3.8345261886002726 -2.4488204803622513 3.7869405466898232 -2.6151648563509733 -2.6725279126244339 1.86652044572441 -2.481924900201856 1.6442343570854581 11.835783449519132 -8.6501481994613183 10.805835830414535 -10.00414190953023 9.6133429032879398 -11.238162647847036 8.2718314242474804 -12.330801631120515 6.7994212015017581 -13.265130303076578 5.2141578194395981 -14.022484326114009 3.5379125535993965 -14.588113531926091 -0.96283372979170534 4.7976467433147851 -1.1364427144807758 4.7168071734021035 -1.3022060887169229 4.6250308773739706 -1.2196680508945252 3.8186840038551195 -1.3203731091765847 3.7266582840898521 -1.404038670989844 3.6059390665849054 -1.481635746235568 3.4900630155686287 -1.5576001509873645 3.3866315884362863 -1.6136696873138718 3.2564614540059451 -1.6734611791639971 3.1494248232986037 -1.7119155354950306 3.0170427736802474 -1.741045271348163 2.8845885980429102 -1.7777253102435882 2.7778412135525392 -1.7735569713480472 2.6219045208266469 -1.7955820678022374 2.5184533361304973 -1.8122697751221124 2.4166248808773041 -1.8242830089451612 2.3171224014036347 -1.8314590936438697 2.2195312374488316 -1.8131684024522321 2.1003535700699087 -1.8113909394619943 2.0089930631875834 -1.8063209783552785 1.920573626813892 -1.7983651065986423 1.8352474729333597 -1.7882386815046896 1.7534349250701373 -1.7756724120116962 1.6745644820519605 -1.7613700713559746 1.599031842267546 -1.745700962290943 1.5268705972571446 -1.7290241949384835 1.4580932820614632 -1.7116876397167768 1.3926932997351127 -1.6676806795764008 1.3103052225929679 -1.6493712003309027 1.2524543044467229 -1.6318048093105362 1.1981309328976497 -1.6145101095320664 1.1466988419312427 -1.5981586293011301 1.0983823656021712 -1.5830273242023585 1.0531005276575331 -1.5693841027359345 1.0107651592761964 -1.5574974443755139 0.9712870377048074 -1.5476002701762743 0.93455339446162256 -1.5399463366844377 0.90046340785391477 -1.5638612755618875 0.88510137049143045 -1.5618557759841907 0.85514793325082872 -1.562788705813057 0.82748985399545427 -1.5668742991564424 0.80198458927831007 -1.5748053429788367 0.77871693626846084 -1.5859267904252461 0.75709213455767166 -1.6008999508384791 0.73717582199713905 -1.6199720522647225 0.71880479654570606 -1.643386263225928 0.70179893142540484 -1.6714017699922148 0.68596750297718889 -1.7042590333589134 0.67109184244548703 -1.7422365321066906 0.65694554844512598 -1.7861062902986864 0.64344808639091988 -1.8351919596562221 0.62996097038689913 -1.8903025643495088 0.6163642205720129 -1.9517573295946602 0.60230695773051213 -2.0204437265539053 0.58755175339252963 -2.0957243117599895 0.57135531569755504 -2.1785356570585352 0.5533891348868003 -2.2698846971368551 0.5332180996629764 -2.3365807779829955 0.50324075895725939 -2.4447119137163842 0.47756131667349344 -2.5631497349922032 0.44753800935853627 -2.6573945176138905 0.40714858136528803 -2.79741692054038 0.36668328666890482 -2.9137338165122868 0.31498937162103269 -3.0794271893207661 0.25921459656148033 -3.222715952047241 0.19067636168473218 -3.3802655478274248 0.11181747617611711 -3.5959668780115814 0.020099409800811076 -3.9067715448244602 -0.093621812908221719 3.9326913583215029 0.093839671754788703 4.8391854735423241 -0.051746954226415398 6.1066260104165986 -0.32908903898224945 7.4382701277981012 -0.801923285586156 7.9216648069777795 -1.3477517709493976 6.5450506300566573 -1.5092605465120095 1.9397786901372136 -0.51809894105974474 0 0
        </DataArray>
        <DataArray type="Float32" Name="u" NumberOfComponents="1">
          0 0.007874015748031496 0.015748031496062992 0.023622047244094488 0.031496062992125984 0.03937007874015748 0.047244094488188976 0.055118110236220472 0.062992125984251968 0.070866141732283464 0.07874015748031496 0.086614173228346455 0.094488188976377951 0.10236220472440945 0.11023622047244094 0.11811023622047244 0.12598425196850394 0.13385826771653545 0.14173228346456693 0.14960629921259844 0.15748031496062992 0.16535433070866143 0.17322834645669291 0.18110236220472442 0.1889763779527559 0.19685039370078741 0.20472440944881889 0.2125984251968504 0.22047244094488189 0.2283464566929134 0.23622047244094488 0.24409448818897639 0.25196850393700787 0.25984251968503935 0.26771653543307089 0.27559055118110237 0.28346456692913385 0.29133858267716534 0.29921259842519687 0.30708661417322836 0.31496062992125984 0.32283464566929132 0.33070866141732286 0.33858267716535434 0.34645669291338582 0.3543307086614173 0.36220472440944884 0.37007874015748032 0.37795275590551181 0.38582677165354329 0.39370078740157483 0.40157480314960631 0.40944881889763779 0.41732283464566927 0.42519685039370081 0.43307086614173229 0.44094488188976377 0.44881889763779526 0.45669291338582679 0.46456692913385828 0.47244094488188976 0.48031496062992124 0.48818897637795278 0.49606299212598426 0.50393700787401574 0.51181102362204722 0.51968503937007871 0.52755905511811019 0.53543307086614178 0.54330708661417326 0.55118110236220474 0.55905511811023623 0.56692913385826771 0.57480314960629919 0.58267716535433067 0.59055118110236215 0.59842519685039375 0.60629921259842523 0.61417322834645671 0.62204724409448819 0.62992125984251968 0.63779527559055116 0.64566929133858264 0.65354330708661412 0.66141732283464572 0.6692913385826772 0.67716535433070868 0.68503937007874016 0.69291338582677164 0.70078740157480313 0.70866141732283461 0.71653543307086609 0.72440944881889768 0.73228346456692917 0.74015748031496065 0.74803149606299213 0.75590551181102361 0.76377952755905509 0.77165354330708658 0.77952755905511806 0.78740157480314965 0.79527559055118113 0.80314960629921262 0.8110236220472441 0.81889763779527558 0.82677165354330706 0.83464566929133854 0.84251968503937003 0.85039370078740162 0.8582677165354331 0.86614173228346458 0.87401574803149606 0.88188976377952755 0.88976377952755903 0.89763779527559051 0.90551181102362199 0.91338582677165359 0.92125984251968507 0.92913385826771655 0.93700787401574803 0.94488188976377951 0.952755905511811 0.96062992125984248 0.96850393700787396 0.97637795275590555 0.98425196850393704 0.99212598425196852 1
        </DataArray>
      </PointData>
      <CellData Scalars="P">
        <DataArray type="Float32" Name="P" NumberOfComponents="1">
          -0.013423551926594295 -0.038638233846172695 -0.060724608563280894 -0.078902316906664854 -0.092676504274577881 -0.10171701621628543 -0.10579860553987892 -0.10476705687410569 -0.098517553636349439 -0.0869814926727277 -0.070116012449599086 -0.047896949175953454 -0.0203139995567213 0.012631732757986186 0.050929816994692463 0.094562668940349232 0.14350925065216311 0.19774385442003581 0.25723728634693999 0.32195856265027339 0.39187501628156712 0.46695174557724617 0.54715238232232943 0.63243979658390048 0.72277440597023968 0.81811718923619614 0.918427498612301 1.0236605344249345 1.1337695240822703 1.2487180498850847 1.3684557043200787 1.4929299987014311 1.6220854533428364 1.7558646497902968 1.8942071299998817 2.0370495476123418 2.1843213184059147 2.3359504147976389 2.4918639602036023 2.6519817640360688 2.8162173369775876 2.9844789367292477 2.8256141805517418 2.6752180060427042 3.2881350231284143 3.8756556325925886 4.4384112015013297 4.9770180561205279 5.4920776208130944 5.983871244576572 6.4523310531928599 6.2665851878605539 6.0540983086710849 5.8179564561122765 5.6005821306461554 5.3699103647016155 5.1298533149512613 4.882321658541013 4.628471046562745 4.3722097017393589 4.1136461688939825 3.8565673053832534 3.6027361097120423 3.3515001833158062 3.1086785696051638 2.8709375690705903 2.6392437030080966 2.4143966111308162 2.197135315723012 1.990351911179377 1.7921664012053564 1.602927277834705 1.4228849945431568 1.2521724834213701 1.0909032870247133 0.93908799987799541 0.79667395524311135 0.66355352391525069 0.53957221168893155 0.42614541568366204 0.32132920122960806 0.22484691036569407 0.13644640400784427 0.055842407035117177 -0.017255851442455075 -0.083139459345278263 -0.14209538733993979 -0.19440143109331703 -0.24032341684966041 -0.28059784438077007 -0.31485132376962943 -0.34329456738649727 -0.36611630690831709 -0.38348303904869863 -0.39553450716523603 -0.40238880610450833 -0.40414028998893919 -0.40086027671154029 -0.39259811242813092 -0.37938322037166977 -0.36122690600874646 -0.33811419319175284 -0.31003837839765197 -0.27697418656902895 -0.23889214037263595 -0.19574700094353178 -0.14752842708917091 -0.094222054968139485 -0.035811917682834309 0.026542235964982713 0.09387508897295882 0.16611728591644112 0.24191029642455644 0.32228212153174396 0.405723410623893 0.49317436221309097 0.58296647604248653 0.67457743052113706 0.76869916494735524 0.8667472046476149 0.73644744911125015 0.58962885228615125 0.42444974866102708 0.25106396309022289 0.11116565406407791 0.025142249495026067 0.0049466846151592081
        </DataArray>
      </CellData>
      <Points>
        <DataArray type="Float32" NumberOfComponents="3" format="ascii">
          4.0640718500483679 9.5436941304226721 0
          4.0609609540720104 9.5509281011229135 0
          4.0578887598866444 9.5581785925772529 0
          4.05487518644731 9.5654536442225506 0
          4.0519355218148201 9.5727588733319298 0
          4.0490825922825184 9.5800984097296258 0
          4.0463276478217063 9.5874752847775966 0
          4.0436808361949073 9.5948916449278467 0
          4.0411514886469089 9.6023488842393103 0
          4.038748307008607 9.6098477338184498 0
          4.0364794878536898 9.6173883239015971 0
          4.0343528120745313 9.6249702302423383 0
          4.0323757092306334 9.6325925090814923 0
          4.0305553032838803 9.6402537238325881 0
          4.0288984418255556 9.6479519652160572 0
          4.0274117143646482 9.6556848673077571 0
          4.0261014641256008 9.6634496211674623 0
          4.0249737997280786 9.6712429874379264 0
          4.0240345961772954 9.6790613062936011 0
          4.0232894932568142 9.6869005067838039 0
          4.0227438934629163 9.6947561158916518 0
          4.0224029565997901 9.7026232670669259 0
          4.0222715905110968 9.7104967085854295 0
          4.0223544414648948 9.7183708121918286 0
          4.0226558843679836 9.7262395819802823 0
          4.0231800084143501 9.7340966637485433 0
          4.023930607788917 9.7419353546204075 0
          4.0249111674054188 9.7497486132633799 0
          4.0261248437998844 9.7575290715152168 0
          4.027574450158669 9.7652690466304879 0
          4.0292624625032465 9.7729605496677543 0
          4.0311909833101947 9.7805953019237695 0
          4.0333617267773301 9.7881647494256736 0
          4.0357760030376886 9.7956600785711636 0
          4.0384347046093687 9.8030722320161345 0
          4.0413382916673255 9.8103919257398946 0
          4.044486778232609 9.8176096667106503 0
          4.0478797128464636 9.8247157740990332 0
          4.0515161687410925 9.8317003977567126 0
          4.0553947353161277 9.8385535363223813 0
          4.0595135015323693 9.8452650603933023 0
          4.0638700420501257 9.8518247360252396 0
          4.068461405956997 9.8582222481668893 0
          4.0728870203404783 9.8647354566120242 0
          4.0771587059035435 9.8713505733718083 0
          4.0821642933242108 9.8774293194172138 0
          4.0878399180669769 9.8828877373805248 0
          4.0941116364953194 9.8876493092507349 0
          4.100896264687834 9.8916462839278534 0
          4.1081025020055302 9.8948207269238946 0
          4.115632050153808 9.8971256777414833 0
          4.1233809694416816 9.8985260644938506 0
          4.1310701813910544 9.9002239369056539 0
          4.1386889207703339 9.9022142816706307 0
          4.1462269088494921 9.9044914072742873 0
          4.1536892483636993 9.907005308862594 0
          4.161069695743711 9.9097502783091294 0
          4.1683630636155771 9.912718828239111 0
          4.1755645412103863 9.9159037717543868 0
          4.1826694194163689 9.9192986938495924 0
          4.1896742223689687 9.9228955215193011 0
          4.1965752439861372 9.9266876165179578 0
          4.2033701008633679 9.9306667690206005 0
          4.2100569878847542 9.9348247649125696 0
          4.2166336322750926 9.9391549844256772 0
          4.2231002933443342 9.9436477576270246 0
          4.2294556071478553 9.9482966695456057 0
          4.2356985406943117 9.9530954060302879 0
          4.2418283508346564 9.9580377973535281 0
          4.247844594327753 9.9631177924913512 0
          4.2537484066789828 9.9683280020283114 0
          4.2595398998002949 9.9736627616768914 0
          4.2652193897110919 9.9791165896894363 0
          4.2707873713204183 9.9846841962872883 0
          4.2762444740677035 9.9903605097138222 0
          4.2815914786076021 9.9961406407873152 0
          4.2868292731715432 10.002019907426805 0
          4.2919588306650516 10.007993836724314 0
          4.296981186397729 10.014058165711267 0
          4.3018974165107791 10.020208840938556 0
          4.3067102506531016 10.026440755830393 0
          4.3114208251672235 10.03275032525271 0
          4.3160302302357971 10.039134182871635 0
          4.3205395391067567 10.045589141695263 0
          4.3249497664556475 10.05211220797112 0
          4.3292618512118342 10.05870057615487 0
          4.3334766399456148 10.065351623433381 0
          4.337594870219732 10.072062904182642 0
          4.3416171561454604 10.078832142966334 0
          4.3455439726464427 10.08565722827524 0
          4.3493738370235269 10.092537209434772 0
          4.3531068737375644 10.099470231351642 0
          4.3567430249494317 10.106454581237299 0
          4.3602820372327074 10.113488679762057 0
          4.3637234186102889 10.120571086297854 0
          4.367066479170564 10.127700462046842 0
          4.3703102900551896 10.134875574097915 0
          4.3734536681234442 10.142095285300355 0
          4.3764951608677078 10.149358543088328 0
          4.379433030335024 10.156664367648174 0
          4.3822652382093574 10.164011838353563 0
          4.3849894285356594 10.171400079720598 0
          4.3876028798357432 10.178828256396281 0
          4.3901025470457302 10.186295533583602 0
          4.3924850113366904 10.193801069584536 0
          4.3947464603100261 10.201343994036645 0
          4.3968826329511455 10.208923393169702 0
          4.3988888591547655 10.216538263735117 0
          4.4007600016328929 10.224187492615094 0
          4.4024903934580664 10.231869829818116 0
          4.4040758965104168 10.239583418122658 0
          4.4055098027305375 10.247326665744446 0
          4.4067847646733451 10.255097711357063 0
          4.4078949351563601 10.262894051784974 0
          4.4088316276606081 10.270713177899383 0
          4.4095876256570543 10.278551885312076 0
          4.4101526500216552 10.286406715193682 0
          4.410517810877594 10.294273418341872 0
          4.4106733335219408 10.302147105475482 0
          4.4106058362913494 10.310022088201512 0
          4.4102960389297783 10.317891310437634 0
          4.4102301522969443 10.325766735010486 0
          4.4104644480081348 10.333639438573051 0
          4.4110776295280667 10.341492364391545 0
          4.4121524519012558 10.349296355084586 0
          4.4137187961131144 10.357016381459559 0
          4.4156911771457574 10.364642412564113 0
          4.4177837681861556 10.372235780886582 0
        </DataArray>
      </Points>
      <Cells>
        <DataArray type="Int32" Name="connectivity" format="ascii">
          0 1 1 2 2 3 3 4 4 5 5 6 6 7 7 8 8 9 9 10 10 11 11 12 12 13 13 14 14 15 15 16 16 17 17 18 18 19 19 20 20 21 21 22 22 23 23 24 24 25 25 26 26 27 27 28 28 29 29 30 30 31 31 32 32 33 33 34 34 35 35 36 36 37 37 38 38 39 39 40 40 41 41 42 42 43 43 44 44 45 45 46 46 47 47 48 48 49 49 50 50 51 51 52 52 53 53 54 54 55 55 56 56 57 57 58 58 59 59 60 60 61 61 62 62 63 63 64 64 65 65 66 66 67 67 68 68 69 69 70 70 71 71 72 72 73 73 74 74 75 75 76 76 77 77 78 78 79 79 80 80 81 81 82 82 83 83 84 84 85 85 86 86 87 87 88 88 89 89 90 90 91 91 92 92 93 93 94 94 95 95 96 96 97 97 98 98 99 99 100 100 101 101 102 102 103 103 104 104 105 105 106 106 107 107 108 108 109 109 110 110 111 111 112 112 113 113 114 114 115 115 116 116 117 117 118 118 119 119 120 120 121 121 122 122 123 123 124 124 125 125 126 126 127 
        </DataArray>
        <DataArray type="Int32" Name="offsets" format="ascii">
          2 4 6 8 10 12 14 16 18 20 22 24 26 28 30 32 34 36 38 40 42 44 46 48 50 52 54 56 58 60 62 64 66 68 70 72 74 76 78 80 82 84 86 88 90 92 94 96 98 100 102 104 106 108 110 112 114 116 118 120 122 124 126 128 130 132 134 136 138 140 142 144 146 148 150 152 154 156 158 160 162 164 166 168 170 172 174 176 178 180 182 184 186 188 190 192 194 196 198 200 202 204 206 208 210 212 214 216 218 220 222 224 226 228 230 232 234 236 238 240 242 244 246 248 250 252 254 
        </DataArray>
        <DataArray type="Int32" Name="types" format="ascii">
          3 3 3 3 3 3 3 3 3 3 3 3 3 3 3 3 3 3 3 3 3 3 3 3 3 3 3 3 3 3 3 3 3 3 3 3 3 3 3 3 3 3 3 3 3 3 3 3 3 3 3 3 3 3 3 3 3 3 3 3 3 3 3 3 3 3 3 3 3 3 3 3 3 3 3 3 3 3 3 3 3 3 3 3 3 3 3 3 3 3 3 3 3 3 3 3 3 3 3 3 3 3 3 3 3 3 3 3 3 3 3 3 3 3 3 3 3 3 3 3 3 3 3 3 3 3 3         </DataArray>
      </Cells>
    </Piece>
  </UnstructuredGrid>
</VTKFile>
