<?xml version="1.0"?>
<VTKFile type="UnstructuredGrid" version="0.1" byte_order="LittleEndian">
  <UnstructuredGrid>
    <Piece NumberOfPoints="128" NumberOfCells="127">
      <PointData Scalars="W">
        <DataArray type="Float32" Name="W" NumberOfComponents="2">
          0 0 -0.031264801291830312 4.6362009747850565e-05 -0.11378916254337318 0.00010375314891782224 -0.17761450998680101 -4.1820811540066609e-05 -0.23113629703810526 -0.00042638146575182083 -0.27771333931214615 -0.0010686664517084847 -0.31887079726843542 -0.0019760240074150576 -0.35547037603807524 -0.0031466456324297739 -0.38805697985062987 -0.0045712377805186164 -0.41707930755239853 -0.006235543633106023 -0.44283121319760066 -0.0081203698346059491 -0.46559284092559788 -0.010203957580770915 -0.48562704081576374 -0.012463234503621547 -0.50318492055164221 -0.014874973202935441 -0.5185248798146912 -0.017417334848362911 -0.53188460372253688 -0.020069893910970367 -0.54340561403606524 -0.022810588843837378 -0.55330732333141208 -0.02562229023252692 -0.56177276656939479 -0.028489262163160962 -0.56894041192785172 -0.031396148624132321 -0.5749652169112901 -0.034330868611486272 -0.58001885859829849 -0.037285322607139987 -0.58426086800382016 -0.04025400444857296 -0.58783896396754276 -0.043233857547646241 -0.59092479317689339 -0.046226951035545159 -0.59361510330704526 -0.049232825902430048 -0.59607253085557765 -0.05225912673561886 -0.59852879807128934 -0.055323837703245934 -0.60111639392144078 -0.058440568674450022 -0.60364988204808112 -0.061592930792828675 -0.60664549138254864 -0.064836776418432912 -0.61024777490271298 -0.068198130174688426 -0.61461027013208513 -0.071707824337294501 -0.61987938772266515 -0.075399893344842289 -0.62622393564096623 -0.079315338942683028 -0.63379345627677752 -0.083497427223948428 -0.64285706434672885 -0.088010737020133303 -0.65353032473086636 -0.092905732411473887 -0.66590963758584565 -0.098234550763432738 -0.68023916061858969 -0.10407680272226461 -0.69674127773636352 -0.11051770873487826 -0.7156009794696504 -0.11764561688263535 -10.589965259206354 -2.2398405628575357 -10.365454173119408 -3.135274301219098 -4.7769241040832888 -1.7787297951552437 -4.3542225456792094 -1.8158594472074145 -4.1139358108355495 -1.8942957199240702 -3.8710621357475734 -1.9489556002320483 -3.6266765900353 -1.9801092612946294 -3.3817741254431488 -1.9881348299439978 -3.3392285894835179 -2.1050011495909717 -3.3332890967125754 -2.2504175646235041 -3.2800529002495407 -2.3695557129343943 -3.2298324500099782 -2.4943546623823916 -3.1606037109776235 -2.6075731606271884 -3.092551976050042 -2.7243026856627472 -2.654720895037407 -2.486674878772003 -2.2182415354013783 -2.1914566280440066 -1.7883327322894487 -1.8477053608197986 -1.3615690118321195 -1.4583500582873659 -0.91848593507023368 -1.0102428373223957 -0.46008935449614674 -0.51435413848947986 0.014370460289206115 0.016150711676123499 0.53197531108437335 0.5940098131925472 1.0786373674467888 1.1817821061413674 1.3907459289494712 1.4806563861424 1.3960149158015034 1.4397144283476406 1.3986207202319845 1.3978614161180711 1.7297165201332554 1.6701337549411905 1.7373896639719872 1.615522738596801 2.1084670915011188 1.8815959781668943 2.1214852914488 1.8105766592288528 2.5125529510070512 2.0432961669197294 2.5300608328938869 1.9531630326346343 2.5413707115783351 1.8624268280136453 2.9789962911864323 2.063304289035508 2.9926628653915048 1.9496770552478917 2.985223398727519 1.8284807111706483 3.455201851722383 1.978778610897405 3.4603474231263727 1.8411875579283128 3.4567218019069972 1.7055885595393523 3.955668280710642 1.7953789851360096 3.9478121898835439 1.6326247177778426 3.9145854809544978 1.4682686591954592 4.4365938852743136 1.4896290663640028 4.4103595168326528 1.3035275953654795 4.3736827647972145 1.1236377820661181 4.9120225826048465 1.0668779790555527 4.8630507885731511 0.85789281342901236 4.8036231143035444 0.65760532931778171 5.3324898817744097 0.51262030514528145 5.2564748618172201 0.28402671994888312 5.1709264762201776 0.066475205620560751 5.7131434429905967 -0.17175560967513817 5.6025662784362797 -0.41944811503940377 5.484251965660965 -0.65374939198719062 6.0083456376853661 -0.99692069253173976 5.8529414074008574 -1.2599286745307881 5.7105172997762059 -1.512418928817147 5.5648726432152209 -1.7529969643819541 5.4173938006684912 -1.9829493897717345 5.2692456230510683 -2.2037001233553597 5.1213656221003854 -2.4167862997843477 4.9585814958745731 -2.6150081117238435 4.8139456567209828 -2.8163554375629829 4.6713447681327596 -3.0153759047486921 4.5301571086050814 -3.213487751206217 4.3758156261799064 -3.4008031180379934 4.2380248074939111 -3.601594628932189 4.1003662099122913 -3.807087443032898 3.9486146222441447 -4.0051300742360736 3.808785495046743 -4.2240145910161857 3.6648048273520142 -4.4525976846242106 3.5030543532897855 -4.6762084750684476 3.3454270124615739 -4.9270712768164113 3.1658106074923329 -5.1733733995329292 2.9831772476576961 -5.4501680587397434 2.7724505460839461 -5.7201501875060785 2.541314242444503 -6.0001972257276499 0.4082773172007656 -1.0509610758080354 0.18411188375024573 -0.48317395153684478 0.16283205555002017 -0.43232923139821894 -0.013254950637297791 0.035371704617650858 -0.35749904755170164 0.94218797755282757 -0.88429681388404935 2.2393020780391977 -2.1667828083451011 5.0247468760189991 -2.3440001389355678 4.8536415832403454 0 0
        </DataArray>
        <DataArray type="Float32" Name="u" NumberOfComponents="1">
          0 0.007874015748031496 0.015748031496062992 0.023622047244094488 0.031496062992125984 0.03937007874015748 0.047244094488188976 0.055118110236220472 0.062992125984251968 0.070866141732283464 0.07874015748031496 0.086614173228346455 0.094488188976377951 0.10236220472440945 0.11023622047244094 0.11811023622047244 0.12598425196850394 0.13385826771653545 0.14173228346456693 0.14960629921259844 0.15748031496062992 0.16535433070866143 0.17322834645669291 0.18110236220472442 0.1889763779527559 0.19685039370078741 0.20472440944881889 0.2125984251968504 0.22047244094488189 0.2283464566929134 0.23622047244094488 0.24409448818897639 0.25196850393700787 0.25984251968503935 0.26771653543307089 0.27559055118110237 0.28346456692913385 0.29133858267716534 0.29921259842519687 0.30708661417322836 0.31496062992125984 0.32283464566929132 0.33070866141732286 0.33858267716535434 0.34645669291338582 0.3543307086614173 0.36220472440944884 0.37007874015748032 0.37795275590551181 0.38582677165354329 0.39370078740157483 0.40157480314960631 0.40944881889763779 0.41732283464566927 0.42519685039370081 0.43307086614173229 0.44094488188976377 0.44881889763779526 0.45669291338582679 0.46456692913385828 0.47244094488188976 0.48031496062992124 0.48818897637795278 0.49606299212598426 0.50393700787401574 0.51181102362204722 0.51968503937007871 0.52755905511811019 0.53543307086614178 0.54330708661417326 0.55118110236220474 0.55905511811023623 0.56692913385826771 0.57480314960629919 0.58267716535433067 0.59055118110236215 0.59842519685039375 0.60629921259842523 0.61417322834645671 0.62204724409448819 0.62992125984251968 0.63779527559055116 0.64566929133858264 0.65354330708661412 0.66141732283464572 0.6692913385826772 0.67716535433070868 0.68503937007874016 0.69291338582677164 0.70078740157480313 0.70866141732283461 0.71653543307086609 0.72440944881889768 0.73228346456692917 0.74015748031496065 0.74803149606299213 0.75590551181102361 0.76377952755905509 0.77165354330708658 0.77952755905511806 0.78740157480314965 0.79527559055118113 0.80314960629921262 0.8110236220472441 0.81889763779527558 0.82677165354330706 0.83464566929133854 0.84251968503937003 0.85039370078740162 0.8582677165354331 0.86614173228346458 0.87401574803149606 0.88188976377952755 0.88976377952755903 0.89763779527559051 0.90551181102362199 0.91338582677165359 0.92125984251968507 0.92913385826771655 0.93700787401574803 0.94488188976377951 0.952755905511811 0.96062992125984248 0.96850393700787396 0.97637795275590555 0.98425196850393704 0.99212598425196852 1
        </DataArray>
      </PointData>
      <CellData Scalars="P">
        <DataArray type="Float32" Name="P" NumberOfComponents="1">
          0.017209325950317891 0.051648080828149548 0.086194610889520754 0.12089851982821745 0.15579048374168697 0.19088775810066871 0.22619650115220649 0.26171361913282937 0.29742837386816329 0.33332412985585469 0.36937964592191785 0.40557061957152352 0.44187109239758116 0.47825473777747751 0.51469608167574532 0.55117148683378603 0.58765974328398507 0.62414316977851936 0.66060820179540225 0.69704586928882095 0.73345240668754519 0.76982978780162548 0.80618611155936981 0.84253595951612914 0.8789008456173768 0.91530937871676421 0.95179786782641829 0.98841101174317791 1.0252021713157153 1.0622328548489179 1.0995759615059819 1.1373156050703475 1.17554841411204 1.2143850311597619 1.2539521022966811 1.2943943990016342 1.3358785437134815 1.3785951000899861 1.4227618188555406 1.4686295720792697 1.5164875475018724 1.5666687948693823 1.8237672331156702 2.089929333907389 2.2337220230185011 2.3724340136075646 2.5097868027980628 2.6451146021730358 2.7777993144224871 2.9072696319669387 3.0390578232322674 3.1740654239159625 3.3105216017261485 3.4481136080174988 3.5857238757322283 3.7228198346762746 3.8461416932655443 3.9551820853908031 4.0498449927712645 4.1300768595069624 4.1952209246237233 4.2446182177723442 4.2774143120484336 4.2914594771423245 4.2845913630639236 4.2641891601155519 4.2412529600337345 4.2156225267252738 4.1727383554814823 4.1258830846196712 4.0575705069256918 3.9840023755989935 3.8854977772164503 3.7806447088937967 3.6698995055645804 3.5287491735300436 3.3812506337563968 3.2290852316863332 3.0426487632326427 2.8511747503751934 2.655893466306932 2.4240144294514163 2.1897627025043165 1.955767292096485 1.6850141926453679 1.4160132015720577 1.1505918082686026 0.85085576414747277 0.55832396990018796 0.27496627935799994 -0.036037568419869492 -0.33290645184289186 -0.61365706649013618 -0.91391229255207962 -1.1925140544391877 -1.4475513958189732 -1.6771009984152407 -1.87869237627292 -2.0520255739951851 -2.1963398503798506 -2.3112476109402706 -2.39668373755282 -2.4528601076253436 -2.4799845880049083 -2.4790589429283667 -2.4509069897079221 -2.3965115960544918 -2.3171489391493094 -2.2140712540266034 -2.0887254668627966 -1.9431174086327272 -1.7787958342091106 -1.5978578966740422 -1.4032548043635216 -1.1972737851896804 -0.9837429344777604 -0.76582609798549373 -0.54853674996307422 -0.33693932935933674 -0.27042203850622004 -0.21906104721797687 -0.169291558015251 -0.12764047411628787 -0.096590885685806191 -0.073451175228826091 -0.058222994542379607 -0.023913273928604685
        </DataArray>
      </CellData>
      <Points>
        <DataArray type="Float32" NumberOfComponents="3" format="ascii">
          3.9968686916876401 7.3157650961644185 0
          3.9968813371376153 7.3236391107546002 0
          3.9968920441608704 7.3315131276258647 0
          3.9968956962268667 7.339387150012727 0
          3.9968883361521197 7.3472611686811256 0
          3.9968666455797011 7.3551351596703052 0
          3.9968277367311389 7.3630090831248056 0
          3.9967690578450066 7.3708828828388322 0
          3.9966883397495456 7.3787564863711115 0
          3.9965835620766712 7.3866298056253763 0
          3.996452925440424 7.3945027377394954 0
          3.9962948332155235 7.4023751662813684 0
          3.9961078741656677 7.4102469626044032 0
          3.9958908061438052 7.4181179872848793 0
          3.9956425405201923 7.4259880915693524 0
          3.9953621261580996 7.4338571187363538 0
          3.9950487346735875 7.4417249053708927 0
          3.9947016516571856 7.4495912827407702 0
          3.9943202630660819 7.4574560778675245 0
          3.9939040438714715 7.4653191145114368 0
          3.9934525494687958 7.4731802141334081 0
          3.992965406065355 7.4810391966542236 0
          3.9924423000309686 7.4888958809675321 0
          3.9918829680013328 7.4967500852924651 0
          3.9912871877133451 7.5046016273748881 0
          3.9906547673563799 7.5124503243714846 0
          3.9899855395669039 7.5202959928910404 0
          3.9892793513372804 7.528138448533829 0
          3.9885360496402744 7.5359775047906075 0
          3.9877554732053739 7.5438129722132476 0
          3.9869374640068767 7.551644659445933 0
          3.9860818352450802 7.5594723697776613 0
          3.9851883623711268 7.5672958995446207 0
          3.9842567735531964 7.5751150362348856 0
          3.9832867405827983 7.5829295563949222 0
          3.9822778683901769 7.5907392231043396 0
          3.9812296857518925 7.5985437833104115 0
          3.9801416285809084 7.6063429638410192 0
          3.9790130327348088 7.6141364682926529 0
          3.9778431280090811 7.6219239738143241 0
          3.9766310229635131 7.6297051261871687 0
          3.975375691093693 7.6374795345551103 0
          3.9740759593158161 7.6452467659601462 0
          3.9721194089509346 7.6528752085229517 0
          3.9695199289024519 7.6603093269303022 0
          3.9666242020908666 7.6676330403631141 0
          3.9634584586390913 7.6748440416602017 0
          3.960037611254132 7.6819374700104959 0
          3.9563767320517256 7.6889099397899159 0
          3.9524909857877986 7.6957595236987482 0
          3.9483955680654428 7.7024857292013946 0
          3.9440931203157854 7.7090813206709212 0
          3.9395840123328596 7.7155372926895431 0
          3.9348715470426368 7.7218462675538513 0
          3.9299588395506473 7.7280005161885885 0
          3.924850183368259 7.7339930266796078 0
          3.9195497983675742 7.739816568988763 0
          3.9140848408601365 7.745485877213552 0
          3.9084823821055887 7.7510192569688909 0
          3.9027690840381881 7.7564380238280037 0
          3.8969714111395621 7.7617663216461992 0
          3.8911168369873277 7.7670319375955792 0
          3.8852337810506077 7.772265622341302 0
          3.879351654446717 7.7775002743361377 0
          3.8735025386549142 7.7827717303050088 0
          3.8677203114715608 7.7881164453939906 0
          3.8620243042845548 7.7935529676111228 0
          3.8564148256226929 7.7990787773117649 0
          3.8508920217057039 7.8046912977799661 0
          3.8454764042150145 7.810407432953868 0
          3.8401684377415948 7.816223816576823 0
          3.8349911162448791 7.8221569739040069 0
          3.8299452411756638 7.8282025228660901 0
          3.8250550517906197 7.8343749266136022 0
          3.8203216347195532 7.8406686190079213 0
          3.8157456955458473 7.8470779942768383 0
          3.81135437218922 7.8536155484426073 0
          3.8071485241151928 7.8602742562177568 0
          3.8031277047664833 7.8670466189615871 0
          3.7993210730897422 7.8739420017677002 0
          3.7957289707969504 7.8809518884002427 0
          3.7923511973039439 7.888067882286995 0
          3.7892187251406551 7.8952956000629175 0
          3.7863310992641961 7.9026249581785803 0
          3.7836862912347402 7.9100457682954959 0
          3.7813167226935143 7.9175594050588689 0
          3.7792208064694361 7.9251543289217059 0
          3.7773963068275669 7.9328193817883514 0
          3.7758766796737788 7.9405510937101917 0
          3.7746589343841777 7.9483364981515994 0
          3.7737394300361724 7.9561631655328133 0
          3.7731510591804258 7.9640221505112159 0
          3.7728891610941417 7.9718992531884494 0
          3.7729484803626425 7.9797809572724132 0
          3.7733627675562844 7.9876525248767436 0
          3.7741252272311736 7.9954985916395387 0
          3.7752285874316689 8.0033046292661112 0
          3.7767050950998264 8.0110474037676322 0
          3.7785449406399199 8.0187107324892288 0
          3.780739150531538 8.0262790908954038 0
          3.7832785778981668 8.0337376937531531 0
          3.7861539859973994 8.041072412183782 0
          3.7893561178100277 8.0482696828229852 0
          3.7928757514733582 8.0553164105417423 0
          3.7967027558690631 8.062200412922282 0
          3.8008281396380532 8.0689093050014211 0
          3.8052430484557602 8.0754308361101188 0
          3.8099387242238492 8.0817528017174833 0
          3.8149055993551411 8.0878636563024759 0
          3.820135137927148 8.0937510094291376 0
          3.8256188154644719 8.0994021698937484 0
          3.8313472353439577 8.1048048996165214 0
          3.8373117413820799 8.1099456606918565 0
          3.8435034199308249 8.1148103068383506 0
          3.8499122547220725 8.1193849937907654 0
          3.8565284840882188 8.1236541824619266 0
          3.863340981387815 8.1276026120285341 0
          3.8703384312659153 8.1312131275478379 0
          3.8775077747595841 8.1344689935924634 0
          3.8848346858369105 8.1373528485937889 0
          3.8921869492531171 8.1401715585208905 0
          3.8995507056432159 8.1429603405366144 0
          3.9069246725498865 8.1457223598589348 0
          3.9142979780881233 8.1484866325699645 0
          3.921649341782643 8.1513094150105587 0
          3.9289461892401585 8.1542711912855861 0
          3.9361091592224597 8.1575448234352859 0
          3.9431265548458398 8.161119400813126 0
        </DataArray>
      </Points>
      <Cells>
        <DataArray type="Int32" Name="connectivity" format="ascii">
          0 1 1 2 2 3 3 4 4 5 5 6 6 7 7 8 8 9 9 10 10 11 11 12 12 13 13 14 14 15 15 16 16 17 17 18 18 19 19 20 20 21 21 22 22 23 23 24 24 25 25 26 26 27 27 28 28 29 29 30 30 31 31 32 32 33 33 34 34 35 35 36 36 37 37 38 38 39 39 40 40 41 41 42 42 43 43 44 44 45 45 46 46 47 47 48 48 49 49 50 50 51 51 52 52 53 53 54 54 55 55 56 56 57 57 58 58 59 59 60 60 61 61 62 62 63 63 64 64 65 65 66 66 67 67 68 68 69 69 70 70 71 71 72 72 73 73 74 74 75 75 76 76 77 77 78 78 79 79 80 80 81 81 82 82 83 83 84 84 85 85 86 86 87 87 88 88 89 89 90 90 91 91 92 92 93 93 94 94 95 95 96 96 97 97 98 98 99 99 100 100 101 101 102 102 103 103 104 104 105 105 106 106 107 107 108 108 109 109 110 110 111 111 112 112 113 113 114 114 115 115 116 116 117 117 118 118 119 119 120 120 121 121 122 122 123 123 124 124 125 125 126 126 127 
        </DataArray>
        <DataArray type="Int32" Name="offsets" format="ascii">
          2 4 6 8 10 12 14 16 18 20 22 24 26 28 30 32 34 36 38 40 42 44 46 48 50 52 54 56 58 60 62 64 66 68 70 72 74 76 78 80 82 84 86 88 90 92 94 96 98 100 102 104 106 108 110 112 114 116 118 120 122 124 126 128 130 132 134 136 138 140 142 144 146 148 150 152 154 156 158 160 162 164 166 168 170 172 174 176 178 180 182 184 186 188 190 192 194 196 198 200 202 204 206 208 210 212 214 216 218 220 222 224 226 228 230 232 234 236 238 240 242 244 246 248 250 252 254 
        </DataArray>
        <DataArray type="Int32" Name="types" format="ascii">
          3 3 3 3 3 3 3 3 3 3 3 3 3 3 3 3 3 3 3 3 3 3 3 3 3 3 3 3 3 3 3 3 3 3 3 3 3 3 3 3 3 3 3 3 3 3 3 3 3 3 3 3 3 3 3 3 3 3 3 3 3 3 3 3 3 3 3 3 3 3 3 3 3 3 3 3 3 3 3 3 3 3 3 3 3 3 3 3 3 3 3 3 3 3 3 3 3 3 3 3 3 3 3 3 3 3 3 3 3 3 3 3 3 3 3 3 3 3 3 3 3 3 3 3 3 3 3         </DataArray>
      </Cells>
    </Piece>
  </UnstructuredGrid>
</VTKFile>
