<?xml version="1.0"?>
<VTKFile type="UnstructuredGrid" version="0.1" byte_order="LittleEndian">
  <UnstructuredGrid>
    <Piece NumberOfPoints="128" NumberOfCells="127">
      <PointData Scalars="W">
        <DataArray type="Float32" Name="W" NumberOfComponents="2">
          0 0 -0.036271707911591226 -0.55344637233949356 -0.058758769197256797 -0.82743968809428803 -0.081855156436526771 -1.043526686615684 -0.10740458394931549 -1.2278162441154961 -0.13621497693142673 -1.3910774135635484 -0.1687665181036104 -1.5392127253456536 -0.20540041125914821 -1.6759117255363898 -0.2463868940468798 -1.8036189146583921 -0.2919432325173914 -1.9239243138626136 -0.34226738415956881 -2.0379750791168258 -0.39754109841142432 -2.146576605954539 -0.45793395495217942 -2.2502863059727081 -0.52359002713046898 -2.3494104372019571 -0.59462078387762196 -2.4440487278969671 -0.67112446931416669 -2.5342295416493648 -0.75319763086055314 -2.6199602144202885 -0.84089984437841836 -2.701110259177633 -0.93426665701158984 -2.7774929045418291 -1.0333244503817511 -2.8489192486226229 -1.1380630981372406 -2.915124491494772 -1.248433010935144 -2.9757850634091239 -1.364367048606167 -3.0305854282625866 -1.4857749917098249 -3.0792024924338928 -1.6124989974366717 -3.1212234379717829 -1.7443926007503223 -3.1563174657496438 -1.8812454543940791 -3.1840842409473411 -2.0227647445190544 -3.2040515257279258 -2.1686525669256072 -3.2158172818627873 -2.3187996990314574 -3.2192918964406529 -2.4726425608815208 -3.2137757554080455 -2.6297645698788106 -3.1988889387941764 -2.789716560864663 -3.1742764349677359 -2.9520117305973201 -3.1396028771280573 -3.1161085567166036 -3.0945387163444624 -3.2814493218480125 -3.03880404601813 -3.4473601108294929 -2.9720795169220624 -3.6132497057876733 -2.8941913350469894 -3.7784915727539596 -2.8049862224964119 -3.9423038742949381 -2.7042571148199626 -4.1039121636187605 -2.5918848538632031 -4.2625379685060665 -2.4678204219425401 4.4060846026241602 2.5548168159308111 4.2370841652897839 2.6876621157051055 4.0648818871459671 2.8077518818232687 3.8905114156642981 2.9152833504996742 3.3473479345273867 2.702182871878374 3.1819135120806732 2.7496299351861198 3.0185521578440313 2.7861301077170233 2.8579061992190904 2.8122087979977994 2.700541004676261 2.8284164885671186 2.5593028110332758 2.8494986741253507 2.4229347313624761 2.8652917434950669 2.2889972351519559 2.8732158071001668 2.1584801618611391 2.8744504065372221 2.0317481842585159 2.8695912362179827 1.8885226054237323 2.827513757984502 1.7508309327648448 2.7768570156928187 1.6188456068056456 2.7180571741492479 1.4926788624476006 2.6515111603222143 1.3723757232371132 2.5775483451814241 1.2579393980603091 2.4964606763964339 1.1493511514606825 2.4085379408839627 1.05991143557648 2.3443864064479296 0.94923028726808722 2.2142748217073822 0.88431281207665313 2.174402289480553 0.82262049370825641 2.1334349201928489 0.75250827942765997 2.059045378589639 0.69882586620858278 2.0181719012360451 0.63747359821150651 1.9439156816280201 0.59109144124808677 1.9042409272235739 0.5475602523425056 1.8656939234153918 0.49683092434207932 1.7917158783384708 0.45961133347708361 1.7557389484534875 0.42501168797676325 1.722561861159057 0.3836952863521671 1.6518170052982575 0.35410677302028282 1.6213259706254781 0.32640753090675295 1.5930869041030904 0.29303093324643781 1.5272196914454252 0.26964990331436067 1.5037631173105659 0.24788586959071959 1.4841722040086467 0.22099023612482946 1.424655411919409 0.20240268614887927 1.4096478959004852 0.18480816321316193 1.3977981782414353 0.16806546942863934 1.3892468656417798 0.14750617737517879 1.3408259198524513 0.1329636430007711 1.3391975999063483 0.11882976607208751 1.341305918073624 0.1017714395073249 1.303581563162852 0.0889060861371401 1.3135359358490286 0.075976521541038927 1.3276840286263283 0.062806032665235087 1.3461838145082783 0.04777444649533099 1.3226488174221964 0.034542818345629264 1.3503069116770479 0.020485552352114043 1.3828489579761065 0.0054413819149910798 1.3722451393512918 -0.0099174044753387938 1.415016641260471 -0.026870381393364496 1.4644482113577102 -0.043916507962056685 1.4684782185947922 -0.063764475130626108 1.5281254535881612 -0.086163278570952656 1.5938005630950816 -0.10777705977778894 1.6143429172120858 -0.13523438825701153 1.6927839822649469 -0.16660275270471625 1.7778746081979524 -0.19652398063937029 1.8182324249676283 -0.2360226651225372 1.9174731837051917 -0.27335212806513381 1.9695228450851006 -0.32377163000007403 2.0851161710429023 -0.38152633623173138 2.2070613425415107 -0.43664357366393169 2.2810037259193958 -0.51060497908597657 2.4191169644586776 -0.5819713021084193 2.5093123932104833 -0.67700050305330361 2.6639967914252933 -0.76946688221307669 2.7694757356655968 -0.8727019673200952 2.8805495929798703 -0.9885328439117993 2.9984706633724612 -1.1192029717668037 3.1245300910655893 -1.266168135665894 3.2568364306677005 0.74278991363034186 -1.8782352549217136 0.51910287020080637 -1.3671371439156437 0.58154078377723972 -1.5908758938362768 0.46452260690615915 -1.3204165180678848 0.35099964129451411 -1.0298363214393789 0.29044500417525215 -0.87477540399025711 -0.1209288981354819 0.36680329501028519 -0.49442575078633966 1.462244172557942 -2.0228940462555887 5.4560733701807038 0 0
        </DataArray>
        <DataArray type="Float32" Name="u" NumberOfComponents="1">
          0 0.007874015748031496 0.015748031496062992 0.023622047244094488 0.031496062992125984 0.03937007874015748 0.047244094488188976 0.055118110236220472 0.062992125984251968 0.070866141732283464 0.07874015748031496 0.086614173228346455 0.094488188976377951 0.10236220472440945 0.11023622047244094 0.11811023622047244 0.12598425196850394 0.13385826771653545 0.14173228346456693 0.14960629921259844 0.15748031496062992 0.16535433070866143 0.17322834645669291 0.18110236220472442 0.1889763779527559 0.19685039370078741 0.20472440944881889 0.2125984251968504 0.22047244094488189 0.2283464566929134 0.23622047244094488 0.24409448818897639 0.25196850393700787 0.25984251968503935 0.26771653543307089 0.27559055118110237 0.28346456692913385 0.29133858267716534 0.29921259842519687 0.30708661417322836 0.31496062992125984 0.32283464566929132 0.33070866141732286 0.33858267716535434 0.34645669291338582 0.3543307086614173 0.36220472440944884 0.37007874015748032 0.37795275590551181 0.38582677165354329 0.39370078740157483 0.40157480314960631 0.40944881889763779 0.41732283464566927 0.42519685039370081 0.43307086614173229 0.44094488188976377 0.44881889763779526 0.45669291338582679 0.46456692913385828 0.47244094488188976 0.48031496062992124 0.48818897637795278 0.49606299212598426 0.50393700787401574 0.51181102362204722 0.51968503937007871 0.52755905511811019 0.53543307086614178 0.54330708661417326 0.55118110236220474 0.55905511811023623 0.56692913385826771 0.57480314960629919 0.58267716535433067 0.59055118110236215 0.59842519685039375 0.60629921259842523 0.61417322834645671 0.62204724409448819 0.62992125984251968 0.63779527559055116 0.64566929133858264 0.65354330708661412 0.66141732283464572 0.6692913385826772 0.67716535433070868 0.68503937007874016 0.69291338582677164 0.70078740157480313 0.70866141732283461 0.71653543307086609 0.72440944881889768 0.73228346456692917 0.74015748031496065 0.74803149606299213 0.75590551181102361 0.76377952755905509 0.77165354330708658 0.77952755905511806 0.78740157480314965 0.79527559055118113 0.80314960629921262 0.8110236220472441 0.81889763779527558 0.82677165354330706 0.83464566929133854 0.84251968503937003 0.85039370078740162 0.8582677165354331 0.86614173228346458 0.87401574803149606 0.88188976377952755 0.88976377952755903 0.89763779527559051 0.90551181102362199 0.91338582677165359 0.92125984251968507 0.92913385826771655 0.93700787401574803 0.94488188976377951 0.952755905511811 0.96062992125984248 0.96850393700787396 0.97637795275590555 0.98425196850393704 0.99212598425196852 1
        </DataArray>
      </PointData>
      <CellData Scalars="P">
        <DataArray type="Float32" Name="P" NumberOfComponents="1">
          -0.0043607084098831539 -0.012082451324253889 -0.01780182133765796 -0.020819663577818264 -0.020549525049217938 -0.016468070279002465 -0.0080905848377492862 0.0050431941533317978 0.023377343945635187 0.047343166382290684 0.077362443134888992 0.11384877368392433 0.15720793492010809 0.20783589049653228 0.2661156102420188 0.33241583221268189 0.40709079496090189 0.49047593967614617 0.5828851298896589 0.68460941036867407 0.79591282921069795 0.91702817062871533 1.0481550697125863 1.1894575181928395 1.3410571202760608 1.5030343509172641 1.6754223833563313 1.8581997455752628 2.05129062149248 2.2545819152219431 2.467882144153779 2.6909367497572094 2.9234262496243195 3.1649641046663231 3.4150934246793114 3.6732871187889811 3.9389403717204794 4.2113792361991429 4.4898594018901203 4.7735567316394727 5.0615709401879805 5.3529283362766291 5.0374900393538171 4.7130815370871959 4.3815807282822039 4.0448095484813731 3.7396316050003038 3.4349934788857048 3.1322957536766611 2.8328344835116646 2.5377998155058297 2.2468093563748033 1.9605840244382653 1.6800799175161782 1.4060933493041383 1.1393260150148277 0.88330223539126385 0.63867559970397703 0.40600084351701837 0.18573766524058377 -0.021743432730581335 -0.21615836285883649 -0.39730961066238463 -0.56732789633831882 -0.72174834990237746 -0.8674004367477951 -1.0043077961179607 -1.1304890442266693 -1.2482869107652974 -1.3559425998184893 -1.4556792208267122 -1.5477034534437095 -1.6304883574940079 -1.7061218295749261 -1.7748778656605817 -1.8354881125279505 -1.8897644063153962 -1.9379312618086817 -1.9790897553186142 -2.0147034339060776 -2.0449899845664565 -2.0693593445180962 -2.0888617431916843 -2.103637556608505 -2.1138051152674295 -2.1192752739778888 -2.1204573565706157 -2.1173935095760337 -2.1103478831758697 -2.0992097500176472 -2.0839338396568912 -2.0644451255376395 -2.0414956601685876 -2.0142469824859019 -1.9825329713046225 -1.9474713802432535 -1.9076783340182055 -1.862868086479835 -1.8145597567711971 -1.7608559339794994 -1.7014590424146678 -1.638215386055883 -1.5687845837970822 -1.4928687662791924 -1.412619770866729 -1.3254352554700044 -1.2338047332977216 -1.1348563371599925 -1.0285634630757385 -0.91781470559968015 -0.79985389893761083 -0.67782463156169148 -0.54922916495717256 -0.41757071502288856 -0.283713936294539 -0.14866702047692357 -0.013621369128556974 0.1198571428612157 0.061702759452541861 0.027754342614708393 -0.0094314895144289382 -0.033915588289915477 -0.047496194409596112 -0.05526842343368172 -0.043557367258306542 -0.025368198751999985 -0.00032692087882376205
        </DataArray>
      </CellData>
      <Points>
        <DataArray type="Float32" NumberOfComponents="3" format="ascii">
          6.1344247970452939 10.433249573549746 0
          6.1422830626112033 10.432751789964204 0
          6.1501390794141537 10.43221969262761 0
          6.1579914533425555 10.431636293911083 0
          6.1658387525308509 10.43098819637876 0
          6.1736793930498495 10.430263974031828 0
          6.1815115888120733 10.429453504623606 0
          6.1893333217959876 10.428547603699705 0
          6.1971423208865559 10.427537795843643 0
          6.2049360451156383 10.426416163115617 0
          6.2127116701867289 10.425175246469376 0
          6.2204660761969777 10.423807974627072 0
          6.2281958363643106 10.422307614143609 0
          6.2358972065092955 10.420667734846351 0
          6.2435661161186493 10.418882190846753 0
          6.2511981614304677 10.416945114357215 0
          6.2587885993396615 10.414850913932904 0
          6.2663323414088614 10.412594274017648 0
          6.2738239501718498 10.410170163035186 0
          6.2812576369270712 10.407573844970399 0
          6.2886272600997026 10.404800891082903 0
          6.2959263258675477 10.401847196326615 0
          6.3031479912339643 10.398708999413287 0
          6.3102850681892662 10.395382902378158 0
          6.3173300293033758 10.391865890614312 0
          6.3242750175114697 10.388155358470129 0
          6.3311118551945125 10.38424912976156 0
          6.33783205722081 10.380145482595694 0
          6.3444268491008549 10.375843178652383 0
          6.350887185458034 10.371341488113366 0
          6.3572037568010531 10.366640195220532 0
          6.3633670244672311 10.361739641654824 0
          6.3693672464519349 10.356640750093574 0
          6.3751945052582881 10.351345046223312 0
          6.3808387380805343 10.345854679534316 0
          6.3862897703800572 10.340172443754211 0
          6.3915373504654553 10.334301794203418 0
          6.3965711912769425 10.328246867595839 0
          6.4013810070431933 10.322012492814657 0
          6.4059565521275941 10.315604200415827 0
          6.4102876695032505 10.309028235466251 0
          6.4143643387694151 10.302291564931398 0
          6.4181767244170578 10.295401880713996 0
          6.4222622987928197 10.288670596354107 0
          6.4266105840642584 10.282105948730639 0
          6.4312109038700607 10.275715383875596 0
          6.4360524474061869 10.26950556920495 0
          6.4411015337983084 10.263463296843522 0
          6.4463479055691764 10.257591508665007 0
          6.4517814337668566 10.251892467799589 0
          6.4573921577898021 10.246367791212029 0
          6.4631703204401676 10.241018483834019 0
          6.4691071645955658 10.235845852668902 0
          6.4751942351218235 10.230850876774342 0
          6.4814232275754806 10.226034047338121 0
          6.4877860495813184 10.221395440803105 0
          6.4942748434412145 10.216934755799343 0
          6.500880728424514 10.212649383596727 0
          6.5075951668638066 10.208536183514497 0
          6.5144099748494417 10.204591509962038 0
          6.5213173291922875 10.200811237047297 0
          6.5283097702202575 10.19719077899723 0
          6.5353802019838749 10.193725108258375 0
          6.5425218911035232 10.190408773463796 0
          6.5497292917583048 10.187237796935189 0
          6.5569955404747358 10.184204111621607 0
          6.564316612217354 10.181305245000033 0
          6.5716886819200111 10.178538656687273 0
          6.5791074021742952 10.175899734204433 0
          6.5865694445939509 10.173385943000541 0
          6.5940710049837259 10.170992678861586 0
          6.6016092076514337 10.16871748157137 0
          6.609181353694817 10.166557960850819 0
          6.6167842976878175 10.164509529749587 0
          6.6244157321495001 10.162569957349325 0
          6.6320735120823855 10.16073718633803 0
          6.6397550758658888 10.159006830244575 0
          6.647458589318104 10.157376998314087 0
          6.6551823354456126 10.155845939432167 0
          6.6629242451614878 10.154409569571841 0
          6.6706828693729934 10.153066434161302 0
          6.6784568593143225 10.15181531832156 0
          6.6862445480551136 10.1506525317963 0
          6.694044783983041 10.149577143917677 0
          6.7018564771424067 10.148588419830164 0
          6.7096785904853729 10.147685829211085 0
          6.7175098504895008 10.146866369844263 0
          6.7253493567945046 10.146129940700739 0
          6.7331962344906371 10.145476672469247 0
          6.7410494276411326 10.144904226239992 0
          6.7489081403085684 10.144413219263198 0
          6.7567715727051354 10.144004528869585 0
          6.7646389102396896 10.143679302275165 0
          6.7725092234349473 10.143436080579223 0
          6.7803816942828581 10.143276579005473 0
          6.7882554537269764 10.143202815706639 0
          6.796129572202914 10.143214133852481 0
          6.8040031003500987 10.143313186121974 0
          6.8118749900850712 10.143503038310865 0
          6.819744188433102 10.143783941411412 0
          6.8276094682031827 10.144159595047721 0
          6.8354694441530777 10.14463407285754 0
          6.8433227807762353 10.145208650399409 0
          6.8511677794831893 10.145888193487808 0
          6.8590024992257801 10.146677980627739 0
          6.8668250898958592 10.147580517130349 0
          6.874633106449294 10.148601959805925 0
          6.8824242397077846 10.149745539922781 0
          6.8901953673754788 10.151018429413627 0
          6.8979429121393219 10.152428194748021 0
          6.9056634616972454 10.153979426663575 0
          6.9133524332718244 10.155680695748153 0
          6.9210054064697664 10.157537602237523 0
          6.9286164911306036 10.159559746149903 0
          6.9361799574635805 10.16175367741935 0
          6.9436894073665076 10.164126294054013 0
          6.9511376608867055 10.166684919874541 0
          6.9585166168059525 10.169437384652683 0
          6.9658171621647389 10.172391906886697 0
          6.9731633515546498 10.175229765653349 0
          6.9805413621118406 10.177982697714326 0
          6.987955142817933 10.180636870902328 0
          6.9953974986162786 10.183209088805137 0
          7.0028614540291274 10.185717397375535 0
          7.0103433209510282 10.188171436569638 0
          7.0178176594739528 10.190648207568346 0
          7.0252613958428336 10.193215656295129 0
          7.0325796887715288 10.1961213777351 0
        </DataArray>
      </Points>
      <Cells>
        <DataArray type="Int32" Name="connectivity" format="ascii">
          0 1 1 2 2 3 3 4 4 5 5 6 6 7 7 8 8 9 9 10 10 11 11 12 12 13 13 14 14 15 15 16 16 17 17 18 18 19 19 20 20 21 21 22 22 23 23 24 24 25 25 26 26 27 27 28 28 29 29 30 30 31 31 32 32 33 33 34 34 35 35 36 36 37 37 38 38 39 39 40 40 41 41 42 42 43 43 44 44 45 45 46 46 47 47 48 48 49 49 50 50 51 51 52 52 53 53 54 54 55 55 56 56 57 57 58 58 59 59 60 60 61 61 62 62 63 63 64 64 65 65 66 66 67 67 68 68 69 69 70 70 71 71 72 72 73 73 74 74 75 75 76 76 77 77 78 78 79 79 80 80 81 81 82 82 83 83 84 84 85 85 86 86 87 87 88 88 89 89 90 90 91 91 92 92 93 93 94 94 95 95 96 96 97 97 98 98 99 99 100 100 101 101 102 102 103 103 104 104 105 105 106 106 107 107 108 108 109 109 110 110 111 111 112 112 113 113 114 114 115 115 116 116 117 117 118 118 119 119 120 120 121 121 122 122 123 123 124 124 125 125 126 126 127 
        </DataArray>
        <DataArray type="Int32" Name="offsets" format="ascii">
          2 4 6 8 10 12 14 16 18 20 22 24 26 28 30 32 34 36 38 40 42 44 46 48 50 52 54 56 58 60 62 64 66 68 70 72 74 76 78 80 82 84 86 88 90 92 94 96 98 100 102 104 106 108 110 112 114 116 118 120 122 124 126 128 130 132 134 136 138 140 142 144 146 148 150 152 154 156 158 160 162 164 166 168 170 172 174 176 178 180 182 184 186 188 190 192 194 196 198 200 202 204 206 208 210 212 214 216 218 220 222 224 226 228 230 232 234 236 238 240 242 244 246 248 250 252 254 
        </DataArray>
        <DataArray type="Int32" Name="types" format="ascii">
          3 3 3 3 3 3 3 3 3 3 3 3 3 3 3 3 3 3 3 3 3 3 3 3 3 3 3 3 3 3 3 3 3 3 3 3 3 3 3 3 3 3 3 3 3 3 3 3 3 3 3 3 3 3 3 3 3 3 3 3 3 3 3 3 3 3 3 3 3 3 3 3 3 3 3 3 3 3 3 3 3 3 3 3 3 3 3 3 3 3 3 3 3 3 3 3 3 3 3 3 3 3 3 3 3 3 3 3 3 3 3 3 3 3 3 3 3 3 3 3 3 3 3 3 3 3 3         </DataArray>
      </Cells>
    </Piece>
  </UnstructuredGrid>
</VTKFile>
