<?xml version="1.0"?>
<VTKFile type="UnstructuredGrid" version="0.1" byte_order="LittleEndian">
  <UnstructuredGrid>
    <Piece NumberOfPoints="128" NumberOfCells="127">
      <PointData Scalars="W">
        <DataArray type="Float32" Name="W" NumberOfComponents="2">
          0 0 0.038991240794926565 0.58151460609721606 0.056526573863128732 0.92547088213146611 0.061435697835288704 1.163312109204854 0.057601745774097803 1.3424849245446899 0.047075564401372928 1.4823937115414816 0.031271579936491732 1.5929900460827868 0.011315630917105612 1.6801165450029127 -0.011824171386073098 1.7475816915058582 -0.037285195937869151 1.7981272261600405 -0.06428663713917368 1.8337731838126505 -0.092116098860612089 1.8560995567107546 -0.12012261904740006 1.8663845607801735 -0.14771963666746213 1.8657757453414012 -0.1743883606977614 1.8553348109746364 -0.19967315497283197 1.8360003386474713 -0.22317067516126451 1.8085494411779355 -0.24454307168559419 1.7737625140712507 -0.26351335588041452 1.7323782393483116 -0.27985290952844305 1.6850350414255773 -0.29338749899231503 1.6323453536783088 -0.30400092483529678 1.574924359942405 -0.31161880739441794 1.5133153544581015 -0.31620755508817477 1.4480141597999481 -0.3177955768181297 1.379578745119187 -0.31642370854845392 1.3084180669880849 -0.31218180856323269 1.2349804873023988 -0.30521011031990453 1.1597564634271895 -0.29566430975804847 1.0831532326797473 -0.283618243805005 1.0051823234433541 -0.2693638750608357 0.92655343666553636 -0.25312184574926277 0.8476104504222185 -0.23512587019194817 0.76867458136491984 -0.21562044234688796 0.69005022663085769 -0.19486685905836668 0.61205566557844271 -0.17312416577536974 0.53497340043321839 -0.15068951169397371 0.45918574841423476 -0.12781415200311483 0.38492648473200164 -0.10475434655789885 0.31245211880724699 -0.081807615278900889 0.2421557717176987 -0.059255662113255565 0.17440378968607895 -0.037368972563774298 0.10956087203813317 0.71577718898517317 -2.1584443070278536 0.69528388198132463 -2.2315049889264973 0.78602526892985081 -2.7160768746709505 0.84690294405196054 -3.2163687678416424 0.77480213918480101 -3.2936304217477135 0.78211516349302457 -3.8114189545745174 0.7455022500023708 -4.3511954107196349 0.5995661464056028 -4.4234862985083181 0.48637490117310173 -4.9748622243014768 0.31010594487475507 -5.5393000206830481 0.061153571664105212 -6.112706272138352 -0.3090806571425701 -7.2460119715517681 -1.1614324863348171 -10.318451749433661 -2.0132591764202723 -10.241876711372141 -0.6265439781184805 -2.5020542757261284 -0.57857021788991636 -2.1383114839816426 -0.62585894788459362 -2.1615818998192387 -0.55927349121437442 -1.8196492420497767 -0.59771722926631488 -1.8448458677858017 -0.63760847501373108 -1.8692102939205151 -0.81407396348292826 -2.2584189387981222 -0.86981972854423595 -2.2761988584742201 -1.0793185661469618 -2.6566517268879681 -1.1554692646972773 -2.6684100620572599 -1.233553988112065 -2.6776671775675922 -1.3115246588450546 -2.6803407936292585 -1.3931746248567185 -2.6844154965073805 -1.4765937701760918 -2.6856346975980347 -1.5617563315931042 -2.6839495303641159 -1.6486127646032105 -2.6792642460907543 -1.5158792977252964 -2.3392877399044747 -1.5874327732466531 -2.335001313120376 -1.6630168015999711 -2.3320848560114928 -1.7401318100923011 -2.3265475908068876 -1.8187320958270479 -2.3182830435344965 -1.8988077706573319 -2.3072307818164082 -1.9802349898689828 -2.2931938220193664 -2.0629987207828702 -2.2761152749888227 -2.1470453548761137 -2.2558900216658886 -1.9530017688017602 -1.959102926787704 -2.0264271997035768 -1.9454104503986025 -2.1011749339718717 -1.9290266150802073 -2.1770960017582413 -1.9097445076177471 -2.2541691544615072 -1.8874836266765094 -2.3323256965154693 -1.8621214956792367 -2.1119784783793012 -1.610710397201891 -2.1818472260938599 -1.5923393315111396 -2.2527679870125454 -1.5711629262691453 -2.3246993159137586 -1.547078902001674 -2.0906751075799033 -1.3295781234753092 -2.1600370506770918 -1.3146173585386285 -2.2262190127085035 -1.2943142292187577 -2.2930635949316209 -1.2711176610704371 -2.0501638380560285 -1.0848699070465009 -2.1113394016146385 -1.0678538380934854 -2.1728890144160737 -1.0481154207397168 -2.2344693667823878 -1.0254646832176693 -2.2958864442100611 -0.99980988723312558 -2.0436391746611151 -0.84517220118549485 -2.0989742775096003 -0.82512935461124159 -2.1534889683595089 -0.80228623708261793 -2.2066546565126512 -0.77650897150771814 -2.2580859269612152 -0.74776119436287924 -2.3072889312711382 -0.7160109184015262 -2.3537791846203988 -0.68127703343101553 -2.3968104298235535 -0.64355822988100764 -2.4311366042653981 -0.60186107699871172 -2.4652763435531146 -0.5587134760601622 -2.4888152140761917 -0.51205044382442277 -2.843068717294297 -0.52182309941365379 -2.8594913247386762 -0.45775816859194618 -3.2077384526382553 -0.43434924014544807 -3.2006534535899296 -0.35079106848393432 -3.5459041433555676 -0.293118958902927 -3.5125007435891362 -0.19203077485696546 -3.8351249768992184 -0.098431970721381185 -3.7713401218343545 0.016194262134108548 -4.0648088369380524 0.14296616253726932 -4.3660634323604537 0.2991138034860199 -3.1354504232804117 0.30837796403522444 -3.1739690751391465 0.39248351674284043 -3.1111572111491417 0.46386925151697067 -3.3598445542802966 0.58997310360775956 -3.6576253123588907 0.74887916674082822 -5.1746742442444003 1.2532689347452133 0 0
        </DataArray>
        <DataArray type="Float32" Name="u" NumberOfComponents="1">
          0 0.007874015748031496 0.015748031496062992 0.023622047244094488 0.031496062992125984 0.03937007874015748 0.047244094488188976 0.055118110236220472 0.062992125984251968 0.070866141732283464 0.07874015748031496 0.086614173228346455 0.094488188976377951 0.10236220472440945 0.11023622047244094 0.11811023622047244 0.12598425196850394 0.13385826771653545 0.14173228346456693 0.14960629921259844 0.15748031496062992 0.16535433070866143 0.17322834645669291 0.18110236220472442 0.1889763779527559 0.19685039370078741 0.20472440944881889 0.2125984251968504 0.22047244094488189 0.2283464566929134 0.23622047244094488 0.24409448818897639 0.25196850393700787 0.25984251968503935 0.26771653543307089 0.27559055118110237 0.28346456692913385 0.29133858267716534 0.29921259842519687 0.30708661417322836 0.31496062992125984 0.32283464566929132 0.33070866141732286 0.33858267716535434 0.34645669291338582 0.3543307086614173 0.36220472440944884 0.37007874015748032 0.37795275590551181 0.38582677165354329 0.39370078740157483 0.40157480314960631 0.40944881889763779 0.41732283464566927 0.42519685039370081 0.43307086614173229 0.44094488188976377 0.44881889763779526 0.45669291338582679 0.46456692913385828 0.47244094488188976 0.48031496062992124 0.48818897637795278 0.49606299212598426 0.50393700787401574 0.51181102362204722 0.51968503937007871 0.52755905511811019 0.53543307086614178 0.54330708661417326 0.55118110236220474 0.55905511811023623 0.56692913385826771 0.57480314960629919 0.58267716535433067 0.59055118110236215 0.59842519685039375 0.60629921259842523 0.61417322834645671 0.62204724409448819 0.62992125984251968 0.63779527559055116 0.64566929133858264 0.65354330708661412 0.66141732283464572 0.6692913385826772 0.67716535433070868 0.68503937007874016 0.69291338582677164 0.70078740157480313 0.70866141732283461 0.71653543307086609 0.72440944881889768 0.73228346456692917 0.74015748031496065 0.74803149606299213 0.75590551181102361 0.76377952755905509 0.77165354330708658 0.77952755905511806 0.78740157480314965 0.79527559055118113 0.80314960629921262 0.8110236220472441 0.81889763779527558 0.82677165354330706 0.83464566929133854 0.84251968503937003 0.85039370078740162 0.8582677165354331 0.86614173228346458 0.87401574803149606 0.88188976377952755 0.88976377952755903 0.89763779527559051 0.90551181102362199 0.91338582677165359 0.92125984251968507 0.92913385826771655 0.93700787401574803 0.94488188976377951 0.952755905511811 0.96062992125984248 0.96850393700787396 0.97637795275590555 0.98425196850393704 0.99212598425196852 1
        </DataArray>
      </PointData>
      <CellData Scalars="P">
        <DataArray type="Float32" Name="P" NumberOfComponents="1">
          -0.021885366575434446 -0.064078756647876087 -0.10340128324528182 -0.1397639322456587 -0.1735587097783001 -0.20543345648451924 -0.23617846799107639 -0.26665563345010185 -0.2977483030895744 -0.33032339651903425 -0.36520294851388524 -0.40314177063849826 -0.44481012074643417 -0.4907805039285178 -0.54151876067938642 -0.59737864704621901 -0.65859857959855828 -0.7253015291711935 -0.79749728083785609 -0.87508571535535173 -0.95786243193601328 -1.0455267142513696 -1.1376893256160898 -1.2338814808811835 -1.333568172888266 -1.4361558012510609 -1.5410060208179921 -1.6474511564678029 -1.7548049322382502 -1.8623567014172011 -1.9694180137378485 -2.0753199842529058 -2.179425200434475 -2.2811393070283907 -2.3799236635028915 -2.4753041548795491 -2.5668872530833946 -2.65435923844379 -2.7374943592807637 -2.8161685821218971 -2.8903605971858153 -2.9601516548026172 -2.8726609488153478 -2.7864786081319504 -2.6794598820100628 -2.5536050399033328 -2.4330803552977631 -2.2972245289847049 -2.1473837548216546 -2.0055169894163738 -1.8515675255071573 -1.6857121920593616 -1.5072306728480644 -1.2938705273125251 -0.99431988581924058 -0.68792014886272157 -0.64159141793604813 -0.60733091224420188 -0.57037882700404796 -0.54605441144910538 -0.51971108726925219 -0.49159442398852127 -0.44622437175592422 -0.39944451829614425 -0.33552088811282754 -0.27028121517684905 -0.20379024844461646 -0.13627232750082161 -0.067575018867092565 0.0022907754764917724 0.073336278831466248 0.14559314739241147 0.20333203561980012 0.26212122834234963 0.32208330069881103 0.38316635897030177 0.44532648937984282 0.50853073721286579 0.57275105005954285 0.63797212191958808 0.70419007918876919 0.75658382630229881 0.80999362963272015 0.86431727348013532 0.91944973876027836 0.97529148073219485 1.0317477478332986 1.0752707817119698 1.1193348275006152 1.1637495022524857 1.2083244888655449 1.2406060075127971 1.2730198935864721 1.3051197917943389 1.3366148650380343 1.3564917614066543 1.3755009450320987 1.3932675838958362 1.4094039755054495 1.4235190874979291 1.4269736639031805 1.4281329862040211 1.4265448691476414 1.4217539165868074 1.4133125258574823 1.4007866173190717 1.383764468921596 1.3618624657503555 1.3346947545763417 1.3020215448030197 1.2635852264613516 1.2199785195937884 1.1696553646530199 1.1119671481433657 1.0473534261406514 0.97410495828024612 0.89476908958747647 0.80694961781349017 0.71513333251148692 0.61670513958612927 0.51295980599646063 0.42400410085341189 0.33632255429596219 0.25249737657550264 0.1713587595505244 0.095618047347795138 0.025023014701069431
        </DataArray>
      </CellData>
      <Points>
        <DataArray type="Float32" NumberOfComponents="3" format="ascii">
          5.9915358051995149 10.376809353984918 0
          5.9993950914268099 10.376264252496403 0
          6.007256741335004 10.375755246529069 0
          6.0151218099499006 10.375303684381924 0
          6.0229905761560838 10.374924326150389 0
          6.0308627806729396 10.374628288815977 0
          6.038737752198454 10.374424250811083 0
          6.046614494669603 10.374319069884505 0
          6.0544917568729932 10.374318145950891 0
          6.0623680923920409 10.374425657701597 0
          6.0702419130711682 10.374644733015895 0
          6.0781115374317976 10.374977574585746 0
          6.0859752348547458 10.375425558231861 0
          6.0938312659510476 10.375989312488985 0
          6.1016779189308252 10.37666879007395 0
          6.1095135417578472 10.377463334013418 0
          6.1173365703747313 10.378371736116321 0
          6.1251455536724837 10.37939228541067 0
          6.1329391743864115 10.380522816761861 0
          6.1407162662077308 10.381760756879029 0
          6.1484758278872702 10.383103164077314 0
          6.1562170339610587 10.384546766401236 0
          6.163939241874278 10.38608799989062 0
          6.171641996511867 10.387723042360282 0
          6.1793250322024562 10.389447844208304 0
          6.1869882708831074 10.391258163050376 0
          6.1946318195008807 10.393149589088257 0
          6.2022559643845367 10.395117572896721 0
          6.2098611625044873 10.397157455796997 0
          6.2174480317872352 10.399264495049019 0
          6.2250173465194791 10.401433864490365 0
          6.2325700192439157 10.403660698444629 0
          6.2401070870930742 10.405940112934093 0
          6.2476296973291001 10.408267225475281 0
          6.2551390922319126 10.410637173822121 0
          6.2626365929621697 10.413045135563035 0
          6.2701235835802374 10.415486345495468 0
          6.2776014927182562 10.417956119189148 0
          6.2850717781135215 10.420449867339807 0
          6.2925359108470218 10.422963111536662 0
          6.2999953570373775 10.425491508511358 0
          6.3074515605291994 10.428030872739857 0
          6.3149059262904608 10.430577198959671 0
          6.3224045024715014 10.432989527025494 0
          6.3299460288403386 10.4352633391265 0
          6.3375361233798433 10.437368579415295 0
          6.3451785515403749 10.439274221779769 0
          6.352868852023998 10.440975492883906 0
          6.3606074684196594 10.44244028729187 0
          6.3683921206711247 10.443635140817596 0
          6.3762137704526305 10.444555592940716 0
          6.384065391179619 10.44516746561831 0
          6.3919360471628996 10.445435775539185 0
          6.399810299065317 10.445324987714097 0
          6.4076651745825846 10.444764851210948 0
          6.4154483709505064 10.443564770789443 0
          6.4231071130796771 10.441729391472203 0
          6.43072694101933 10.439738836744089 0
          6.4383108514323046 10.437615664529851 0
          6.4458559157380115 10.43535843199788 0
          6.4533662826102294 10.432988342286025 0
          6.4608395711619293 10.430503831911896 0
          6.468273310535559 10.427903388856389 0
          6.4756565442880163 10.425162877901732 0
          6.482985818174769 10.422281195933689 0
          6.4902481271985071 10.419234752143106 0
          6.4974387515224734 10.416022817671809 0
          6.5045528511026713 10.412644818676874 0
          6.5115855928681938 10.409100589458387 0
          6.5185319151410388 10.405389877415773 0
          6.5253866462728425 10.401512606997887 0
          6.532144506245837 10.397468882756948 0
          6.5388001097517234 10.393258995310147 0
          6.5453617027805313 10.388904021567829 0
          6.5518248481835659 10.384404226474185 0
          6.5581848584491658 10.379759790170372 0
          6.5644369508799167 10.37497105543758 0
          6.57057625043368 10.370038534327682 0
          6.5765977903441506 10.364962911940745 0
          6.5824965198172398 10.359745058667873 0
          6.5882673049766476 10.354386033749803 0
          6.5939049322073524 10.348887091825263 0
          6.5994214458448246 10.343266629479171 0
          6.6048122901233599 10.337525495953258 0
          6.610072827093143 10.331664707728278 0
          6.6151983458888921 10.325685461383964 0
          6.6201840640768115 10.319589138622321 0
          6.625025131950915 10.313377313890255 0
          6.6297352227316466 10.307065570019056 0
          6.6343100000513742 10.300655048051128 0
          6.6387450622443414 10.294147063494909 0
          6.6430359449635858 10.287543112691193 0
          6.6471971682882307 10.280856676136223 0
          6.6512244266309564 10.274088684939567 0
          6.6551136117987522 10.267240401947197 0
          6.6588605746118406 10.260313270020927 0
          6.6624803846232972 10.253318832602313 0
          6.6659692439770311 10.246258149863058 0
          6.6693233317999443 10.239132451405808 0
          6.6725388255698803 10.231943148028254 0
          6.6756119132224656 10.224691837390854 0
          6.6785582434586344 10.217388104461348 0
          6.681374381430131 10.21003319953398 0
          6.684056943592279 10.202628547071734 0
          6.6866026305655319 10.19517575394471 0
          6.6890082511099482 10.187676611613204 0
          6.6912707528205333 10.18013309802088 0
          6.6933872522327622 10.172547376318137 0
          6.6953550811550651 10.164921794812676 0
          6.6971721121071077 10.157258948263223 0
          6.6988362298965223 10.149561521302708 0
          6.7003459776083494 10.14183241596599 0
          6.7016793871187623 10.134071045471226 0
          6.7028354459320854 10.126281388935285 0
          6.703792563278137 10.118464913526285 0
          6.7045511873918953 10.110626802857904 0
          6.7050899177664389 10.102770642783582 0
          6.7054108364907048 10.094902697547433 0
          6.7054939490645751 10.087028771479615 0
          6.7053432210994819 10.079155959590619 0
          6.7049404658299947 10.071292110841082 0
          6.7042670126183772 10.06344688689161 0
          6.7033991634631453 10.05562082614472 0
          6.7023345294749177 10.047819116167101 0
          6.7010770002284437 10.040046148233404 0
          6.6996111461524599 10.032309694530783 0
          6.6979184836467338 10.024619543457076 0
          6.6959049022961947 10.017006852912569 0
        </DataArray>
      </Points>
      <Cells>
        <DataArray type="Int32" Name="connectivity" format="ascii">
          0 1 1 2 2 3 3 4 4 5 5 6 6 7 7 8 8 9 9 10 10 11 11 12 12 13 13 14 14 15 15 16 16 17 17 18 18 19 19 20 20 21 21 22 22 23 23 24 24 25 25 26 26 27 27 28 28 29 29 30 30 31 31 32 32 33 33 34 34 35 35 36 36 37 37 38 38 39 39 40 40 41 41 42 42 43 43 44 44 45 45 46 46 47 47 48 48 49 49 50 50 51 51 52 52 53 53 54 54 55 55 56 56 57 57 58 58 59 59 60 60 61 61 62 62 63 63 64 64 65 65 66 66 67 67 68 68 69 69 70 70 71 71 72 72 73 73 74 74 75 75 76 76 77 77 78 78 79 79 80 80 81 81 82 82 83 83 84 84 85 85 86 86 87 87 88 88 89 89 90 90 91 91 92 92 93 93 94 94 95 95 96 96 97 97 98 98 99 99 100 100 101 101 102 102 103 103 104 104 105 105 106 106 107 107 108 108 109 109 110 110 111 111 112 112 113 113 114 114 115 115 116 116 117 117 118 118 119 119 120 120 121 121 122 122 123 123 124 124 125 125 126 126 127 
        </DataArray>
        <DataArray type="Int32" Name="offsets" format="ascii">
          2 4 6 8 10 12 14 16 18 20 22 24 26 28 30 32 34 36 38 40 42 44 46 48 50 52 54 56 58 60 62 64 66 68 70 72 74 76 78 80 82 84 86 88 90 92 94 96 98 100 102 104 106 108 110 112 114 116 118 120 122 124 126 128 130 132 134 136 138 140 142 144 146 148 150 152 154 156 158 160 162 164 166 168 170 172 174 176 178 180 182 184 186 188 190 192 194 196 198 200 202 204 206 208 210 212 214 216 218 220 222 224 226 228 230 232 234 236 238 240 242 244 246 248 250 252 254 
        </DataArray>
        <DataArray type="Int32" Name="types" format="ascii">
          3 3 3 3 3 3 3 3 3 3 3 3 3 3 3 3 3 3 3 3 3 3 3 3 3 3 3 3 3 3 3 3 3 3 3 3 3 3 3 3 3 3 3 3 3 3 3 3 3 3 3 3 3 3 3 3 3 3 3 3 3 3 3 3 3 3 3 3 3 3 3 3 3 3 3 3 3 3 3 3 3 3 3 3 3 3 3 3 3 3 3 3 3 3 3 3 3 3 3 3 3 3 3 3 3 3 3 3 3 3 3 3 3 3 3 3 3 3 3 3 3 3 3 3 3 3 3         </DataArray>
      </Cells>
    </Piece>
  </UnstructuredGrid>
</VTKFile>
