<?xml version="1.0"?>
<VTKFile type="UnstructuredGrid" version="0.1" byte_order="LittleEndian">
  <UnstructuredGrid>
    <Piece NumberOfPoints="128" NumberOfCells="127">
      <PointData Scalars="W">
        <DataArray type="Float32" Name="W" NumberOfComponents="2">
          0 0 0.48852473712824124 0.29125027761164912 0.74806393035540453 0.44026662740631689 0.94691414379657868 0.54749507155358534 1.114376563728418 0.63049500943781012 1.2623665357498883 0.69647150273210978 1.3972098698116679 0.74928576608637665 1.5226723931078392 0.79125811444032768 1.6412152990456308 0.82391336412857108 1.7544626519358955 0.84826884818313009 1.863599936274019 0.86506537522724025 1.9694459706988148 0.87482138076204885 2.0725972729205582 0.8779177164818377 2.1734755089014195 0.87463058175650221 2.2723540812604881 0.86515401206087372 2.3694151230493872 0.84963191925164316 2.4648300044613149 0.82819096963700523 2.5586408562287559 0.80090181950194173 2.6508759209845572 0.7678254074156855 2.7415513742246493 0.72901242217677553 2.8306345030841493 0.68449389419556772 2.9180345912294587 0.6342840531714703 3.003655254760619 0.5783963024983243 3.087354083621944 0.51683605059315896 3.1689738360626052 0.44961010879092533 3.2483903092972852 0.376732477214343 3.3253980234480416 0.29820897221715031 3.3997436166215134 0.21405040441202097 3.4712337816714984 0.12428170749455374 3.5399512967516973 0.028929850140552538 3.6052857635012812 -0.071991347151471791 3.6669877742458716 -0.17843094379564561 3.7248079728117274 -0.29032932894149288 3.7784706954233589 -0.40761586012065648 3.8276987278039942 -0.53020869422724559 3.8721657883343008 -0.65800631704354529 3.9114781810909736 -0.79087455955826103 3.9453700081700367 -0.92868219568457855 3.9735811636015286 -1.0712913506315578 3.9957268339240857 -1.2185172528694184 4.0114450863135831 -1.3701543748472995 4.0204013684030215 -1.5259818206983782 12.945453133022786 -6.0306517470528451 12.250917554590151 -7.4907200132654399 11.386131921187793 -8.8778043246441101 10.356320643352284 -10.169684268851251 9.1724949925864045 -11.346874068889672 7.8463277914791538 -12.388983596976376 6.3942739993515127 -13.280439654070694 4.8320238846699128 -14.002203746438589 -1.4678007931698491 4.8497766070088764 -1.6399499797962882 4.7327103909959032 -1.80027025928046 4.6038452438906132 -1.5172958161440508 3.5169089742611694 -1.5712905899880163 3.3637367128530604 -1.6314832330763218 3.2444840040714507 -1.6644343964934809 3.0903275975153583 -1.6843285299413617 2.9336671742156235 -1.7136159150324568 2.8109221226721872 -1.7119652892084378 2.6541217938527377 -1.7231285479742384 2.5329813302165314 -1.7019210683021595 2.3791816435291961 -1.6970994944573397 2.2623332424885483 -1.6586953697988391 2.1139113081863812 -1.5823224617638609 1.9339342007767735 -1.5561882833651135 1.8288346870116103 -1.5256669410263479 1.7270848440047131 -1.4912890981769467 1.6288999397512709 -1.4535796004326775 1.534448480520906 -1.4130522843892899 1.4438556887785137 -1.3702079712384116 1.3572096470865525 -1.2905899567161778 1.2414384091527131 -1.2436644061871298 1.1637896107759775 -1.1959074506874507 1.0901193760586958 -1.1469239764946717 1.0196926721932202 -1.0987305852345535 0.95392856967464978 -1.0509100285383801 0.89204578054010819 -1.0038233910847523 0.83399154029129441 -0.9578125700487744 0.77970755498192357 -0.91320068094978457 0.72913217359314564 -0.87029401955142605 0.68220334661352533 -0.82939625616768986 0.63887039988115979 -0.79075127628213138 0.59905067888911534 -0.71459990486174985 0.53306650486485407 -0.67999990575791502 0.50006059039233597 -0.64927703082032862 0.47101443947179167 -0.62180718265856927 0.44525794295345872 -0.59779586209130864 0.422756780850298 -0.57744108545071604 0.40348207846510559 -0.6020172430210553 0.41560907032921535 -0.5890145006557973 0.40170550625891988 -0.5810603386961225 0.39156055636512976 -0.57751260318227848 0.38457617061623817 -0.57856531967957769 0.38073502870858394 -0.58441614868856739 0.38001931155308344 -0.59444191802515001 0.38188115496001795 -0.61050517766508772 0.38736361494236149 -0.63202340733256168 0.39590908423111248 -0.65920624743835088 0.4074614423476034 -0.69232549583040492 0.42198158076485437 -0.73166069454898197 0.43940749749594665 -0.77751635695231314 0.45965932471340348 -0.83022755037896367 0.48263610526479028 -0.8901646927939032 0.50821119700580797 -0.95773926506770601 0.53622718722127605 -0.9896049610562383 0.54272956645849146 -1.0734096327748046 0.5758531334671817 -1.1663507658394445 0.61080152456048975 -1.2690701280174663 0.64723701887305307 -1.3359962621079775 0.6621535513307768 -1.4599337368979994 0.70143739309679898 -1.5485197138833557 0.71918357056066873 -1.6972947215461043 0.75948419100977238 -1.8614903778375653 0.79900452534989408 -1.9895087238233997 0.81547868835962378 -2.1864727586886734 0.85131305486656517 -2.3484304231899182 0.86311142274186925 -2.7273920240215754 0.9372261432105532 -2.9397001924426291 0.93353464313507117 -3.2530580782717942 0.9424948634834458 -3.5950045589233803 0.93343832588719977 6.503279869936927 -1.7715674801085524 6.340704437815635 -2.0928100253065409 5.817038152497739 -2.253977923534741 4.925916921236742 -2.1728585473427704 3.7114998832980537 -1.806097913859805 -2.6023548913835466 1.2819483951439055 0 0
        </DataArray>
        <DataArray type="Float32" Name="u" NumberOfComponents="1">
          0 0.007874015748031496 0.015748031496062992 0.023622047244094488 0.031496062992125984 0.03937007874015748 0.047244094488188976 0.055118110236220472 0.062992125984251968 0.070866141732283464 0.07874015748031496 0.086614173228346455 0.094488188976377951 0.10236220472440945 0.11023622047244094 0.11811023622047244 0.12598425196850394 0.13385826771653545 0.14173228346456693 0.14960629921259844 0.15748031496062992 0.16535433070866143 0.17322834645669291 0.18110236220472442 0.1889763779527559 0.19685039370078741 0.20472440944881889 0.2125984251968504 0.22047244094488189 0.2283464566929134 0.23622047244094488 0.24409448818897639 0.25196850393700787 0.25984251968503935 0.26771653543307089 0.27559055118110237 0.28346456692913385 0.29133858267716534 0.29921259842519687 0.30708661417322836 0.31496062992125984 0.32283464566929132 0.33070866141732286 0.33858267716535434 0.34645669291338582 0.3543307086614173 0.36220472440944884 0.37007874015748032 0.37795275590551181 0.38582677165354329 0.39370078740157483 0.40157480314960631 0.40944881889763779 0.41732283464566927 0.42519685039370081 0.43307086614173229 0.44094488188976377 0.44881889763779526 0.45669291338582679 0.46456692913385828 0.47244094488188976 0.48031496062992124 0.48818897637795278 0.49606299212598426 0.50393700787401574 0.51181102362204722 0.51968503937007871 0.52755905511811019 0.53543307086614178 0.54330708661417326 0.55118110236220474 0.55905511811023623 0.56692913385826771 0.57480314960629919 0.58267716535433067 0.59055118110236215 0.59842519685039375 0.60629921259842523 0.61417322834645671 0.62204724409448819 0.62992125984251968 0.63779527559055116 0.64566929133858264 0.65354330708661412 0.66141732283464572 0.6692913385826772 0.67716535433070868 0.68503937007874016 0.69291338582677164 0.70078740157480313 0.70866141732283461 0.71653543307086609 0.72440944881889768 0.73228346456692917 0.74015748031496065 0.74803149606299213 0.75590551181102361 0.76377952755905509 0.77165354330708658 0.77952755905511806 0.78740157480314965 0.79527559055118113 0.80314960629921262 0.8110236220472441 0.81889763779527558 0.82677165354330706 0.83464566929133854 0.84251968503937003 0.85039370078740162 0.8582677165354331 0.86614173228346458 0.87401574803149606 0.88188976377952755 0.88976377952755903 0.89763779527559051 0.90551181102362199 0.91338582677165359 0.92125984251968507 0.92913385826771655 0.93700787401574803 0.94488188976377951 0.952755905511811 0.96062992125984248 0.96850393700787396 0.97637795275590555 0.98425196850393704 0.99212598425196852 1
        </DataArray>
      </PointData>
      <CellData Scalars="P">
        <DataArray type="Float32" Name="P" NumberOfComponents="1">
          -0.017265515886571107 -0.050577196561904729 -0.081517755750670551 -0.10948825382311557 -0.13410012516817538 -0.15508079942849046 -0.17222844136272636 -0.18538727203207628 -0.19443191062547288 -0.19925827782791869 -0.19977610157419162 -0.19590487152894068 -0.18757046282374637 -0.17470298612812227 -0.15723569293946252 -0.13510381927375728 -0.10824228271967018 -0.076586745877675028 -0.040072456547751108 0.0013667310136336699 0.04779810933459408 0.099289292650040786 0.15590863192059373 0.2177243007211869 0.28480412581023645 0.35721687128684454 0.43502982411013169 0.51830715704856289 0.60711184381999606 0.70151558258515589 0.80157427169780004 0.9073401770703633 1.018861687008962 1.1361820154765561 1.2593387778056317 1.3883615687126907 1.5232684796759941 1.6640707489273459 1.810772592863795 1.9633650552585504 2.1218260590188565 2.2861207314264966 2.9042167665913192 3.5186770969470329 4.1321775753956862 4.7467770684036434 5.3639116741171691 5.9840967361141209 6.6069554285645893 7.2308103512060526 6.970532343785691 6.6733285221478429 6.3440181605229924 6.0624407869364703 5.7689774677152235 5.4641365740357237 5.1543142930262862 4.8430744590132253 4.5298237134773096 4.2209969461032513 3.9151043168489039 3.6183491102047292 3.3284023507836409 3.0511569097778928 2.7926320916273886 2.5447346800215307 2.3082264092674349 2.0836758120241359 1.8714713391296034 1.6718355860669722 1.4848399769380067 1.3147336694314999 1.1568773011878262 1.0109609669159867 0.87667338611546652 0.75345081841535955 0.64076039801101103 0.53802282110290311 0.44462522998500409 0.35993343366214348 0.28330330765296818 0.21409058098102612 0.15166373169135608 0.097564676300190015 0.04886004594509339 0.0049517454348529727 -0.034669754281746977 -0.070465450115814704 -0.10284323813441498 -0.13295126683207989 -0.16004467113100507 -0.18437215241216584 -0.20610421209766602 -0.22534925762637167 -0.24215420053701586 -0.25651483952385484 -0.26835516708246171 -0.27754924388271524 -0.28392093626637016 -0.28724792104696689 -0.28726740600863065 -0.28368243656027115 -0.27616893269201981 -0.26438347749152485 -0.24797184369953332 -0.22847696136347176 -0.20374246143705424 -0.17343127799500277 -0.13723826572847531 -0.097125377167612381 -0.050703885394096461 -0.00013265407385265005 0.056932118823948191 0.12048818857255317 0.18795129695856261 0.26145559410310915 0.33816165096021722 0.42563354956809801 0.51484595488791773 0.60751033945077149 0.70186325230118618 0.49755566938838225 0.31594051219465535 0.16988909382067902 0.066859393899144068 0.0058780635580398125 0.0085752516071600209
        </DataArray>
      </CellData>
      <Points>
        <DataArray type="Float32" NumberOfComponents="3" format="ascii">
          4.2927498398114761 6.7263508735638631 0
          4.2887023252957412 6.7331054828650014 0
          4.2846851016527214 6.739878153688255 0
          4.2807142615579243 6.7466781272453487 0
          4.2768021347203149 6.7535120534121527 0
          4.2729591047083932 6.7603850796350082 0
          4.2691943477642385 6.7673012977354983 0
          4.2655162250378851 6.7742639833529923 0
          4.2619325160895842 6.7812757398314218 0
          4.2584505714981438 6.7883385927746529 0
          4.2550774135628249 6.7954540531312819 0
          4.2518198098111339 6.8026231631310061 0
          4.2486843237712861 6.8098465284308256 0
          4.245677351960782 6.8171243417289888 0
          4.242805150033103 6.8244563998888648 0
          4.2400738497310426 6.8318421159673246 0
          4.2374894701806216 6.8392805281344629 0
          4.2350579285176106 6.8467703075234647 0
          4.2327850424999776 6.8543097626069223 0
          4.2306765322589648 6.8618968429701717 0
          4.2287380213016998 6.8695291424486902 0
          4.2269750344819839 6.8772039010462107 0
          4.2253929923739895 6.8849180058107047 0
          4.2239972052941104 6.8926679916589029 0
          4.222792864468297 6.900450041704814 0
          4.2217850322791719 6.908259987675077 0
          4.2209786345614209 6.9160933107699716 0
          4.2203784478565733 6.9239451420168399 0
          4.219989083697933 6.9318102629331877 0
          4.2198149766189514 6.9396831070656004 0
          4.2198603892816342 6.9475577616549176 0
          4.2201293746190887 6.955427968486191 0
          4.2206257603629664 6.9632871270407133 0
          4.221353133573416 6.9711282981859846 0
          4.222314823536939 6.9789442085501152 0
          4.2235138845673967 6.9867272555912132 0
          4.224953075763481 6.9944695138871218 0
          4.226634836584843 7.0021627434507767 0
          4.2285612703527597 7.0097983978637055 0
          4.23073412810942 7.0173676328225572 0
          4.2331547847429762 7.0248613175947012 0
          4.2358242165309372 7.0322700477619087 0
          4.238742980381053 7.0395841589180606 0
          4.2424645704325403 7.0465242910006625 0
          4.2469459190148493 7.0529998935796048 0
          4.2521333993214343 7.0589249415617887 0
          4.2579631492942989 7.0642193134872926 0
          4.2643617543591805 7.0688100001643566 0
          4.2712469713033281 7.0726323694836939 0
          4.2785287486613663 7.0756311324464436 0
          4.2861101999207332 7.0777615242130834 0
          4.2936006263074011 7.0801926857200765 0
          4.3009893499983853 7.0829173567234571 0
          4.3082664267156519 7.085927544942809 0
          4.3154493712897102 7.0891558257332763 0
          4.3225348342805079 7.0925926957227681 0
          4.3295190834159358 7.0962307557606978 0
          4.3364000749927092 7.1000604416954847 0
          4.3431765752894007 7.1040720342072223 0
          4.3498467694169349 7.1082579180468093 0
          4.3564107602285116 7.1126083656771 0
          4.3628678572210582 7.1171158618863197 0
          4.3692193764622074 7.1217708658361749 0
          4.3754656190768948 7.1265661291380189 0
          4.3816089678828503 7.1314924451894983 0
          4.3876541594299878 7.1365386503982728 0
          4.3936028169729413 7.1416982261909405 0
          4.3994568358500654 7.1469648621076951 0
          4.4052183505570195 7.1523324691460761 0
          4.4108897021833666 7.157795190201826 0
          4.41647340653416 7.1633474078228252 0
          4.4219721230610372 7.1689837496574587 0
          4.427390790771363 7.1746970372941012 0
          4.4327323221783343 7.1804824570735493 0
          4.4379996812930855 7.1863354423621137 0
          4.4431959081074526 7.192251627946904 0
          4.4483239935740047 7.1982269380205119 0
          4.4533869054630593 7.2042575377040725 0
          4.4583875659729744 7.2103398297519314 0
          4.4633288305312275 7.2164704509131941 0
          4.4682134677608012 7.2226462680850521 0
          4.4730441404899466 7.2288643744415637 0
          4.4778233869249684 7.2351220862680403 0
          4.4825536055295192 7.2414169378130273 0
          4.4872395201455015 7.2477448413079557 0
          4.4918832784024163 7.2541037537998516 0
          4.4964867874780641 7.260491877917846 0
          4.501051752790274 7.2669076203061884 0
          4.5055796652520472 7.2733495894775846 0
          4.5100717889891948 7.2798165940055783 0
          4.5145266019491697 7.2863093889733941 0
          4.518944912146833 7.2928271158577553 0
          4.5233272144679484 7.2993691491425006 0
          4.5276737304768213 7.305935059235658 0
          4.5319843963722519 7.3125246113865616 0
          4.5362588507161306 7.3191377645737568 0
          4.5404964730664545 7.3257746375453774 0
          4.5446962684514203 7.3324355734595645 0
          4.5488569034754249 7.3391211053217598 0
          4.5529766932974622 7.3458319525049394 0
          4.5570535847529081 7.3525690183252106 0
          4.5610851389934055 7.3593333861994044 0
          4.5650685125765209 7.3661263146959683 0
          4.5690004366589569 7.372949231278966 0
          4.5728771939958657 7.3798037244599497 0
          4.5766945933919798 7.3866915340419927 0
          4.5804506585940237 7.3936130670493094 0
          4.5841401912606514 7.4005703799810965 0
          4.5877574260248615 7.4075656424422611 0
          4.5912959906544177 7.4146011162042953 0
          4.594751733226591 7.4216777301544008 0
          4.5981169646735305 7.4287979227066403 0
          4.6013861888781866 7.4359627983459813 0
          4.60455017523143 7.4431748585542401 0
          4.6075987360237134 7.4504365563244628 0
          4.6105239277756507 7.457748917425377 0
          4.6133135289220562 7.4651141662109906 0
          4.6159574894694613 7.4725330385594217 0
          4.6184322946320577 7.4800101265922097 0
          4.6207247695199749 7.4875452048130677 0
          4.6228154688905727 7.4951388288534346 0
          4.624683173187468 7.5027904365723179 0
          4.6269541951899891 7.5103317931803844 0
          4.6296184109606839 7.5177430316510403 0
          4.6326433061572567 7.5250141998652325 0
          4.6359735848346801 7.5321503615069663 0
          4.63953391370835 7.5391742884470165 0
          4.6429327169900407 7.5462773886969021 0
        </DataArray>
      </Points>
      <Cells>
        <DataArray type="Int32" Name="connectivity" format="ascii">
          0 1 1 2 2 3 3 4 4 5 5 6 6 7 7 8 8 9 9 10 10 11 11 12 12 13 13 14 14 15 15 16 16 17 17 18 18 19 19 20 20 21 21 22 22 23 23 24 24 25 25 26 26 27 27 28 28 29 29 30 30 31 31 32 32 33 33 34 34 35 35 36 36 37 37 38 38 39 39 40 40 41 41 42 42 43 43 44 44 45 45 46 46 47 47 48 48 49 49 50 50 51 51 52 52 53 53 54 54 55 55 56 56 57 57 58 58 59 59 60 60 61 61 62 62 63 63 64 64 65 65 66 66 67 67 68 68 69 69 70 70 71 71 72 72 73 73 74 74 75 75 76 76 77 77 78 78 79 79 80 80 81 81 82 82 83 83 84 84 85 85 86 86 87 87 88 88 89 89 90 90 91 91 92 92 93 93 94 94 95 95 96 96 97 97 98 98 99 99 100 100 101 101 102 102 103 103 104 104 105 105 106 106 107 107 108 108 109 109 110 110 111 111 112 112 113 113 114 114 115 115 116 116 117 117 118 118 119 119 120 120 121 121 122 122 123 123 124 124 125 125 126 126 127 
        </DataArray>
        <DataArray type="Int32" Name="offsets" format="ascii">
          2 4 6 8 10 12 14 16 18 20 22 24 26 28 30 32 34 36 38 40 42 44 46 48 50 52 54 56 58 60 62 64 66 68 70 72 74 76 78 80 82 84 86 88 90 92 94 96 98 100 102 104 106 108 110 112 114 116 118 120 122 124 126 128 130 132 134 136 138 140 142 144 146 148 150 152 154 156 158 160 162 164 166 168 170 172 174 176 178 180 182 184 186 188 190 192 194 196 198 200 202 204 206 208 210 212 214 216 218 220 222 224 226 228 230 232 234 236 238 240 242 244 246 248 250 252 254 
        </DataArray>
        <DataArray type="Int32" Name="types" format="ascii">
          3 3 3 3 3 3 3 3 3 3 3 3 3 3 3 3 3 3 3 3 3 3 3 3 3 3 3 3 3 3 3 3 3 3 3 3 3 3 3 3 3 3 3 3 3 3 3 3 3 3 3 3 3 3 3 3 3 3 3 3 3 3 3 3 3 3 3 3 3 3 3 3 3 3 3 3 3 3 3 3 3 3 3 3 3 3 3 3 3 3 3 3 3 3 3 3 3 3 3 3 3 3 3 3 3 3 3 3 3 3 3 3 3 3 3 3 3 3 3 3 3 3 3 3 3 3 3         </DataArray>
      </Cells>
    </Piece>
  </UnstructuredGrid>
</VTKFile>
