<?xml version="1.0"?>
<VTKFile type="UnstructuredGrid" version="0.1" byte_order="LittleEndian">
  <UnstructuredGrid>
    <Piece NumberOfPoints="128" NumberOfCells="127">
      <PointData Scalars="W">
        <DataArray type="Float32" Name="W" NumberOfComponents="2">
          0 0 -0.012388823173232541 -0.059412125308312483 -0.011423846060501456 -0.054658949520724101 -0.013885786167932295 -0.066277411600552158 -0.01844953532100739 -0.087789211439123244 -0.024603040898518155 -0.11659321811517417 -0.032153872958601094 -0.1515665574667234 -0.041046622971822752 -0.1921747938505699 -0.051285398604044713 -0.2380911126678121 -0.062895572867443447 -0.28900840061197819 -0.075938570655613116 -0.34470193937796956 -0.09049698406368413 -0.40495454807068404 -0.10667750622167908 -0.46956591801834113 -0.12459207838122958 -0.53826791748504332 -0.14435788820452139 -0.61073144426912074 -0.16611345540356776 -0.6866421506714917 -0.19003265513535217 -0.76575828022160553 -0.21628908289954782 -0.84776499571500274 -0.2450703602952895 -0.93234285597681255 -0.27658572218446181 -1.0192009275506797 -0.31105090734698565 -1.1080229279029157 -0.34867941535597569 -1.198446631630889 -0.38970020192489813 -1.2901358934592666 -0.43435044235711279 -1.3827576916163591 -0.4828402053959277 -1.4758796626803978 -0.53541167068937345 -1.5691682157638587 -0.59228082162658446 -1.6622098704032469 -0.65362736255477727 -1.7545078303012467 -0.71963657080677979 -1.8456139709116448 -0.79061870153352864 -1.9354084903028395 -0.86659660450480258 -2.0230724815075436 -0.94768895727441926 -2.108108884683181 -1.0339880927831409 -2.1900160073350152 -1.1255513570502738 -2.2682771028286401 -1.2223843379308004 -2.3423385918898578 -1.3244631777823552 -2.4116663114607633 -1.431661605849903 -2.4756239548012275 -1.5438763295003446 -2.5337116705375045 -1.6609403688968989 -2.5854044463110784 -1.7825515877671088 -2.6300641229372741 -1.9083595220399834 -2.6671025058552451 -2.0379521902491531 -2.6959646999689877 2.6361570897163111 3.5164544591957236 2.4570157961240002 3.5224119977944306 2.2427315616361634 3.4535829312237873 2.039390549297591 3.3698448413821813 1.8860429586347784 3.3434682520435346 1.7023487561683703 3.2375420349259127 1.566079137882141 3.1956255189215907 1.4362108035928098 3.1478813062457833 1.3131179914974445 3.0956833802483876 1.1960276985089493 3.0377770773740331 1.0853020541048752 2.9754652286349152 0.98058446141990419 2.908273890661015 0.8824176556105886 2.8384069503513718 0.81257495559489867 2.8466639103486564 0.68281638268403466 2.611167976102085 0.58653484905785758 2.4472247929188775 0.50005612992357884 2.277350628552175 0.42309630372024065 2.1031705334578832 0.35460642767469508 1.9227615449573794 0.29422725559004792 1.7375898218682098 0.24149107133496933 1.5492953810790191 0.17990808794150467 1.24509210085386 0.12571464163787702 0.92648406414342355 0.10782832713363689 0.83875947991508137 0.091603211919989075 0.74990018105312406 0.077055532683956887 0.6615485223198192 0.05073064806850109 0.45293925725336992 0.039776359387725196 0.36585943379225155 0.029680929881883183 0.27965342508489022 0.020436059606289601 0.1960659783029241 -0.001551085465348727 -0.014985465808055773 -0.010194932184059638 -0.098067514572264064 -0.018718433144353615 -0.1781626582618587 -0.027626865177144074 -0.25864811952944511 -0.036870375311924983 -0.33763645078317184 -0.061562517089611593 -0.54603273172340994 -0.072786855809909304 -0.61984855319654431 -0.085106733834830306 -0.69355913373560096 -0.098405189542350668 -0.76526155214618297 -0.11274879602411018 -0.8348361362564557 -0.12790923197878612 -0.90023716403728649 -0.16520123959838648 -1.0997852295915844 -0.18519679365570491 -1.1615627085302678 -0.20650451312947024 -1.2204862944587502 -0.22907253249497758 -1.2763090773590249 -0.25246973354398489 -1.3269724166147194 -0.27730909496187051 -1.3760814889548181 -0.30313600047846478 -1.4214813066683769 -0.36171845423938598 -1.6003593265694269 -0.39256536591587871 -1.636913935862585 -0.42351313877103475 -1.6671316032026577 -0.45525450846774945 -1.694588612011231 -0.48706983100538065 -1.7171485042067742 -0.51866220780295647 -1.7346136483931733 -0.54967864785879161 -1.7467024323243132 -0.62597228393532567 -1.8893804042439151 -0.65884212602948367 -1.8886654397920397 -0.68991089913570969 -1.8817910490805279 -0.71869716485782376 -1.8685709513606963 -0.74388167646137848 -1.846856305000572 -0.8261358582404299 -1.9588400894596762 -0.84914524609851894 -1.9233292448583512 -0.86652291610624632 -1.878568834053215 -0.87937637452878215 -1.8282918058599931 -0.95713980250724029 -1.9091798705468901 -0.96032564303581858 -1.8388048412125242 -0.95663941313667278 -1.7621725543200886 -1.0233723530295873 -1.8147974039567907 -1.0054725840215051 -1.7180421482064516 -0.97669682047247075 -1.6119323715144853 -1.0242510109052985 -1.6345176049065016 -0.97431180899826697 -1.5053293218934785 -1.0050616442590619 -1.5055650764927544 -0.92657246294305162 -1.348009483775602 -0.93382887974641549 -1.3219478860687044 -0.93150171956414984 -1.2839532906653508 -0.92048589109248813 -1.2364342920652631 -0.35080926177993105 -0.46308862959144248 -0.22076051576376279 -0.28917467123074209 0.023262492800332317 0.030390715002922567 0.080385670600468945 0.10516428029177444 0.3324886627021974 0.43740716184267953 0.53169554721862478 0.70774231021222767 0.73260045593928103 0.99230859134905891 0.59275577945074709 0.81792224744354403 0 0
        </DataArray>
        <DataArray type="Float32" Name="u" NumberOfComponents="1">
          0 0.007874015748031496 0.015748031496062992 0.023622047244094488 0.031496062992125984 0.03937007874015748 0.047244094488188976 0.055118110236220472 0.062992125984251968 0.070866141732283464 0.07874015748031496 0.086614173228346455 0.094488188976377951 0.10236220472440945 0.11023622047244094 0.11811023622047244 0.12598425196850394 0.13385826771653545 0.14173228346456693 0.14960629921259844 0.15748031496062992 0.16535433070866143 0.17322834645669291 0.18110236220472442 0.1889763779527559 0.19685039370078741 0.20472440944881889 0.2125984251968504 0.22047244094488189 0.2283464566929134 0.23622047244094488 0.24409448818897639 0.25196850393700787 0.25984251968503935 0.26771653543307089 0.27559055118110237 0.28346456692913385 0.29133858267716534 0.29921259842519687 0.30708661417322836 0.31496062992125984 0.32283464566929132 0.33070866141732286 0.33858267716535434 0.34645669291338582 0.3543307086614173 0.36220472440944884 0.37007874015748032 0.37795275590551181 0.38582677165354329 0.39370078740157483 0.40157480314960631 0.40944881889763779 0.41732283464566927 0.42519685039370081 0.43307086614173229 0.44094488188976377 0.44881889763779526 0.45669291338582679 0.46456692913385828 0.47244094488188976 0.48031496062992124 0.48818897637795278 0.49606299212598426 0.50393700787401574 0.51181102362204722 0.51968503937007871 0.52755905511811019 0.53543307086614178 0.54330708661417326 0.55118110236220474 0.55905511811023623 0.56692913385826771 0.57480314960629919 0.58267716535433067 0.59055118110236215 0.59842519685039375 0.60629921259842523 0.61417322834645671 0.62204724409448819 0.62992125984251968 0.63779527559055116 0.64566929133858264 0.65354330708661412 0.66141732283464572 0.6692913385826772 0.67716535433070868 0.68503937007874016 0.69291338582677164 0.70078740157480313 0.70866141732283461 0.71653543307086609 0.72440944881889768 0.73228346456692917 0.74015748031496065 0.74803149606299213 0.75590551181102361 0.76377952755905509 0.77165354330708658 0.77952755905511806 0.78740157480314965 0.79527559055118113 0.80314960629921262 0.8110236220472441 0.81889763779527558 0.82677165354330706 0.83464566929133854 0.84251968503937003 0.85039370078740162 0.8582677165354331 0.86614173228346458 0.87401574803149606 0.88188976377952755 0.88976377952755903 0.89763779527559051 0.90551181102362199 0.91338582677165359 0.92125984251968507 0.92913385826771655 0.93700787401574803 0.94488188976377951 0.952755905511811 0.96062992125984248 0.96850393700787396 0.97637795275590555 0.98425196850393704 0.99212598425196852 1
        </DataArray>
      </PointData>
      <CellData Scalars="P">
        <DataArray type="Float32" Name="P" NumberOfComponents="1">
          0.009565992841581699 0.028697296018295394 0.04784001255118496 0.067002882091154778 0.086212035468424458 0.10552090633151967 0.12501766478380294 0.14483177091544003 0.16513961685469514 0.18616871452801872 0.20820132281772505 0.23157679841795184 0.25669307440489469 0.28400587326654275 0.31402613548139158 0.34731721686863848 0.38449269947115411 0.4262101873276809 0.4731652620899679 0.52608568532919742 0.5857232406348083 0.65284359971412453 0.72821805081495428 0.81261401981006975 0.90677975938890576 1.0114380652171748 1.1272707251374887 1.254901043398513 1.3948836386858559 1.5477150410980764 1.7137733211438089 1.8933252404386147 2.086512722262396 2.2933386689472894 2.5136510043434126 2.7471317749619621 2.9932757484439114 3.2513913345732601 3.5205882603648662 3.7997569236241464 4.0875644467687025 4.382450959308323 4.0384833441739829 3.697542154988902 3.3669452660492971 3.0476361198772324 2.7331637052963238 2.4314071231827459 2.1354328598696757 1.8456346624055979 1.5622989963266245 1.2858701326540805 1.0166860586347473 0.7551562008900885 0.5014892744198195 0.24786535089592102 0.018543543703287424 -0.19375328837669392 -0.38852533342673812 -0.56542732564253462 -0.72392876044247101 -0.86365658726088912 -0.98441780077597185 -1.0752527970281121 -1.1351417322950592 -1.1862562859717609 -1.2285450251207608 -1.2621425275478697 -1.2762261007748648 -1.2821646220689442 -1.2802226546930191 -1.2708446298558793 -1.2434278186880774 -1.20936135551781 -1.1692036687967293 -1.12325812845895 -1.0720058058503197 -1.0061365167995053 -0.93644983897538636 -0.86338813983461904 -0.7875458677128041 -0.70953209050079591 -0.63008557406814591 -0.54178556558268154 -0.45363726238962049 -0.36629833827064562 -0.28042341904097356 -0.1967407007734582 -0.11577890794707398 -0.038138597484485039 0.040475589562059051 0.11412235506258783 0.18223952046760861 0.24443177676904979 0.30030343872819315 0.34952663711748883 0.39184669815706952 0.42825937010652765 0.45693372504564284 0.47786990955738307 0.49117102700973636 0.49706122895982796 0.49433746737974732 0.48440776743865477 0.46786709458011805 0.44536553193900913 0.41416150608338309 0.378306694149596 0.33879486888703014 0.29197783896774665 0.24355639383592753 0.1948941398720454 0.14161274195217649 0.090805432491229257 0.037698177874821479 -0.0098216970631319709 -0.056889536454376943 -0.10220903693743148 -0.14458211668426107 -0.15158725348003579 -0.15040265585499868 -0.13615038666893903 -0.11933921979269414 -0.09313980794191061 -0.062781282192843374 -0.031847064217093199 -0.0088982889100227558
        </DataArray>
      </CellData>
      <Points>
        <DataArray type="Float32" NumberOfComponents="3" format="ascii">
          5.7432841664401879 10.555688592600784 0
          5.750993466187329 10.554082944794287 0
          5.7587019863666429 10.552473615124299 0
          5.7664097802949525 10.550860899723569 0
          5.7741166905000227 10.549244079156924 0
          5.7818224302203927 10.547621820302433 0
          5.7895266148863431 10.545992337721309 0
          5.7972287739112538 10.54435346333179 0
          5.8049283540425582 10.542702679580964 0
          5.8126247190506737 10.541037139734907 0
          5.8203171481151861 10.53935368694224 0
          5.8280048319851119 10.537648868184602 0
          5.8356868678326226 10.53591894775634 0
          5.8433622526161777 10.534159919694787 0
          5.8510298761207524 10.532367524412795 0
          5.858688513674327 10.53053726910843 0
          5.8663368175426944 10.528664447256386 0
          5.8739733061326325 10.526744153595093 0
          5.8815963532126601 10.524771303641968 0
          5.8892041762640543 10.522740653490917 0
          5.8967948234915122 10.520646817839243 0
          5.9043661604300093 10.518484289583427 0
          5.9119158566898369 10.516247462260774 0
          5.9194413717423977 10.513930650871588 0
          5.9269399401952638 10.511528112505555 0
          5.9344085587465321 10.509034073125557 0
          5.9418439711467608 10.506442748226025 0
          5.9492426547833803 10.503748368443402 0
          5.9566008095124907 10.500945210331524 0
          5.9639143461431114 10.498027624119111 0
          5.9711788671705541 10.494990041111468 0
          5.9783896653266595 10.491827024437564 0
          5.9855417161863116 10.488533299843844 0
          5.9926296724049148 10.485103786777175 0
          5.999647860122705 10.481533630403579 0
          6.0065902785758425 10.477818235913636 0
          6.0134506015310301 10.473953301627647 0
          6.0202221850680129 10.469934858438009 0
          6.0268980739358682 10.465759300795833 0
          6.0334710118568085 10.461423419262625 0
          6.0399334602094115 10.456924440082943 0
          6.046277619708305 10.452260061665244 0
          6.0524954558988062 10.447428489004384 0
          6.0588767552411102 10.442814951477192 0
          6.0654104104650486 10.438419819149482 0
          6.0720831338381931 10.434238825685455 0
          6.0788823159406444 10.43026678015406 0
          6.0857984485294381 10.426502047449015 0
          6.0928201401391009 10.422938060633145 0
          6.0999389413449112 10.419572220878543 0
          6.1071467996265056 10.416401567997141 0
          6.1144360825902586 10.413422865629354 0
          6.1217995300003238 10.410632523463063 0
          6.1292302762490989 10.408026678008287 0
          6.1367218282249159 10.405601163214987 0
          6.1442680990019083 10.403351647113924 0
          6.1518647596718958 10.40127864146344 0
          6.1595037609060252 10.399367545132691 0
          6.1671791307125892 10.397608193066093 0
          6.174885504826765 10.395990052315343 0
          6.1826181091523793 10.39450232281415 0
          6.1903726946927371 10.393133818171378 0
          6.1981455153229144 10.39187305659912 0
          6.2059332988413347 10.390708362625286 0
          6.2137322222277884 10.38962087402396 0
          6.2215389206664691 10.388590835405545 0
          6.2293522854054784 10.387612806898277 0
          6.2371713106746283 10.386681278354423 0
          6.2449950947251125 10.385790771178108 0
          6.2528220034880535 10.384928350575613 0
          6.2606513582139964 10.384088616972132 0
          6.2684825334314001 10.383266225046709 0
          6.2763149564606246 10.382455991905578 0
          6.2841472627327493 10.381644831748792 0
          6.2919789170771319 10.380827593186773 0
          6.2998093918547466 10.379999310081429 0
          6.3076381355878182 10.379154992147201 0
          6.3154645760822365 10.378289741968169 0
          6.3232871820337131 10.377390638817367 0
          6.3311052588352039 10.376453106084732 0
          6.3389180440191817 10.375472573699753 0
          6.3467247145355987 10.374444596101933 0
          6.3545243826304763 10.373364859648092 0
          6.3623161100179102 10.372229309433578 0
          6.3700975857963096 10.371025573436732 0
          6.3778675724167853 10.369749821314988 0
          6.385624751101008 10.368398399581395 0
          6.3933677250609566 10.366967846894664 0
          6.40109504622981 10.365455021676578 0
          6.4088051772577375 10.363856878571854 0
          6.4164965197026138 10.362170602037731 0
          6.4241654450429655 10.36038510049565 0
          6.431810044225756 10.358498106266136 0
          6.4394284020633723 10.356507744308431 0
          6.4470185543021712 10.354412310463072 0
          6.4545785322261375 10.352210403896658 0
          6.4621063810587644 10.349900939338015 0
          6.4696001818413942 10.347483164523833 0
          6.4770552104537815 10.344948229171843 0
          6.4844694335718138 10.342296173768402 0
          6.4918409296102659 10.339527420281508 0
          6.4991679185652345 10.336642783709783 0
          6.5064488437653143 10.33364360534701 0
          6.513678613164795 10.330522934228583 0
          6.5208558053915224 10.327282965597142 0
          6.5279793482318285 10.323926467820353 0
          6.5350484500653323 10.320456550903224 0
          6.5420582983709208 10.316868188078216 0
          6.54900870123811 10.313165734076986 0
          6.5558998929842449 10.309353931302217 0
          6.5627277458139801 10.305429502223673 0
          6.5694933757995351 10.301398435675072 0
          6.5761985736431692 10.29726730054055 0
          6.5828404018583644 10.293034678873244 0
          6.5894219643260694 10.288708569839761 0
          6.5959413667935438 10.284288939163019 0
          6.602403484912176 10.27978554505451 0
          6.6088078831517878 10.275199982316183 0
          6.6151547216690219 10.270534584023151 0
          6.6214447012632816 10.265792271882544 0
          6.6277131471553403 10.261021043663582 0
          6.63396814526706 10.256231676166495 0
          6.6402248500640999 10.251443993665365 0
          6.6464868389472942 10.246662613760641 0
          6.6527697814648734 10.241908148438702 0
          6.6590860792830222 10.237197362703819 0
          6.6654482544517668 10.2325479027757 0
          6.6718477350961773 10.227948876308528 0
        </DataArray>
      </Points>
      <Cells>
        <DataArray type="Int32" Name="connectivity" format="ascii">
          0 1 1 2 2 3 3 4 4 5 5 6 6 7 7 8 8 9 9 10 10 11 11 12 12 13 13 14 14 15 15 16 16 17 17 18 18 19 19 20 20 21 21 22 22 23 23 24 24 25 25 26 26 27 27 28 28 29 29 30 30 31 31 32 32 33 33 34 34 35 35 36 36 37 37 38 38 39 39 40 40 41 41 42 42 43 43 44 44 45 45 46 46 47 47 48 48 49 49 50 50 51 51 52 52 53 53 54 54 55 55 56 56 57 57 58 58 59 59 60 60 61 61 62 62 63 63 64 64 65 65 66 66 67 67 68 68 69 69 70 70 71 71 72 72 73 73 74 74 75 75 76 76 77 77 78 78 79 79 80 80 81 81 82 82 83 83 84 84 85 85 86 86 87 87 88 88 89 89 90 90 91 91 92 92 93 93 94 94 95 95 96 96 97 97 98 98 99 99 100 100 101 101 102 102 103 103 104 104 105 105 106 106 107 107 108 108 109 109 110 110 111 111 112 112 113 113 114 114 115 115 116 116 117 117 118 118 119 119 120 120 121 121 122 122 123 123 124 124 125 125 126 126 127 
        </DataArray>
        <DataArray type="Int32" Name="offsets" format="ascii">
          2 4 6 8 10 12 14 16 18 20 22 24 26 28 30 32 34 36 38 40 42 44 46 48 50 52 54 56 58 60 62 64 66 68 70 72 74 76 78 80 82 84 86 88 90 92 94 96 98 100 102 104 106 108 110 112 114 116 118 120 122 124 126 128 130 132 134 136 138 140 142 144 146 148 150 152 154 156 158 160 162 164 166 168 170 172 174 176 178 180 182 184 186 188 190 192 194 196 198 200 202 204 206 208 210 212 214 216 218 220 222 224 226 228 230 232 234 236 238 240 242 244 246 248 250 252 254 
        </DataArray>
        <DataArray type="Int32" Name="types" format="ascii">
          3 3 3 3 3 3 3 3 3 3 3 3 3 3 3 3 3 3 3 3 3 3 3 3 3 3 3 3 3 3 3 3 3 3 3 3 3 3 3 3 3 3 3 3 3 3 3 3 3 3 3 3 3 3 3 3 3 3 3 3 3 3 3 3 3 3 3 3 3 3 3 3 3 3 3 3 3 3 3 3 3 3 3 3 3 3 3 3 3 3 3 3 3 3 3 3 3 3 3 3 3 3 3 3 3 3 3 3 3 3 3 3 3 3 3 3 3 3 3 3 3 3 3 3 3 3 3         </DataArray>
      </Cells>
    </Piece>
  </UnstructuredGrid>
</VTKFile>
