<?xml version="1.0"?>
<VTKFile type="UnstructuredGrid" version="0.1" byte_order="LittleEndian">
  <UnstructuredGrid>
    <Piece NumberOfPoints="128" NumberOfCells="127">
      <PointData Scalars="W">
        <DataArray type="Float32" Name="W" NumberOfComponents="2">
          0 0 0.15852158556274246 0.034803157984976782 0.17852547189730447 0.038940847955603951 0.17911051351658919 0.038798167399368685 0.1669621901382892 0.035923058967726025 0.145010513127483 0.03100945119209788 0.11513129588407713 0.024493934170337964 0.078596313716186694 0.016657145420411273 0.036343347364228999 0.0076847862512830602 -0.010969602837363007 -0.0023183479612436729 -0.062764462848507438 -0.013284282484435474 -0.11860298315391797 -0.025193137537608101 -0.17813701249794936 -0.038061554309921045 -0.24107879806740556 -0.051935681251839949 -0.30719928282943193 -0.06689039555526137 -0.37629015739133193 -0.083020889876376958 -0.44807413947110253 -0.10042210683770021 -0.52236854408412436 -0.11922391621868177 -0.59896821397824196 -0.13956498256252561 -0.67762959854529303 -0.16158755019328294 -0.75812608422967909 -0.18544881173510316 -0.84024840712065507 -0.21132046853386463 -0.92376955519935733 -0.23937922309016854 -1.0084435111121124 -0.26980461929884719 -1.0940380799014691 -0.30278615377993162 -1.1802357421992342 -0.33849398664421537 -1.266768833218765 -0.37711320990481617 -1.3534189772584297 -0.41884536156985391 -1.4398558716668934 -0.46385810293214436 -1.5254285287398448 -0.51220380408112298 -1.6101377539252784 -0.56413677585233668 -1.6936073413089081 -0.61978482513348798 -1.7754494242257233 -0.67925676390512568 -1.8552494104206623 -0.74263271513238038 -1.9325929283680914 -0.80997015478941614 -2.0070307839640358 -0.88128531604414906 -2.0782065065379953 -0.95660579269640622 -2.1456059076774983 -1.0358558431046114 -2.2086871392734668 -1.1188985699779201 -2.2670340978803054 -1.205609526420323 -2.320202755195238 -1.2958025215393891 -2.367715785345939 -1.3892166335044136 -10.600152509056466 -7.1238312287394399 -9.8856988090082378 -8.2026982058072999 5.2047777750085853 4.528718457778858 5.3849225041613824 4.1965731505735695 5.5432835279088462 3.8620799802374903 5.6801924446705652 3.5263687307876821 5.7962083478341899 3.1906568835404419 5.8916675733024872 2.8559670005649798 5.9670651076528403 2.5233766670667568 4.2829446917352003 1.595357301796142 4.2751027705556277 1.4206808204027481 4.1995418589765201 1.23428402432129 4.2248191048139327 1.0852941971184045 4.1969470116447827 0.92684207243911143 4.1649139494362659 0.77400924258228365 4.1267325007775035 0.6263468110044782 4.017772667263702 0.4773743039184089 3.8338044956944306 0.335065883598957 3.7100347952335375 0.21315385823874181 3.5784249582721759 0.10259157483080793 3.3637223765800388 0.0044427949644643139 3.2213267392803049 -0.079299015460139774 2.8958534531387028 -0.14118550513233077 2.8318292625748498 -0.20228213408227469 2.7691256388977887 -0.25950382712557385 2.7037071525557672 -0.31260081571494203 2.5446747051113556 -0.34806403157961002 2.4792797215934987 -0.38976458270188913 2.4139323151645748 -0.42796769162102727 2.3487916670870836 -0.4628023672244318 2.188988879043881 -0.47295538577247781 2.1276648924514312 -0.49865546408266553 2.064880839923847 -0.52110089849198871 2.002913344841823 -0.54088125443097324 1.9418470118864053 -0.55813397124702246 1.7857048242437379 -0.54297418859973468 1.7278075894042433 -0.55284597768559773 1.6711894560120166 -0.56079450069190728 1.6159487658694298 -0.56697400082604821 1.5621795401067067 -0.57154011818726136 1.509975195637133 -0.5746508899538505 1.3627380471492019 -0.53762818634007725 1.3148579678824841 -0.53607634954413697 1.2688024625968441 -0.53366503131276832 1.2246634370539489 -0.5305548280248148 1.1825327576812568 -0.52690775953190805 1.1425059196959766 -0.52288878271351436 1.1046783151120543 -0.51866411179327643 0.97224134993410594 -0.46726955458599551 0.93993989327975003 -0.46146852408030703 0.91013496734411614 -0.45605623370919479 0.88294917459068079 -0.4512085658984803 0.85851220234937242 -0.44710677883188099 0.83696019144934963 -0.44393773647361279 0.81840696267362301 -0.44187890360370358 0.70363793071724035 -0.38613451278406685 0.69238277091199663 -0.38563545048452691 0.68465441732713739 -0.38692683335387329 0.68065862485796735 -0.39024276268529956 0.68061243397860594 -0.39583299619956158 0.68474759856363776 -0.4039675243453838 0.59457521711547179 -0.35548131620861606 0.60851079933980778 -0.36839438864915097 0.6293731618028543 -0.38595005759778717 0.65370496289592406 -0.40623091470011391 0.58303456117235797 -0.36697190417476516 0.61993772177580075 -0.39506922945654455 0.66342609114816564 -0.42840505833219017 0.61291419284868842 -0.40101225868035145 0.67192231513499923 -0.44545547109147354 0.73917383823755389 -0.497181304991899 0.71232197515449636 -0.48629555548783232 0.79931424825438691 -0.5541934537248383 0.7914913526894628 -0.55777357840951902 0.90427862765354883 -0.64840966827741797 0.91826555385558772 -0.67083527379239238 0.94746687718301137 -0.70552315595735138 0.98393924478498085 -0.74734202248692294 1.046670718424739 -0.81175647283224917 1.599460176495874 -1.2748244877526136 1.7909827618109071 -1.4785527002995575 1.8841797404306435 -1.6164002015565777 2.0771788922305969 -1.8581661501295352 2.315301986875947 -2.1711492804071808 2.0731510749222561 -2.0395670825421628 0 0
        </DataArray>
        <DataArray type="Float32" Name="u" NumberOfComponents="1">
          0 0.007874015748031496 0.015748031496062992 0.023622047244094488 0.031496062992125984 0.03937007874015748 0.047244094488188976 0.055118110236220472 0.062992125984251968 0.070866141732283464 0.07874015748031496 0.086614173228346455 0.094488188976377951 0.10236220472440945 0.11023622047244094 0.11811023622047244 0.12598425196850394 0.13385826771653545 0.14173228346456693 0.14960629921259844 0.15748031496062992 0.16535433070866143 0.17322834645669291 0.18110236220472442 0.1889763779527559 0.19685039370078741 0.20472440944881889 0.2125984251968504 0.22047244094488189 0.2283464566929134 0.23622047244094488 0.24409448818897639 0.25196850393700787 0.25984251968503935 0.26771653543307089 0.27559055118110237 0.28346456692913385 0.29133858267716534 0.29921259842519687 0.30708661417322836 0.31496062992125984 0.32283464566929132 0.33070866141732286 0.33858267716535434 0.34645669291338582 0.3543307086614173 0.36220472440944884 0.37007874015748032 0.37795275590551181 0.38582677165354329 0.39370078740157483 0.40157480314960631 0.40944881889763779 0.41732283464566927 0.42519685039370081 0.43307086614173229 0.44094488188976377 0.44881889763779526 0.45669291338582679 0.46456692913385828 0.47244094488188976 0.48031496062992124 0.48818897637795278 0.49606299212598426 0.50393700787401574 0.51181102362204722 0.51968503937007871 0.52755905511811019 0.53543307086614178 0.54330708661417326 0.55118110236220474 0.55905511811023623 0.56692913385826771 0.57480314960629919 0.58267716535433067 0.59055118110236215 0.59842519685039375 0.60629921259842523 0.61417322834645671 0.62204724409448819 0.62992125984251968 0.63779527559055116 0.64566929133858264 0.65354330708661412 0.66141732283464572 0.6692913385826772 0.67716535433070868 0.68503937007874016 0.69291338582677164 0.70078740157480313 0.70866141732283461 0.71653543307086609 0.72440944881889768 0.73228346456692917 0.74015748031496065 0.74803149606299213 0.75590551181102361 0.76377952755905509 0.77165354330708658 0.77952755905511806 0.78740157480314965 0.79527559055118113 0.80314960629921262 0.8110236220472441 0.81889763779527558 0.82677165354330706 0.83464566929133854 0.84251968503937003 0.85039370078740162 0.8582677165354331 0.86614173228346458 0.87401574803149606 0.88188976377952755 0.88976377952755903 0.89763779527559051 0.90551181102362199 0.91338582677165359 0.92125984251968507 0.92913385826771655 0.93700787401574803 0.94488188976377951 0.952755905511811 0.96062992125984248 0.96850393700787396 0.97637795275590555 0.98425196850393704 0.99212598425196852 1
        </DataArray>
      </PointData>
      <CellData Scalars="P">
        <DataArray type="Float32" Name="P" NumberOfComponents="1">
          0.014273969721765934 0.042862738366161821 0.071454155452377252 0.09999084522207799 0.12842440236100722 0.15672988729815979 0.18491542653057702 0.21302880168169555 0.24116188095266378 0.26945383380085774 0.2980924858243581 0.32731507457168751 0.35740813649496828 0.38870658497225424 0.42159232228981869 0.45649183499919144 0.49387114217209499 0.53423316328903903 0.5781123220981188 0.62606765714101908 0.67867664342068301 0.73652872481497811 0.80021718964444177 0.87033028447897953 0.94744320438738527 1.0321050260200852 1.1248312712598987 1.2260970496535875 1.3363213081100762 1.4558364564770587 1.5849165619741361 1.7237454558367262 1.8724054153864045 2.0308649782949133 2.1989689201639102 2.3764261669593423 2.5628080171336265 2.7575280646300344 2.9598323658443237 3.1688032635673298 3.3833525771450055 3.6022156814282931 4.4986641917197758 5.3337665480500176 4.9484024800656554 4.5695582923207523 4.1962600200579923 3.8276078617287461 3.4627699930784162 3.1010079137696636 2.7416732389454856 2.4989769365510104 2.260053478565875 2.0287570236223891 1.7981191711024003 1.5711493738845603 1.3477389101201966 1.1279468429799144 0.91591651244941719 0.71607730625843824 0.52449932977661518 0.34156171909666927 0.17234774048326909 0.012373278085832006 -0.12706729132312106 -0.26198410173549969 -0.39234269023850854 -0.51786432600676946 -0.63280159339739817 -0.74270656484430186 -0.84746907800362148 -0.94699600560126074 -1.0357164363106521 -1.1192881217218162 -1.1975401578100953 -1.2704444401491495 -1.3379890907242971 -1.3950974123762805 -1.4470330237408844 -1.4938336538399279 -1.5355545204055265 -1.5722672808134326 -1.6040590390622937 -1.6268123545207345 -1.645072920921405 -1.6589639957777034 -1.6686203037074361 -1.6741861644048572 -1.6758136241022257 -1.6736603265698644 -1.665164689865559 -1.6534822358191621 -1.6387711771349609 -1.6211869276918545 -1.6008793809236372 -1.5779901346531962 -1.552649392903702 -1.5241224630817236 -1.4936674884672669 -1.4613582930401381 -1.4272466657380798 -1.3913598492378105 -1.3536983947177705 -1.3151433465806524 -1.2750130557936301 -1.2331760107055838 -1.1895191938429219 -1.1458976424269449 -1.1003367302815152 -1.0525904085428957 -1.0051065522004274 -0.95506535586329144 -0.90214121807925041 -0.84929665964590662 -0.79303809579709106 -0.73662619975189614 -0.67619153286581157 -0.61537445948190306 -0.55402175762317152 -0.49232697345911486 -0.4299849659605362 -0.35305505381091651 -0.27476024195364052 -0.19989827556954548 -0.12877532953671264 -0.064571136291013215 -0.016552535753781749
        </DataArray>
      </CellData>
      <Points>
        <DataArray type="Float32" NumberOfComponents="3" format="ascii">
          3.9770681383489679 7.428056402169612 0
          3.975374588626654 7.4357467248683387 0
          3.9736908708745537 7.443439195702485 0
          3.9720182267444564 7.4511340653687999 0
          3.9703566933628895 7.4588313207403454 0
          3.9687055180467419 7.4665307802453809 0
          3.9670633400656969 7.4742321366481814 0
          3.965428307007397 7.4819349839890288 0
          3.9637981536736495 7.4896388349035163 0
          3.9621702602580071 7.4973431320798047 0
          3.9605416931690138 7.5050472547126637 0
          3.9589092408927034 7.5127505226823983 0
          3.9572694411810336 7.5204521977565273 0
          3.9556186026501328 7.5281514825301556 0
          3.9539528226302885 7.535847517538917 0
          3.9522680013735667 7.5435393765921352 0
          3.9505598549722447 7.5512260608475099 0
          3.9488239325511572 7.5589064929021941 0
          3.9470556275922579 7.5665795087189718 0
          3.9452501906502997 7.574243849007753 0
          3.9434027444469115 7.5818981503856184 0
          3.9415082979126583 7.5895409356104828 0
          3.9395617591517444 7.5971706029156199 0
          3.9375579495057087 7.6047854150344687 0
          3.9354916187942601 7.6123834880495833 0
          3.9333574596981458 7.6199627796247809 0
          3.9311501274314211 7.6275210784363807 0
          3.9288642563221985 7.6350559926788426 0
          3.9264944733371969 7.6425649375509153 0
          3.9240354185457198 7.6500451248422427 0
          3.9214817854663235 7.6574935596681311 0
          3.9188283210026036 7.6649070246840383 0
          3.9160698487542938 7.6722820721433553 0
          3.9132012930520612 7.6796150171329245 0
          3.9102177046501989 7.6869019325873378 0
          3.9071142864066708 7.6941386457074588 0
          3.9038864211233575 7.7013207369361325 0
          3.9005296936385463 7.7084435382296554 0
          3.8970399226994186 7.7155021377364044 0
          3.8934131945509516 7.7224913882675601 0
          3.8896458887297554 7.7294059149962937 0
          3.8857347055905498 7.7362401269856944 0
          3.8816766958984306 7.7429882333508022 0
          3.8769614033613928 7.7492946634625257 0
          3.871633115279896 7.7550925167337921 0
          3.866627525932679 7.7611712118578637 0
          3.8619558095357358 7.7675101604353225 0
          3.857627790279714 7.7740886282846766 0
          3.8536519628854937 7.7808858054370598 0
          3.8500355272596263 7.7878808815697251 0
          3.8467844093354935 7.7950531093430167 0
          3.8439032917429836 7.8023818711488397 0
          3.8412877631123541 7.8098095733542214 0
          3.8389373380480452 7.8173253848196396 0
          3.8368473322884054 7.8249177457531731 0
          3.8350193138539095 7.8325774191186373 0
          3.8334515553799644 7.8402945796611867 0
          3.8321420715140375 7.8480597505505107 0
          3.8310884956788751 7.855863775463769 0
          3.8302840723311227 7.8636974147144532 0
          3.829717394297889 7.8715518395518265 0
          3.8293807869286063 7.879419487875448 0
          3.8292660891214623 7.8872935011637084 0
          3.829359986593964 7.8951677881266011 0
          3.8296536486653552 7.9030371531285946 0
          3.8301268908156554 7.9108977502821292 0
          3.8307757418582842 7.9187457907412604 0
          3.8315963125192365 7.9265777259792971 0
          3.832584545172212 7.9343902631509495 0
          3.833730576555062 7.9421812001451491 0
          3.8350303503763303 7.9499479508470952 0
          3.8364798133015348 7.9576881460016553 0
          3.8380749248216564 7.9653996252165689 0
          3.8398057737044313 7.973081755963066 0
          3.8416685560576118 7.9807329444303567 0
          3.8436593774511909 7.9883517985676482 0
          3.8457743941062055 7.9959370915903483 0
          3.8480098181421187 8.0034877534611706 0
          3.8503559653185722 8.0110047215741425 0
          3.8528092442950803 8.0184873837383819 0
          3.8553661430878976 8.0259352470517076 0
          3.8580232351717245 8.0333479283419233 0
          3.8607771853139221 8.0407251445216836 0
          3.8636247553716476 8.0480667027949746 0
          3.8665568137252899 8.0553748968691838 0
          3.8695703905481067 8.0626498233293002 0
          3.8726626292351569 8.069891632126291 0
          3.8758307921075903 8.0771005166266718 0
          3.8790722661146382 8.0842767035740692 0
          3.8823845687607483 8.0914204428689711 0
          3.8857653540263932 8.0985319972707259 0
          3.8892064091555132 8.1056145528503034 0
          3.8927057311449009 8.1126684705303962 0
          3.89626147192996 8.1196940872672272 0
          3.8998719459925035 8.1266917051549026 0
          3.9035356384079472 8.1336615801964438 0
          3.9072512132928137 8.1406039107271351 0
          3.9110175208684916 8.1475188264201321 0
          3.9148274456745829 8.1544097849676778 0
          3.9186802909738021 8.1612768199616834 0
          3.9225755789001973 8.1681198541926907 0
          3.9265130632248968 8.1749386851423704 0
          3.9304927428227519 8.1817329695038197 0
          3.9345148760527344 8.1885022064455466 0
          3.9385738745522856 8.1952494060325218 0
          3.9426706050176139 8.2019737719421233 0
          3.9468063638881121 8.2086742202327851 0
          3.9509826630201581 8.2153494982279263 0
          3.9551951249278465 8.2220020458963461 0
          3.959446041783286 8.228630126752174 0
          3.9637381144446096 8.2352316797005471 0
          3.9680682168937325 8.2418084106545084 0
          3.9724400133429043 8.2483575705776708 0
          3.9768576796599802 8.254875958957312 0
          3.9813195588362804 8.261364259782118 0
          3.9858310522148197 8.2678182702667016 0
          3.9903916844482086 8.2742377784798347 0
          3.9950084581426553 8.2806171717702011 0
          3.9996822525520415 8.2869550703903769 0
          4.0044148917630373 8.2932493347284382 0
          4.0092086525481712 8.2994973837291521 0
          4.014067441772057 8.3056952350731326 0
          4.0190255474468604 8.3118141611305703 0
          4.0240948648883732 8.3178415304158939 0
          4.0292811977938374 8.3237688016341096 0
          4.034596541204623 8.3295809828469523 0
          4.0400556934172824 8.3352586614725688 0
          4.0456436928475297 8.3408100342061324 0
        </DataArray>
      </Points>
      <Cells>
        <DataArray type="Int32" Name="connectivity" format="ascii">
          0 1 1 2 2 3 3 4 4 5 5 6 6 7 7 8 8 9 9 10 10 11 11 12 12 13 13 14 14 15 15 16 16 17 17 18 18 19 19 20 20 21 21 22 22 23 23 24 24 25 25 26 26 27 27 28 28 29 29 30 30 31 31 32 32 33 33 34 34 35 35 36 36 37 37 38 38 39 39 40 40 41 41 42 42 43 43 44 44 45 45 46 46 47 47 48 48 49 49 50 50 51 51 52 52 53 53 54 54 55 55 56 56 57 57 58 58 59 59 60 60 61 61 62 62 63 63 64 64 65 65 66 66 67 67 68 68 69 69 70 70 71 71 72 72 73 73 74 74 75 75 76 76 77 77 78 78 79 79 80 80 81 81 82 82 83 83 84 84 85 85 86 86 87 87 88 88 89 89 90 90 91 91 92 92 93 93 94 94 95 95 96 96 97 97 98 98 99 99 100 100 101 101 102 102 103 103 104 104 105 105 106 106 107 107 108 108 109 109 110 110 111 111 112 112 113 113 114 114 115 115 116 116 117 117 118 118 119 119 120 120 121 121 122 122 123 123 124 124 125 125 126 126 127 
        </DataArray>
        <DataArray type="Int32" Name="offsets" format="ascii">
          2 4 6 8 10 12 14 16 18 20 22 24 26 28 30 32 34 36 38 40 42 44 46 48 50 52 54 56 58 60 62 64 66 68 70 72 74 76 78 80 82 84 86 88 90 92 94 96 98 100 102 104 106 108 110 112 114 116 118 120 122 124 126 128 130 132 134 136 138 140 142 144 146 148 150 152 154 156 158 160 162 164 166 168 170 172 174 176 178 180 182 184 186 188 190 192 194 196 198 200 202 204 206 208 210 212 214 216 218 220 222 224 226 228 230 232 234 236 238 240 242 244 246 248 250 252 254 
        </DataArray>
        <DataArray type="Int32" Name="types" format="ascii">
          3 3 3 3 3 3 3 3 3 3 3 3 3 3 3 3 3 3 3 3 3 3 3 3 3 3 3 3 3 3 3 3 3 3 3 3 3 3 3 3 3 3 3 3 3 3 3 3 3 3 3 3 3 3 3 3 3 3 3 3 3 3 3 3 3 3 3 3 3 3 3 3 3 3 3 3 3 3 3 3 3 3 3 3 3 3 3 3 3 3 3 3 3 3 3 3 3 3 3 3 3 3 3 3 3 3 3 3 3 3 3 3 3 3 3 3 3 3 3 3 3 3 3 3 3 3 3         </DataArray>
      </Cells>
    </Piece>
  </UnstructuredGrid>
</VTKFile>
