<?xml version="1.0"?>
<VTKFile type="UnstructuredGrid" version="0.1" byte_order="LittleEndian">
  <UnstructuredGrid>
    <Piece NumberOfPoints="128" NumberOfCells="127">
      <PointData Scalars="W">
        <DataArray type="Float32" Name="W" NumberOfComponents="2">
          0 0 -0.61055248974409793 -0.36634833364791181 -0.97380686290928797 -0.59401739598482728 -1.2349046225112676 -0.7707211703371335 -1.4384974717401739 -0.92289651386245952 -1.6029672068280238 -1.0610796775972986 -1.7378766855875816 -1.1904655960554764 -1.8489841928326529 -1.3139466401970978 -1.9400798529964454 -1.4332253592248587 -2.0138823811899038 -1.5493678850881361 -2.0723718823270119 -1.6629958512104293 -2.1171001132786409 -1.7744839204997607 -2.1493108948550295 -1.8840318905828928 -2.1700656451513862 -1.9917535542118763 -2.1802804392044837 -2.0977012823340879 -2.1807291222452352 -2.2018582986171826 -2.1720416774975932 -2.304119062949745 -2.1548386781672368 -2.4044163071906959 -2.1296628223919924 -2.5026511469974557 -2.0969871816457424 -2.5986906012806918 -2.0572624643931028 -2.6924163890092792 -2.0109213028035917 -2.7837328597263857 -1.9583622825925275 -2.8725466694806561 -1.8999488364343478 -2.9587604272452457 -1.8360490626874804 -3.042333461669442 -1.7669640886390776 -3.1231683319942465 -1.6930117112406431 -3.2012430544909778 -1.6145132856914151 -3.2766118978880363 -1.5317284192623819 -3.3492860037179675 -1.4447713149448014 -3.4189962026552339 -1.3540108497452388 -3.4861090579247573 -1.2596306976913423 -3.5507021944906136 -1.1617918163304757 -3.6128944769515727 -1.0606142127942215 -3.6728020538281889 -0.95618969703964296 -3.7305829767928578 -0.84856774669466306 -3.7864036219857065 -0.73777093692241846 -3.8405327533921034 -0.62374308282173352 -3.8931193293465496 -0.50638332173109979 -3.9443004506993193 -0.38556025245920222 -3.9943723678153154 -0.2610693274973182 -4.0435996721974705 -0.13263454303940986 -4.0922033488384564 0.13755140577880171 4.1926372896996327 0.32466083598030593 4.7601780936703832 0.49515150597517937 4.679841963923546 0.76452687905241612 5.2427956429035536 0.96858386622727299 5.1399223449811418 1.1629118070330569 5.0304896026828034 1.3476962514523856 4.9158281804184192 1.523421441068888 4.7976031315162881 1.6905801950829293 4.676799663682135 1.849794626379321 4.5543899187389183 1.9957009697870758 4.4184313541903517 2.1331537494859369 4.2820675810567064 2.4989564825505646 4.5582424452530264 2.670476969030362 4.4316087536649 2.7505677476227151 4.176384710125749 2.901842164214008 4.0500177518683769 3.0507853658996695 3.9234801305876665 3.2016853038144664 3.8006559874530392 3.3478844700198542 3.6722835526853199 2.1300759673164249 2.1929999635092208 2.1864938202046575 2.1450949806460917 1.8094637832254752 1.6992453315365517 2.2953917641436812 2.0627204204147227 2.3635894450094561 2.0219424490821956 2.4344823068318604 1.980930965199023 2.5080852963384443 1.9392618741007566 2.5844077926483955 1.896524443571491 2.6577554172385875 1.8484612735307897 2.2371830663736527 1.4797865526385774 2.3056279235004 1.4554262644068983 2.3769842293095924 1.429423235365183 2.4514750808177053 1.4015852479697919 2.5289430540756297 1.3714830977307764 2.6093573292229557 1.3387684616567928 2.1707237991336452 1.0565893678634666 2.2458273430896596 1.0401501806618212 2.323982826586243 1.0211214201529146 2.4051461415145221 0.9991740900461672 2.4892729439841799 0.97397232151116486 2.5761811455022499 0.94512295805935154 2.1363922431762639 0.73635190984783871 2.2215511700964226 0.72100077914499605 2.3096635375363173 0.70213105735251902 2.4006719155385086 0.67939136996788518 2.4945146771689517 0.65241704903362707 2.065034006366691 0.49942294920956021 2.1592894093771515 0.48333833542842669 2.2563475087249896 0.46308978812554996 2.3561235644973944 0.43829142100623364 1.9429524906947009 0.32697227330599643 2.0444567603332771 0.31070904772393254 2.1486746441130204 0.28996678950958776 2.2553448493552848 0.26431102579432048 1.8616325874884507 0.18744624886033662 1.9707387233907245 0.16830273948171215 2.0821454518098186 0.14428613274451266 2.1955211352345176 0.11495153550903273 1.8226758637855212 0.066501426838278033 1.9384237416460097 0.041976855694376397 2.055751059080861 0.012171840839093761 2.1670908000777391 -0.023209201294287843 2.2863102538346385 -0.064608075189722627 1.9345116799849917 -0.08688731914929837 2.05463991011599 -0.12469724718002417 2.1745357324511794 -0.16845241282042689 2.2862744766408922 -0.21772478849984028 2.4038382894852028 -0.2740548300114119 2.5191223230488862 -0.33717112955171968 3.0895237804958282 -0.48394536691334616 3.194170303586072 -0.5828259302107518 3.285127111482876 -0.68813550671854462 3.850059892253773 -0.92299147734717768 3.9185176719192105 -1.0713422606346932 4.4637499193847852 -1.3871005013265649 4.4981248393482636 -1.5834341723145853 3.4544712520835517 -1.3472347116615242 3.423121660996836 -1.4516970954040518 3.8049898961861901 -1.7553646771593383 3.6548925418859155 -1.8328882394729948 3.562636775822166 -1.9319416736581652 3.8372369334545575 -2.2502044841664595 3.9778552012106503 -2.5297792763279987 3.9894567830243495 -2.7533753177267708 4.0818957419408264 -3.059918797343069 4.3721080285168252 -3.5761721578814951 0 0
        </DataArray>
        <DataArray type="Float32" Name="u" NumberOfComponents="1">
          0 0.007874015748031496 0.015748031496062992 0.023622047244094488 0.031496062992125984 0.03937007874015748 0.047244094488188976 0.055118110236220472 0.062992125984251968 0.070866141732283464 0.07874015748031496 0.086614173228346455 0.094488188976377951 0.10236220472440945 0.11023622047244094 0.11811023622047244 0.12598425196850394 0.13385826771653545 0.14173228346456693 0.14960629921259844 0.15748031496062992 0.16535433070866143 0.17322834645669291 0.18110236220472442 0.1889763779527559 0.19685039370078741 0.20472440944881889 0.2125984251968504 0.22047244094488189 0.2283464566929134 0.23622047244094488 0.24409448818897639 0.25196850393700787 0.25984251968503935 0.26771653543307089 0.27559055118110237 0.28346456692913385 0.29133858267716534 0.29921259842519687 0.30708661417322836 0.31496062992125984 0.32283464566929132 0.33070866141732286 0.33858267716535434 0.34645669291338582 0.3543307086614173 0.36220472440944884 0.37007874015748032 0.37795275590551181 0.38582677165354329 0.39370078740157483 0.40157480314960631 0.40944881889763779 0.41732283464566927 0.42519685039370081 0.43307086614173229 0.44094488188976377 0.44881889763779526 0.45669291338582679 0.46456692913385828 0.47244094488188976 0.48031496062992124 0.48818897637795278 0.49606299212598426 0.50393700787401574 0.51181102362204722 0.51968503937007871 0.52755905511811019 0.53543307086614178 0.54330708661417326 0.55118110236220474 0.55905511811023623 0.56692913385826771 0.57480314960629919 0.58267716535433067 0.59055118110236215 0.59842519685039375 0.60629921259842523 0.61417322834645671 0.62204724409448819 0.62992125984251968 0.63779527559055116 0.64566929133858264 0.65354330708661412 0.66141732283464572 0.6692913385826772 0.67716535433070868 0.68503937007874016 0.69291338582677164 0.70078740157480313 0.70866141732283461 0.71653543307086609 0.72440944881889768 0.73228346456692917 0.74015748031496065 0.74803149606299213 0.75590551181102361 0.76377952755905509 0.77165354330708658 0.77952755905511806 0.78740157480314965 0.79527559055118113 0.80314960629921262 0.8110236220472441 0.81889763779527558 0.82677165354330706 0.83464566929133854 0.84251968503937003 0.85039370078740162 0.8582677165354331 0.86614173228346458 0.87401574803149606 0.88188976377952755 0.88976377952755903 0.89763779527559051 0.90551181102362199 0.91338582677165359 0.92125984251968507 0.92913385826771655 0.93700787401574803 0.94488188976377951 0.952755905511811 0.96062992125984248 0.96850393700787396 0.97637795275590555 0.98425196850393704 0.99212598425196852 1
        </DataArray>
      </PointData>
      <CellData Scalars="P">
        <DataArray type="Float32" Name="P" NumberOfComponents="1">
          -0.029384038298274719 -0.086038330890668702 -0.13849251740534985 -0.18595012334337419 -0.22811342052050285 -0.26495632161625893 -0.29662028103270099 -0.32335514983303815 -0.34548225360506785 -0.3633684809969448 -0.37740934073675941 -0.38801535047806629 -0.39560182782441849 -0.40057982788563834 -0.40334878634109356 -0.4042909615562143 -0.40376735178401968 -0.40211100901696639 -0.39962258783845744 -0.39656608122002923 -0.39316340904320929 -0.38958884982622732 -0.38596382369563426 -0.38235157478557047 -0.37875036502867221 -0.37508863914838836 -0.37121720768471056 -0.36690117762738444 -0.36181364118734816 -0.35553302530637765 -0.34752355812863656 -0.33713176900857211 -0.32357618728812482 -0.30593703839184117 -0.28314421858619382 -0.2539648709973561 -0.21698767170272079 -0.17061051748262829 -0.11302498281903486 -0.04219448301957901 0.044165235042456029 0.14860706539959329 -0.092437984196987524 -0.37587532701086096 -0.66957136999320899 -0.96830008163275683 -1.2671433206629124 -1.5617302479555064 -1.8482263634719649 -2.123340790444999 -2.3842734984898279 -2.6286930538749504 -2.8541564371157508 -3.0592696199558245 -3.2573970824058187 -3.4313016364298536 -3.5768240215342475 -3.6973246749452504 -3.7925232591445543 -3.8624187926743643 -3.9071873252833185 -3.9368403740669748 -3.9508941465157701 -3.9601059508810215 -3.9461654530845114 -3.9188822273445041 -3.8787016782940236 -3.8259709060005207 -3.7609435855852595 -3.6840532977719147 -3.6203834630341092 -3.5471870718240019 -3.4645611336518911 -3.3725372032959711 -3.2711029010169952 -3.1601955923355893 -3.0727104842618402 -2.9772267831980463 -2.8736920019620418 -2.7620310055537027 -2.6421451446239996 -2.513920362120774 -2.4145818474695693 -2.3077112637125481 -2.1932476560097878 -2.0711272476968938 -1.9412814130121547 -1.842271506426155 -1.736035461925846 -1.6226023854453488 -1.5020168541883911 -1.4122907553563748 -1.3157984839438341 -1.2127072746636907 -1.1032302774762015 -1.0235916791102742 -0.93793797728665862 -0.84664493574775213 -0.75015395110784788 -0.68162618848165457 -0.60836993505396153 -0.53103139606163918 -0.45077703675652958 -0.36795258700792055 -0.31033202998313836 -0.25085602925898765 -0.19055844125904822 -0.13090554586429154 -0.072689469430756271 -0.017133099465079009 0.052488150750892283 0.11540450338861079 0.17026014126675004 0.22994147557547631 0.27810198514413959 0.32501540775137411 0.35823043150306233 0.36138292733181021 0.35392407153182531 0.34049613728619477 0.31581653105215934 0.28170901028048945 0.2405157539199958 0.19240999802136946 0.1389176730648457 0.082375250321598995 0.026244938441767233
        </DataArray>
      </CellData>
      <Points>
        <DataArray type="Float32" NumberOfComponents="3" format="ascii">
          4.3056578750458812 8.0971530538324128 0
          4.3016241727913007 8.103918511677394 0
          4.2975525833795754 8.1106612522472208 0
          4.2934205655662439 8.1173671563852388 0
          4.2892119171148124 8.1240252644328059 0
          4.2849140040812941 8.1306261368647359 0
          4.280516620258517 8.1371612009424013 0
          4.2760113938758133 8.1436224285974976 0
          4.2713914303926037 8.1500021571095278 0
          4.2666510774276887 8.1562929835759022 0
          4.2617857561752057 8.1624876988581292 0
          4.2567918386523775 8.1685792491067648 0
          4.2516665515239191 8.1745607126156177 0
          4.2464078990278722 8.1804252875351811 0
          4.2410145972096727 8.1861662849345418 0
          4.2354860171619428 8.1917771256868175 0
          4.2298221370726532 8.1972513416583883 0
          4.2240235031790894 8.2025825824186427 0
          4.218091191281462 8.207764619586964 0
          4.2120267730605079 8.2127913531514132 0
          4.2058322866832691 8.2176568199107045 0
          4.1995102087621321 8.2223552010077281 0
          4.1930634273978891 8.2268808280591035 0
          4.1864952172953656 8.2312281891371555 0
          4.1798092170185424 8.2353919349932276 0
          4.1730094059134961 8.2393668817468075 0
          4.1661000851443912 8.2431480170745566 0
          4.1590858576540626 8.2467305016897612 0
          4.1519716078651578 8.2501096660567548 0
          4.1447624851762717 8.2532810097395277 0
          4.1374638964471462 8.2562402180885428 0
          4.1300814826624501 8.2589831394382696 0
          4.1226211070678662 8.2615057801680631 0
          4.115088844707989 8.2638042971396342 0
          4.1074909745082966 8.2658749902329411 0
          4.0998339731219948 8.2677142922102025 0
          4.0921245114319431 8.2693187579888523 0
          4.0843694527655217 8.2706850474903941 0
          4.0765758560545109 8.2718099158450809 0
          4.068750981842955 8.2726902042611421 0
          4.060902300284182 8.2733228209614786 0
          4.0530375037870847 8.2737047240278461 0
          4.045164524225072 8.2738329069036514 0
          4.0373000139699524 8.2742210381726302 0
          4.0294555105651542 8.2749043190319398 0
          4.0216415293487504 8.2758777902675877 0
          4.0138751171745142 8.2771763151063009 0
          4.0061688768357913 8.278793505277255 0
          3.9985348046773996 8.2807225749657594 0
          3.9909843030327927 8.2829564237244924 0
          3.9835282111533368 8.2854877400329556 0
          3.9761768366493149 8.2883090626481568 0
          3.9689399949280966 8.2914128411065402 0
          3.9618266771263748 8.2947906955477162 0
          3.9548453519858868 8.2984342317917434 0
          3.9480186685026619 8.3023606425079119 0
          3.9413572225064804 8.3065621577631781 0
          3.934865937697229 8.3110230465092574 0
          3.9285541644651434 8.3157355784259863 0
          3.9224311165920969 8.3206920242596674 0
          3.9165061389833107 8.3258848968169552 0
          3.9107882953678619 8.3313063768183966 0
          3.9052029878941643 8.3368637184123937 0
          3.8997536762824261 8.3425539498364714 0
          3.8944168912518213 8.3483494311576347 0
          3.8892227884201755 8.3542726980123234 0
          3.8841755663773907 8.3603212239613747 0
          3.8792795931983695 8.3664924687537212 0
          3.8745394072503423 8.3727838518365445 0
          3.869959717647026 8.3791927267220565 0
          3.8655450505971087 8.3857161170359475 0
          3.8612692734376863 8.3923311824066218 0
          3.8571366168291119 8.3990364176463359 0
          3.8531514932691371 8.4058302153432063 0
          3.8493185108320711 8.4127108539035262 0
          3.8456424632915871 8.4196764709193541 0
          3.842128328106488 8.4267250415534445 0
          3.8387488755203978 8.4338390906556349 0
          3.8355087581059548 8.441017602424294 0
          3.8324128182849462 8.4482593999705191 0
          3.8294660855272298 8.4555631249235006 0
          3.8266737735371819 8.4629272166090406 0
          3.8240412688958223 8.4703498876803085 0
          3.8215412823584733 8.4778182134370947 0
          3.8191790944484882 8.4853312431375709 0
          3.8169601690833534 8.4928878073703444 0
          3.8148901499694778 8.500486496263969 0
          3.8129748567346384 8.5081256368715668 0
          3.8111876451417221 8.5157957617466487 0
          3.8095343618708268 8.5234958728316439 0
          3.8080210275109683 8.5312247133646686 0
          3.8066538312606348 8.5389807439399359 0
          3.8054071432459851 8.5467570803203898 0
          3.8042872608052187 8.5545527119893734 0
          3.8033006496109523 8.5623663501272063 0
          3.8024539274105371 8.5701964006589666 0
          3.80172267282944 8.5780381148555129 0
          3.8011136553394049 8.5858903020039961 0
          3.8006337870707547 8.5937514685638696 0
          3.8002901021727982 8.6016197905679306 0
          3.8000594743859275 8.6094922800833373 0
          3.7999490853902715 8.6173674107601084 0
          3.7999662146878004 8.625243328050491 0
          3.8001177701318638 8.6331178312122709 0
          3.800411148018549 8.6409883452434535 0
          3.8008245277263226 8.6488535029084357 0
          3.8013653619614209 8.6567109507521192 0
          3.8020410885494624 8.6645579658069405 0
          3.8028586387571135 8.6723914825303261 0
          3.8038253044381092 8.6802079965895445 0
          3.8049482351496011 8.6880035821190145 0
          3.8062628072326588 8.6957691015455332 0
          3.8077755062322725 8.7034984104737561 0
          3.8094919671311009 8.7111849661808236 0
          3.8114472175243557 8.7188141692113081 0
          3.8136454910282716 8.7263768099305672 0
          3.8161205843532033 8.7338532765811348 0
          3.8188746111696714 8.7412313895512401 0
          3.8218428422916984 8.7485258364391907 0
          3.8250233205453901 8.7557301353193573 0
          3.8284397074466741 8.7628254380419293 0
          3.8320826812198479 8.7698069426071825 0
          3.8359465073228214 8.7766685117976913 0
          3.8400481956343877 8.7833904097154214 0
          3.8443964520683505 8.7899553114807283 0
          3.8489919900838965 8.7963493748230572 0
          3.8538405447030573 8.8025536240314199 0
          3.8589602315874383 8.8085362092860304 0
        </DataArray>
      </Points>
      <Cells>
        <DataArray type="Int32" Name="connectivity" format="ascii">
          0 1 1 2 2 3 3 4 4 5 5 6 6 7 7 8 8 9 9 10 10 11 11 12 12 13 13 14 14 15 15 16 16 17 17 18 18 19 19 20 20 21 21 22 22 23 23 24 24 25 25 26 26 27 27 28 28 29 29 30 30 31 31 32 32 33 33 34 34 35 35 36 36 37 37 38 38 39 39 40 40 41 41 42 42 43 43 44 44 45 45 46 46 47 47 48 48 49 49 50 50 51 51 52 52 53 53 54 54 55 55 56 56 57 57 58 58 59 59 60 60 61 61 62 62 63 63 64 64 65 65 66 66 67 67 68 68 69 69 70 70 71 71 72 72 73 73 74 74 75 75 76 76 77 77 78 78 79 79 80 80 81 81 82 82 83 83 84 84 85 85 86 86 87 87 88 88 89 89 90 90 91 91 92 92 93 93 94 94 95 95 96 96 97 97 98 98 99 99 100 100 101 101 102 102 103 103 104 104 105 105 106 106 107 107 108 108 109 109 110 110 111 111 112 112 113 113 114 114 115 115 116 116 117 117 118 118 119 119 120 120 121 121 122 122 123 123 124 124 125 125 126 126 127 
        </DataArray>
        <DataArray type="Int32" Name="offsets" format="ascii">
          2 4 6 8 10 12 14 16 18 20 22 24 26 28 30 32 34 36 38 40 42 44 46 48 50 52 54 56 58 60 62 64 66 68 70 72 74 76 78 80 82 84 86 88 90 92 94 96 98 100 102 104 106 108 110 112 114 116 118 120 122 124 126 128 130 132 134 136 138 140 142 144 146 148 150 152 154 156 158 160 162 164 166 168 170 172 174 176 178 180 182 184 186 188 190 192 194 196 198 200 202 204 206 208 210 212 214 216 218 220 222 224 226 228 230 232 234 236 238 240 242 244 246 248 250 252 254 
        </DataArray>
        <DataArray type="Int32" Name="types" format="ascii">
          3 3 3 3 3 3 3 3 3 3 3 3 3 3 3 3 3 3 3 3 3 3 3 3 3 3 3 3 3 3 3 3 3 3 3 3 3 3 3 3 3 3 3 3 3 3 3 3 3 3 3 3 3 3 3 3 3 3 3 3 3 3 3 3 3 3 3 3 3 3 3 3 3 3 3 3 3 3 3 3 3 3 3 3 3 3 3 3 3 3 3 3 3 3 3 3 3 3 3 3 3 3 3 3 3 3 3 3 3 3 3 3 3 3 3 3 3 3 3 3 3 3 3 3 3 3 3         </DataArray>
      </Cells>
    </Piece>
  </UnstructuredGrid>
</VTKFile>
