<?xml version="1.0"?>
<VTKFile type="UnstructuredGrid" version="0.1" byte_order="LittleEndian">
  <UnstructuredGrid>
    <Piece NumberOfPoints="128" NumberOfCells="127">
      <PointData Scalars="W">
        <DataArray type="Float32" Name="W" NumberOfComponents="2">
          0 0 -0.018311909142218884 -0.033605663050630813 -0.0036107551763152317 -0.0066235444805707909 0.0039406628256811425 0.0072287715349085126 0.0075606565407145276 0.013872429157035699 0.0085037990064196142 0.015607833374423393 0.0072820803653063197 0.013369630735828418 0.0041098177873448655 0.0075471584799056603 -0.00090900707284294823 -0.0016693808073022583 -0.0076714916440164815 -0.014086234946298327 -0.016126010972734514 -0.029596447746866667 -0.026234509842632089 -0.048108907289833025 -0.037965378366788406 -0.069533688878548966 -0.051262937378861659 -0.093724914040266338 -0.066044836846060995 -0.12047562451901966 -0.082251172480318741 -0.14960756109657794 -0.099862948077227426 -0.18100415910365358 -0.11883401500020126 -0.21448655096177777 -0.13912276938237211 -0.24987208670696293 -0.16071881185326864 -0.2870225576030726 -0.18359908264589486 -0.3257656492927038 -0.20773164035525835 -0.36590356253995326 -0.23310529838294192 -0.40726684083883824 -0.25972329649294462 -0.44970329871698006 -0.28755194070261236 -0.49299049767646658 -0.3166107494890551 -0.53699344386865533 -0.34688968414775972 -0.58152242608300198 -0.37833707819919971 -0.62631821980940927 -0.41093911284009493 -0.67118845250056369 -0.44488101452885404 -0.71626220299703791 -0.47996013623582034 -0.7610384783141354 -0.5161546979568824 -0.80532497311564977 -0.55344144546255392 -0.84893579656352502 -0.5917938146030588 -0.89169006944298324 -0.63116418875944402 -0.93338734799882594 -0.67151038203920865 -0.97384992320821506 -0.71272116416959208 -1.0128176481379461 -0.75476424438222367 -1.0501642180822948 -0.79758600869643237 -1.0857481631972998 -0.84102842837923575 -1.1193069781721829 -0.88494568214170244 -1.1506257043473669 -0.92918710124603554 -1.1795127695360856 5.097444014873342 6.8533047394982942 4.5954313636438169 7.1305958413978576 4.0824718666267383 7.3693720194901928 3.5612936072032255 7.5691019493591689 1.9839138243227192 4.8806321894112612 1.7288890233491088 4.8074759218222729 1.488051313396493 4.7161930756975572 1.262145454723145 4.6079748970633805 1.0517883772147523 4.4840038719333162 0.87842818080227536 4.4626711877912975 0.71205704323397978 4.448972984178285 0.5480591392407983 4.4174926574304543 0.38866647665092041 4.3745655791885651 0.23480155839511427 4.321526771497636 0.086065063115844012 4.0202801280967888 -0.033209374098368299 3.6963188246245382 -0.12315141910538634 3.3504289092792092 -0.18431347187669023 2.9830024071269894 -0.21767985842396056 2.5938227317692402 -0.22471899651063917 2.1822739428037812 -0.20749387167528008 1.7475624454695635 -0.19726389268678041 1.4965985927456289 -0.11417131008849665 0.80892859622497182 -0.11038896618551604 0.74858382178780736 -0.10442618590389273 0.6812537960358106 -0.061613939243443293 0.3908031284108458 -0.051850095343743574 0.32289844974015502 -0.0050610571334992992 0.031236077232527155 0.006045033785302658 -0.037314761852534815 0.017138666033977294 -0.10617837992375886 0.065866846753850766 -0.41350624352434945 0.075176738147698152 -0.48305784594913737 0.082669438915425997 -0.54591925891971171 0.12569701339947231 -0.86270115202767794 0.1291575761792787 -0.93310841667535127 0.13104482067533946 -1.0035282700650394 0.16117651151578305 -1.3300812386648873 0.15438727440548836 -1.4008527970387086 0.14456109995692357 -1.4639806997468192 0.15430652718786336 -1.7998861307931788 0.13303632052085243 -1.8698144340502225 0.10869792045709355 -1.9388569612070468 0.081222906966591957 -2.0068140500100196 0.054730507544679688 -2.3493227368510756 0.010946955554663356 -2.4145330613445535 -0.03649642692882913 -2.4777264024466041 -0.1002333745992483 -2.8160193240479687 -0.16687433331295659 -2.8736173565475811 -0.23739919800658149 -2.9279074981038131 -0.31167767118561268 -2.978550278699907 -0.43107289383972347 -3.3172865851595601 -0.5272316636685378 -3.3571669073435264 -0.62674445262416356 -3.3915551398164054 -0.79740523863233925 -3.7177477436752948 -0.9198445487284076 -3.7360602011117341 -1.0423532569709861 -3.739505088069099 -1.2673709622243159 -4.0424824717920114 -1.413695049098965 -4.030932668459644 -1.5602834077235697 -4.0100168285882427 -1.8403260928806036 -4.2768751095658732 -2.0056728445123153 -4.226230114723605 -2.1681584427064018 -4.164514265995706 -2.4948643116112788 -4.374281376560015 -2.6691440790570344 -4.2762114458604081 -3.0383524877774741 -4.4499006078343974 -3.2137220290910857 -4.3032909274725863 -3.3821723548480085 -4.1509934718963875 -3.78259871429184 -4.2507419371689643 -3.9444803483238289 -4.0526555619375308 -4.3591132453555552 -4.0863889786835701 -4.502806045679832 -3.8411929955731918 -4.9252170686912011 -3.8101246068617316 -5.3699054192727003 -3.7382043375847509 -5.8262142457796271 -3.615075977683619 -6.2798476539007142 -3.431844541175896 -6.7323055722070588 -3.1907952209737087 -7.1846283975982921 -2.8923390353377316 -5.4730134321399451 -1.8710629358686475 -5.6914477181368586 -1.6567377580726719 -5.675329510254671 -1.3701997957331096 -5.6581142031729605 -1.0950620731783136 -6.6972251089564372 -0.95604003672227245 -6.8006083870310787 -0.60145139273353021 -6.4715937669737054 -0.23156187611339601 -4.1902348319969489 0.026319134490767941 0 0
        </DataArray>
        <DataArray type="Float32" Name="u" NumberOfComponents="1">
          0 0.007874015748031496 0.015748031496062992 0.023622047244094488 0.031496062992125984 0.03937007874015748 0.047244094488188976 0.055118110236220472 0.062992125984251968 0.070866141732283464 0.07874015748031496 0.086614173228346455 0.094488188976377951 0.10236220472440945 0.11023622047244094 0.11811023622047244 0.12598425196850394 0.13385826771653545 0.14173228346456693 0.14960629921259844 0.15748031496062992 0.16535433070866143 0.17322834645669291 0.18110236220472442 0.1889763779527559 0.19685039370078741 0.20472440944881889 0.2125984251968504 0.22047244094488189 0.2283464566929134 0.23622047244094488 0.24409448818897639 0.25196850393700787 0.25984251968503935 0.26771653543307089 0.27559055118110237 0.28346456692913385 0.29133858267716534 0.29921259842519687 0.30708661417322836 0.31496062992125984 0.32283464566929132 0.33070866141732286 0.33858267716535434 0.34645669291338582 0.3543307086614173 0.36220472440944884 0.37007874015748032 0.37795275590551181 0.38582677165354329 0.39370078740157483 0.40157480314960631 0.40944881889763779 0.41732283464566927 0.42519685039370081 0.43307086614173229 0.44094488188976377 0.44881889763779526 0.45669291338582679 0.46456692913385828 0.47244094488188976 0.48031496062992124 0.48818897637795278 0.49606299212598426 0.50393700787401574 0.51181102362204722 0.51968503937007871 0.52755905511811019 0.53543307086614178 0.54330708661417326 0.55118110236220474 0.55905511811023623 0.56692913385826771 0.57480314960629919 0.58267716535433067 0.59055118110236215 0.59842519685039375 0.60629921259842523 0.61417322834645671 0.62204724409448819 0.62992125984251968 0.63779527559055116 0.64566929133858264 0.65354330708661412 0.66141732283464572 0.6692913385826772 0.67716535433070868 0.68503937007874016 0.69291338582677164 0.70078740157480313 0.70866141732283461 0.71653543307086609 0.72440944881889768 0.73228346456692917 0.74015748031496065 0.74803149606299213 0.75590551181102361 0.76377952755905509 0.77165354330708658 0.77952755905511806 0.78740157480314965 0.79527559055118113 0.80314960629921262 0.8110236220472441 0.81889763779527558 0.82677165354330706 0.83464566929133854 0.84251968503937003 0.85039370078740162 0.8582677165354331 0.86614173228346458 0.87401574803149606 0.88188976377952755 0.88976377952755903 0.89763779527559051 0.90551181102362199 0.91338582677165359 0.92125984251968507 0.92913385826771655 0.93700787401574803 0.94488188976377951 0.952755905511811 0.96062992125984248 0.96850393700787396 0.97637795275590555 0.98425196850393704 0.99212598425196852 1
        </DataArray>
      </PointData>
      <CellData Scalars="P">
        <DataArray type="Float32" Name="P" NumberOfComponents="1">
          0.014644684327962974 0.043925046568674152 0.07321587701854676 0.10251638759903407 0.13181979547898739 0.16111841709710989 0.19040679476870923 0.21968451902408695 0.2489589956599923 0.27824788562095026 0.30758143882444783 0.33700456404711976 0.36657858403086807 0.39638224677118844 0.42651191905085961 0.45708182192314784 0.48822445717792901 0.52008939075910554 0.5528420034593966 0.58666266583230042 0.62174436330170979 0.65828977821176138 0.69650904341499809 0.73661715469585098 0.77882868804563932 0.82335636651245192 0.87040554898938705 0.92016730733957652 0.97281570620017788 1.0285158921872446 1.0873951560289721 1.1495488717440832 1.2150356296265667 1.2838723705782331 1.3560283806310118 1.4314213810134386 1.5099084759883163 1.5912883851117365 1.6752966576217294 1.761595338284738 1.849772063038374 1.939338662515909 1.6012040342403826 1.2599998697701245 0.91391846666230736 0.56140418430661843 0.34685697188120174 0.13379553906280348 -0.077365676306532127 -0.28612783333180103 -0.49191462009620607 -0.70050409283906234 -0.91255949397704694 -1.1272989582131594 -1.3442365989899656 -1.562906342324734 -1.7685130911258662 -1.9591741033038113 -2.1328571451623026 -2.2873817623805279 -2.4204090053373517 -2.5294465623004188 -2.611872385800591 -2.6791507544902227 -2.7004250158111045 -2.7183266119516967 -2.7321751848761897 -2.7259316065647581 -2.7152245057629814 -2.6839385381541891 -2.6480255522970433 -2.6074904060281332 -2.5453610743227504 -2.4787934287956337 -2.4084082457031926 -2.316645092455671 -2.2210957215999252 -2.122018520497841 -2.0025317807492735 -1.8803702243829992 -1.7563831244442616 -1.6137114729511139 -1.4699160738310675 -1.3254832195691446 -1.1809073732216342 -1.0211619286277485 -0.86282368698048828 -0.7064745711058783 -0.53876036591027154 -0.37484538632345454 -0.21536994492907308 -0.060950954611216392 0.099785018671331313 0.25345183418652223 0.39943042267290119 0.54705272956763351 0.68491743590739673 0.81227669918069656 0.93637532649013955 1.0482505647456914 1.1475416269944732 1.2387484168020699 1.3157852937708132 1.3785922898186309 1.4290408675209063 1.4643830872853387 1.4848214639679005 1.4898637460072959 1.48025127291522 1.4538303050916086 1.413747272996319 1.3565550259858541 1.2877445328373409 1.2027522108673603 1.1018874149613767 0.9860260476134457 0.85675964306552344 0.71606210262975079 0.56632608336276524 0.45989095350536485 0.35410809765546436 0.25711074910616677 0.17182629214765777 0.084636164221021271 0.017162307321780663 -0.015724358542878319 -0.011553776165819173
        </DataArray>
      </CellData>
      <Points>
        <DataArray type="Float32" NumberOfComponents="3" format="ascii">
          6.2393054543218112 10.377660637054852 0
          6.2462203614003613 10.373894017640165 0
          6.2531341320914073 10.370125315099919 0
          6.2600476770448177 10.366356202891183 0
          6.2669614636439004 10.362587540355568 0
          6.2738757155222951 10.358819739866105 0
          6.2807904903461189 10.355052909463719 0
          6.2877057115619426 10.351286910807959 0
          6.2946211816922037 10.347521383314891 0
          6.3015365887918966 10.343755755947104 0
          6.3084515128399632 10.339989259223266 0
          6.3153654289525756 10.336220931845681 0
          6.3222777097560208 10.332449626345149 0
          6.3291876273606409 10.32867401465195 0
          6.3360943568277168 10.324892597135722 0
          6.3429969812903275 10.321103715431981 0
          6.3498944956826229 10.317305563488713 0
          6.3567858079327362 10.31349619478714 0
          6.3636697418389598 10.309673533424697 0
          6.3705450396636518 10.305835385431704 0
          6.3774103627918146 10.301979447331684 0
          6.3842642931737492 10.298103316815284 0
          6.3911053353172544 10.294204504993184 0
          6.3979319169916158 10.290280446890579 0
          6.4047423890356008 10.286328510869637 0
          6.411535027453457 10.282346012406451 0
          6.4183080322096115 10.278330222445165 0
          6.4250595278535423 10.274278379143421 0
          6.4317875667229361 10.270187703926537 0
          6.4384901297973691 10.266055413395893 0
          6.4451651152080327 10.261878711306451 0
          6.4518103507922779 10.257654819608234 0
          6.4584235954308129 10.253380990348861 0
          6.4650025404725966 10.249054517178404 0
          6.4715448113610297 10.244672746543982 0
          6.4780479705614269 10.240233090098258 0
          6.4845095201477836 10.235733035699729 0
          6.4909269086663741 10.23117016352632 0
          6.4972975331010208 10.226542153893099 0
          6.5036187421566494 10.22184679601328 0
          6.5098878460132941 10.21708200426777 0
          6.5161021253201428 10.212245831531437 0
          6.5222588404876038 10.207336481054661 0
          6.5287316924806227 10.202852043656994 0
          6.535489566368847 10.198809722294802 0
          6.5425006679282145 10.195224333849374 0
          6.5497326925387931 10.192108276162513 0
          6.5570877496053201 10.189294874062982 0
          6.5645500228979232 10.186779592300512 0
          6.5721045756776242 10.184556771279389 0
          6.5797373969218969 10.182619700912774 0
          6.5874354396239312 10.18096069394235 0
          6.5951879543416476 10.179578427071272 0
          6.6029846255366307 10.178472050526965 0
          6.610815284572058 10.177639612069187 0
          6.6186700482937759 10.177078449793999 0
          6.6265393762591245 10.176785274897036 0
          6.6344140388919826 10.176741406688674 0
          6.6422866331706327 10.176926755133913 0
          6.6501515746963884 10.177319869690352 0
          6.6580050635452226 10.17789796375715 0
          6.6658450233295818 10.178636901428645 0
          6.6736710102478822 10.179511159530298 0
          6.681484085285808 10.180493778685447 0
          6.6892848812364711 10.181569194705538 0
          6.697078538946494 10.182694762872615 0
          6.7048652976607608 10.183866740936942 0
          6.7126455314635232 10.18508095370216 0
          6.7204218946934953 10.186319390681629 0
          6.7281949972665398 10.187577841704329 0
          6.7359677407934306 10.188838222173448 0
          6.7437408185436869 10.190096282410513 0
          6.7515149227709799 10.191347753412931 0
          6.7592930759069079 10.192573580378136 0
          6.767075859767214 10.19376945202476 0
          6.7748637433094894 10.194931471858361 0
          6.7826593963285857 10.196039999678181 0
          6.7904630378820272 10.197090671271001 0
          6.7982747892117192 10.19807912152681 0
          6.8060965215194438 10.198985104759604 0
          6.8139278183095575 10.199804233946169 0
          6.8217680745109384 10.200532595766557 0
          6.829617898438352 10.201149364466115 0
          6.8374759756779522 10.201650204694262 0
          6.8453408012659338 10.202030835735332 0
          6.8532106754423925 10.202287043893723 0
          6.86108396101391 10.202397592808266 0
          6.8689579472362396 10.202358438310979 0
          6.8768296960743633 10.202165660951724 0
          6.8846952621661153 10.201798284065069 0
          6.8925505172333059 10.201252734007294 0
          6.9003910917369202 10.200525641852172 0
          6.9082123829511302 10.199613864469226 0
          6.9160069955475452 10.198496394488696 0
          6.9237689699771199 10.19717075457311 0
          6.9314921381767185 10.195634807548858 0
          6.9391659266753081 10.193868320260536 0
          6.9467827453833548 10.191870150393946 0
          6.9543349990498013 10.189640077227953 0
          6.9618087436599136 10.187159302532836 0
          6.9691949065100944 10.184428532969569 0
          6.9764843976969289 10.181449055608153 0
          6.9836598601746633 10.178204306131249 0
          6.9907110392984961 10.174697412266081 0
          6.9976278568530699 10.170932187901945 0
          7.0043900594696105 10.166895602139185 0
          7.0109868351255269 10.162593719990053 0
          7.0173952920627931 10.158015741000499 0
          7.0236045469772943 10.153170736814772 0
          7.0296041443960151 10.148068131232819 0
          7.0353692496787419 10.142701699531241 0
          7.0408898097086565 10.137083700886432 0
          7.0461401011552347 10.131211996241451 0
          7.0511111922836065 10.125101761837318 0
          7.0557768670390288 10.118754867948178 0
          7.0601095189741034 10.112175709931776 0
          7.0640808096457519 10.105371850572382 0
          7.0676625525843662 10.098354572383185 0
          7.0708266172257721 10.091138735235724 0
          7.0735448604370577 10.083742750283557 0
          7.0759234356137277 10.076230083737116 0
          7.0779487269193302 10.068613946848306 0
          7.0796216674404295 10.06091204366663 0
          7.0809432485432451 10.053141357486302 0
          7.0818488174738858 10.045310287813043 0
          7.082331797402313 10.037440690061702 0
          7.082412491855246 10.0295575907529 0
          7.0822327998366061 10.021677033517019 0
        </DataArray>
      </Points>
      <Cells>
        <DataArray type="Int32" Name="connectivity" format="ascii">
          0 1 1 2 2 3 3 4 4 5 5 6 6 7 7 8 8 9 9 10 10 11 11 12 12 13 13 14 14 15 15 16 16 17 17 18 18 19 19 20 20 21 21 22 22 23 23 24 24 25 25 26 26 27 27 28 28 29 29 30 30 31 31 32 32 33 33 34 34 35 35 36 36 37 37 38 38 39 39 40 40 41 41 42 42 43 43 44 44 45 45 46 46 47 47 48 48 49 49 50 50 51 51 52 52 53 53 54 54 55 55 56 56 57 57 58 58 59 59 60 60 61 61 62 62 63 63 64 64 65 65 66 66 67 67 68 68 69 69 70 70 71 71 72 72 73 73 74 74 75 75 76 76 77 77 78 78 79 79 80 80 81 81 82 82 83 83 84 84 85 85 86 86 87 87 88 88 89 89 90 90 91 91 92 92 93 93 94 94 95 95 96 96 97 97 98 98 99 99 100 100 101 101 102 102 103 103 104 104 105 105 106 106 107 107 108 108 109 109 110 110 111 111 112 112 113 113 114 114 115 115 116 116 117 117 118 118 119 119 120 120 121 121 122 122 123 123 124 124 125 125 126 126 127 
        </DataArray>
        <DataArray type="Int32" Name="offsets" format="ascii">
          2 4 6 8 10 12 14 16 18 20 22 24 26 28 30 32 34 36 38 40 42 44 46 48 50 52 54 56 58 60 62 64 66 68 70 72 74 76 78 80 82 84 86 88 90 92 94 96 98 100 102 104 106 108 110 112 114 116 118 120 122 124 126 128 130 132 134 136 138 140 142 144 146 148 150 152 154 156 158 160 162 164 166 168 170 172 174 176 178 180 182 184 186 188 190 192 194 196 198 200 202 204 206 208 210 212 214 216 218 220 222 224 226 228 230 232 234 236 238 240 242 244 246 248 250 252 254 
        </DataArray>
        <DataArray type="Int32" Name="types" format="ascii">
          3 3 3 3 3 3 3 3 3 3 3 3 3 3 3 3 3 3 3 3 3 3 3 3 3 3 3 3 3 3 3 3 3 3 3 3 3 3 3 3 3 3 3 3 3 3 3 3 3 3 3 3 3 3 3 3 3 3 3 3 3 3 3 3 3 3 3 3 3 3 3 3 3 3 3 3 3 3 3 3 3 3 3 3 3 3 3 3 3 3 3 3 3 3 3 3 3 3 3 3 3 3 3 3 3 3 3 3 3 3 3 3 3 3 3 3 3 3 3 3 3 3 3 3 3 3 3         </DataArray>
      </Cells>
    </Piece>
  </UnstructuredGrid>
</VTKFile>
