<?xml version="1.0"?>
<VTKFile type="UnstructuredGrid" version="0.1" byte_order="LittleEndian">
  <UnstructuredGrid>
    <Piece NumberOfPoints="128" NumberOfCells="127">
      <PointData Scalars="W">
        <DataArray type="Float32" Name="W" NumberOfComponents="2">
          0 0 0.41307334660227329 0.37988198620973296 0.65797130298488515 0.61212030596394984 0.83587928380058274 0.79030738474309836 0.97719013195078874 0.94236368890473121 1.094264108580917 1.0796074783401581 1.1933347930657359 1.2077341824038903 1.27796512883001 1.3299910661454997 1.3503811918442228 1.4484006938758494 1.4121250063705546 1.5643726055398164 1.4642279291572291 1.6788475088265786 1.5074180248504421 1.7924898441153772 1.5422220487682745 1.9057822572784302 1.569057605665811 2.0191238855008788 1.5882541441271374 2.1328544909041192 1.6000352286281565 2.2472262905190123 1.6045029015885499 2.3623657870304853 1.6017343965112816 2.4783973706205371 1.5917611630557502 2.5954157110827052 1.5745361711402217 2.7134249534725305 1.5499925310995963 2.8324226164999668 1.518039123859567 2.9523954170050097 1.4785368432057548 3.0732710639588361 1.4313068205289121 3.1949182643327152 1.376176093674049 3.3172408582879616 1.3129053278643943 3.4400091572216831 1.2412632290198882 3.5630156648933147 1.1610227105112514 3.6860907547876094 1.0719093741063741 3.8089535733323849 0.97355188548229854 3.9309206355596213 0.86576440519832409 4.0519488046627572 0.7482434392338142 4.171605934448527 0.62068611190121503 4.2894188490715335 0.48279013261001269 4.4048455531103867 0.33426386529524965 4.5173088174933778 0.17482629938810612 4.6261518746848758 0.0042153669600900178 4.7307520682650148 -0.17781306562185056 4.8302636571790405 -0.37145903950219733 4.9237963870226764 -0.57689171726252175 5.0105393166809513 -0.79424242548436819 5.0895677405751334 -1.0235866637098916 5.1598478307239866 0.078676878381885793 -0.36009265151035591 0.026470389494364203 -0.1222914856665171 0.0056398706913573333 -0.026131448337978983 -0.047467978382539813 0.21910862611259424 -0.10283849775320528 0.46841447326907454 -0.12583479501426761 0.56199143727551981 -0.15004022343819487 0.65497715631298115 -0.21266234913659382 0.90219739594188098 -0.24106106437735725 0.98869722544606942 -0.3124501585045612 1.2330603245657994 -0.34664982341171069 1.3108825496871856 -0.38234674097038762 1.3841052701052017 -0.3727357683490376 1.2938914445373857 -0.55990874567387128 1.8532153499645034 -5.9610517496855273 15.526072926497617 -0.42082080339421968 0.90309910937515681 -0.45250270060052034 0.95096355508155739 -0.42289676015494171 0.87080990490013632 -0.45271009465930862 0.91392129658278065 -0.48232500661268285 0.95389756519162083 -0.51236105318064873 0.99200462973982551 -0.54116431637448947 1.0251334477680933 -0.63694998865367047 1.1783485098140474 -0.66763380856391852 1.204141720436698 -0.69651307371584881 1.2243649501352361 -0.72516596062203298 1.2421232353860321 -0.75253217174715858 1.2558126227616146 -0.77842283720009819 1.2654472891882926 -0.72664684439743765 1.1521249607102972 -0.74623040783912875 1.1553839175612837 -0.76373903688396594 1.154762299034982 -0.77895605591811157 1.1502678743155672 -0.79170510524031668 1.1419803638916342 -0.80180595485213935 1.1299785477296205 -0.80908410409606435 1.1143515051762183 -0.81338915423169866 1.0952196106962413 -0.81454041064004079 1.0726573147214709 -0.81240996474173455 1.0468024771718762 -0.72165749271370316 0.91129833745182287 -0.71060771943212209 0.88087832472653937 -0.69717164996857361 0.84886130179108388 -0.67900798483981217 0.81257439826555289 -0.65716626617702401 0.77351196595218275 -0.63158998202211114 0.73176022707180277 -0.51504556470115925 0.58849175180616098 -0.48069670872531661 0.54271333689841872 -0.44382996020862064 0.49559825496687887 -0.40215328685147406 0.44458589302966622 -0.356834934490186 0.39097904543951206 -0.22148372544279848 0.24103883530985143 -0.1685586960632362 0.18260826787851067 -0.11346619956966916 0.12252099546204906 -0.054022818136121815 0.058220529427873556 0.092388858900768756 -0.09961209389593996 0.15773710886987535 -0.17056470497598913 0.22575490721177127 -0.24520713848704354 0.29627936789314996 -0.32377836059333259 0.3691240161711356 -0.40654831082768361 0.52350865027499482 -0.58269918496215778 0.5980746681661151 -0.67464591202101531 0.67506995783325674 -0.77324619162723585 0.75306878805934652 -0.87770407409852413 0.83278873575331436 -0.98978277128417658 0.91169389985886895 -1.1074984738233882 0.99037792875695208 -1.2326275296727671 1.0683115795785751 -1.3657669379951489 1.1448886766042927 -1.5075535867363419 1.2194090730395384 -1.6586556844089368 1.2238883430429273 -1.7233920243489593 1.2954176778113593 -1.8928850774756698 1.3636292329350568 -2.0752879928322248 1.360838011821812 -2.1634240757505254 1.4205527143582053 -2.3669368917319162 1.4116053910518853 -2.474356473424677 0.55708376481828226 -1.0133154624398868 0.59419447584604035 -1.1055692710603935 0.58166114416635994 -1.1083586799799674 0.69823556604006676 -1.3667403915944463 0.74479955888447746 -1.504590569522636 0.85432910257810746 -1.790349189178805 0.8998846873806372 -1.9678778329564552 1.1825099110937847 -2.7307342872143354 1.4305779479726897 -3.5628275385772246 1.8146386331495294 -5.0397317679863987 1.4471167550068493 -4.5872777108304827 0 0
        </DataArray>
        <DataArray type="Float32" Name="u" NumberOfComponents="1">
          0 0.007874015748031496 0.015748031496062992 0.023622047244094488 0.031496062992125984 0.03937007874015748 0.047244094488188976 0.055118110236220472 0.062992125984251968 0.070866141732283464 0.07874015748031496 0.086614173228346455 0.094488188976377951 0.10236220472440945 0.11023622047244094 0.11811023622047244 0.12598425196850394 0.13385826771653545 0.14173228346456693 0.14960629921259844 0.15748031496062992 0.16535433070866143 0.17322834645669291 0.18110236220472442 0.1889763779527559 0.19685039370078741 0.20472440944881889 0.2125984251968504 0.22047244094488189 0.2283464566929134 0.23622047244094488 0.24409448818897639 0.25196850393700787 0.25984251968503935 0.26771653543307089 0.27559055118110237 0.28346456692913385 0.29133858267716534 0.29921259842519687 0.30708661417322836 0.31496062992125984 0.32283464566929132 0.33070866141732286 0.33858267716535434 0.34645669291338582 0.3543307086614173 0.36220472440944884 0.37007874015748032 0.37795275590551181 0.38582677165354329 0.39370078740157483 0.40157480314960631 0.40944881889763779 0.41732283464566927 0.42519685039370081 0.43307086614173229 0.44094488188976377 0.44881889763779526 0.45669291338582679 0.46456692913385828 0.47244094488188976 0.48031496062992124 0.48818897637795278 0.49606299212598426 0.50393700787401574 0.51181102362204722 0.51968503937007871 0.52755905511811019 0.53543307086614178 0.54330708661417326 0.55118110236220474 0.55905511811023623 0.56692913385826771 0.57480314960629919 0.58267716535433067 0.59055118110236215 0.59842519685039375 0.60629921259842523 0.61417322834645671 0.62204724409448819 0.62992125984251968 0.63779527559055116 0.64566929133858264 0.65354330708661412 0.66141732283464572 0.6692913385826772 0.67716535433070868 0.68503937007874016 0.69291338582677164 0.70078740157480313 0.70866141732283461 0.71653543307086609 0.72440944881889768 0.73228346456692917 0.74015748031496065 0.74803149606299213 0.75590551181102361 0.76377952755905509 0.77165354330708658 0.77952755905511806 0.78740157480314965 0.79527559055118113 0.80314960629921262 0.8110236220472441 0.81889763779527558 0.82677165354330706 0.83464566929133854 0.84251968503937003 0.85039370078740162 0.8582677165354331 0.86614173228346458 0.87401574803149606 0.88188976377952755 0.88976377952755903 0.89763779527559051 0.90551181102362199 0.91338582677165359 0.92125984251968507 0.92913385826771655 0.93700787401574803 0.94488188976377951 0.952755905511811 0.96062992125984248 0.96850393700787396 0.97637795275590555 0.98425196850393704 0.99212598425196852 1
        </DataArray>
      </PointData>
      <CellData Scalars="P">
        <DataArray type="Float32" Name="P" NumberOfComponents="1">
          -0.041352982580453945 -0.12276668005304511 -0.20152291894390531 -0.27695307395504021 -0.34862072505062336 -0.41619648764589778 -0.47940587908261162 -0.53800286195281422 -0.5917544994417856 -0.640429838423762 -0.6837945295583221 -0.72160682848338187 -0.75361475997458249 -0.77955285930802765 -0.79913944222517685 -0.81207556854592611 -0.81804607688561248 -0.81671734944610486 -0.80773606101015727 -0.79073027855882394 -0.76530781978126183 -0.73105463875267251 -0.68753503429946516 -0.63429200627053373 -0.57084361801775341 -0.49668648218367611 -0.4112925968051605 -0.31410494695232033 -0.2045399224589346 -0.082005410867510467 0.054133913097100146 0.20454001882449804 0.36990199035759813 0.55093478617430047 0.7483797028262833 0.96300195020774315 1.1955951382363161 1.446968871740872 1.7179464914889819 2.0093713793303793 2.3220996727590162 2.6569918514467212 2.5603425300021381 2.484061253109644 2.416351842379171 2.3711715252143009 2.3490226038771511 2.3351778907671035 2.3290618608222844 2.3438962957703575 2.3641691544375614 2.4024900566576659 2.4432346660535411 2.485036665477883 2.5144906555244022 2.578552150446892 3.5193668826813429 3.5077341683566363 3.4971917139839861 3.4792251054946792 3.4612143647201221 3.4424026535294141 3.4221128033250867 3.3995217792115717 3.379540768210628 3.3553726795216163 3.3263378064018889 3.2919460445470201 3.251715011337232 3.2052419556476202 3.1500758504360733 3.088742449700967 3.0210546787504091 2.9469098960625102 2.866291335301379 2.7792674788524927 2.6859905535617119 2.5866936061173678 2.4816878470001282 2.3713572823092481 2.2598059664668138 2.1443964748917805 2.0255772394213394 1.9039605203542653 1.7801461454810223 1.6547685799395881 1.534625835458068 1.4146098558142952 1.2952742828211026 1.1773551043613657 1.061503409444045 0.95576981997135713 0.85359171152574032 0.75543859329111807 0.66195970456610431 0.58154134932592638 0.50691994216763359 0.43851872900163119 0.37671951637236573 0.32185649707062997 0.28213241239509707 0.2497431848861954 0.22495162561830456 0.20784775037320202 0.19856229316320281 0.19693657923972066 0.20283709821124607 0.21604269011547519 0.23623761298545115 0.26300393795266142 0.28911133232935216 0.3208263271095092 0.35744240186275139 0.39172590909361715 0.4290618930952903 0.4625454970561354 0.44472322114298579 0.42479606499544964 0.39801816739047108 0.37248243774644962 0.34194907098798921 0.30834868830383799 0.26705903257461477 0.224358546430446 0.17504927301641873 0.11523133298477425 0.041257160156534078
        </DataArray>
      </CellData>
      <Points>
        <DataArray type="Float32" NumberOfComponents="3" format="ascii">
          4.9035335319159703 10.057530604976035 0
          4.9088516245748295 10.05172214664162 0
          4.9141953612947571 10.045937221617592 0
          4.9195799445157489 10.040190219987858 0
          4.9250164192738222 10.034492183899799 0
          4.9305135598137104 10.028852537407561 0
          4.9360786367871903 10.023279787755499 0
          4.9417178041376237 10.017781878295432 0
          4.9474363202036029 10.012366389724393 0
          4.9532386858329742 10.007040665443363 0
          4.9591287400275146 10.001811898938026 0
          4.9651097238868767 9.9966871921045346 0
          4.9711843257226054 9.9916735964527277 0
          4.9773547136728968 9.9867781430396203 0
          4.9836225615381675 9.98200786722564 0
          4.9899890691421787 9.9773698297480848 0
          4.9964549761203205 9.9728711323620285 0
          5.0030205681654785 9.9685189256785343 0
          5.0096856817326358 9.9643204168676753 0
          5.0164497059019952 9.9602828755128705 0
          5.0233115793722067 9.9564136338429439 0
          5.0302697862217007 9.9527200865473535 0
          5.0373223501677078 9.9492096899155804 0
          5.0444668258491943 9.9458899573090811 0
          5.0517002876442652 9.9427684509658079 0
          5.0590193188572465 9.9398527759797641 0
          5.0664199967896728 9.9371505659877499 0
          5.0738978783141606 9.9346694702283607 0
          5.0814479857139858 9.9324171429476102 0
          5.0890647895906325 9.930401225896901 0
          5.0967421857585071 9.928629305831949 0
          5.1044734836603993 9.9271089117606195 0
          5.1122513874848572 9.9258474880405743 0
          5.1200679773273468 9.9248523649283822 0
          5.1279146903933617 9.9241307248553934 0
          5.1357823028683871 9.9236895665164422 0
          5.1436609124526678 9.9235356640212977 0
          5.1515399220767977 9.923675528166795 0
          5.15940802473476 9.9241153538597047 0
          5.1672531910583066 9.9248609647788708 0
          5.1750626588110782 9.9259177629677513 0
          5.1828229247332578 9.9272906713682989 0
          5.1905197398526619 9.9289840695844624 0
          5.1982211945486814 9.9306550497633115 0
          5.2059240359114431 9.9323183796604226 0
          5.2136269730980391 9.9339800319298917 0
          5.2213266995326677 9.9356552325415404 0
          5.2290197695232674 9.9373594574156652 0
          5.2367047611132067 9.9390985143115671 0
          5.2443801776656978 9.9408781734086791 0
          5.2520421266816246 9.9427137755398185 0
          5.2596888530393411 9.9446106856434362 0
          5.2673159225106545 9.9465840632292135 0
          5.2749212217559975 9.9486387322539258 0
          5.2825025449065395 9.9507792307636542 0
          5.2900605079861407 9.9529999573041152 0
          5.2975834755534006 9.955335604138023 0
          5.3047366165053118 9.958634679918708 0
          5.3118634716224955 9.9619897117605198 0
          5.3189620817463563 9.9654036676353748 0
          5.3260342973347159 9.9688715761118072 0
          5.3330782747174537 9.9723961104063825 0
          5.3400921826730459 9.9759797490924651 0
          5.3470741639089416 9.9796248546361159 0
          5.3540224378072354 9.9833334806418019 0
          5.3609310631515186 9.987115126516942 0
          5.3677981436056754 9.9909713904008157 0
          5.3746218949439335 9.9949035250590796 0
          5.3814005470065034 9.9989126304502314 0
          5.3881324095290601 10.002999554320342 0
          5.394815883843866 10.007164893127982 0
          5.401454192187674 10.01140162075423 0
          5.4080461264227901 10.01570993890534 0
          5.4145906071479795 10.020089808875312 0
          5.4210866971296987 10.024540952068516 0
          5.42753361223164 10.029062854982145 0
          5.4339307325855275 10.033654774129452 0
          5.4402776134076181 10.03831574160052 0
          5.4465739943214437 10.043044572561939 0
          5.4528198105618371 10.047839869908429 0
          5.4590152009063821 10.052700032843941 0
          5.4651658006280819 10.057616663701442 0
          5.4712723010803987 10.062587879440409 0
          5.4773355416657292 10.067611698477098 0
          5.4833566550515744 10.072685875015745 0
          5.4893370020940528 10.077807991710541 0
          5.4952781753649509 10.082975465033321 0
          5.5011874078238545 10.088179418101971 0
          5.5070668359093151 10.093417018494153 0
          5.5129187524678871 10.098685351464411 0
          5.5187457489043403 10.103981261190688 0
          5.5245506428006559 10.109301431546442 0
          5.5303418333772596 10.114636573239993 0
          5.536122610438917 10.119983071599504 0
          5.5418963988009136 10.125337209717054 0
          5.5476668937153519 10.130695009876057 0
          5.5534431818566423 10.136046693493604 0
          5.5592293259416152 10.141387870447623 0
          5.5650295551876265 10.146713922028532 0
          5.5708482553182535 10.152019986021395 0
          5.5766899571108066 10.157300939844966 0
          5.5825642463340612 10.162545866966672 0
          5.5884757630054818 10.167749074550185 0
          5.5944292992683611 10.172904456557344 0
          5.6004297111206709 10.178005542904639 0
          5.606481962969335 10.183045389774168 0
          5.6125909705377879 10.188016702441951 0
          5.618761637712594 10.192911724706539 0
          5.6249988237743374 10.197722201464861 0
          5.6313073058340617 10.202439338771123 0
          5.6376917354160705 10.207053761911885 0
          5.64415242580941 10.211561457062155 0
          5.650693847293681 10.215951902321411 0
          5.6573202662630324 10.220213770305005 0
          5.6640315517386313 10.224341585849254 0
          5.6708314476902828 10.22832270253812 0
          5.6777194466272363 10.232150440283363 0
          5.6846412168299887 10.235914813171371 0
          5.6915991294597976 10.239610159280065 0
          5.6985924790858702 10.243236370649479 0
          5.7056285540584861 10.2467774673854 0
          5.712710303932675 10.250224953813227 0
          5.7198445749527744 10.253561154388448 0
          5.7270342486003782 10.256775109830278 0
          5.7342968873979014 10.25981955049053 0
          5.7416479143986132 10.262642923554292 0
          5.749111628387789 10.265153838761274 0
          5.7566652715644793 10.267380341366874 0
        </DataArray>
      </Points>
      <Cells>
        <DataArray type="Int32" Name="connectivity" format="ascii">
          0 1 1 2 2 3 3 4 4 5 5 6 6 7 7 8 8 9 9 10 10 11 11 12 12 13 13 14 14 15 15 16 16 17 17 18 18 19 19 20 20 21 21 22 22 23 23 24 24 25 25 26 26 27 27 28 28 29 29 30 30 31 31 32 32 33 33 34 34 35 35 36 36 37 37 38 38 39 39 40 40 41 41 42 42 43 43 44 44 45 45 46 46 47 47 48 48 49 49 50 50 51 51 52 52 53 53 54 54 55 55 56 56 57 57 58 58 59 59 60 60 61 61 62 62 63 63 64 64 65 65 66 66 67 67 68 68 69 69 70 70 71 71 72 72 73 73 74 74 75 75 76 76 77 77 78 78 79 79 80 80 81 81 82 82 83 83 84 84 85 85 86 86 87 87 88 88 89 89 90 90 91 91 92 92 93 93 94 94 95 95 96 96 97 97 98 98 99 99 100 100 101 101 102 102 103 103 104 104 105 105 106 106 107 107 108 108 109 109 110 110 111 111 112 112 113 113 114 114 115 115 116 116 117 117 118 118 119 119 120 120 121 121 122 122 123 123 124 124 125 125 126 126 127 
        </DataArray>
        <DataArray type="Int32" Name="offsets" format="ascii">
          2 4 6 8 10 12 14 16 18 20 22 24 26 28 30 32 34 36 38 40 42 44 46 48 50 52 54 56 58 60 62 64 66 68 70 72 74 76 78 80 82 84 86 88 90 92 94 96 98 100 102 104 106 108 110 112 114 116 118 120 122 124 126 128 130 132 134 136 138 140 142 144 146 148 150 152 154 156 158 160 162 164 166 168 170 172 174 176 178 180 182 184 186 188 190 192 194 196 198 200 202 204 206 208 210 212 214 216 218 220 222 224 226 228 230 232 234 236 238 240 242 244 246 248 250 252 254 
        </DataArray>
        <DataArray type="Int32" Name="types" format="ascii">
          3 3 3 3 3 3 3 3 3 3 3 3 3 3 3 3 3 3 3 3 3 3 3 3 3 3 3 3 3 3 3 3 3 3 3 3 3 3 3 3 3 3 3 3 3 3 3 3 3 3 3 3 3 3 3 3 3 3 3 3 3 3 3 3 3 3 3 3 3 3 3 3 3 3 3 3 3 3 3 3 3 3 3 3 3 3 3 3 3 3 3 3 3 3 3 3 3 3 3 3 3 3 3 3 3 3 3 3 3 3 3 3 3 3 3 3 3 3 3 3 3 3 3 3 3 3 3         </DataArray>
      </Cells>
    </Piece>
  </UnstructuredGrid>
</VTKFile>
