<?xml version="1.0"?>
<VTKFile type="UnstructuredGrid" version="0.1" byte_order="LittleEndian">
  <UnstructuredGrid>
    <Piece NumberOfPoints="128" NumberOfCells="127">
      <PointData Scalars="W">
        <DataArray type="Float32" Name="W" NumberOfComponents="2">
          0 0 0.34090372360232662 0.095503570005641303 0.50517702017493848 0.13964261325427896 0.64077395084617872 0.17390262864099007 0.76253092512627474 0.20227110822480113 0.8764938396736125 0.22625472552393025 0.98596588616276104 0.24657264074583887 1.0929320381907297 0.26355646497407076 1.1986818936272834 0.27732533348532673 1.3040290373063721 0.28785238283736614 1.4095725548036997 0.29503482917303503 1.5156897066341457 0.29869814312320053 1.6226096794561919 0.29861897173285457 1.7304742686231012 0.29454218369204926 1.8393097933917075 0.28618063877710254 1.9490759219017759 0.27322940641668536 2.0597663474389667 0.25538189660094784 2.1712411823780333 0.23230810067210622 2.2833547273821218 0.20367685799045146 2.39594931243241 0.16915475110688169 2.5088145326386724 0.12840405296509172 2.6216684135799553 0.08108671572300255 2.7341995057891153 0.026871521881839638 2.8460552958454395 -0.034563386557196742 2.9568367075472537 -0.10352640492468111 3.0661658164575631 -0.18031243658238186 3.173557304970795 -0.26519563261422396 3.2784229157274916 -0.35841586857941676 3.3802309199275298 -0.46018761354861742 3.4787036813768868 -0.57074556915301988 3.5728372990237878 -0.69018820005529025 3.6619619992109342 -0.8186038734616552 3.7453724147112029 -0.95602961187768776 3.8223366954237044 -1.1024474615741326 3.8920804449327964 -1.2577735842974782 3.9537949178394283 -1.4218514182256887 4.0065630342968683 -1.5944108914227244 4.0495956705773741 -1.775146555975937 4.0821163779510528 -1.9636849657160333 4.1032182182889416 -2.1595038806392095 4.1120423439256459 -2.3619935173081044 4.1077874973287916 -2.5704620369618962 -3.4495320709432846 2.1731153780326204 -3.398225820079531 1.9938317646168982 -3.3348997705938617 1.8224141510495371 -3.2954392911323076 1.6764852555725749 -3.2129969645885481 1.5206823890500745 -3.1583119100363874 1.3895251015859265 -3.0601818281611464 1.250293089668175 -2.9935258634801585 1.134471746330818 -2.9223496896187071 1.0253764592787942 -2.8472737059763027 0.92298140496250647 -2.7688866387577344 0.82721330330140319 -2.6877443298831842 0.73795762098098605 -2.6439440851030129 0.66456801922767139 -2.5600806913413012 0.58642223996642362 -2.5130420720403173 0.52181438979440109 -2.347908180852933 0.43992868766069249 -2.2195376920858094 0.37404678400547647 -2.0888421488791491 0.3152205903296787 -1.956703204226496 0.26315395805396552 -1.823448672094929 0.21743428991011113 -1.6900044882793956 0.17769971549497451 -1.5553642999161039 0.14337692808316613 -1.3679498980709635 0.11017887788884179 -1.2309119946618943 0.086438666450187912 -1.1499014207413838 0.069901455453293099 -1.0709175508311877 0.055691499950696589 -0.99482227432373016 0.043615320652162122 -0.86332350000165514 0.03151887902760539 -0.79110481284192258 0.023720698235511952 -0.72216500859589416 0.017346284266539978 -0.65504269810292515 0.012179824113584318 -0.59060250771721035 0.0080840556735545781 -0.47004881494266282 0.0044706827975664921 -0.41208510381150093 0.0024880774457416844 -0.35628405049148548 0.0010733327397454469 -0.30356247653333152 0.00012589405908219111 -0.25400750633878927 -0.00045224790305875226 -0.20770766139806213 -0.00074738522974701833 -0.104689016228676 -0.00050545952134472129 -0.065236286909935728 -0.00035861859450406111 -0.029362438341881205 -0.00017234813915072383 0.0028285027245853367 1.6897885754821432e-05 0.031197604569893813 0.00018219968582077449 0.054771357574321465 0.00030133584685661864 0.075147881833862992 0.00037500226488432903 0.091310190560532162 0.00039581347786670314 0.16613624469858485 0.00055177688718469943 0.1734681914020533 0.00034419381241620589 0.17524744208880763 0.00010712640927007229 0.17309527968378471 -0.00013157779399481157 0.16595840666218567 -0.00034768530701879513 0.15362823851508056 -0.00051515431250773679 0.13591917754182201 -0.00061071748789589804 0.11170348155915832 -0.00061081473389619197 0.082607466294488271 -0.00051491168630661121 0.047450982292295114 -0.00032007189405902615 0.071163731913630138 -0.00051325767640724449 0.022183338616523742 -0.0001681474041078639 -0.032709861110250933 0.00024658157897152865 -0.094769708013927978 0.0006668470705524553 -0.16436408949843243 0.00098884344717211411 -0.24282128509354417 0.0010715544721761835 -0.26122365206537784 0.00063434237310215646 -0.3557402484361934 -2.9150087772587731e-07 -0.46047520190033719 -0.0014802167092928555 -0.57394021104777959 -0.0041826446495350639 -0.62807065731324541 -0.0075500928622390289 -0.76387898953851663 -0.013370689334678764 -0.9103274989479706 -0.021939123961500436 -0.99828932939643888 -0.031570331676702097 -1.1705353492623618 -0.047033516101875707 -1.2838163032827803 -0.064030812924131764 -1.4858292889719968 -0.090386339334453863 -1.6288112825160399 -0.11919723842037573 -1.8668122437086601 -0.16256173320730785 -2.0452628540394304 -0.21003917220771892 -2.2369112577516965 -0.26814979580448645 -2.4555378540663058 -0.3408849288774024 -3.1114058320546816 -0.50249107822586048 0.71764031334248302 0.12293850309879316 0.84198331900041923 0.13884776437080576 0.52704562744046968 0.083958472852300028 0.081898431980330866 0.012842629570087768 -2.0917767368109716 -0.34522757524379155 -5.3627466967639279 -1.0504511756995467 0 0
        </DataArray>
        <DataArray type="Float32" Name="u" NumberOfComponents="1">
          0 0.007874015748031496 0.015748031496062992 0.023622047244094488 0.031496062992125984 0.03937007874015748 0.047244094488188976 0.055118110236220472 0.062992125984251968 0.070866141732283464 0.07874015748031496 0.086614173228346455 0.094488188976377951 0.10236220472440945 0.11023622047244094 0.11811023622047244 0.12598425196850394 0.13385826771653545 0.14173228346456693 0.14960629921259844 0.15748031496062992 0.16535433070866143 0.17322834645669291 0.18110236220472442 0.1889763779527559 0.19685039370078741 0.20472440944881889 0.2125984251968504 0.22047244094488189 0.2283464566929134 0.23622047244094488 0.24409448818897639 0.25196850393700787 0.25984251968503935 0.26771653543307089 0.27559055118110237 0.28346456692913385 0.29133858267716534 0.29921259842519687 0.30708661417322836 0.31496062992125984 0.32283464566929132 0.33070866141732286 0.33858267716535434 0.34645669291338582 0.3543307086614173 0.36220472440944884 0.37007874015748032 0.37795275590551181 0.38582677165354329 0.39370078740157483 0.40157480314960631 0.40944881889763779 0.41732283464566927 0.42519685039370081 0.43307086614173229 0.44094488188976377 0.44881889763779526 0.45669291338582679 0.46456692913385828 0.47244094488188976 0.48031496062992124 0.48818897637795278 0.49606299212598426 0.50393700787401574 0.51181102362204722 0.51968503937007871 0.52755905511811019 0.53543307086614178 0.54330708661417326 0.55118110236220474 0.55905511811023623 0.56692913385826771 0.57480314960629919 0.58267716535433067 0.59055118110236215 0.59842519685039375 0.60629921259842523 0.61417322834645671 0.62204724409448819 0.62992125984251968 0.63779527559055116 0.64566929133858264 0.65354330708661412 0.66141732283464572 0.6692913385826772 0.67716535433070868 0.68503937007874016 0.69291338582677164 0.70078740157480313 0.70866141732283461 0.71653543307086609 0.72440944881889768 0.73228346456692917 0.74015748031496065 0.74803149606299213 0.75590551181102361 0.76377952755905509 0.77165354330708658 0.77952755905511806 0.78740157480314965 0.79527559055118113 0.80314960629921262 0.8110236220472441 0.81889763779527558 0.82677165354330706 0.83464566929133854 0.84251968503937003 0.85039370078740162 0.8582677165354331 0.86614173228346458 0.87401574803149606 0.88188976377952755 0.88976377952755903 0.89763779527559051 0.90551181102362199 0.91338582677165359 0.92125984251968507 0.92913385826771655 0.93700787401574803 0.94488188976377951 0.952755905511811 0.96062992125984248 0.96850393700787396 0.97637795275590555 0.98425196850393704 0.99212598425196852 1
        </DataArray>
      </PointData>
      <CellData Scalars="P">
        <DataArray type="Float32" Name="P" NumberOfComponents="1">
          -0.0042695158035295057 -0.012392478373889503 -0.019643903112706636 -0.025627456126709032 -0.029943944513147979 -0.032177077554801634 -0.031886508789678081 -0.028604713598241412 -0.021835514375046453 -0.011054612771270227 0.0042904024874802389 0.02477818821445494 0.051011294236793271 0.08361379650198289 0.12322729843733464 0.17050703740525383 0.22612037989971812 0.29074011272025047 0.36504076327236151 0.44969465763786709 0.54536620071801667 0.65270472506025112 0.77233847910039655 0.90486777078562974 1.0508574199113774 1.2108324697545392 1.3852669600446668 1.5745717418114751 1.779091175354883 1.9991137490749225 2.234819480271955 2.4862931022200478 2.7535147704465692 3.0363512850023824 3.3345460047883879 3.6477091771571271 3.9753019664742677 4.3166397158146257 4.6708869076122124 5.0370395683194289 5.4139229739979351 5.8001910921730948 5.4625768032386706 5.1251692989161777 4.7901632249015957 4.4559617341553679 4.1278414951484628 3.8036258161199132 3.4885620511650584 3.1799235813577429 2.8787290829502896 2.5858762750198445 2.302145652132265 2.0282048244112771 1.7605052134535526 1.503527353669452 1.2537580794691752 1.0233749176490052 0.80864728629683857 0.6097635378102636 0.42675521738140632 0.25955467266811943 0.10794200130165799 -0.028272572225109 -0.14479844330634351 -0.24663265002887275 -0.33894231569769151 -0.4221468650127711 -0.49675103040107471 -0.55887840953380774 -0.61347590325413648 -0.66110849899599444 -0.70224028152111295 -0.73739684272109007 -0.76359013230026995 -0.78511362437167043 -0.80244266430405753 -0.81609124191119897 -0.82655856868408084 -0.83432541610950961 -0.83754935845719558 -0.83919858649130763 -0.83968046029842724 -0.83936939494594043 -0.83860437356754269 -0.83770142467714337 -0.83689770765228566 -0.83640563470724238 -0.83590178448189478 -0.83623350191730184 -0.83746094836329843 -0.83958592901265949 -0.842557935174303 -0.84626936031078026 -0.85055512188482962 -0.85517628945712931 -0.85986664235732213 -0.86429056083466504 -0.86984334589568779 -0.87446798939379855 -0.87769231331810194 -0.87897437429733061 -0.87773252364812226 -0.87331401236879913 -0.86798774332738182 -0.85836098653827042 -0.84371588614506998 -0.82343395011075304 -0.8002552314175857 -0.77020868535748188 -0.73278443160526097 -0.6910614249835445 -0.64111188536550268 -0.58631884203865503 -0.52291558282638995 -0.45462282480708949 -0.37804403766719785 -0.29735495765176517 -0.21360414736672306 -0.12769171981261998 -0.026526123770511834 -0.037533522633897747 -0.050868221836122982 -0.055379756301323017 -0.05195845199001952 -0.02558626912458278 0.0015297865252868325
        </DataArray>
      </CellData>
      <Points>
        <DataArray type="Float32" NumberOfComponents="3" format="ascii">
          4.1506241311669525 5.8446600274443883 0
          4.1484894210651468 5.8522392737071813 0
          4.1463758488827525 5.8598244369766004 0
          4.1442936004335342 5.86741825172082 0
          4.1422510832450623 5.875022840706591 0
          4.140255846536272 5.8826399619259266 0
          4.1383149561199852 5.8902711018787759 0
          4.1364351992376163 5.8979175200852181 0
          4.1346232076554603 5.905580269594406 0
          4.132885537643129 5.9132602043331728 0
          4.1312287204364573 5.9209579774106729 0
          4.1296592993998393 5.9286740347210953 0
          4.128183853434181 5.9364086041017226 0
          4.1268090112033642 5.9441616814664648 0
          4.125541459941684 5.951933014971031 0
          4.1243879471010452 5.9597220871949208 0
          4.1233552778650742 5.9675280962214403 0
          4.1224503147720677 5.9753499366155767 0
          4.1216799690550996 5.9831861789504233 0
          4.1210511916209418 5.9910350492625293 0
          4.1205709632858625 5.9988944083675202 0
          4.1202462817408474 6.0067617309085968 0
          4.1200841440784091 6.0146340843851469 0
          4.1200915274907661 6.0225081086047743 0
          4.1202753674208115 6.0303799957155189 0
          4.1206425328248564 6.0382454710726412 0
          4.1211998027454175 6.0460997749417986 0
          4.1219538362241712 6.0539376454887828 0
          4.1229111358310799 6.0617533038942986 0
          4.1240780146968135 6.0695404410439568 0
          4.1254605792977301 6.0772922029638803 0
          4.1270646672101616 6.0850011847032759 0
          4.1288958055793463 6.0926594248433066 0
          4.1309591673800181 6.1002584031897262 0
          4.1332595260336022 6.1077890418745593 0
          4.1358012073860939 6.1152417105432386 0
          4.1385880395549544 6.1226062360513733 0
          4.1416232960577783 6.1298719192001041 0
          4.1449096468734679 6.1370275536656207 0
          4.1484491102884302 6.1440614491455543 0
          4.1522429966512275 6.1509614637318757 0
          4.1562918551082921 6.1577150417126783 0
          4.1605954239099292 6.1643092564625634 0
          4.1646851069665294 6.1710382144256792 0
          4.1685640850180867 6.1778907984941576 0
          4.1722362841825413 6.1848563792420439 0
          4.1757041511910256 6.1919259082337597 0
          4.1789727975878179 6.1990897242022447 0
          4.1820456141895948 6.2063396946324154 0
          4.1849286853570131 6.2136671857115227 0
          4.1876261442258036 6.2210650158416581 0
          4.1901424042068998 6.2285264204849842 0
          4.1924821205161669 6.2360450505592588 0
          4.1946501536686611 6.2436149678909496 0
          4.1966515350124185 6.2512306381105933 0
          4.1984889806871104 6.258887511269581 0
          4.2001676907136565 6.2665807418779895 0
          4.2016905819491592 6.2743063244727066 0
          4.2030678932352616 6.2820591803785435 0
          4.2043075841223434 6.2898352238411821 0
          4.2054177583513983 6.2976308065684403 0
          4.2064066091835048 6.3054426993823363 0
          4.207282399067215 6.3132680666432099 0
          4.2080534022208846 6.3211044438294683 0
          4.2087279670200104 6.3289497019795427 0
          4.2093177139414024 6.3368017811509016 0
          4.2098311400154875 6.3446592086277542 0
          4.2102732684404423 6.3525209591129013 0
          4.2106489967160785 6.3603861516220119 0
          4.2109630432064629 6.3682540374984749 0
          4.2112235613543723 6.3761238661650959 0
          4.2114350290966733 6.383995154308697 0
          4.2116017210374412 6.3918675069323951 0
          4.2117277990583037 6.3997406039611509 0
          4.2118172587121823 6.4076141917449325 0
          4.2118775746253929 6.4154880460634862 0
          4.211912340731061 6.4233620444669324 0
          4.2119250168461022 6.4312360997662097 0
          4.2119188718299982 6.4391101538128446 0
          4.2118969781859352 6.446984171428972 0
          4.2118622065754385 6.4548581350642174 0
          4.21182094423229 6.4627320602850435 0
          4.2117756372495174 6.4706059572286225 0
          4.2117285098164903 6.4784798385854963 0
          4.2116815577729572 6.4863537173476224 0
          4.211636539998886 6.4942276051476968 0
          4.2115949180601735 6.502101510889684 0
          4.2115579552954214 6.5099754407986294 0
          4.2115266537652758 6.5178493979725207 0
          4.2115056527025976 6.5257233942419619 0
          4.2114954067081696 6.5335974190056909 0
          4.2114960261275387 6.5414714600083634 0
          4.2115073775705829 6.5493455050815443 0
          4.2115290186046499 6.557219543649909 0
          4.2115601848181816 6.5650935683514433 0
          4.2115997783072494 6.5729675764850777 0
          4.2116462977446449 6.5808415714649318 0
          4.211697939202141 6.5887155628754188 0
          4.2117525229640549 6.5965895666466841 0
          4.211811519374578 6.6044635758791346 0
          4.2118718915533586 6.6123376164131598 0
          4.2119302359225133 6.6202117186329446 0
          4.2119827044288893 6.6280859134748846 0
          4.2120249816913651 6.6359602259832435 0
          4.2120522025892706 6.6438346665337891 0
          4.2120632256727291 6.651709215130591 0
          4.2120521895793548 6.6595838382460384 0
          4.2120125989552024 6.6674584500526013 0
          4.2119374166573822 6.6753328890568655 0
          4.2118232845531995 6.6832069548112027 0
          4.2116617789198738 6.6910802927934547 0
          4.2114438154650813 6.6989523781027644 0
          4.2111639362451889 6.7068226224944123 0
          4.210811455390588 6.7146900735360298 0
          4.2103793429383476 6.7225536864219535 0
          4.2098550645666899 6.7304118328926128 0
          4.2092297457806618 6.7382627353289006 0
          4.2084886171112439 6.7461037096518979 0
          4.207620600889558 6.7539318197196279 0
          4.2066137988946917 6.7617434697040384 0
          4.20545463726652 6.7695341556797102 0
          4.2041024172749655 6.7772938367418947 0
          4.2027948251280405 6.7850605125993546 0
          4.2015395450906503 6.7928352760495994 0
          4.2003170221411965 6.8006148061105325 0
          4.1990996342725753 6.8083947733527372 0
          4.1977525916221614 6.8161530250350042 0
          4.1960730158288975 6.8238462101979289 0
        </DataArray>
      </Points>
      <Cells>
        <DataArray type="Int32" Name="connectivity" format="ascii">
          0 1 1 2 2 3 3 4 4 5 5 6 6 7 7 8 8 9 9 10 10 11 11 12 12 13 13 14 14 15 15 16 16 17 17 18 18 19 19 20 20 21 21 22 22 23 23 24 24 25 25 26 26 27 27 28 28 29 29 30 30 31 31 32 32 33 33 34 34 35 35 36 36 37 37 38 38 39 39 40 40 41 41 42 42 43 43 44 44 45 45 46 46 47 47 48 48 49 49 50 50 51 51 52 52 53 53 54 54 55 55 56 56 57 57 58 58 59 59 60 60 61 61 62 62 63 63 64 64 65 65 66 66 67 67 68 68 69 69 70 70 71 71 72 72 73 73 74 74 75 75 76 76 77 77 78 78 79 79 80 80 81 81 82 82 83 83 84 84 85 85 86 86 87 87 88 88 89 89 90 90 91 91 92 92 93 93 94 94 95 95 96 96 97 97 98 98 99 99 100 100 101 101 102 102 103 103 104 104 105 105 106 106 107 107 108 108 109 109 110 110 111 111 112 112 113 113 114 114 115 115 116 116 117 117 118 118 119 119 120 120 121 121 122 122 123 123 124 124 125 125 126 126 127 
        </DataArray>
        <DataArray type="Int32" Name="offsets" format="ascii">
          2 4 6 8 10 12 14 16 18 20 22 24 26 28 30 32 34 36 38 40 42 44 46 48 50 52 54 56 58 60 62 64 66 68 70 72 74 76 78 80 82 84 86 88 90 92 94 96 98 100 102 104 106 108 110 112 114 116 118 120 122 124 126 128 130 132 134 136 138 140 142 144 146 148 150 152 154 156 158 160 162 164 166 168 170 172 174 176 178 180 182 184 186 188 190 192 194 196 198 200 202 204 206 208 210 212 214 216 218 220 222 224 226 228 230 232 234 236 238 240 242 244 246 248 250 252 254 
        </DataArray>
        <DataArray type="Int32" Name="types" format="ascii">
          3 3 3 3 3 3 3 3 3 3 3 3 3 3 3 3 3 3 3 3 3 3 3 3 3 3 3 3 3 3 3 3 3 3 3 3 3 3 3 3 3 3 3 3 3 3 3 3 3 3 3 3 3 3 3 3 3 3 3 3 3 3 3 3 3 3 3 3 3 3 3 3 3 3 3 3 3 3 3 3 3 3 3 3 3 3 3 3 3 3 3 3 3 3 3 3 3 3 3 3 3 3 3 3 3 3 3 3 3 3 3 3 3 3 3 3 3 3 3 3 3 3 3 3 3 3 3         </DataArray>
      </Cells>
    </Piece>
  </UnstructuredGrid>
</VTKFile>
