<?xml version="1.0"?>
<VTKFile type="UnstructuredGrid" version="0.1" byte_order="LittleEndian">
  <UnstructuredGrid>
    <Piece NumberOfPoints="128" NumberOfCells="127">
      <PointData Scalars="W">
        <DataArray type="Float32" Name="W" NumberOfComponents="2">
          0 0 -0.29919964431420254 0.098360359798604052 -0.52423354479828033 0.17036040897326907 -0.70387350012395755 0.22479188645122247 -0.85955570246235935 0.26841000641100771 -0.99996490333490917 0.30386841058166741 -1.1294188274809276 0.33244033985398996 -1.250421763643478 0.35484332298834093 -1.3645263424931955 0.37151660578900669 -1.4728316141029787 0.38277477013134281 -1.5760717386257557 0.3888380671721024 -1.6748077210379217 0.38988770218679814 -1.7694523308241528 0.38607340820011293 -1.8603263623238624 0.37752818932115678 -1.9477002546085114 0.36437699003671825 -2.0317891154304224 0.34673478389633533 -2.1126859561419833 0.32469744914924292 -2.190520355344086 0.29837070828680445 -2.2653556952956655 0.26785192498203181 -2.3372020520409649 0.23323570522418988 -2.406072395480892 0.19462174496266291 -2.4719844046822299 0.15211285459461071 -2.534922554641815 0.10581160164013279 -2.5948848683316941 0.0558234395142094 -2.651855477238632 0.0022541460321256358 -2.7057605005771284 -0.054788137777465842 -2.7565874563788113 -0.11519253408937644 -2.8043597107714033 -0.17885213077170709 -2.8490143552664677 -0.24565770780343854 -2.8902013208230692 -0.31546244974488957 -2.9282488030036906 -0.38818087726584749 -2.963112654261792 -0.46370812834945963 -2.9947393879516739 -0.54193810880707716 -3.023093305982989 -0.62276832087697953 -3.0481409363813028 -0.70609903510713434 -3.0698807854141403 -0.7918420805107631 -3.088371739230952 -0.87993497184272296 -3.1035420926995854 -0.97028949113120455 -3.1153101619095218 -1.0628135765861622 -3.1237202175841583 -1.1574621448948113 -3.1287802785106034 -1.2541929254026627 -3.1304680770794029 -1.3529642924594711 -0.1463495046535308 -0.065708361636864346 0.66064965187616653 0.29486203658464905 1.067599061589823 0.4670028238592871 1.4925027880542834 0.63345370078826968 1.9373962445322777 0.78905469101219816 2.4041919506287273 0.9280213074537611 2.8946428295612705 1.0439153166798865 2.8605642508391025 0.95473084895664528 2.7890229201444505 0.85898076939191004 2.7214979154660242 0.77121574558844019 2.6677685237494555 0.69299359826214812 2.6027134346702145 0.61699380971832196 2.5386624494321035 0.54640949305450648 2.4693018817786068 0.47967700456618484 3.5939782852323812 0.60805715900456581 4.8114450133402178 0.64918936890353229 4.7193975638435886 0.45594769134717006 4.6189513014151222 0.27472714201862136 4.4856092752144949 0.10546721403482832 4.3702639961081626 -0.04973700608031021 4.2490690470296899 -0.19281903651404497 4.09641882016005 -0.32134262022649662 3.9388156422608103 -0.43532517158394729 3.8068597253427865 -0.53967213796546964 3.7053001380938912 -0.63899555755762094 3.6037750493690357 -0.73075799713130174 3.5028668089330841 -0.81539660220345367 3.3720984330948989 -0.88477960758354957 3.2744404946819539 -0.9549171652304419 3.1795173749891363 -1.0196701893649431 3.0862881761358545 -1.0791098838960425 2.9647858429735132 -1.1217655718047388 2.8778436678263115 -1.170964232339788 2.7940712087691577 -1.2165982611682367 2.7136531271385169 -1.2591600275567016 2.6367231630107697 -1.2991289494802201 2.5330538134102376 -1.3207210737044397 2.4641197392627197 -1.3555685863060523 2.3989095734356969 -1.3892576778824488 2.3374415977156811 -1.4222270166360165 2.2797115572978295 -1.4549066898630574 2.1969324318899024 -1.4680577889242374 2.1474199590753558 -1.5002381011089758 2.1015120756996555 -1.5333949004954934 2.0591394881902683 -1.5679350990886907 2.0202011164789297 -1.6042530154917283 1.9845771598356465 -1.6427403983811084 1.9515650073205246 -1.6832917317231837 1.8950355320305334 -1.7024035040486374 1.8694755066914777 -1.7486285304356914 1.8465848771132347 -1.7986073593841576 1.8261414623980092 -1.8527396846575934 1.8078952569901987 -1.9114320125617066 1.7915749592747583 -1.9751099934581224 1.7768443233039195 -2.0441756867621073 1.73932570710155 -2.0895563666484658 1.7279862713591363 -2.1696794491187545 1.7171133384044757 -2.2565365839079305 1.7062099587434152 -2.3505958031377046 1.6947143357971568 -2.4523352792485014 1.6607839402313578 -2.5290812984669726 1.6477580134984497 -2.6466056543687766 1.632087567787448 -2.7732873072237982 1.6132234724597523 -2.9102817325020598 1.5893946897075402 -3.0567658458329263 1.5425691709212297 -3.1769744600889265 1.5081107132858864 -3.3440586017005303 1.4655920741558823 -3.5232530808917915 1.3983959555216816 -3.6738453906698609 1.3365446608414611 -3.8756731300571174 1.2607231989844281 -4.0886554581593799 1.1583022267189196 -4.2710807642832975 1.051373703629642 -4.5069197609094882 0.91555812055812824 -4.7078872650944694 0.76734483489804473 -4.9622473278934143 0.58791154575282978 -5.1737380987431063 0.38529695167053862 -5.3892873362334424 -0.41810659562187269 5.7372196463181044 -0.64913549295730355 5.5110679952489017 -0.86571861321228893 5.3497025217162877 -1.0385954509156543 5.0678045270676408 -1.1858911833194195 4.8044724638952987 -1.2122224581141299 4.2344446204458075 -0.97073308580135109 3.0436452173916329 0.21747579193818414 -0.65938143471678279 0 0
        </DataArray>
        <DataArray type="Float32" Name="u" NumberOfComponents="1">
          0 0.007874015748031496 0.015748031496062992 0.023622047244094488 0.031496062992125984 0.03937007874015748 0.047244094488188976 0.055118110236220472 0.062992125984251968 0.070866141732283464 0.07874015748031496 0.086614173228346455 0.094488188976377951 0.10236220472440945 0.11023622047244094 0.11811023622047244 0.12598425196850394 0.13385826771653545 0.14173228346456693 0.14960629921259844 0.15748031496062992 0.16535433070866143 0.17322834645669291 0.18110236220472442 0.1889763779527559 0.19685039370078741 0.20472440944881889 0.2125984251968504 0.22047244094488189 0.2283464566929134 0.23622047244094488 0.24409448818897639 0.25196850393700787 0.25984251968503935 0.26771653543307089 0.27559055118110237 0.28346456692913385 0.29133858267716534 0.29921259842519687 0.30708661417322836 0.31496062992125984 0.32283464566929132 0.33070866141732286 0.33858267716535434 0.34645669291338582 0.3543307086614173 0.36220472440944884 0.37007874015748032 0.37795275590551181 0.38582677165354329 0.39370078740157483 0.40157480314960631 0.40944881889763779 0.41732283464566927 0.42519685039370081 0.43307086614173229 0.44094488188976377 0.44881889763779526 0.45669291338582679 0.46456692913385828 0.47244094488188976 0.48031496062992124 0.48818897637795278 0.49606299212598426 0.50393700787401574 0.51181102362204722 0.51968503937007871 0.52755905511811019 0.53543307086614178 0.54330708661417326 0.55118110236220474 0.55905511811023623 0.56692913385826771 0.57480314960629919 0.58267716535433067 0.59055118110236215 0.59842519685039375 0.60629921259842523 0.61417322834645671 0.62204724409448819 0.62992125984251968 0.63779527559055116 0.64566929133858264 0.65354330708661412 0.66141732283464572 0.6692913385826772 0.67716535433070868 0.68503937007874016 0.69291338582677164 0.70078740157480313 0.70866141732283461 0.71653543307086609 0.72440944881889768 0.73228346456692917 0.74015748031496065 0.74803149606299213 0.75590551181102361 0.76377952755905509 0.77165354330708658 0.77952755905511806 0.78740157480314965 0.79527559055118113 0.80314960629921262 0.8110236220472441 0.81889763779527558 0.82677165354330706 0.83464566929133854 0.84251968503937003 0.85039370078740162 0.8582677165354331 0.86614173228346458 0.87401574803149606 0.88188976377952755 0.88976377952755903 0.89763779527559051 0.90551181102362199 0.91338582677165359 0.92125984251968507 0.92913385826771655 0.93700787401574803 0.94488188976377951 0.952755905511811 0.96062992125984248 0.96850393700787396 0.97637795275590555 0.98425196850393704 0.99212598425196852 1
        </DataArray>
      </PointData>
      <CellData Scalars="P">
        <DataArray type="Float32" Name="P" NumberOfComponents="1">
          0.010283308070196976 0.031348150668089721 0.053668728211425598 0.077773287827838392 0.10409384793720772 0.13299879739632842 0.16480468512861729 0.19978235718120385 0.23816019508656328 0.2801274296331035 0.32583568678839864 0.37540138900739362 0.42890761083283752 0.48640623404320155 0.54792054614694674 0.61344757104228542 0.68295872125005364 0.75640370162129633 0.83371221495940107 0.91479582653697766 0.99955120047577661 1.0878635169963158 1.1796089756571593 1.2746585769048349 1.3728812391078009 1.4741456726635527 1.5783256501949545 1.6853046796537725 1.7949770864384569 1.9072428410497144 2.0220315557109729 2.1392948912735394 2.2590096775748378 2.3811818095210335 2.5058495780737204 2.6330878806595805 2.7630133437840141 2.8957829527320587 3.0315963945706192 3.1707030818595801 3.3134035572246154 3.4600508771546084 3.4762911615351024 3.4570763220360394 3.4164104642227495 3.3505755975493652 3.2552655926193466 3.1256423272057781 2.9564091167095068 2.7767273306165476 2.5893535302898925 2.3947754566198696 2.1929206837044064 1.985710435306661 1.7743532319444844 1.5607211568829165 1.244594185108113 0.87243576706282233 0.50260600972456992 0.1377620193620302 -0.2174365417335668 -0.56305807625858684 -0.8972315042903195 -1.215994563594299 -1.5179518029874774 -1.8045488024606913 -2.0776940434662792 -2.3367510466890806 -2.5812447565213521 -2.8083929813309183 -3.0205597526590919 -3.2177097678198594 -3.3997997621156539 -3.5648261766064286 -3.7151929157602477 -3.851115837549921 -3.9728554137816006 -4.0807047881008209 -4.1734974176851303 -4.2532150851764579 -4.3201902130533538 -4.3747537687191596 -4.4172289740351927 -4.4471769794968701 -4.4658140320285833 -4.4734044824950034 -4.4701881985816954 -4.4563777567597791 -4.4321566985239151 -4.3976815226308554 -4.3533732412600976 -4.2991956557049873 -4.2352031317468457 -4.1614226294110344 -4.0778561506256406 -3.9844836131719652 -3.8812681335300097 -3.7694227556586553 -3.6477635261793639 -3.5162216509569442 -3.3747374995311521 -3.2232707061991559 -3.0636269914710179 -2.894119727839005 -2.7148258091645912 -2.5258617072198088 -2.3275186546803823 -2.122329406059916 -1.9086970768283607 -1.6872661842094603 -1.4612204352267284 -1.2294194013021094 -0.99334232233149711 -0.75695032931516215 -0.52015001362786528 -0.28766128709221872 -0.060451148742471601 0.1558104279140107 0.35717403656803925 0.2235846625802696 0.11923115246403669 0.040031201747969147 -0.014105381396384424 -0.046484959492764676 -0.056913501321102733 -0.046115849216321281 -0.014292123489932205
        </DataArray>
      </CellData>
      <Points>
        <DataArray type="Float32" NumberOfComponents="3" format="ascii">
          4.2332254229334136 6.4685285942877906 0
          4.2356937706394246 6.4760057293034805 0
          4.2381435679048751 6.4834889627625092 0
          4.2405608625839495 6.4909827587575428 0
          4.2429345169741346 6.4984904921504558 0
          4.2452548787643671 6.506014867397564 0
          4.2475132425765851 6.5135580830785544 0
          4.2497015822642421 6.5211219108416998 0
          4.2518123956442802 6.5287077398961992 0
          4.2538386082319102 6.5363166042523364 0
          4.2557735050970917 6.5439492022339145 0
          4.2576106853436624 6.5516059101436488 0
          4.259344027323273 6.5592867935092078 0
          4.2609676630388549 6.5669916163794273 0
          4.2624759582491656 6.5747198495846639 0
          4.2638634956936912 6.5824706784986846 0
          4.2651250617460965 6.5902430101833005 0
          4.2662556406354444 6.5980354793498179 0
          4.2672504063976362 6.6058464549311564 0
          4.2681047189282584 6.613674046135638 0
          4.2688141233374344 6.6215161083291969 0
          4.2693743491220939 6.6293702492320188 0
          4.2697813090430135 6.6372338353065157 0
          4.2700311000572908 6.6451039981277846 0
          4.2701200034076576 6.6529776409298353 0
          4.2700444855700956 6.6608514451680385 0
          4.26980120279568 6.6687218772234527 0
          4.2693870018433291 6.6765851952714721 0
          4.2687989184880859 6.6844374558984923 0
          4.2680341813775931 6.6922745208549506 0
          4.2670902336936845 6.7000920661321448 0
          4.2659647127593452 6.7078855872281942 0
          4.2646554527337814 6.7156504056076347 0
          4.2631604878891913 6.723381675229029 0
          4.2614780547882694 6.7310743888411277 0
          4.2596065943285453 6.7387233840990142 0
          4.2575447518097622 6.7463233489554604 0
          4.2552913732640034 6.7538688254518879 0
          4.2528455098918805 6.7613542150980086 0
          4.2502064231270174 6.7687737844838445 0
          4.247373581899855 6.7761216679734568 0
          4.24434666216011 6.7833918702203713 0
          4.2411255482887489 6.790578268640532 0
          4.237895504404058 6.7977602664910322 0
          4.2347065591410287 6.8049602566880569 0
          4.2315839163993889 6.8121889673539657 0
          4.2285538879082116 6.819456781071489 0
          4.2256440214582991 6.8267734168419212 0
          4.2228832221842776 6.8341475735237855 0
          4.2203018647687314 6.8415865328480745 0
          4.2178978113976981 6.8490848667101201 0
          4.2156666108223089 6.8566367408385434 0
          4.2136040693209917 6.8642368167654135 0
          4.2117068565135991 6.8718803486891629 0
          4.209970947127391 6.8795627284809191 0
          4.208392384939005 6.8872796838763088 0
          4.2069668905726347 6.8950271809881301 0
          4.2057642878825661 6.9028133796035789 0
          4.2048603660850006 6.9106395725474714 0
          4.204249377415703 6.9184937723278033 0
          4.2039250554729595 6.9263647403539403 0
          4.2038790952113398 6.9342419811950284 0
          4.2041043111659935 6.9421158753809253 0
          4.2045931577240188 6.9499775573724909 0
          4.205336140344679 6.9578190648969569 0
          4.2063234600305259 6.9656333390726948 0
          4.2075469118317121 6.9734139212280954 0
          4.2090001792339535 6.9811546664466535 0
          4.2106769502201002 6.9888498990573895 0
          4.2125709532380329 6.9964943852968933 0
          4.2146740663821509 7.0040838362224314 0
          4.2169802236597675 7.0116139171677059 0
          4.2194835304055749 7.0190806270105046 0
          4.2221781985341504 7.0264802935908728 0
          4.225056687574039 7.0338102840074637 0
          4.2281136019699606 7.0410675600256898 0
          4.2313437437903403 7.0482493037363838 0
          4.2347421240313308 7.055352886992857 0
          4.2383039707730878 7.0623758416665243 0
          4.2420228543285585 7.0693168376744318 0
          4.2458944998604009 7.0761737230356472 0
          4.2499148638911688 7.0829444168576652 0
          4.2540801353449522 7.0896268821626682 0
          4.2583867352027109 7.0962190992521847 0
          4.2628295312188493 7.1027202581794304 0
          4.2674054543243978 7.1091283690347247 0
          4.2721116590558426 7.1154413807928565 0
          4.2769455192165289 7.1216571561272897 0
          4.2819046215749719 7.1277734470054002 0
          4.2869867584096095 7.133787870442732 0
          4.2921898839207202 7.1396979150825786 0
          4.297510494002819 7.1455023982841093 0
          4.3029470048874909 7.1511984562954014 0
          4.3084979982706688 7.1567829923354749 0
          4.3141622075354986 7.1622526518478402 0
          4.319938502253569 7.1676037973291713 0
          4.3258258713689175 7.1728324819684488 0
          4.3318234023581956 7.1779344247459651 0
          4.3379287697776698 7.1829068129351228 0
          4.3441412713843155 7.1877446797238784 0
          4.3504602338712282 7.1924426406779229 0
          4.3568849820750062 7.1969948647379267 0
          4.3634148041652949 7.2013950445846246 0
          4.3700475975073827 7.2056384224730516 0
          4.376782555627325 7.2097177123022558 0
          4.3836187082282727 7.2136250601415792 0
          4.3905548871755409 7.2173519725817004 0
          4.3975896167348019 7.2208893677545811 0
          4.404719995860126 7.2242297928881509 0
          4.4119438903992503 7.2273628886517951 0
          4.4192586668080187 7.2302775446606526 0
          4.4266601623024862 7.2329644237829536 0
          4.4341445456316668 7.2354110117521859 0
          4.441707119870947 7.237604102253373 0
          4.4493415399557925 7.2395323831506753 0
          4.4570411814009372 7.2411812296592117 0
          4.4647976298576966 7.2425381783632865 0
          4.4726017020693369 7.2435874540642464 0
          4.480442280173663 7.2443159384152329 0
          4.4883068090564393 7.2447102598344433 0
          4.4961453048305628 7.2454603122486532 0
          4.5039434624866725 7.2465520617955734 0
          4.5116878728723968 7.2479754955027804 0
          4.5193678344416472 7.2497131301888205 0
          4.5269742317410175 7.2517486370019499 0
          4.5345054483368363 7.2540466745818932 0
          4.5419764768500954 7.2565334179291154 0
          4.5494610365853454 7.2589792949620655 0
        </DataArray>
      </Points>
      <Cells>
        <DataArray type="Int32" Name="connectivity" format="ascii">
          0 1 1 2 2 3 3 4 4 5 5 6 6 7 7 8 8 9 9 10 10 11 11 12 12 13 13 14 14 15 15 16 16 17 17 18 18 19 19 20 20 21 21 22 22 23 23 24 24 25 25 26 26 27 27 28 28 29 29 30 30 31 31 32 32 33 33 34 34 35 35 36 36 37 37 38 38 39 39 40 40 41 41 42 42 43 43 44 44 45 45 46 46 47 47 48 48 49 49 50 50 51 51 52 52 53 53 54 54 55 55 56 56 57 57 58 58 59 59 60 60 61 61 62 62 63 63 64 64 65 65 66 66 67 67 68 68 69 69 70 70 71 71 72 72 73 73 74 74 75 75 76 76 77 77 78 78 79 79 80 80 81 81 82 82 83 83 84 84 85 85 86 86 87 87 88 88 89 89 90 90 91 91 92 92 93 93 94 94 95 95 96 96 97 97 98 98 99 99 100 100 101 101 102 102 103 103 104 104 105 105 106 106 107 107 108 108 109 109 110 110 111 111 112 112 113 113 114 114 115 115 116 116 117 117 118 118 119 119 120 120 121 121 122 122 123 123 124 124 125 125 126 126 127 
        </DataArray>
        <DataArray type="Int32" Name="offsets" format="ascii">
          2 4 6 8 10 12 14 16 18 20 22 24 26 28 30 32 34 36 38 40 42 44 46 48 50 52 54 56 58 60 62 64 66 68 70 72 74 76 78 80 82 84 86 88 90 92 94 96 98 100 102 104 106 108 110 112 114 116 118 120 122 124 126 128 130 132 134 136 138 140 142 144 146 148 150 152 154 156 158 160 162 164 166 168 170 172 174 176 178 180 182 184 186 188 190 192 194 196 198 200 202 204 206 208 210 212 214 216 218 220 222 224 226 228 230 232 234 236 238 240 242 244 246 248 250 252 254 
        </DataArray>
        <DataArray type="Int32" Name="types" format="ascii">
          3 3 3 3 3 3 3 3 3 3 3 3 3 3 3 3 3 3 3 3 3 3 3 3 3 3 3 3 3 3 3 3 3 3 3 3 3 3 3 3 3 3 3 3 3 3 3 3 3 3 3 3 3 3 3 3 3 3 3 3 3 3 3 3 3 3 3 3 3 3 3 3 3 3 3 3 3 3 3 3 3 3 3 3 3 3 3 3 3 3 3 3 3 3 3 3 3 3 3 3 3 3 3 3 3 3 3 3 3 3 3 3 3 3 3 3 3 3 3 3 3 3 3 3 3 3 3         </DataArray>
      </Cells>
    </Piece>
  </UnstructuredGrid>
</VTKFile>
