<?xml version="1.0"?>
<VTKFile type="UnstructuredGrid" version="0.1" byte_order="LittleEndian">
  <UnstructuredGrid>
    <Piece NumberOfPoints="128" NumberOfCells="127">
      <PointData Scalars="W">
        <DataArray type="Float32" Name="W" NumberOfComponents="2">
          0 0 -0.6494614489205357 -0.11030124271549296 -1.0554732989105322 -0.18666434561157452 -1.3626554525766497 -0.25461507637769204 -1.6159245575852943 -0.32196168148048038 -1.8335545657218637 -0.39183857019948615 -2.0248448526690743 -0.46578275067759878 -2.195230835608494 -0.5446298226137265 -2.3481462134307516 -0.62884155724562152 -2.4859421973456755 -0.71867639868586441 -2.6102067720699154 -0.81423805947082695 -2.7220911303942614 -0.91554108193987482 -2.82242692354543 -1.0225308105013384 -2.9118607930526532 -1.1351176455457976 -2.9908905478415155 -1.2531854124361312 -3.0598576636023589 -1.3765808687645169 -3.1189344654585396 -1.5050936679393203 -3.1682923209019811 -1.6385244566029242 -3.2080106895291665 -1.7766423851558983 -3.2380820656564837 -1.9191765010313702 -3.2584759395078753 -2.0658435765204 -3.269144420094289 -2.2163512619392041 -3.27000111860198 -2.3703822223580837 -3.2609196487755274 -2.5275857491810694 -3.2417922706622613 -2.6876180297836307 -3.2124300113694382 -2.8500585801758125 -3.1726870246993966 -3.014503436849302 -3.1224504715202483 -3.1805693464198401 -3.0615429216136203 -3.3477978908075499 -2.9895812833733086 -3.5154525605075246 -2.9066395525262658 -3.6832669057842478 -2.8125490431631457 -3.8506999089825724 -2.7071610225929614 -4.017195361074104 -2.5903257584030106 -4.1821477052306379 -2.4619226725388668 -4.3449388365029851 -2.3218448215983409 -4.5049099527683909 -2.1700440171377493 -4.6614478093427385 -2.0064355081738405 -4.8137883124319361 -1.8309697210562168 -4.9611108088041211 -1.6436931328852118 -5.1027058335652642 -1.4446699019639797 -5.2378051203198934 -1.2339930431682222 -5.3655720289353033 0.80158526537758612 3.6030723632623292 0.88084421192772744 3.4846452757046751 0.95050283299115335 3.3623566452162175 1.010507560356904 3.2367650967253976 1.0612196135106386 3.1094314531742127 1.1027621361363982 2.9807676048140745 1.1352524365304471 2.8510778721459942 1.1592992088975822 2.7217223432482527 1.1751277199197321 2.5928673950635281 1.1831190496101114 2.4649725617927514 1.1686383258542148 2.3094649088621759 1.1442943867182325 2.1544137656216646 1.6567558515148799 2.9536592594937794 1.6926060215885355 2.8395478093015902 1.5278706338697785 2.427052475392911 1.5307342975265255 2.3158241911866324 1.5287668101350735 2.2081235412422355 1.5300334466555938 2.114366666063447 1.5196675077129611 2.0131122385994011 1.5053624716776455 1.9152373908599647 1.4877292233979136 1.8210808572284876 1.4764477804672318 1.7414286034950903 1.443345428816269 1.6428777175513269 1.4278892817298621 1.5707177743647753 1.4112445971305936 1.5019448513168965 1.3937080177795729 1.436533514395425 1.3755622263843632 1.3744468308060072 1.3455717974119841 1.3046485164704782 1.3266829030078409 1.2493932034666813 1.3079729975818979 1.197293780600903 1.2894069679684845 1.1480512404212293 1.2717170316444224 1.1020589354642221 1.2548550118182338 1.0590060952765672 1.2390171645950598 1.0188156130218156 1.2243874329081863 0.98140601739568034 1.2111510264974414 0.94670217186577754 1.1994765104313769 0.91462038919938715 1.18952909334472 0.88507886599159968 1.1814685009861201 0.85799527906864892 1.1751748677759095 0.83309416143500714 1.1713449673419605 0.81068318260576411 1.1698570063465683 0.79047925312514411 1.1708577143893204 0.77239684148713439 1.1744929326804705 0.75634883329884628 1.1809086121714083 0.74224602901487446 1.1899740506064613 0.72982825631695536 1.202389608217719 0.71934242591111075 1.2180334932121439 0.71051452528953041 1.2370617385782874 0.70323932874918726 1.2596355117298814 0.69740508337106422 1.2856451181676658 0.69274495197565289 1.3158160993872086 0.68943106992721537 1.3500580717089292 0.68717007844859757 1.3885642542393097 0.68580941156373909 1.4312644492117317 0.68505225926257607 1.4789211998857119 0.68497940010139047 1.5314942216673977 0.68525002398559332 1.5892301389197132 0.68563625653375948 1.6521247238112851 0.68577447859446861 1.7209942464177226 0.68560554768961024 1.7804583095294877 0.67894581163592682 1.8615013535014946 0.67740988457807771 1.9492351215231569 0.67439338090994372 2.0440506671310135 0.66944094297140666 2.146360968389093 0.66203114300962962 2.2402274957222064 0.64700140928581629 2.3587465191609192 0.63344740671910815 2.4862622505542675 0.61544591358144973 2.6064548156643483 0.58847915344533352 2.7536654977125421 0.55954037889582131 2.8939651495073861 0.52011945061643738 3.0642521149648436 0.47578333392891681 3.2284575696343181 0.41882811120448915 3.4256208279785638 0.35281175357183314 3.618563805695084 0.27110541568789737 1.171244422231247 0.065509121708764148 1.230064163600525 0.05712203395948421 1.1913209246259415 0.043933863926510754 1.0814982355429099 0.030188751369964548 1.1840793775581737 0.022479081513420058 1.1120942352906611 0.011052788526146228 0.79459773095413511 0.0019300990954321084 0.2590104011276872 -0.00044564729537924046 -1.2746288229250247 -0.002906054906185162 -1.9886889563986696 -0.030101935666324561 0 0
        </DataArray>
        <DataArray type="Float32" Name="u" NumberOfComponents="1">
          0 0.007874015748031496 0.015748031496062992 0.023622047244094488 0.031496062992125984 0.03937007874015748 0.047244094488188976 0.055118110236220472 0.062992125984251968 0.070866141732283464 0.07874015748031496 0.086614173228346455 0.094488188976377951 0.10236220472440945 0.11023622047244094 0.11811023622047244 0.12598425196850394 0.13385826771653545 0.14173228346456693 0.14960629921259844 0.15748031496062992 0.16535433070866143 0.17322834645669291 0.18110236220472442 0.1889763779527559 0.19685039370078741 0.20472440944881889 0.2125984251968504 0.22047244094488189 0.2283464566929134 0.23622047244094488 0.24409448818897639 0.25196850393700787 0.25984251968503935 0.26771653543307089 0.27559055118110237 0.28346456692913385 0.29133858267716534 0.29921259842519687 0.30708661417322836 0.31496062992125984 0.32283464566929132 0.33070866141732286 0.33858267716535434 0.34645669291338582 0.3543307086614173 0.36220472440944884 0.37007874015748032 0.37795275590551181 0.38582677165354329 0.39370078740157483 0.40157480314960631 0.40944881889763779 0.41732283464566927 0.42519685039370081 0.43307086614173229 0.44094488188976377 0.44881889763779526 0.45669291338582679 0.46456692913385828 0.47244094488188976 0.48031496062992124 0.48818897637795278 0.49606299212598426 0.50393700787401574 0.51181102362204722 0.51968503937007871 0.52755905511811019 0.53543307086614178 0.54330708661417326 0.55118110236220474 0.55905511811023623 0.56692913385826771 0.57480314960629919 0.58267716535433067 0.59055118110236215 0.59842519685039375 0.60629921259842523 0.61417322834645671 0.62204724409448819 0.62992125984251968 0.63779527559055116 0.64566929133858264 0.65354330708661412 0.66141732283464572 0.6692913385826772 0.67716535433070868 0.68503937007874016 0.69291338582677164 0.70078740157480313 0.70866141732283461 0.71653543307086609 0.72440944881889768 0.73228346456692917 0.74015748031496065 0.74803149606299213 0.75590551181102361 0.76377952755905509 0.77165354330708658 0.77952755905511806 0.78740157480314965 0.79527559055118113 0.80314960629921262 0.8110236220472441 0.81889763779527558 0.82677165354330706 0.83464566929133854 0.84251968503937003 0.85039370078740162 0.8582677165354331 0.86614173228346458 0.87401574803149606 0.88188976377952755 0.88976377952755903 0.89763779527559051 0.90551181102362199 0.91338582677165359 0.92125984251968507 0.92913385826771655 0.93700787401574803 0.94488188976377951 0.952755905511811 0.96062992125984248 0.96850393700787396 0.97637795275590555 0.98425196850393704 0.99212598425196852 1
        </DataArray>
      </PointData>
      <CellData Scalars="P">
        <DataArray type="Float32" Name="P" NumberOfComponents="1">
          -0.012732608650211781 -0.036301761868005128 -0.055808340799185813 -0.07008786943569105 -0.078371550845085389 -0.080116016121665676 -0.074926077209577072 -0.062510319935491165 -0.042652996355055831 -0.015193447292493745 0.019987003067954014 0.062976113415523158 0.11383885414595932 0.17262498057758846 0.23937496669060854 0.31412355869085978 0.39690083878685928 0.48773726211979046 0.58666489242243791 0.6937176262914394 0.80893295611350968 0.93235351967081259 1.0640272795736148 1.2040069796654018 1.3523519726258173 1.5091245680742245 1.674392194148431 1.8482294023689365 2.0307138040541255 2.2219101630718767 2.4218992912378465 2.6307611350432336 2.8485739167543001 3.0754110782299091 3.3113402277921802 3.556420210927655 3.8107029539998898 4.0742236293773715 4.3469962718832811 4.6290187937089486 4.9202676582540334 5.2206917798842793 4.9833444678652947 4.7395315499464674 4.4915123170127211 4.2414164914013295 3.9911558133076692 3.7424965678296891 3.497064855395402 3.2562532583352279 3.0213148033017116 2.7933383387958886 2.5758995478186431 2.3699889973874604 2.0873198481803832 1.8118482144679109 1.5731221699545328 1.3438762578318386 1.1244611381243375 0.91413976793219387 0.71413172642942013 0.52455042252451944 0.3454022131940912 0.17563148553869265 0.017178671497727244 -0.13217387009531353 -0.27259950750400874 -0.40430562828018074 -0.52752759655336057 -0.64165911010775367 -0.74788877689812439 -0.84650623544329662 -0.93779237791839254 -1.0220636796935996 -1.0996188807784693 -1.1707523132668913 -1.2357505825589756 -1.2948901176858481 -1.348434202654498 -1.3966308736080444 -1.4397109642782475 -1.4778809954821068 -1.5113392558164431 -1.5402560153190252 -1.5647792420318722 -1.5850339682766437 -1.6011218996325476 -1.6131221592417149 -1.6210897320399154 -1.6250563543278447 -1.6250312138899532 -1.6210017178267209 -1.6129398098966543 -1.6007881300748457 -1.5844756392257577 -1.5639149015219449 -1.5390121221420126 -1.5096458061858526 -1.4756920117636214 -1.4370197476896955 -1.3935039927737027 -1.3449996347115432 -1.2919922051573938 -1.2337640117369748 -1.1701999671308232 -1.1012012354428067 -1.0266910257298332 -0.94734259557504341 -0.86243086811487046 -0.77198030385092187 -0.67681196062732252 -0.57631114163131159 -0.4714501159282351 -0.36170572042441784 -0.24822639035719279 -0.13066539218897857 -0.010364334876710419 0.012333278895035027 0.03500447167149931 0.053794581624912317 0.066337791843239249 0.078881226329744827 0.08608330210640458 0.082978952018058272 0.068347995817306759 0.035555684448132695 0.0070087783808352976
        </DataArray>
      </CellData>
      <Points>
        <DataArray type="Float32" NumberOfComponents="3" format="ascii">
          4.3135976832468632 7.9885965355866482 0
          4.3122993178747988 7.9963633866800814 0
          4.3109606799482689 8.0041233958902165 0
          4.3095565930350661 8.0118718269215066 0
          4.3080680091245149 8.0196044654191994 0
          4.3064792233793634 8.0273171346546679 0
          4.3047767409801123 8.0350055011108097 0
          4.3029487004756524 8.0426649791476077 0
          4.3009845367347479 8.050290679173429 0
          4.2988747680222836 8.0578773790034646 0
          4.2966108501995164 8.0654195078299598 0
          4.2941850782511768 8.0729111397895092 0
          4.2915905148974662 8.0803459930611705 0
          4.2888209390203373 8.0877174332564437 0
          4.2858708055618591 8.0950184789767547 0
          4.2827352146513489 8.102241809019274 0
          4.279409890426364 8.1093797718815512 0
          4.2758911703422529 8.1164243988072737 0
          4.2721759945408717 8.1233674161504421 0
          4.26826190091814 8.1302002596925718 0
          4.2641470255838998 8.1369140914465632 0
          4.2598301047479668 8.1434998172215831 0
          4.2553104776836861 8.1499481047534399 0
          4.2505880920784058 8.156249403383983 0
          4.2456635118638308 8.1623939658096933 0
          4.2405379238899155 8.1683718694023266 0
          4.2352131496355314 8.1741730422833871 0
          4.229691654244732 8.1797872883737792 0
          4.2239765535161364 8.1852043111588895 0
          4.2180716248972319 8.1904137421138934 0
          4.2119813312307581 8.195405186371957 0
          4.2057108161586125 8.2001682392451212 0
          4.1992659145734947 8.2046925197696119 0
          4.192653161833257 8.2089677051924781 0
          4.1858798030372135 8.2129835685173944 0
          4.1789538004947104 8.2167300168278548 0
          4.1718838403483529 8.2201971321330642 0
          4.1646793355542258 8.223375209388335 0
          4.1573504311293874 8.2262548038681658 0
          4.149908007218408 8.2288267820455001 0
          4.1423636762046172 8.2310823655759933 0
          4.1347297787254362 8.233013178927532 0
          4.1270193778989519 8.2346113012485205 0
          4.1193586988487425 8.2364328243829039 0
          4.1117526550932944 8.2384704037755245 0
          4.1042055648071969 8.240716455599447 0
          4.0967211475171599 8.2431631913971124 0
          4.0893025464996997 8.2458027148644764 0
          4.0819523364332264 8.2486270473912384 0
          4.0746725306866605 8.2516281469300807 0
          4.0674646190598169 8.2547979923306176 0
          4.0603295817640133 8.2581285936537743 0
          4.0532679130572458 8.2616120206636765 0
          4.0462787141250249 8.2652386311334602 0
          4.0393604745328746 8.2689988113427972 0
          4.0325449592552296 8.2729421190935426 0
          4.0258343907139906 8.2770614791598831 0
          4.0192185569137795 8.2813313149546559 0
          4.0126976348404559 8.2857447301010385 0
          4.006271501943985 8.2902950470081436 0
          3.9999402361402709 8.2949764527143621 0
          3.9937031941907311 8.2997826694240509 0
          3.9875594886361299 8.3047076289400117 0
          3.9815080256711419 8.3097454936649076 0
          3.9755481052783836 8.314891325359044 0
          3.9696776746132989 8.3201390140639884 0
          3.9638957748466073 8.3254840861757096 0
          3.9582013734837496 8.3309222781275256 0
          3.9525933827560817 8.3364495348106917 0
          3.9470706771464767 8.342062007282312 0
          3.9416313967818408 8.3477553685216588 0
          3.936274370102316 8.3535261932145506 0
          3.9309984366660498 8.3593712517448235 0
          3.9258024449707181 8.3652874916552911 0
          3.9206852978513376 8.37127206203367 0
          3.9156459494923022 8.3773222942444114 0
          3.9106834175947602 8.3834356971476147 0
          3.9057967947807324 8.3896099520475733 0
          3.9009852600759753 8.395842908034302 0
          3.8962480893610731 8.4021325767951591 0
          3.8915846656146629 8.4084771275435077 0
          3.8869944888170043 8.4148748819153436 0
          3.8824771685172368 8.4213242968933901 0
          3.8780324670381732 8.4278239838797884 0
          3.8736602919249821 8.4343726911476402 0
          3.8693607050443886 8.4409692985395353 0
          3.8651339316292357 8.4476128120681668 0
          3.8609803693303313 8.4543023583878263 0
          3.8569005801135781 8.4610371686689163 0
          3.8528953336915852 8.4678165939027448 0
          3.8489655999747039 8.4746400879178463 0
          3.8451125587504302 8.4815072008584647 0
          3.8413376096819087 8.4884175722584416 0
          3.8376423655104528 8.49537091450396 0
          3.8340286970536446 8.5023670235010798 0
          3.8304987276073197 8.5094057604937259 0
          3.8270548449352622 8.5164870426071744 0
          3.8236996969244359 8.5236108244529163 0
          3.8204362388830395 8.5307771031303119 0
          3.8172677310534944 8.5379858971023879 0
          3.8141977539191925 8.54523723206899 0
          3.8112302079560294 8.5525311184283428 0
          3.8083693642696068 8.5598675476000157 0
          3.8056189107694234 8.5672461089684386 0
          3.8029838737420514 8.5746667093647968 0
          3.8004696945551895 8.5821291638872985 0
          3.7980822539342758 8.5896331676621962 0
          3.7958278976017108 8.5971782635058336 0
          3.7937124478190363 8.6047635222479233 0
          3.7917432560137314 8.6123881058531495 0
          3.7899282318633114 8.6200509005370947 0
          3.7882748311831951 8.6277502371137356 0
          3.7867921858172426 8.6354843236257892 0
          3.7854889993995271 8.64325071865205 0
          3.7843758358652515 8.6510466753426325 0
          3.783462882501456 8.6588686648320845 0
          3.7827623712696554 8.666712595536092 0
          3.7822862730567706 8.6745734033129303 0
          3.7818828063282663 8.6824384428856973 0
          3.7815556232896701 8.6903072130963359 0
          3.7813023255869926 8.6981789215339624 0
          3.7811161062472687 8.7060527479912189 0
          3.7810033348854164 8.7139282404143259 0
          3.7809595531447924 8.7218047290362346 0
          3.7809650704507214 8.7296817073442874 0
          3.7809866602343978 8.7375591117836979 0
          3.7809291465752031 8.7454369582397185 0
          3.7807481835536607 8.7533137095957265 0
        </DataArray>
      </Points>
      <Cells>
        <DataArray type="Int32" Name="connectivity" format="ascii">
          0 1 1 2 2 3 3 4 4 5 5 6 6 7 7 8 8 9 9 10 10 11 11 12 12 13 13 14 14 15 15 16 16 17 17 18 18 19 19 20 20 21 21 22 22 23 23 24 24 25 25 26 26 27 27 28 28 29 29 30 30 31 31 32 32 33 33 34 34 35 35 36 36 37 37 38 38 39 39 40 40 41 41 42 42 43 43 44 44 45 45 46 46 47 47 48 48 49 49 50 50 51 51 52 52 53 53 54 54 55 55 56 56 57 57 58 58 59 59 60 60 61 61 62 62 63 63 64 64 65 65 66 66 67 67 68 68 69 69 70 70 71 71 72 72 73 73 74 74 75 75 76 76 77 77 78 78 79 79 80 80 81 81 82 82 83 83 84 84 85 85 86 86 87 87 88 88 89 89 90 90 91 91 92 92 93 93 94 94 95 95 96 96 97 97 98 98 99 99 100 100 101 101 102 102 103 103 104 104 105 105 106 106 107 107 108 108 109 109 110 110 111 111 112 112 113 113 114 114 115 115 116 116 117 117 118 118 119 119 120 120 121 121 122 122 123 123 124 124 125 125 126 126 127 
        </DataArray>
        <DataArray type="Int32" Name="offsets" format="ascii">
          2 4 6 8 10 12 14 16 18 20 22 24 26 28 30 32 34 36 38 40 42 44 46 48 50 52 54 56 58 60 62 64 66 68 70 72 74 76 78 80 82 84 86 88 90 92 94 96 98 100 102 104 106 108 110 112 114 116 118 120 122 124 126 128 130 132 134 136 138 140 142 144 146 148 150 152 154 156 158 160 162 164 166 168 170 172 174 176 178 180 182 184 186 188 190 192 194 196 198 200 202 204 206 208 210 212 214 216 218 220 222 224 226 228 230 232 234 236 238 240 242 244 246 248 250 252 254 
        </DataArray>
        <DataArray type="Int32" Name="types" format="ascii">
          3 3 3 3 3 3 3 3 3 3 3 3 3 3 3 3 3 3 3 3 3 3 3 3 3 3 3 3 3 3 3 3 3 3 3 3 3 3 3 3 3 3 3 3 3 3 3 3 3 3 3 3 3 3 3 3 3 3 3 3 3 3 3 3 3 3 3 3 3 3 3 3 3 3 3 3 3 3 3 3 3 3 3 3 3 3 3 3 3 3 3 3 3 3 3 3 3 3 3 3 3 3 3 3 3 3 3 3 3 3 3 3 3 3 3 3 3 3 3 3 3 3 3 3 3 3 3         </DataArray>
      </Cells>
    </Piece>
  </UnstructuredGrid>
</VTKFile>
