<?xml version="1.0"?>
<VTKFile type="UnstructuredGrid" version="0.1" byte_order="LittleEndian">
  <UnstructuredGrid>
    <Piece NumberOfPoints="128" NumberOfCells="127">
      <PointData Scalars="W">
        <DataArray type="Float32" Name="W" NumberOfComponents="2">
          0 0 0.0033214957309859717 -0.0086625757383235538 -0.0049436360256541979 0.012892485833214317 -0.016627886271248452 0.043333050794959402 -0.030811769978557571 0.080172031773202562 -0.047116301957991345 0.1222843105899223 -0.065285051059936886 0.16882044206949287 -0.085165116515254644 0.21916021553806672 -0.10665863399822513 0.27278961226925519 -0.12973433510067311 0.3293323765906086 -0.15437611288175418 0.3884200329282016 -0.18061436798722502 0.44977356687694764 -0.20849984422659934 0.51313772402878466 -0.2381073576884867 0.57829126774054529 -0.26953893282039632 0.64505415664633092 -0.30290980263158457 0.71325280827266591 -0.33832099357273943 0.78265757959476157 -0.37591246406437218 0.85310953645076548 -0.41581806362051599 0.92441452738083751 -0.4581657876411197 0.99634850862278823 -0.5030979915296736 1.068704982551687 -0.55076930426063342 1.1412894128161761 -0.60132569545866077 1.2138762025229315 -0.6549235083010323 1.2862506136240683 -0.71171523837965844 1.3581805746042681 -0.77182535279151254 1.4293754383255035 -0.83539791995098611 1.4995809616709062 -0.90259313849434797 1.5685675445761309 -0.97352461372065102 1.6360213635366363 -1.0481393520948401 1.7013688797793647 -1.1267194362297002 1.7646047737353066 -1.2093465800146526 1.8253829172742648 -1.2960788580937643 1.8833350675000209 -1.386959516470053 1.9380886911181501 -1.4820027325921317 1.9892503806338471 -1.5812202747350401 2.0364456673270621 -1.6846357891655823 2.0793332047530884 -1.7921590071872595 2.1174515754472956 -1.9036512850637246 2.1503228105653718 -2.0190149249823639 2.1775555895007557 -2.1380979757809766 2.1987311950916917 -2.2606855452328287 2.213405467121428 -0.88528401404909196 0.83732662909028321 -1.1624022575457003 1.0753714757001314 -1.2408880738762642 1.1188004812831895 -1.5359271721672678 1.3446187832080114 -1.852173118382801 1.564782278709258 -2.4320094874394669 1.9651439773040038 -2.8048273439783391 2.1472785871272708 -3.4903349584313146 2.5052481938402473 -11.774507215979311 7.2378506506288982 -12.593597251386468 5.95644707481084 -13.283598845278618 4.5725982562746186 5.4135336187561069 -1.6655346435140406 -0.97260675317722478 0.31881004021024717 -0.94801284516673379 0.30242123550293742 -1.243163597675345 0.38422140321768528 -1.3250070185496294 0.39422055793382871 -1.403997298983386 0.40066563792433679 -1.4871503717633683 0.40544321106770775 -1.5704361205935058 0.40719288084973754 -1.653503126396844 0.4056955829947228 -1.7322074706488295 0.3999120232639734 -1.8137790278563759 0.3914904230317639 -2.1195793463835666 0.42251257465587344 -2.1999038575465164 0.3990404036720982 -2.278188876981492 0.37125429984922381 -2.3540296027594545 0.33913317750475291 -2.4272620462127366 0.3027251014526251 -2.497493852112262 0.2620748327913095 -2.5644192845924954 0.2172747174665027 -2.6277431389600543 0.16845070296822845 -2.6871828676790632 0.11576151648209612 -2.7424708424523638 0.059397541775776878 -2.5598401266002675 0.0019689075450415429 -2.6060887753071627 -0.05103046553633777 -2.6478442699079556 -0.1067168351920568 -2.6848988888902023 -0.16482401562432167 -2.7170661746981364 -0.22506119262900917 -2.7441065882992555 -0.2871062650687275 -2.7660348432260102 -0.35064019950628672 -2.7866384792216832 -0.41594533466713313 -2.7978562310083337 -0.4815575339112545 -2.8036309577516065 -0.54756178629084895 -2.5838862185149107 -0.56301283201661079 -2.5808228513355225 -0.61901889010118849 -2.5727543425850019 -0.67431172151897167 -2.5596239491173822 -0.72851277975976547 -2.5414736392324238 -0.78125794591395026 -2.5220544286391564 -0.83344543215746569 -2.2888827045897209 -0.80755681593968887 -2.259074563661966 -0.84578189745885513 -2.2248728663980195 -0.88132482764142406 -2.1863658623069697 -0.91386922252379144 -2.1435936742040118 -0.94307816752743101 -1.905948028615408 -0.87861415540855303 -1.8582717904754593 -0.89383432748769187 -1.810190023821755 -0.90685732519686724 -1.7550017737594832 -0.91409542154297796 -1.6961041170232707 -0.9168578543675393 -1.6336634774042811 -0.91495374460598999 -1.5676590492448161 -0.90810634636455922 -1.4981167515292837 -0.89607722207272744 -1.4250449241735339 -0.87863563877530215 -1.3484291369725134 -0.85555821332864235 -1.2650870499977007 -0.82455541756764772 -1.1812647802756071 -0.7894914768215977 -1.093649101781031 -0.74816361820427435 -1.0020615059203468 -0.70036569184508879 -0.90625741359996648 -0.64588965237034213 -0.80277552668813501 -0.58222807137576738 -0.86685532446882307 -0.63954245748464311 -0.75119694810315685 -0.56347617801453775 -0.80622103791010102 -0.6144920782741522 -0.68022990475085454 -0.5264417911289615 -0.72153148986391336 -0.56652363339435186 -0.58847103408482548 -0.46833370984989681 0.014276018107300371 0.011429068169375394 0.20112375842108382 0.1606573543681632 0.22257773056161131 0.17701831307943713 0.45345356318140889 0.35812988178524957 0.53795481213712915 0.420548608518237 0.8359623125399106 0.64434763701766384 0.97442700533381688 0.73724005746091825 1.2130398491330869 0.89742562035430695 1.4851285232491227 1.0687982991819127 0.98463912868857673 0.69091459683774337 0 0
        </DataArray>
        <DataArray type="Float32" Name="u" NumberOfComponents="1">
          0 0.007874015748031496 0.015748031496062992 0.023622047244094488 0.031496062992125984 0.03937007874015748 0.047244094488188976 0.055118110236220472 0.062992125984251968 0.070866141732283464 0.07874015748031496 0.086614173228346455 0.094488188976377951 0.10236220472440945 0.11023622047244094 0.11811023622047244 0.12598425196850394 0.13385826771653545 0.14173228346456693 0.14960629921259844 0.15748031496062992 0.16535433070866143 0.17322834645669291 0.18110236220472442 0.1889763779527559 0.19685039370078741 0.20472440944881889 0.2125984251968504 0.22047244094488189 0.2283464566929134 0.23622047244094488 0.24409448818897639 0.25196850393700787 0.25984251968503935 0.26771653543307089 0.27559055118110237 0.28346456692913385 0.29133858267716534 0.29921259842519687 0.30708661417322836 0.31496062992125984 0.32283464566929132 0.33070866141732286 0.33858267716535434 0.34645669291338582 0.3543307086614173 0.36220472440944884 0.37007874015748032 0.37795275590551181 0.38582677165354329 0.39370078740157483 0.40157480314960631 0.40944881889763779 0.41732283464566927 0.42519685039370081 0.43307086614173229 0.44094488188976377 0.44881889763779526 0.45669291338582679 0.46456692913385828 0.47244094488188976 0.48031496062992124 0.48818897637795278 0.49606299212598426 0.50393700787401574 0.51181102362204722 0.51968503937007871 0.52755905511811019 0.53543307086614178 0.54330708661417326 0.55118110236220474 0.55905511811023623 0.56692913385826771 0.57480314960629919 0.58267716535433067 0.59055118110236215 0.59842519685039375 0.60629921259842523 0.61417322834645671 0.62204724409448819 0.62992125984251968 0.63779527559055116 0.64566929133858264 0.65354330708661412 0.66141732283464572 0.6692913385826772 0.67716535433070868 0.68503937007874016 0.69291338582677164 0.70078740157480313 0.70866141732283461 0.71653543307086609 0.72440944881889768 0.73228346456692917 0.74015748031496065 0.74803149606299213 0.75590551181102361 0.76377952755905509 0.77165354330708658 0.77952755905511806 0.78740157480314965 0.79527559055118113 0.80314960629921262 0.8110236220472441 0.81889763779527558 0.82677165354330706 0.83464566929133854 0.84251968503937003 0.85039370078740162 0.8582677165354331 0.86614173228346458 0.87401574803149606 0.88188976377952755 0.88976377952755903 0.89763779527559051 0.90551181102362199 0.91338582677165359 0.92125984251968507 0.92913385826771655 0.93700787401574803 0.94488188976377951 0.952755905511811 0.96062992125984248 0.96850393700787396 0.97637795275590555 0.98425196850393704 0.99212598425196852 1
        </DataArray>
      </PointData>
      <CellData Scalars="P">
        <DataArray type="Float32" Name="P" NumberOfComponents="1">
          -0.036498501869980153 -0.10949386128432877 -0.18250204402513628 -0.25552257945713708 -0.32852790605713195 -0.40145650023667928 -0.47420903392319436 -0.54664618933944986 -0.61858793422696223 -0.68981331650128508 -0.76006168812923824 -0.82903378761406887 -0.89639367250834689 -0.96177081500849482 -1.0247621339546504 -1.0849346537052602 -1.1418299255704252 -1.1949658960123919 -1.2438412296244685 -1.2879400780671504 -1.3267356442966347 -1.3596937569478063 -1.3862781351239317 -1.4059541827883291 -1.4181939669878687 -1.4224836213872432 -1.4183263132496287 -1.4052451916987787 -1.3827927043339747 -1.3505731251380684 -1.3082113123680683 -1.2553782963426399 -1.1917981929534505 -1.1172539992560027 -1.0315947927352282 -0.93473972443569608 -0.82668024072017887 -0.70749630041226508 -0.57736465288485428 -0.43655681613762926 -0.28544758538244286 -0.12452396629206565 -0.092147358715262057 -0.030531992408924648 0.037218663206437963 0.13280406055423483 0.25585641784543872 0.42937107289254578 0.62863603407651514 0.87886293069389698 1.7627187777395426 2.6430428365311149 3.5342625939519476 3.0408333885501002 3.0522957882814081 3.0632758660924444 3.1003309337649774 3.1449937806790369 3.1964363220407637 3.254361865892943 3.3180633218600097 3.3867483604848694 3.4592389064182885 3.5349209642612083 3.6303547871329371 3.7264459076073688 3.8221617437204549 3.916465137368665 4.0083425408211228 4.0967982174119975 4.1808707300075101 4.2596431915527946 4.3322529281192788 4.3979004782065951 4.4451155514777616 4.4849284300840466 4.5166751689091962 4.5397663749370922 4.5536931222310244 4.5580299360148251 4.5524455615389199 4.536777927453433 4.5107862075494953 4.4744239769837799 4.4258322355409456 4.3679411109084221 4.3008472803964315 4.2247292521957549 4.139846406124561 4.0465046431918248 3.9475726463734944 3.8417730382695692 3.7295125685888078 3.6112555503374155 3.4875212951889818 3.3639481829437456 3.236549740294663 3.1057383089123047 2.9721652232837927 2.8364172446529414 2.6991019305580757 2.5608485462929487 2.4223004740723466 2.2841092623207411 2.1469283495511444 2.011552680701771 1.8784750465331166 1.7483122160113784 1.6216552627836918 1.499062137303945 1.3812043825041942 1.2601018733733913 1.1447726804816871 1.0272319354427331 0.91632525102147777 0.80454132980155868 0.69988182284842348 0.62104021982341662 0.54923408059863732 0.47769555432094901 0.41267732220715836 0.34854701254331888 0.28942339961556596 0.22981944138508459 0.1698683125437441 0.10768870997852485 0.037105852406287304
        </DataArray>
      </CellData>
      <Points>
        <DataArray type="Float32" NumberOfComponents="3" format="ascii">
          4.1067722087349257 6.1447823666866794 0
          4.114124794102656 6.14760188023208 0
          4.1214775501098364 6.1504208430671907 0
          4.1288299480252952 6.1532405855907406 0
          4.1361812543376084 6.1560629918886312 0
          4.1435305851889108 6.1588903444776406 0
          4.1508769286953671 6.1617252540593173 0
          4.1582191601376186 6.1645706065651478 0
          4.1655560509448186 6.1674295245141577 0
          4.172886274382015 6.1703053350148371 0
          4.1802084071795313 6.1732015463501018 0
          4.1875209302700842 6.1761218250753336 0
          4.194822226676612 6.1790699786871963 0
          4.2021105781646755 6.1820499397848518 0
          4.2093841604225908 6.18506575235602 0
          4.2166410365709508 6.1881215606301119 0
          4.2238791498665496 6.1912215983424934 0
          4.231096317298098 6.1943701745317288 0
          4.2382902207772597 6.1975716637278531 0
          4.2454583987159813 6.2008304939627346 0
          4.2525982379729488 6.2041511329312167 0
          4.2597069649146801 6.207538075243038 0
          4.266781635719429 6.2109958304182138 0
          4.2738191272208921 6.2145289089573605 0
          4.2808161271106355 6.2181418090852274 0
          4.2877691243801337 6.2218390024185251 0
          4.294674401501215 6.2256249159995249 0
          4.3015280253906516 6.2295039165844743 0
          4.3083258373730144 6.233480296457321 0
          4.3150634460313153 6.2375582540165402 0
          4.3217362303890114 6.2417418582478312 0
          4.3283393223064603 6.2460350484350897 0
          4.3348676013007665 6.2504416127290305 0
          4.3413156908279271 6.2549651653379881 0
          4.347677955480556 6.2596091234462454 0
          4.3539484999841189 6.2643766828306235 0
          4.3601211683371481 6.2692707946452204 0
          4.366189542207862 6.2742941442549816 0
          4.3721469463927134 6.2794491226114033 0
          4.3779864572708691 6.2847377965922506 0
          4.3837009087102992 6.2901618847106464 0
          4.3892829013326997 6.2957227311161734 0
          4.3947248156766578 6.301421278008295 0
          4.4001116077210112 6.3071716436139882 0
          4.405426068383747 6.3129885904763512 0
          4.4106633369728208 6.3188748137364064 0
          4.4158050976206811 6.324844314263486 0
          4.4208317220822959 6.3309107395546906 0
          4.4257072141573017 6.3370989023154509 0
          4.4304084482297776 6.3434200843769428 0
          4.4348928888036001 6.3498964594357403 0
          4.4386468252363604 6.35682227947028 0
          4.4416193345792223 6.3641180962809187 0
          4.4437674857106897 6.3716980888018746 0
          4.4462517903738386 6.3791750667970089 0
          4.4486756897240438 6.3866717451340014 0
          4.451040715233729 6.3941871142780498 0
          4.4533285435222574 6.4017262364847216 0
          4.4555340978070088 6.4092897327848313 0
          4.4576524787428324 6.4168780038690123 0
          4.4596785287694072 6.424491346648451 0
          4.4616070823382152 6.4321298700690592 0
          4.4634329877132872 6.4397934815089304 0
          4.465151364204762 6.4474818225296131 0
          4.4667571533148642 6.4551943706543353 0
          4.4682313782159904 6.4629330363511022 0
          4.4695690595580055 6.4706963631088241 0
          4.4707653447845015 6.4784826266879643 0
          4.4718155332464375 6.486289833829785 0
          4.4727150863697487 6.4941157252437449 0
          4.473459651997258 6.5019577784068048 0
          4.4740450833540155 6.5098132133123139 0
          4.4744674573586254 6.5176790003056464 0
          4.4747230921483601 6.5255518699554758 0
          4.4748085636773771 6.5334283248908749 0
          4.4747352094432236 6.5413048149804043 0
          4.4745001653079042 6.5491780513499176 0
          4.4741008461152578 6.5570445784719666 0
          4.4735349585710145 6.5649007907085686 0
          4.4728005128006592 6.5727429503832946 0
          4.4718958371964241 6.5805672077994322 0
          4.4708195774883261 6.5883696210565548 0
          4.4695704617981917 6.5961461383758735 0
          4.4681478006465962 6.6038926893701948 0
          4.466551242340965 6.6116051795966735 0
          4.4647944219089535 6.6192826609671283 0
          4.4628775350649246 6.6269216590900486 0
          4.4608010880844065 6.6345187440913813 0
          4.4585659012818049 6.6420705541310223 0
          4.4561731063602465 6.6495738180188857 0
          4.4536239137613229 6.6570252993852197 0
          4.4509327881338567 6.6644266129166621 0
          4.4481015833242452 6.67177538834411 0
          4.4451324255543332 6.6790694221388458 0
          4.4420277078843498 6.6863066971565051 0
          4.4387900876552964 6.6934854035526579 0
          4.4354343040110846 6.7006095472430465 0
          4.4319633173421753 6.7076781859183301 0
          4.4283801128884939 6.7146905138709272 0
          4.4246881161120024 6.7216460847032291 0
          4.4208909820052051 6.7285447300338186 0
          4.4169925846985221 6.7353865713357628 0
          4.4129970186761369 6.7421720371018381 0
          4.408908597097251 6.7489018776301553 0
          4.4047318512106708 6.7555771793304507 0
          4.4004715311859766 6.762199378573901 0
          4.3961328033415228 6.7687704036953518 0
          4.3917208628797777 6.7752924352935304 0
          4.3872411392459396 6.7817680428761689 0
          4.3826993071674565 6.7882001976504194 0
          4.3781013018035617 6.7945922854366909 0
          4.3734535333430991 6.8009482621593209 0
          4.3687520221114751 6.8072645838974797 0
          4.3640039306334959 6.8135459778375713 0
          4.3592058371993456 6.8197892937744937 0
          4.3543655421206271 6.8260000042538449 0
          4.3494804705576753 6.8321756403510516 0
          4.3445588581510926 6.8383223059433345 0
          4.3396380699714721 6.844469756323269 0
          4.3347296801053607 6.8506272593575304 0
          4.32983500376585 6.8567958497982353 0
          4.324968345769391 6.8629867754847051 0
          4.3201349311468018 6.8692039305452335 0
          4.31535323112195 6.8754612131030095 0
          4.3106318196327855 6.8817644117873105 0
          4.305985485489793 6.8881234894069863 0
          4.3014310963980602 6.894549106973904 0
          4.2969375664337592 6.9010179012184443 0
        </DataArray>
      </Points>
      <Cells>
        <DataArray type="Int32" Name="connectivity" format="ascii">
          0 1 1 2 2 3 3 4 4 5 5 6 6 7 7 8 8 9 9 10 10 11 11 12 12 13 13 14 14 15 15 16 16 17 17 18 18 19 19 20 20 21 21 22 22 23 23 24 24 25 25 26 26 27 27 28 28 29 29 30 30 31 31 32 32 33 33 34 34 35 35 36 36 37 37 38 38 39 39 40 40 41 41 42 42 43 43 44 44 45 45 46 46 47 47 48 48 49 49 50 50 51 51 52 52 53 53 54 54 55 55 56 56 57 57 58 58 59 59 60 60 61 61 62 62 63 63 64 64 65 65 66 66 67 67 68 68 69 69 70 70 71 71 72 72 73 73 74 74 75 75 76 76 77 77 78 78 79 79 80 80 81 81 82 82 83 83 84 84 85 85 86 86 87 87 88 88 89 89 90 90 91 91 92 92 93 93 94 94 95 95 96 96 97 97 98 98 99 99 100 100 101 101 102 102 103 103 104 104 105 105 106 106 107 107 108 108 109 109 110 110 111 111 112 112 113 113 114 114 115 115 116 116 117 117 118 118 119 119 120 120 121 121 122 122 123 123 124 124 125 125 126 126 127 
        </DataArray>
        <DataArray type="Int32" Name="offsets" format="ascii">
          2 4 6 8 10 12 14 16 18 20 22 24 26 28 30 32 34 36 38 40 42 44 46 48 50 52 54 56 58 60 62 64 66 68 70 72 74 76 78 80 82 84 86 88 90 92 94 96 98 100 102 104 106 108 110 112 114 116 118 120 122 124 126 128 130 132 134 136 138 140 142 144 146 148 150 152 154 156 158 160 162 164 166 168 170 172 174 176 178 180 182 184 186 188 190 192 194 196 198 200 202 204 206 208 210 212 214 216 218 220 222 224 226 228 230 232 234 236 238 240 242 244 246 248 250 252 254 
        </DataArray>
        <DataArray type="Int32" Name="types" format="ascii">
          3 3 3 3 3 3 3 3 3 3 3 3 3 3 3 3 3 3 3 3 3 3 3 3 3 3 3 3 3 3 3 3 3 3 3 3 3 3 3 3 3 3 3 3 3 3 3 3 3 3 3 3 3 3 3 3 3 3 3 3 3 3 3 3 3 3 3 3 3 3 3 3 3 3 3 3 3 3 3 3 3 3 3 3 3 3 3 3 3 3 3 3 3 3 3 3 3 3 3 3 3 3 3 3 3 3 3 3 3 3 3 3 3 3 3 3 3 3 3 3 3 3 3 3 3 3 3         </DataArray>
      </Cells>
    </Piece>
  </UnstructuredGrid>
</VTKFile>
