<?xml version="1.0"?>
<VTKFile type="UnstructuredGrid" version="0.1" byte_order="LittleEndian">
  <UnstructuredGrid>
    <Piece NumberOfPoints="128" NumberOfCells="127">
      <PointData Scalars="W">
        <DataArray type="Float32" Name="W" NumberOfComponents="2">
          0 0 0.023865992515789577 -0.00074959471005841161 0.0013891244402560459 -4.3768622506349221e-05 -0.001062227393298115 3.3470150984296696e-05 0.0088473334137746246 -0.00027904541773953422 0.027987929509345623 -0.00088680623622240608 0.054898336946997951 -0.0017574141439229919 0.088765045023585148 -0.0028918486580607424 0.1290750420690987 -0.0043159838517290404 0.17536216947980718 -0.0060742865371311711 0.22729772281817756 -0.008234288359098927 0.28459332885467015 -0.010884703387757363 0.3469690648498876 -0.014135152299340882 0.4141143868601459 -0.018114818512031856 0.48569780194258416 -0.022972182637436642 0.56140293700758614 -0.028875756517897332 0.64102177087059875 -0.036018848309937936 0.72425531872321303 -0.044609111535657428 0.81081315262147213 -0.054871637698465967 0.90045399226025824 -0.067050953636553945 0.99289562179782875 -0.081404021432969306 1.0878229859210164 -0.098197766309510631 1.1849439809135689 -0.11771141902958208 1.2839827358688847 -0.14023517395749555 1.3845855765529391 -0.16605780712431206 1.4864796369414217 -0.19548153409526761 1.5893172846087256 -0.22880264251895294 1.6926434753399722 -0.26629897127221491 1.7960560587136429 -0.30824734127206355 1.8995000841813938 -0.35498280596016579 2.0022107125848363 -0.40670786175053969 2.1037388604794725 -0.46365543835921608 2.2035933866142252 -0.5260287011409821 2.3012934152687574 -0.59400802971835631 2.3963027340045886 -0.66773085757980732 2.4880836093589789 -0.74729890637327634 2.5759857568712721 -0.83273777311497388 2.6594918034806958 -0.92406548882305506 2.7380740000876411 -1.0212527071036115 2.8110281309327916 -1.1241492763253333 2.8777098614220233 -1.2325545490055563 2.9375020097984725 -1.3462046990584953 -4.1349523350465542 1.869293322636578 -4.0355376294757335 1.6566179423579512 -3.9214864521968376 1.4576536500024624 -3.7959640331331306 1.2733189894634207 -3.7401069133702669 1.1262926426718893 -3.5968281953118915 0.96630666378482322 -3.5290200724506029 0.83937794985967129 -3.4568006805453511 0.71991642067297423 -3.3806523861054569 0.60784093992359733 -3.3010465034696881 0.50304978179954163 -3.2183595796595741 0.40541117634660778 -3.1330247686807176 0.31478937065210871 -3.0472677717052301 0.23114473952275755 -3.0448017298872632 0.15746873458342375 -2.78153407299106 0.079881287856976096 -2.600141919090778 0.019544167887665838 -2.4137954100598202 -0.029512320216623693 -2.2251564315252339 -0.067878453731671715 -2.0320508337081047 -0.096127420986401896 -1.8372495398426398 -0.11502937400381678 -1.6381908086134849 -0.12514574738934311 -1.3230742155147475 -0.11665570098132851 -0.99365904222712842 -0.096791661857019248 -0.90335140292724359 -0.094845782453078217 -0.68875058446935589 -0.076707366294372498 -0.60004171652594873 -0.069931893395260458 -0.51209360027994977 -0.061971841382961732 -0.42672694897001928 -0.053254204568062076 -0.20977396535495518 -0.02671739070850767 -0.12452835320537209 -0.016028220880384633 -0.042039374528062383 -0.0054392077387523203 0.041242654087900926 0.0053362577415602755 0.12342930801598215 0.01588810286962938 0.33790443404335962 0.04286703128673567 0.41787151513582238 0.051738979772008815 0.49655449103420513 0.059653466988461454 0.5738798811504523 0.06647375993233802 0.64785802544620941 0.071866340622781896 0.86242810901075728 0.090450745770231447 0.93522153989704793 0.091364221263616055 1.0062056876637748 0.09050618842804789 1.0731875370213715 0.08764803981740181 1.1399819755685996 0.08308101818147888 1.2044294789049164 0.07658318554655151 1.409974820384557 0.07506554998145587 1.4692739476694425 0.061510465780562282 1.52555222532057 0.045843814767126095 1.5785914544926289 0.028128381234946074 1.6280821145729321 0.0084512754624322291 1.6716635623255871 -0.013040333188045802 1.7133453749108492 -0.036207239251832612 1.901352118407446 -0.067272890320582063 1.9338090529639131 -0.097702878210286934 1.9590624933268252 -0.12915900830828805 1.9811330627829864 -0.16160021129992228 1.99753596613948 -0.19460717413692027 2.0057274066678268 -0.22754885840462094 2.1643473565049938 -0.28187702981184498 2.161061602380832 -0.31932625745140053 2.1506344359938323 -0.35564805950757733 2.1304501354650061 -0.3898694633954175 2.1048378458205965 -0.42223857100510021 2.2283299722337175 -0.48756967977558491 2.1823770546958823 -0.51841587141994394 2.1297772120320402 -0.54543831076017335 2.2258408914289634 -0.61232919251733831 2.1523529683995348 -0.63382381747215055 2.0685279270367372 -0.64839255259339434 2.1345662801924643 -0.71009832537046635 2.023850721546701 -0.71240041423271494 1.9035328973420269 -0.70543504035970039 1.9333444961120079 -0.75224287226497877 1.7838968894676857 -0.72665814075201984 1.7858327102901961 -0.75935510453624977 1.7734076945094879 -0.78628676295814703 1.5769517571618124 -0.72668249510951055 1.5299700717459506 -0.73026195194901145 0.78179324486365709 -0.38290209703196648 0.44313878181521971 -0.22000048412708378 0.2269171958457151 -0.11349034459991471 -0.036046649996110527 0.018066264509006617 -0.15501441570538013 0.077528690676124487 -0.43692875955361821 0.21710384480357575 -0.72315281021642652 0.3547412254972902 -0.46220631640184606 0.22376177388072294 0 0
        </DataArray>
        <DataArray type="Float32" Name="u" NumberOfComponents="1">
          0 0.007874015748031496 0.015748031496062992 0.023622047244094488 0.031496062992125984 0.03937007874015748 0.047244094488188976 0.055118110236220472 0.062992125984251968 0.070866141732283464 0.07874015748031496 0.086614173228346455 0.094488188976377951 0.10236220472440945 0.11023622047244094 0.11811023622047244 0.12598425196850394 0.13385826771653545 0.14173228346456693 0.14960629921259844 0.15748031496062992 0.16535433070866143 0.17322834645669291 0.18110236220472442 0.1889763779527559 0.19685039370078741 0.20472440944881889 0.2125984251968504 0.22047244094488189 0.2283464566929134 0.23622047244094488 0.24409448818897639 0.25196850393700787 0.25984251968503935 0.26771653543307089 0.27559055118110237 0.28346456692913385 0.29133858267716534 0.29921259842519687 0.30708661417322836 0.31496062992125984 0.32283464566929132 0.33070866141732286 0.33858267716535434 0.34645669291338582 0.3543307086614173 0.36220472440944884 0.37007874015748032 0.37795275590551181 0.38582677165354329 0.39370078740157483 0.40157480314960631 0.40944881889763779 0.41732283464566927 0.42519685039370081 0.43307086614173229 0.44094488188976377 0.44881889763779526 0.45669291338582679 0.46456692913385828 0.47244094488188976 0.48031496062992124 0.48818897637795278 0.49606299212598426 0.50393700787401574 0.51181102362204722 0.51968503937007871 0.52755905511811019 0.53543307086614178 0.54330708661417326 0.55118110236220474 0.55905511811023623 0.56692913385826771 0.57480314960629919 0.58267716535433067 0.59055118110236215 0.59842519685039375 0.60629921259842523 0.61417322834645671 0.62204724409448819 0.62992125984251968 0.63779527559055116 0.64566929133858264 0.65354330708661412 0.66141732283464572 0.6692913385826772 0.67716535433070868 0.68503937007874016 0.69291338582677164 0.70078740157480313 0.70866141732283461 0.71653543307086609 0.72440944881889768 0.73228346456692917 0.74015748031496065 0.74803149606299213 0.75590551181102361 0.76377952755905509 0.77165354330708658 0.77952755905511806 0.78740157480314965 0.79527559055118113 0.80314960629921262 0.8110236220472441 0.81889763779527558 0.82677165354330706 0.83464566929133854 0.84251968503937003 0.85039370078740162 0.8582677165354331 0.86614173228346458 0.87401574803149606 0.88188976377952755 0.88976377952755903 0.89763779527559051 0.90551181102362199 0.91338582677165359 0.92125984251968507 0.92913385826771655 0.93700787401574803 0.94488188976377951 0.952755905511811 0.96062992125984248 0.96850393700787396 0.97637795275590555 0.98425196850393704 0.99212598425196852 1
        </DataArray>
      </PointData>
      <CellData Scalars="P">
        <DataArray type="Float32" Name="P" NumberOfComponents="1">
          0.010955327382856555 0.032869289306224993 0.054794073906538399 0.076716874136440058 0.098631971149590172 0.12055406149794161 0.14252802926883909 0.16463711553771143 0.18700991322682328 0.20982555186553292 0.23331823058355372 0.25778036797078052 0.28356432879390059 0.31108228505150426 0.34080454496231871 0.37325704554139555 0.40902002375724955 0.44872177130345825 0.49303298225815012 0.54266157525228587 0.5983441198901549 0.66083610756239086 0.73090333772144089 0.80931272024532774 0.89681812139719819 0.99415286204527942 1.1020144144646318 1.2210456218100465 1.351824103438612 1.4948719381346547 1.6505976107709095 1.8193012092889622 2.0011579316933634 2.1962054767700532 2.4043268673655582 2.6252376841762053 2.8584647685452906 3.1033459416803479 3.3590195570989771 3.6244004163399866 3.8981773053698481 4.178809807271378 3.8315291183963609 3.4941125308862473 3.167458321093485 2.8522755039947683 2.5418718219492127 2.2441325352467025 1.9519444040384033 1.6656233608244553 1.3854764067799488 1.1117995247834047 0.84488339998428941 0.585005057461224 0.33225645679328325 0.078872972511194267 -0.15051092884144107 -0.36345966888570047 -0.5593472434096679 -0.73779480406773246 -0.89822419345543669 -1.0403361066824088 -1.1636165170143298 -1.2570723368304741 -1.319417141205018 -1.3730972881545336 -1.406592251888499 -1.4316631831545812 -1.4484440698856906 -1.4572674367651908 -1.4466137463936037 -1.4284929955823551 -1.4033640316606824 -1.3714104580132662 -1.3330103207973512 -1.2778535924718137 -1.2173744453045743 -1.1520665108342414 -1.0824504273176132 -1.0092071846445301 -0.92312990861633193 -0.83482675455206867 -0.74492762833681236 -0.65419808379870203 -0.56316560619314127 -0.47248614306069892 -0.37552539458921441 -0.28071500132321314 -0.18871719284527225 -0.10017298848264168 -0.015698667631995514 0.064054249542624106 0.13862618433935628 0.21141988260545097 0.27750296232645322 0.33644405701847124 0.38797428425999336 0.43185862734265973 0.46793585349793304 0.49666312440761529 0.51698931837086459 0.52906808373553682 0.53318878095675315 0.52973327364523792 0.51687274628169477 0.49707927789311412 0.47109351650850251 0.43595220824933828 0.39607865382675006 0.35263694958648956 0.30169808734762216 0.24958627211599593 0.19771268617668353 0.14144840432378447 0.088408090052489993 0.033609447745360573 -0.02158141754596846 -0.06892109130727625 -0.11354648038035231 -0.12790489447251188 -0.12857117694206471 -0.12080768549906695 -0.10427400157024697 -0.084556055713309972 -0.059357099838602108 -0.031834430866594168 -0.010060825162550427
        </DataArray>
      </CellData>
      <Points>
        <DataArray type="Float32" NumberOfComponents="3" format="ascii">
          3.9058644921010028 8.584213634490613 0
          3.9061109632969959 8.592084497605855 0
          3.9063589141065815 8.5999553032853946 0
          3.9066069505102723 8.6078260888969407 0
          3.9068549203474494 8.6156968544591219 0
          3.9071034379927498 8.623567576810748 0
          3.9073536902464765 8.6314382152127109 0
          3.907607345703481 8.6393087132230804 0
          3.9078665042892067 8.6471789985562317 0
          3.908133665431397 8.6550489814255656 0
          3.9084116991390476 8.6629185517485592 0
          3.9087038256067821 8.6707875749307579 0
          3.9090135973223408 8.6786558863421064 0
          3.9093448817005956 8.6865232845007156 0
          3.9097018418216876 8.694389523046274 0
          3.9100889158733247 8.7022543015187512 0
          3.9105107975338966 8.7101172548963355 0
          3.9109724230771876 8.7179779415967857 0
          3.9114789528402496 8.7258358305898778 0
          3.912035753225243 8.7336902874290292 0
          3.9126483817518989 8.7415405590780164 0
          3.9133225695750848 8.7493857579665821 0
          3.914064201969401 8.7572248454279826 0
          3.9148793002398157 8.7650566143730444 0
          3.9157740046414888 8.7728796712836363 0
          3.9167545524782295 8.7806924182931141 0
          3.9178272612133402 8.7884930344321361 0
          3.9189985069467785 8.7962794572404874 0
          3.9202746962343027 8.8040493655208252 0
          3.92166224118716 8.8118001621534159 0
          3.9231675560988317 8.8195289532980485 0
          3.9247970100587533 8.8272325358118238 0
          3.9265568991425126 8.8349073827772688 0
          3.9284534159934079 8.8425496308727745 0
          3.9304926200388199 8.8501550691526063 0
          3.9326804042733619 8.8577191304864087 0
          3.9350224619447323 8.865236885209649 0
          3.9375242462575253 8.8727030394908812 0
          3.9401909383133424 8.8801119341651873 0
          3.9430274144026662 8.8874575465024659 0
          3.9460382023495892 8.8947334994638059 0
          3.9492274415628543 8.9019330740871627 0
          3.9525988447635418 8.909049225789456 0
          3.955713860177223 8.9162812945172156 0
          3.9585786505829068 8.9236160920841865 0
          3.9612002865067151 8.931041280211657 0
          3.9635865499832428 8.93854542755418 0
          3.9657409040253793 8.9461194176881271 0
          3.9676722319551616 8.9537533288007172 0
          3.9693847380117915 8.9614392905461564 0
          3.9708828999732031 8.9691698955758419 0
          3.9721714392465883 8.9769381945066815 0
          3.973255291644509 8.9847376896130857 0
          3.9741395840372169 8.9925623266544683 0
          3.9748296074954403 9.0004064864576065 0
          3.9753306792847889 9.0082649825002932 0
          3.9756429521067957 9.0161332482760574 0
          3.9757827500210889 9.0240064688921393 0
          3.9757613205609572 9.0318809009215748 0
          3.9755902186366496 9.0397535003086436 0
          3.9752811414577294 9.0476218858389093 0
          3.9748460633213805 9.0554843035616912 0
          3.9742970637641553 9.0633395791115774 0
          3.9736464863779322 9.0711870828554755 0
          3.9729138713494772 9.0790273365028913 0
          3.9721196454590255 9.0868615669986887 0
          3.9712694087627427 9.0946898953986448 0
          3.9703764683596554 9.1025134443646802 0
          3.9694463249592444 9.110332634560967 0
          3.9684844320106705 9.1181479601010498 0
          3.9674960828102765 9.1259599621061565 0
          3.9664947297267288 9.1337702843852533 0
          3.9654856583087037 9.1415795904822108 0
          3.9644739830985118 9.1493885377784974 0
          3.963464867737327 9.1571977952136248 0
          3.9624634078774661 9.1650080178953264 0
          3.9614829014923503 9.1728208778579869 0
          3.9605283063836505 9.1806369263709016 0
          3.9596045006833829 9.1884566554000795 0
          3.958716278307024 9.1962804891386813 0
          3.9578682256002793 9.2041087633526324 0
          3.9570736458138849 9.2119426307668792 0
          3.9563370517124596 9.2197821498950301 0
          3.9556628438945687 9.2276272695289823 0
          3.9550551748393894 9.2354778145818557 0
          3.9545181854488565 9.2433335041340285 0
          3.9540558711713474 9.2511939376929053 0
          3.9536809756143696 9.2590590236677635 0
          3.9533971751825585 9.2669279246827472 0
          3.9532079591284601 9.2747996726135398 0
          3.9531166160460458 9.2826731724844578 0
          3.9531262147024253 9.2905472078722848 0
          3.9532394576980652 9.2984204500182717 0
          3.9534589300839897 9.3062914664826266 0
          3.9537962895816432 9.314158336745848 0
          3.954253550008799 9.3220191788600797 0
          3.9548322788971069 9.329872047403116 0
          3.9555338467995091 9.3377149360669094 0
          3.956359273243788 9.3455458036262176 0
          3.9573090690134998 9.3533626130161345 0
          3.9583930731268926 9.3611620043267258 0
          3.9596110860395859 9.3689416617995604 0
          3.9609624658912752 9.3766993396882992 0
          3.9624459662876577 9.3844329225206788 0
          3.9640600047423611 9.3921404098154984 0
          3.9658122465555206 9.399817761737145 0
          3.9676998495814129 9.4074630727704598 0
          3.9697195599680968 9.4150746746139617 0
          3.9718773456811172 9.422648432083637 0
          3.9741686592974617 9.4301830201762886 0
          3.976588312661586 9.4376775434266449 0
          3.9791404155426933 9.4451281895541896 0
          3.9818181136034227 9.4525348242566132 0
          3.9846139570002603 9.4598978882385243 0
          3.9875298122858265 9.4672144946961723 0
          3.9905564237920328 9.4744862400156862 0
          3.9936939315753159 9.4817111141667674 0
          3.9969415870036835 9.4888874659336064 0
          4.0002872196382411 9.4960190046686961 0
          4.0037279389592815 9.5031055305007186 0
          4.0072173163129001 9.5101685793468604 0
          4.0107343440074974 9.5172182698054346 0
          4.0142656155475303 9.5242612337813934 0
          4.0177948206589775 9.5313056608522544 0
          4.0213145937980306 9.5383552844579249 0
          4.0248074482148812 9.5454188107328157 0
          4.0282556304836934 9.5525048424502437 0
          4.0316754001759749 9.5596053780924386 0
        </DataArray>
      </Points>
      <Cells>
        <DataArray type="Int32" Name="connectivity" format="ascii">
          0 1 1 2 2 3 3 4 4 5 5 6 6 7 7 8 8 9 9 10 10 11 11 12 12 13 13 14 14 15 15 16 16 17 17 18 18 19 19 20 20 21 21 22 22 23 23 24 24 25 25 26 26 27 27 28 28 29 29 30 30 31 31 32 32 33 33 34 34 35 35 36 36 37 37 38 38 39 39 40 40 41 41 42 42 43 43 44 44 45 45 46 46 47 47 48 48 49 49 50 50 51 51 52 52 53 53 54 54 55 55 56 56 57 57 58 58 59 59 60 60 61 61 62 62 63 63 64 64 65 65 66 66 67 67 68 68 69 69 70 70 71 71 72 72 73 73 74 74 75 75 76 76 77 77 78 78 79 79 80 80 81 81 82 82 83 83 84 84 85 85 86 86 87 87 88 88 89 89 90 90 91 91 92 92 93 93 94 94 95 95 96 96 97 97 98 98 99 99 100 100 101 101 102 102 103 103 104 104 105 105 106 106 107 107 108 108 109 109 110 110 111 111 112 112 113 113 114 114 115 115 116 116 117 117 118 118 119 119 120 120 121 121 122 122 123 123 124 124 125 125 126 126 127 
        </DataArray>
        <DataArray type="Int32" Name="offsets" format="ascii">
          2 4 6 8 10 12 14 16 18 20 22 24 26 28 30 32 34 36 38 40 42 44 46 48 50 52 54 56 58 60 62 64 66 68 70 72 74 76 78 80 82 84 86 88 90 92 94 96 98 100 102 104 106 108 110 112 114 116 118 120 122 124 126 128 130 132 134 136 138 140 142 144 146 148 150 152 154 156 158 160 162 164 166 168 170 172 174 176 178 180 182 184 186 188 190 192 194 196 198 200 202 204 206 208 210 212 214 216 218 220 222 224 226 228 230 232 234 236 238 240 242 244 246 248 250 252 254 
        </DataArray>
        <DataArray type="Int32" Name="types" format="ascii">
          3 3 3 3 3 3 3 3 3 3 3 3 3 3 3 3 3 3 3 3 3 3 3 3 3 3 3 3 3 3 3 3 3 3 3 3 3 3 3 3 3 3 3 3 3 3 3 3 3 3 3 3 3 3 3 3 3 3 3 3 3 3 3 3 3 3 3 3 3 3 3 3 3 3 3 3 3 3 3 3 3 3 3 3 3 3 3 3 3 3 3 3 3 3 3 3 3 3 3 3 3 3 3 3 3 3 3 3 3 3 3 3 3 3 3 3 3 3 3 3 3 3 3 3 3 3 3         </DataArray>
      </Cells>
    </Piece>
  </UnstructuredGrid>
</VTKFile>
