<?xml version="1.0"?>
<VTKFile type="UnstructuredGrid" version="0.1" byte_order="LittleEndian">
  <UnstructuredGrid>
    <Piece NumberOfPoints="128" NumberOfCells="127">
      <PointData Scalars="W">
        <DataArray type="Float32" Name="W" NumberOfComponents="2">
          0 0 -0.024197402054064985 -0.90250129429318249 -0.047481424939072016 -1.3326832791736594 -0.078136101439024649 -1.6484030767628568 -0.11681231981102912 -1.9010955709069777 -0.16339341879903993 -2.1119335098607466 -0.21756268544216975 -2.2923232464753611 -0.2789603398681621 -2.4493016135102423 -0.34723422175731544 -2.5875315090583628 -0.42204752650146976 -2.7101904910994592 -0.50309697190488312 -2.819593374142773 -0.59011055998803019 -2.917447997120953 -0.68284801549093965 -3.005043211458426 -0.78107868549060111 -3.0832866871087852 -0.88457159132691265 -3.1527980296041012 -0.99310623833470357 -3.2140380240866335 -1.106493141903157 -3.2674086578839741 -1.2245302132730393 -3.3131396543173341 -1.347010488364885 -3.3513630651317423 -1.473748766024966 -3.3821997632683098 -1.6045571922030655 -3.4057020409908216 -1.739229959002107 -3.42184184738784 -1.8775747533988651 -3.4305903671257378 -2.0194067275974441 -3.4319019095886913 -2.1644881945810575 -3.4256214157585276 -2.3126417101733465 -3.4116825346722446 -2.4636526499625115 -3.389940392208274 -2.6172563612566853 -3.3601790868146075 -2.7732102282022071 -3.3222190784036405 -2.9315305895122807 -3.2761577102195054 -3.0917492072082977 -3.2215047354190993 -3.2536045638230857 -3.1580447696907648 -3.4168283915626212 -3.0855530918149694 -3.5811476619204794 -3.0037964918212396 -3.7462573533566297 -2.9125110893084272 -3.9118603861734313 -2.811437224551439 -4.0775513988161149 -2.7002381416631338 -4.2430267497482674 -2.578652199748821 -4.4079500537841865 -2.4463824017684996 -4.5718361586024425 -2.3030456975341886 -4.7341932260816426 -2.1482716895726233 -4.8945017544553959 -1.9816872942473049 1.4053941894306641 0.54484366982252574 1.3228566643604858 0.53050409417812683 1.136317455126346 0.46954921875485034 0.94884740482912655 0.40200873934834747 0.86850945263782209 0.37597448218174029 0.68185888743528245 0.30058421841290184 0.49381800025592493 0.22068421013006412 0.42142312596639608 0.19033276523848972 0.23611064185514943 0.10744687587805854 0.050511985949653102 0.023062158897601184 -0.1355562838795048 -0.06183038431063112 -0.45529697846290762 -0.20626784065570225 -15.126118221428234 -5.6888335240200405 -15.825215585452774 -3.7382637915705486 0.4969991230604735 0.085250915925547996 0.54939342441837302 0.096605216977666844 0.49938893750543872 0.089973599474578864 0.54830898525954141 0.10116322764481286 0.50007623108959265 0.094437451946439155 0.45336328991736452 0.08741169567678797 0.308575013403939 0.060474151918344765 0.26590281276163441 0.052748171947702496 0.12450457320390729 0.024901331490473841 0.085785321770106768 0.017232701857063378 0.049813450614004252 0.010034835968379436 0.017903289130993948 0.0036116546417373861 -0.01207925004571922 -0.0024370574485821847 -0.038825750034337574 -0.0078250553503682405 -0.062223961413611285 -0.01251452396971801 -0.082162349941252349 -0.016474986561591624 0.0036601710077636316 0.00073272814878234884 -0.0078837476536288854 -0.001578105181421217 -0.016872257533107525 -0.0033756086357527183 -0.022052730305006724 -0.0044084741244396633 -0.023361855196472839 -0.0046657464374843848 -0.020763033260720945 -0.0041428942693511528 -0.014185694070025893 -0.0028284336283933807 -0.0036161060604020428 -0.00072073348197423167 0.010963989664788988 0.0021855913438684907 0.12961506265380049 0.025913890091972105 0.1521973430009177 0.03060791038008729 0.17877411230875642 0.036200009242434973 0.2093696526132906 0.042735304728712974 0.24395141836756873 0.050257094388057505 0.28249220041005185 0.058820600450510609 0.42029239877582752 0.088753979531645599 0.46650302176830455 0.10025337390801728 0.51652900933620127 0.11314628982255948 0.57030282282558808 0.12754760849189728 0.71961330912406352 0.16488047303907885 0.77929218948461509 0.18353116242051001 0.84371424631110925 0.20456380784834616 0.91158789854548916 0.22790274589860562 1.0709746135480769 0.27693604692456258 1.1450763891962108 0.3071481377308532 1.2222639022743944 0.3405486877135333 1.3024514229749713 0.37744076154254103 1.3854897908919095 0.41813743339034981 1.5551432701552144 0.48998014999296435 1.6427470213078934 0.54157906471898487 1.7326121674503032 0.59828422742186682 1.8245840492545955 0.66054923115130615 1.9184402059740489 0.72884567282955515 2.0139559939046121 0.80368876114890675 2.1108729379473239 0.88563056291746745 2.2089658140765565 0.97529482218413344 2.3090649709254061 1.0738805389150079 2.40860282112188 1.1811002365310581 2.509595945626975 1.2989000184288528 2.532557020185406 1.3838842216091491 2.6341447834128062 1.5203019560169246 2.6593572443572491 1.6220559385123647 2.7637850362387035 1.782914500973124 2.7895947579290148 1.905116757969999 2.8963964355857374 2.0966334110130673 -0.82060699087759936 -0.60669751344463796 -1.0507654097145369 -0.76211970417949382 -0.93846882178731628 -0.6669525494339329 -1.2175678333176956 -0.84643348086296577 -0.75425792993026308 -0.51386364088285363 -0.55077665260602826 -0.37025120986946186 0.091309846089432919 0.061093013743861987 0.68444848445600548 0.46160457276275307 1.7196247900822177 1.188693755390229 4.5204547343200545 3.3318736154911313 0 0
        </DataArray>
        <DataArray type="Float32" Name="u" NumberOfComponents="1">
          0 0.007874015748031496 0.015748031496062992 0.023622047244094488 0.031496062992125984 0.03937007874015748 0.047244094488188976 0.055118110236220472 0.062992125984251968 0.070866141732283464 0.07874015748031496 0.086614173228346455 0.094488188976377951 0.10236220472440945 0.11023622047244094 0.11811023622047244 0.12598425196850394 0.13385826771653545 0.14173228346456693 0.14960629921259844 0.15748031496062992 0.16535433070866143 0.17322834645669291 0.18110236220472442 0.1889763779527559 0.19685039370078741 0.20472440944881889 0.2125984251968504 0.22047244094488189 0.2283464566929134 0.23622047244094488 0.24409448818897639 0.25196850393700787 0.25984251968503935 0.26771653543307089 0.27559055118110237 0.28346456692913385 0.29133858267716534 0.29921259842519687 0.30708661417322836 0.31496062992125984 0.32283464566929132 0.33070866141732286 0.33858267716535434 0.34645669291338582 0.3543307086614173 0.36220472440944884 0.37007874015748032 0.37795275590551181 0.38582677165354329 0.39370078740157483 0.40157480314960631 0.40944881889763779 0.41732283464566927 0.42519685039370081 0.43307086614173229 0.44094488188976377 0.44881889763779526 0.45669291338582679 0.46456692913385828 0.47244094488188976 0.48031496062992124 0.48818897637795278 0.49606299212598426 0.50393700787401574 0.51181102362204722 0.51968503937007871 0.52755905511811019 0.53543307086614178 0.54330708661417326 0.55118110236220474 0.55905511811023623 0.56692913385826771 0.57480314960629919 0.58267716535433067 0.59055118110236215 0.59842519685039375 0.60629921259842523 0.61417322834645671 0.62204724409448819 0.62992125984251968 0.63779527559055116 0.64566929133858264 0.65354330708661412 0.66141732283464572 0.6692913385826772 0.67716535433070868 0.68503937007874016 0.69291338582677164 0.70078740157480313 0.70866141732283461 0.71653543307086609 0.72440944881889768 0.73228346456692917 0.74015748031496065 0.74803149606299213 0.75590551181102361 0.76377952755905509 0.77165354330708658 0.77952755905511806 0.78740157480314965 0.79527559055118113 0.80314960629921262 0.8110236220472441 0.81889763779527558 0.82677165354330706 0.83464566929133854 0.84251968503937003 0.85039370078740162 0.8582677165354331 0.86614173228346458 0.87401574803149606 0.88188976377952755 0.88976377952755903 0.89763779527559051 0.90551181102362199 0.91338582677165359 0.92125984251968507 0.92913385826771655 0.93700787401574803 0.94488188976377951 0.952755905511811 0.96062992125984248 0.96850393700787396 0.97637795275590555 0.98425196850393704 0.99212598425196852 1
        </DataArray>
      </PointData>
      <CellData Scalars="P">
        <DataArray type="Float32" Name="P" NumberOfComponents="1">
          -0.037596094755295836 -0.11014820853117979 -0.17806740707111871 -0.24059960697740573 -0.29744055001607456 -0.34851070746448792 -0.39384780974356248 -0.4335472661939766 -0.4677272816505012 -0.49650853791728677 -0.52000008656369434 -0.53829046745127285 -0.55144163527743351 -0.55948641504620189 -0.56242725836662133 -0.56023437480302807 -0.55284277678770199 -0.54015288643956838 -0.52203030318805532 -0.4983037784023206 -0.46876495271273144 -0.43316888167984208 -0.39123243645785083 -0.34263312711571597 -0.28701137534390792 -0.22396591217896084 -0.15305499162658451 -0.073798046137450238 0.014326915912324935 0.11189932321961557 0.21952969735282846 0.33787344042406187 0.46763205222560444 0.60955456141485209 0.76443746896530551 0.93312715014572123 1.116515314830139 1.3155472479429213 1.5312220726338048 1.7645855829629378 2.0167318371187273 2.2888033270241608 2.1274082408902979 1.9678415882285571 1.8202010764018959 1.6863098621607036 1.5584021575157392 1.4460095978858496 1.3495014576514237 1.2593353789192738 1.1842416236606963 1.1232936459538154 1.0752220065276503 1.0473773778315805 1.8620070759464997 2.6237828533228402 2.5363696620822966 2.4460222502215747 2.3583569056849716 2.2683248208974081 2.1811721011856497 2.0968578048928412 2.0200437967209806 1.9455418534378084 1.8774332700570437 1.8108296675097639 1.7453920899233277 1.6807405819208683 1.6165840531120199 1.5526051868732442 1.4885123243780549 1.4240461743138964 1.3574361156738972 1.2904515141662474 1.2229779579040736 1.1549295926643661 1.0862692042545401 1.0170091080780812 0.94721115866385219 0.87698545223494073 0.80648812202373954 0.7378911744266311 0.6698177801862315 0.60252661439008015 0.53630671284030895 0.47147099282566862 0.40835069360487775 0.35097047933132713 0.29625047255762832 0.24452686134309667 0.1961293812888808 0.15576775645062213 0.11946608376507784 0.087551179402503773 0.060264456153161595 0.042574042295965682 0.029990866388812275 0.022642790867159507 0.02061686897791179 0.023953007127717051 0.037466028579440334 0.0562896257350681 0.080323062771307976 0.10942111219506442 0.14339204445669046 0.18200050409534388 0.22496983216111652 0.27198954018574084 0.32278011506402787 0.37691604137918672 0.43408574402165856 0.48987708053083656 0.54801772533632098 0.60437873719008695 0.66257490408721764 0.71862251217142437 0.77611707723818391 0.68935043902125914 0.59438985610778317 0.5058986100147761 0.41041220321679872 0.33171331035871432 0.25931737617333789 0.19894090887674296 0.14329516120619465 0.090044612982758829 0.034754863655166737
        </DataArray>
      </CellData>
      <Points>
        <DataArray type="Float32" NumberOfComponents="3" format="ascii">
          6.3418885400033513 10.462790789944396 0
          6.3497637453862481 10.462607665314598 0
          6.3576374649181462 10.462368537787297 0
          6.3655082621809242 10.462046712631341 0
          6.3733742410944183 10.461622597257511 0
          6.3812330064634875 10.461080509569808 0
          6.3890816715894294 10.460407364178856 0
          6.3969168781080636 10.459591964651812 0
          6.4047348184181407 10.458624566904684 0
          6.4125312575950177 10.4574965899044 0
          6.4203015543280912 10.45620041854078 0
          6.4280406797645453 10.454729260034043 0
          6.4357432344038159 10.453077038006764 0
          6.4434034630189316 10.451238312555009 0
          6.4510152689785105 10.449208223973205 0
          6.4585722285883511 10.446982454354744 0
          6.4660676047828716 10.444557199047816 0
          6.4734943588932579 10.44192914175898 0
          6.4808451631996631 10.439095440346479 0
          6.488112413788178 10.436053718674131 0
          6.4952882420597904 10.432802059157581 0
          6.5023645264067431 10.429338999565379 0
          6.5093329050061683 10.42566353480491 0
          6.5161847877791965 10.421775118753891 0
          6.5229113678897859 10.417673667137148 0
          6.5295036365262389 10.413359567189394 0
          6.5359523939467081 10.408833681809506 0
          6.5422482628354333 10.404097358585812 0
          6.5483817047672321 10.399152443227113 0
          6.5543430353070145 10.394001290733637 0
          6.5601224230381447 10.388646759377696 0
          6.5657099186718701 10.383092241153198 0
          6.5710954713277889 10.377341675160238 0
          6.5762689452354968 10.371399561565001 0
          6.5812201367337684 10.365270976082 0
          6.5859387932574442 10.358961586355296 0
          6.5904146318328056 10.352477668072646 0
          6.5946373642957443 10.345826125859931 0
          6.598596716196603 10.339014509507308 0
          6.6022824477382018 10.332051032383998 0
          6.6056843839487671 10.324944595188452 0
          6.6087924452697342 10.317704808906434 0
          6.6115966798600718 10.310342017928841 0
          6.6144880621498388 10.303013275342275 0
          6.6174614625881656 10.295717684333498 0
          6.6205052949629843 10.288451461882813 0
          6.623607917295824 10.281210416056222 0
          6.6267643409113193 10.273992923655678 0
          6.6299629782790204 10.266794305439236 0
          6.6331921577010808 10.259609602296241 0
          6.636447387870775 10.252436922698653 0
          6.6397171699775743 10.245271122130131 0
          6.6429899895884263 10.238106962950075 0
          6.6462543052710936 10.230939175826515 0
          6.649490283217661 10.223758803721941 0
          6.651787992892535 10.216225581705437 0
          6.6531040786975915 10.208460508851823 0
          6.6544509632936011 10.200700890748966 0
          6.6558318965287793 10.192947419404025 0
          6.6572437763549939 10.185199675868358 0
          6.6586896370559767 10.177458342839618 0
          6.6601664869315673 10.169722995865621 0
          6.6616714289131389 10.161993191856675 0
          6.6631954837017844 10.154267255918983 0
          6.6647360058079386 10.146544701059065 0
          6.6662842275070968 10.138823795149428 0
          6.6678377492656251 10.131104054233919 0
          6.6693943421039226 10.123385023458205 0
          6.6709520290597197 10.115666295889394 0
          6.6725089528157726 10.107947487747431 0
          6.6740634568030943 10.100228256127277 0
          6.6756140921296891 10.092508301346518 0
          6.6771596244677287 10.084787368839869 0
          6.6787053769587725 10.077066515641031 0
          6.6802506356129081 10.069345589771157 0
          6.6817948448931315 10.061624471043544 0
          6.6833376853689908 10.053903086647173 0
          6.6848790776325027 10.046181411842186 0
          6.6864191845619683 10.038459470259482 0
          6.6879584156961416 10.030737334633866 0
          6.6894974280886066 10.023015126928579 0
          6.6910371274470597 10.015293018694786 0
          6.6925848718563534 10.00757247385499 0
          6.694142063233576 9.9998537754930723 0
          6.6957103512259879 9.9921372625377174 0
          6.6972916347373781 9.9844233325936855 0
          6.6988880599339886 9.9767124446615938 0
          6.7005020185837987 9.9690051225992171 0
          6.7021420570229386 9.9613032181064156 0
          6.703811043023312 9.9536074381634823 0
          6.7055120811498572 9.9459185765431108 0
          6.7072485086008387 9.9382375209780687 0
          6.7090295868116891 9.9305665848246623 0
          6.7108590198056426 9.9229069206617488 0
          6.7127408060320661 9.9152598293780141 0
          6.7146791582962626 9.9076267554926982 0
          6.7166839646082277 9.9000107413655414 0
          6.7187598247323708 9.8924136594775174 0
          6.7209115301089604 9.8848375808002196 0
          6.7231440585297149 9.8772847936461279 0
          6.725462564872303 9.8697578231365952 0
          6.7278775758267546 9.8622611313607269 0
          6.730394529880062 9.854797921730766 0
          6.7330190059179094 9.8473717153229892 0
          6.7357567135774099 9.8399863790484989 0
          6.7386134793853767 9.8326461549302024 0
          6.7415952327520658 9.8253556920756324 0
          6.7447079898585667 9.8181200809224638 0
          6.7479578395997635 9.8109448919180249 0
          6.75135099498715 9.8038362499339833 0
          6.7548936338150671 9.7968008162360096 0
          6.7585920236350088 9.7898459092750763 0
          6.7624475922511111 9.7829768071438057 0
          6.7664666432336276 9.7762019843347296 0
          6.7706507433351151 9.7695277599250296 0
          6.7750063714852224 9.7629641252599644 0
          6.7795351311868011 9.7565186677423075 0
          6.7842436484556421 9.7502032802691083 0
          6.7889007418602034 9.7438509347745335 0
          6.793492233384427 9.7374518865431128 0
          6.7980251725032863 9.731011954574539 0
          6.8024823384325455 9.7245199090504482 0
          6.8068925278759718 9.7179962994823157 0
          6.8112684242077046 9.7114499437347135 0
          6.8156498970060149 9.7049075028154501 0
          6.8200737808696896 9.6983937187787621 0
          6.8246043217411412 9.6919535779697661 0
          6.8294151209743683 9.6857200363405767 0
        </DataArray>
      </Points>
      <Cells>
        <DataArray type="Int32" Name="connectivity" format="ascii">
          0 1 1 2 2 3 3 4 4 5 5 6 6 7 7 8 8 9 9 10 10 11 11 12 12 13 13 14 14 15 15 16 16 17 17 18 18 19 19 20 20 21 21 22 22 23 23 24 24 25 25 26 26 27 27 28 28 29 29 30 30 31 31 32 32 33 33 34 34 35 35 36 36 37 37 38 38 39 39 40 40 41 41 42 42 43 43 44 44 45 45 46 46 47 47 48 48 49 49 50 50 51 51 52 52 53 53 54 54 55 55 56 56 57 57 58 58 59 59 60 60 61 61 62 62 63 63 64 64 65 65 66 66 67 67 68 68 69 69 70 70 71 71 72 72 73 73 74 74 75 75 76 76 77 77 78 78 79 79 80 80 81 81 82 82 83 83 84 84 85 85 86 86 87 87 88 88 89 89 90 90 91 91 92 92 93 93 94 94 95 95 96 96 97 97 98 98 99 99 100 100 101 101 102 102 103 103 104 104 105 105 106 106 107 107 108 108 109 109 110 110 111 111 112 112 113 113 114 114 115 115 116 116 117 117 118 118 119 119 120 120 121 121 122 122 123 123 124 124 125 125 126 126 127 
        </DataArray>
        <DataArray type="Int32" Name="offsets" format="ascii">
          2 4 6 8 10 12 14 16 18 20 22 24 26 28 30 32 34 36 38 40 42 44 46 48 50 52 54 56 58 60 62 64 66 68 70 72 74 76 78 80 82 84 86 88 90 92 94 96 98 100 102 104 106 108 110 112 114 116 118 120 122 124 126 128 130 132 134 136 138 140 142 144 146 148 150 152 154 156 158 160 162 164 166 168 170 172 174 176 178 180 182 184 186 188 190 192 194 196 198 200 202 204 206 208 210 212 214 216 218 220 222 224 226 228 230 232 234 236 238 240 242 244 246 248 250 252 254 
        </DataArray>
        <DataArray type="Int32" Name="types" format="ascii">
          3 3 3 3 3 3 3 3 3 3 3 3 3 3 3 3 3 3 3 3 3 3 3 3 3 3 3 3 3 3 3 3 3 3 3 3 3 3 3 3 3 3 3 3 3 3 3 3 3 3 3 3 3 3 3 3 3 3 3 3 3 3 3 3 3 3 3 3 3 3 3 3 3 3 3 3 3 3 3 3 3 3 3 3 3 3 3 3 3 3 3 3 3 3 3 3 3 3 3 3 3 3 3 3 3 3 3 3 3 3 3 3 3 3 3 3 3 3 3 3 3 3 3 3 3 3 3         </DataArray>
      </Cells>
    </Piece>
  </UnstructuredGrid>
</VTKFile>
