<?xml version="1.0"?>
<VTKFile type="UnstructuredGrid" version="0.1" byte_order="LittleEndian">
  <UnstructuredGrid>
    <Piece NumberOfPoints="128" NumberOfCells="127">
      <PointData Scalars="W">
        <DataArray type="Float32" Name="W" NumberOfComponents="2">
          0 0 0.65169835692798683 -0.163367188413029 1.0044921801544795 -0.25900209646653249 1.2699919891013678 -0.34003290201801439 1.4875106167164469 -0.41627438727777727 1.6730719248569301 -0.49164801693349991 1.8351812058116574 -0.56817804049028897 1.9789188137174771 -0.64703050644009585 2.1075954615758232 -0.72893573352262941 2.223416300140725 -0.81434894339792885 2.3279722051415366 -0.90358155532114226 2.4223539864791239 -0.99681689654686778 2.5073539142951438 -1.0941646423245983 2.5835264865822043 -1.1956701204938651 2.651233790493821 -1.3013184474018566 2.7107158566917513 -1.4110541059657542 2.7621751916052575 -1.5248181905105682 2.8056722960814646 -1.6424880054729103 2.8412418663725298 -1.7639302908532655 2.8688954833665945 -1.8890033889069195 2.8885848480418312 -2.0175311549341988 2.9002095513596737 -2.1492990303971631 2.9036723546069259 -2.2840883385985999 2.8988389162066412 -2.4216448409541185 2.8855667902384914 -2.5616959194442672 2.8637415274479245 -2.703983732423926 2.8331982437613634 -2.8481947789213802 2.7937341418760711 -2.9939552959410336 2.7452077647362438 -3.1409296769776405 2.6876548299675864 -3.2889910341304769 2.6206684395801507 -3.4374758653998154 2.5441056080829769 -3.5859690978657861 2.4578311483430237 -3.7340368471603735 2.3617150967119422 -3.8812195880761586 2.255641922471892 -4.0270430646309103 2.139489293245465 -4.1709746733583533 2.0131300392799312 -4.3124004341128988 1.8765209784465844 -4.4508030794541185 1.7296363234528758 -4.5856594807998903 1.5724257050788126 -4.716310715084175 1.4048824646345934 -4.8420963922975151 1.2270422191608272 -4.9623620925015901 -1.0069628495283258 4.1322350491467796 -1.1188620402656673 4.0090383594678993 -1.2200492714229132 3.8812220634673222 -1.3104208086964924 3.7494892474941102 -1.3989337146479974 3.6369048549517258 -1.4699386283292988 3.5011475784241952 -1.5310269716586069 3.3649163790635419 -1.5822103829216971 3.2282176828180384 -1.6363715545736595 3.1148387822555894 -1.6579362727457965 2.9575954865587826 -1.6825670304988098 2.8247530730654384 7.4712043301610009 -14.098593324734937 -1.6800804628926176 3.5689795490946197 -1.5296428227461625 3.0200514471114253 -1.5744183200435222 2.9151014010094181 -1.6136120313353943 2.8116383921075423 -1.6381990902735322 2.6949547385486476 -1.6662440404351568 2.595284370962486 -1.6896611784489204 2.4977269643633311 -1.7088146447162091 2.4025055711890251 -1.7133955303541963 2.2958405754925395 -1.7245180973287868 2.2063259402342901 -1.7210792552174969 2.1059507825541881 -1.7257305185688516 2.0226745511093762 -1.7279834796357572 1.9423939641611547 -1.7279241860321684 1.864895668060037 -1.7263575302883898 1.790737405468757 -1.723359068648868 1.7196567848247168 -1.7192286865112796 1.6516451623764921 -1.7142550198976614 1.5866792698664416 -1.7087153430532662 1.5247227352176134 -1.702875603933613 1.4657274796278834 -1.6969909778158419 1.4096353045210996 -1.6913060655507728 1.3563789032012794 -1.6860554658581246 1.3058829761510558 -1.6814641379405943 1.2580649700327946 -1.6777482659434504 1.2128360162881051 -1.674829687780433 1.1699049762491993 -1.6734745310443304 1.1295736188220791 -1.6889161909656538 1.1013502506828114 -1.6910113015698913 1.065007198507784 -1.6949416265449018 1.0307282062481082 -1.7008907107177955 0.99839497549000111 -1.708732798794226 0.96771359751597619 -1.7192259186433541 0.9388901799733067 -1.7322521307572738 0.91161483940526922 -1.7479800870308766 0.8857430862756811 -1.7824548171608834 0.86870944881767564 -1.8040383353533282 0.84455210119608826 -1.8291088143577723 0.82144945272075931 -1.8575511103092965 0.79907667025098883 -1.8895388212572053 0.77723902085905405 -1.9249553194190647 0.75561547148327213 -1.9645669038667208 0.73421709808961422 -2.0082602944520276 0.71267648953744345 -2.0724052763848344 0.69601191393896411 -2.1250315230615082 0.67281351416546942 -2.1820316438532688 0.64850724720368391 -2.244193993362197 0.62292681552547369 -2.311445863365567 0.59559955173958812 -2.384010989199854 0.56610829496862425 -2.4621218195587131 0.53399198155457395 -2.5460203033198701 0.49873952678694317 -2.6191650984685828 0.45703425713230189 -2.7152821852559068 0.41446736100958131 -2.8179909675695267 0.36689459407672015 -2.9275819220792951 0.31352384415304485 -3.0443571783275205 0.25346193869196593 -3.1510718476158486 0.18488786524775908 -3.2834854312646358 0.10919190804849592 -3.4056646243507775 0.023486491246006148 -3.5550560298352831 -0.072944369729981876 -3.7133406641795093 -0.18268217485305088 -3.8629918033705288 -0.30602673108856898 -4.0883303940032976 -0.45365614244245561 -1.6706933060501374 -0.22411136828967421 -1.7209620705682944 -0.25452875979951378 -1.7664025548286297 -0.28638737113216706 -1.768158469532388 -0.31235034496009256 -1.6601841401639361 -0.31683475751191387 -1.5895411457112831 -0.32489898824266755 -1.5265478681980418 -0.33202133632396436 -1.1684494966863967 -0.26747391684871824 0.17017881764860776 0.039679150500335388 0.87765074375274987 0.20071966713859399 0 0
        </DataArray>
        <DataArray type="Float32" Name="u" NumberOfComponents="1">
          0 0.007874015748031496 0.015748031496062992 0.023622047244094488 0.031496062992125984 0.03937007874015748 0.047244094488188976 0.055118110236220472 0.062992125984251968 0.070866141732283464 0.07874015748031496 0.086614173228346455 0.094488188976377951 0.10236220472440945 0.11023622047244094 0.11811023622047244 0.12598425196850394 0.13385826771653545 0.14173228346456693 0.14960629921259844 0.15748031496062992 0.16535433070866143 0.17322834645669291 0.18110236220472442 0.1889763779527559 0.19685039370078741 0.20472440944881889 0.2125984251968504 0.22047244094488189 0.2283464566929134 0.23622047244094488 0.24409448818897639 0.25196850393700787 0.25984251968503935 0.26771653543307089 0.27559055118110237 0.28346456692913385 0.29133858267716534 0.29921259842519687 0.30708661417322836 0.31496062992125984 0.32283464566929132 0.33070866141732286 0.33858267716535434 0.34645669291338582 0.3543307086614173 0.36220472440944884 0.37007874015748032 0.37795275590551181 0.38582677165354329 0.39370078740157483 0.40157480314960631 0.40944881889763779 0.41732283464566927 0.42519685039370081 0.43307086614173229 0.44094488188976377 0.44881889763779526 0.45669291338582679 0.46456692913385828 0.47244094488188976 0.48031496062992124 0.48818897637795278 0.49606299212598426 0.50393700787401574 0.51181102362204722 0.51968503937007871 0.52755905511811019 0.53543307086614178 0.54330708661417326 0.55118110236220474 0.55905511811023623 0.56692913385826771 0.57480314960629919 0.58267716535433067 0.59055118110236215 0.59842519685039375 0.60629921259842523 0.61417322834645671 0.62204724409448819 0.62992125984251968 0.63779527559055116 0.64566929133858264 0.65354330708661412 0.66141732283464572 0.6692913385826772 0.67716535433070868 0.68503937007874016 0.69291338582677164 0.70078740157480313 0.70866141732283461 0.71653543307086609 0.72440944881889768 0.73228346456692917 0.74015748031496065 0.74803149606299213 0.75590551181102361 0.76377952755905509 0.77165354330708658 0.77952755905511806 0.78740157480314965 0.79527559055118113 0.80314960629921262 0.8110236220472441 0.81889763779527558 0.82677165354330706 0.83464566929133854 0.84251968503937003 0.85039370078740162 0.8582677165354331 0.86614173228346458 0.87401574803149606 0.88188976377952755 0.88976377952755903 0.89763779527559051 0.90551181102362199 0.91338582677165359 0.92125984251968507 0.92913385826771655 0.93700787401574803 0.94488188976377951 0.952755905511811 0.96062992125984248 0.96850393700787396 0.97637795275590555 0.98425196850393704 0.99212598425196852 1
        </DataArray>
      </PointData>
      <CellData Scalars="P">
        <DataArray type="Float32" Name="P" NumberOfComponents="1">
          -0.011913802166890333 -0.033994707077246999 -0.052601437995805182 -0.066810824748479603 -0.076017485449628303 -0.079798367061914413 -0.077846895241349412 -0.069935889065287332 -0.055893552131959415 -0.03558837032297079 -0.0089169088109488839 0.024203429686173072 0.06384080607946524 0.11005337184004772 0.1628922020725348 0.22240413964917474 0.28863587853330902 0.36163389521546541 0.44144697152127021 0.52812839039638693 0.6217362974720041 0.72233362441410631 0.82998974486634114 0.94478014042766922 1.0667868845639021 1.1961007579228513 1.3328192824503273 1.4770444855125962 1.6288859190828073 1.7884725007113926 1.9559238094251097 2.1313644507790119 2.3149232796548933 2.5067320961031645 2.706924767844741 2.9156338322363728 3.1329857136977619 3.359105370072033 3.594115065378082 3.8381258637172095 4.0912362841535721 4.3535310835778436 4.0957636792213181 3.8301158154033912 3.5589810347429109 3.284622373949114 3.0074812620454172 2.7309822291020547 2.4568303499771518 2.1866127268833702 1.9197979494793815 1.6613568319426977 1.4104616849487988 2.5150860538703812 2.2230113088093972 1.9698929903770224 1.7217625394009695 1.4794127249800253 1.2448005257074268 1.0172747994463505 0.79733681273503354 0.58539785042498904 0.38296935878423582 0.18908606794609151 0.0050606951285400107 -0.17017670051327743 -0.33658028613921259 -0.49413378801475327 -0.64290735548402322 -0.78298781494885794 -0.91449456983170352 -1.0375742897195011 -1.1523958979906475 -1.2591458709731618 -1.3580238770320983 -1.4492387284384669 -1.5330046623989229 -1.6095379349474308 -1.6790537426522816 -1.7417551227614683 -1.7978566542852674 -1.8478793300002283 -1.8916220825870151 -1.9292577602403311 -1.9609459606173261 -1.9868299111825909 -2.0070426038570504 -2.0216982452277787 -2.0308949442565667 -2.0346100224273682 -2.0329614316194777 -2.0259973903048745 -2.0137528732817436 -1.9962486838300386 -1.9734985117991466 -1.9454932566414938 -1.912219023658061 -1.8732184143090065 -1.8288578591034588 -1.779115027295556 -1.7239493542240074 -1.663330569518356 -1.5972337841210906 -1.5256432037999406 -1.4485562162602859 -1.3666303537857201 -1.2792813717126068 -1.1865739259560653 -1.0886069275338481 -0.98552022155763597 -0.87820754410235025 -0.7661973816015657 -0.65053103068108842 -0.53084762633290139 -0.40762077649977713 -0.28210106465163742 -0.15252425373316275 -0.11372167660794569 -0.075971501649267609 -0.040104174485829633 -0.0081398798492690969 0.016412127044705745 0.034485681789453083 0.046130179888020623 0.046589763104038187 0.027662604996169418 0.0068716483778886589
        </DataArray>
      </CellData>
      <Points>
        <DataArray type="Float32" NumberOfComponents="3" format="ascii">
          3.9778048200765967 5.9441626766792002 0
          3.9796993345499194 5.9518058704043817 0
          3.9816342588249607 5.959438932381679 0
          3.9836314685307039 5.9670559316973559 0
          3.9857074264108312 5.9746518432376829 0
          3.9878756199938161 5.9822219389967559 0
          3.9901475551854508 5.9897615448752148 0
          3.9925332836580703 5.9972659151409706 0
          3.9950417178698943 6.0047301601141205 0
          3.9976808363543879 6.0121492008752657 0
          4.0004578204571386 6.0195177410347958 0
          4.0033791529835012 6.0268302474207642 0
          4.0064506858387743 6.0340809387105647 0
          4.0096776891569652 6.0412637786303405 0
          4.0130648856861608 6.0483724731449122 0
          4.0166164732432676 6.0554004713816081 0
          4.0203361396005795 6.0623409690738752 0
          4.0242270750457427 6.0691869122151703 0
          4.0282919761366172 6.0759310046683348 0
          4.032533047856254 6.0825657164300466 0
          4.0369520043347524 6.0890832924159923 0
          4.0415500658583596 6.095475763384381 0
          4.046327952647629 6.1017349592412637 0
          4.051285878832334 6.1078525226010498 0
          4.0564235441259795 6.1138199245519207 0
          4.0617401249979652 6.119628481560655 0
          4.0672342675818705 6.1252693714610222 0
          4.0729040774566529 6.1307336528931051 0
          4.0787471070771764 6.1360122884788746 0
          4.084760347008312 6.1410961656315726 0
          4.0909402281447971 6.145976104423192 0
          4.0972825964868598 6.1506428987243256 0
          4.1037827042798272 6.1550873419397512 0
          4.1104352016372996 6.1593002539100095 0
          4.1172341284882128 6.1632725094024146 0
          4.1241729074187843 6.1669950675149945 0
          4.1312443360926823 6.1704590046977774 0
          4.1384405793711805 6.1736555528192776 0
          4.1457531666407608 6.1765761312359224 0
          4.1531729902190797 6.1792123792244471 0
          4.1606903022365529 6.1815561968335908 0
          4.1682947142279092 6.1835997858262566 0
          4.175975199344693 6.185335690251045 0
          4.1835932339873967 6.1873278021947264 0
          4.1911418808468301 6.1895684816623655 0
          4.1986148668714209 6.1920498023682926 0
          4.2060065896826924 6.194763595333721 0
          4.213311562464586 6.1977028790738133 0
          4.2205253837128636 6.2008592353866074 0
          4.2276442668235568 6.2042242168359332 0
          4.2346650393532448 6.2077893471481627 0
          4.2415843444714643 6.211547596170452 0
          4.2484008459816236 6.2154892140317868 0
          4.2551130178280205 6.2196059640089967 0
          4.2622884074350358 6.2228485874527282 0
          4.2693596274089165 6.2263124889038783 0
          4.2763360025451718 6.2299636327144476 0
          4.2832147574791186 6.2337955117383839 0
          4.2899934629032943 6.237801711106016 0
          4.2966705950419213 6.2419749962936599 0
          4.3032444157891936 6.2463091877281443 0
          4.3097134739387419 6.250798236907249 0
          4.3160765826050627 6.2554362402246646 0
          4.3223334583470603 6.2602165846038913 0
          4.3284834121548892 6.2651337203837594 0
          4.3345266577843153 6.2701814245908238 0
          4.3404629074007426 6.2753545344606732 0
          4.3462920218317933 6.280648073005823 0
          4.3520140052326264 6.2860572357849041 0
          4.357628955182502 6.2915774254798453 0
          4.3631370580004889 6.2972042356249984 0
          4.3685385701528769 6.3029334500690242 0
          4.3738338003580752 6.3087610415303566 0
          4.3790230923959257 6.3146831693405083 0
          4.3841068086191912 6.320696176461837 0
          4.3890853141328705 6.3267965858781583 0
          4.3939589616290036 6.3329810964209035 0
          4.3987280768414578 6.3392465780999849 0
          4.4033929445981812 6.3455900669851424 0
          4.4079537954172983 6.3520087596959778 0
          4.4124108103543751 6.3584999953536796 0
          4.4167640734977853 6.3650612742869441 0
          4.4210126273820691 6.3716908474123297 0
          4.4251563420981537 6.3783864623702096 0
          4.4291949739159486 6.3851459948028548 0
          4.4331281539020768 6.391967441020781 0
          4.4369553957164998 6.3988488997847712 0
          4.4406760486062389 6.4057885850794403 0
          4.4442893047161682 6.412784806904428 0
          4.4477941886280865 6.4198359623171912 0
          4.4511885624000138 6.4269409961585469 0
          4.4544710874396767 6.4340984118316751 0
          4.4576402088886082 6.4413067781651421 0
          4.4606941627567132 6.4485647092776883 0
          4.4636309651509851 6.455870852505317 0
          4.4664484195007237 6.4632238685024035 0
          4.4691440690299196 6.4706224319188443 0
          4.471715203772777 6.4780652086244954 0
          4.4741578454314244 6.485551166535811 0
          4.476468729927455 6.4930788687823151 0
          4.4786443218480931 6.500646809842757 0
          4.4806807655439505 6.5082534052192145 0
          4.4825738896223912 6.5158969621315164 0
          4.484319193055847 6.5235756536460094 0
          4.4859118307479893 6.5312874900803228 0
          4.4873465985088501 6.5390302873043975 0
          4.4886189588269527 6.5468014615152788 0
          4.4897229493501687 6.5545983750628576 0
          4.4906521986931178 6.5624180798722858 0
          4.4913999083937712 6.5702572683055847 0
          4.4919588341450467 6.5781122177515368 0
          4.4923223551884615 6.5859786782147234 0
          4.492482256657496 6.5938519574311378 0
          4.4924309579290655 6.6017267428830229 0
          4.4921591903376035 6.609597056169056 0
          4.4916571331908584 6.6174560934314091 0
          4.4909155006159533 6.6252962073257153 0
          4.489920312473739 6.6331082417349316 0
          4.4888214878726824 6.6409065324219672 0
          4.4876159001017131 6.6486892087627201 0
          4.4863007202857279 6.6564543125255105 0
          4.4848758270259834 6.664200255073105 0
          4.4833479027289416 6.6719267881957904 0
          4.4817213126295101 6.6796334440522402 0
          4.4799999452415191 6.6873198177710718 0
          4.47820599272546 6.6949899753258721 0
          4.4764224794017187 6.702663114276711 0
          4.4746932872117426 6.7103493607832885 0
        </DataArray>
      </Points>
      <Cells>
        <DataArray type="Int32" Name="connectivity" format="ascii">
          0 1 1 2 2 3 3 4 4 5 5 6 6 7 7 8 8 9 9 10 10 11 11 12 12 13 13 14 14 15 15 16 16 17 17 18 18 19 19 20 20 21 21 22 22 23 23 24 24 25 25 26 26 27 27 28 28 29 29 30 30 31 31 32 32 33 33 34 34 35 35 36 36 37 37 38 38 39 39 40 40 41 41 42 42 43 43 44 44 45 45 46 46 47 47 48 48 49 49 50 50 51 51 52 52 53 53 54 54 55 55 56 56 57 57 58 58 59 59 60 60 61 61 62 62 63 63 64 64 65 65 66 66 67 67 68 68 69 69 70 70 71 71 72 72 73 73 74 74 75 75 76 76 77 77 78 78 79 79 80 80 81 81 82 82 83 83 84 84 85 85 86 86 87 87 88 88 89 89 90 90 91 91 92 92 93 93 94 94 95 95 96 96 97 97 98 98 99 99 100 100 101 101 102 102 103 103 104 104 105 105 106 106 107 107 108 108 109 109 110 110 111 111 112 112 113 113 114 114 115 115 116 116 117 117 118 118 119 119 120 120 121 121 122 122 123 123 124 124 125 125 126 126 127 
        </DataArray>
        <DataArray type="Int32" Name="offsets" format="ascii">
          2 4 6 8 10 12 14 16 18 20 22 24 26 28 30 32 34 36 38 40 42 44 46 48 50 52 54 56 58 60 62 64 66 68 70 72 74 76 78 80 82 84 86 88 90 92 94 96 98 100 102 104 106 108 110 112 114 116 118 120 122 124 126 128 130 132 134 136 138 140 142 144 146 148 150 152 154 156 158 160 162 164 166 168 170 172 174 176 178 180 182 184 186 188 190 192 194 196 198 200 202 204 206 208 210 212 214 216 218 220 222 224 226 228 230 232 234 236 238 240 242 244 246 248 250 252 254 
        </DataArray>
        <DataArray type="Int32" Name="types" format="ascii">
          3 3 3 3 3 3 3 3 3 3 3 3 3 3 3 3 3 3 3 3 3 3 3 3 3 3 3 3 3 3 3 3 3 3 3 3 3 3 3 3 3 3 3 3 3 3 3 3 3 3 3 3 3 3 3 3 3 3 3 3 3 3 3 3 3 3 3 3 3 3 3 3 3 3 3 3 3 3 3 3 3 3 3 3 3 3 3 3 3 3 3 3 3 3 3 3 3 3 3 3 3 3 3 3 3 3 3 3 3 3 3 3 3 3 3 3 3 3 3 3 3 3 3 3 3 3 3         </DataArray>
      </Cells>
    </Piece>
  </UnstructuredGrid>
</VTKFile>
