<?xml version="1.0"?>
<VTKFile type="UnstructuredGrid" version="0.1" byte_order="LittleEndian">
  <UnstructuredGrid>
    <Piece NumberOfPoints="128" NumberOfCells="127">
      <PointData Scalars="W">
        <DataArray type="Float32" Name="W" NumberOfComponents="2">
          0 0 0.34696958993109744 -0.063086223772043939 0.47486824487624224 -0.087955851576764804 0.55849421883402073 -0.10583838690461762 0.61584479830495198 -0.119713197060192 0.65453433436217501 -0.13070056214166911 0.67893979600101795 -0.13936017441990906 0.69187860760352116 -0.14599569606842647 0.69533832064225298 -0.15078737442948159 0.69072302779613004 -0.15383247726566207 0.67913807531429471 -0.15519855031727259 0.66142981053841221 -0.15492701200962727 0.63826999664167416 -0.15304747230037383 0.61014721208262812 -0.14957139211884149 0.57743929624426871 -0.14450556462269232 0.54046642505255638 -0.13786317446211313 0.4995714677447442 -0.12968373880441272 0.45496588567751939 -0.11999294014579696 0.40685072419057056 -0.1088321025475634 0.35542522796593512 -0.096260492321081415 0.30085190331850492 -0.082345635941242765 0.24324216169512042 -0.067158583380304226 0.18270830678944169 -0.050787659704665429 0.11936609071789336 -0.033339146588410015 0.053263741513180161 -0.014917179777886912 -0.015469454712120388 0.0043349929993552689 -0.086778812561444388 0.024278838529638091 -0.16068457038451717 0.044780870135916528 -0.23713691078208374 0.065672014327775016 -0.31576900591864826 0.086680974829230206 -0.39686596349521763 0.10770257011443948 -0.48037873728281183 0.12852353384647622 -0.56629383072159856 0.14892575251224072 -0.6545544551267154 0.16866564251722763 -0.74512398807401792 0.18749190849367281 -0.83795157276564236 0.20513720509619768 -0.93308079563875856 0.22134476145184806 -1.0303972666608414 0.23580748201096216 -1.1297571549959906 0.24820416833589004 -1.2311563647939034 0.25823726963206239 -1.3345532223213965 0.26559078861999991 -1.4398474903692209 0.26992887510341401 -11.46416793033521 1.5453615352356165 -11.66835900203802 0.49542649422298596 -11.77956007713277 -0.58967763015357411 -11.785524322142136 -1.7013778803865394 -11.686747452958112 -2.8306424230764371 -11.472378325432214 -3.9655672092657364 -11.144776911173341 -5.0961881159470179 -10.695531061071105 -6.2073931291505806 -10.126810296919837 -7.286537340490562 -9.441942443423315 -8.321897607499622 -8.638175594528521 -9.2946020202599833 -7.720888218447465 -10.188596002443099 4.1013494582620647 5.6762880784543732 4.3477140579257902 5.3711194563147648 4.5631640702002905 5.0529639648007976 4.7483420473378395 4.7265189536459813 4.9030099613149325 4.3947079823554276 5.0277890132508336 4.0608233275357462 5.1236069390828565 3.7278656758404045 3.8041680779242042 2.5255000184303453 3.6760477725030238 2.2593596525282855 3.5186468739733265 2.0060460293034539 3.3406302074473002 1.7703771320258384 3.2685072286138603 1.6115902184152402 3.1877256555793627 1.4616765596921084 3.0993621464788501 1.3208236615494457 2.9371913905116025 1.1634469516941914 2.8355835367503675 1.0441074844549079 2.7269791045888412 0.93272983068023374 2.6174659368790532 0.83095752430113035 2.5052670790759572 0.7375397987490987 2.3191225106123103 0.63325299249076861 2.2031741338103372 0.55821117193494429 2.0868035031642171 0.49027591764463085 1.967970302672726 0.42849044916935947 1.8524626740831629 0.37361498607211358 1.6623577494494617 0.31095019309662075 1.5494231944725689 0.26926639025630927 1.4386530466817244 0.23237138485358669 1.3304245021194105 0.19985302786225917 1.2225141175972365 0.17096485394353614 1.1203939081225032 0.14606410889202223 0.94267813606348549 0.11505455137210222 0.84778287231581551 0.097369948424310029 0.75701053581019695 0.082071794028239692 0.66811929848919738 0.068622987341664457 0.58636354038493133 0.057285999836704765 0.50949396449062856 0.047547713793995069 0.35567170934996511 0.031965702738475585 0.28685690150711757 0.025046813474791818 0.22610457627287275 0.019280503542276024 0.17124809966148635 0.014331981060855169 0.12254681071158365 0.010112886228198266 -0.007015233144127558 -0.00057569216062555565 -0.04259311858146566 -0.0035037287990199203 -0.071173558637157158 -0.0058869736296378412 -0.09245305050567254 -0.0077072393563550265 -0.19619804802149629 -0.016581152445366298 -0.20187635243268082 -0.017380894544442166 -0.19923349256723916 -0.017471559823606337 -0.18791793047087357 -0.016769064772510143 -0.25821790829802016 -0.023501476282358227 -0.23034222640575258 -0.02141311592893768 -0.19022909073214536 -0.01800328176199743 -0.23335844975153272 -0.022479585435821788 -0.1715081038999513 -0.016798781529334027 -0.097818440126300574 -0.0096863122976951817 -0.10859246263002482 -0.010842764718941947 -0.0068584375684631544 -0.00068796757000459587 0.10699338657859987 0.010689647381164884 0.13582358479037659 0.013438254710345987 0.28382039471171711 0.027605118228153185 0.3437098309481067 0.032568967832027888 0.52939799235126661 0.048320326199467467 0.6269589824470887 0.054335973559855519 1.2139461489819461 0.096315935457556776 1.3829482098146422 0.09546305430324635 1.7080892577907796 0.096988298124554714 1.9410780001492236 0.082214179271455246 2.3596749352456561 0.059899007517673609 2.7155299309053045 0.0146193878570543 2.3469706334120413 -0.034173822067997704 3.5994255730492593 -0.13682312005516201 4.0771562868787132 -0.27882562118431159 4.3909737504896436 -0.44840581363966459 0 0
        </DataArray>
        <DataArray type="Float32" Name="u" NumberOfComponents="1">
          0 0.007874015748031496 0.015748031496062992 0.023622047244094488 0.031496062992125984 0.03937007874015748 0.047244094488188976 0.055118110236220472 0.062992125984251968 0.070866141732283464 0.07874015748031496 0.086614173228346455 0.094488188976377951 0.10236220472440945 0.11023622047244094 0.11811023622047244 0.12598425196850394 0.13385826771653545 0.14173228346456693 0.14960629921259844 0.15748031496062992 0.16535433070866143 0.17322834645669291 0.18110236220472442 0.1889763779527559 0.19685039370078741 0.20472440944881889 0.2125984251968504 0.22047244094488189 0.2283464566929134 0.23622047244094488 0.24409448818897639 0.25196850393700787 0.25984251968503935 0.26771653543307089 0.27559055118110237 0.28346456692913385 0.29133858267716534 0.29921259842519687 0.30708661417322836 0.31496062992125984 0.32283464566929132 0.33070866141732286 0.33858267716535434 0.34645669291338582 0.3543307086614173 0.36220472440944884 0.37007874015748032 0.37795275590551181 0.38582677165354329 0.39370078740157483 0.40157480314960631 0.40944881889763779 0.41732283464566927 0.42519685039370081 0.43307086614173229 0.44094488188976377 0.44881889763779526 0.45669291338582679 0.46456692913385828 0.47244094488188976 0.48031496062992124 0.48818897637795278 0.49606299212598426 0.50393700787401574 0.51181102362204722 0.51968503937007871 0.52755905511811019 0.53543307086614178 0.54330708661417326 0.55118110236220474 0.55905511811023623 0.56692913385826771 0.57480314960629919 0.58267716535433067 0.59055118110236215 0.59842519685039375 0.60629921259842523 0.61417322834645671 0.62204724409448819 0.62992125984251968 0.63779527559055116 0.64566929133858264 0.65354330708661412 0.66141732283464572 0.6692913385826772 0.67716535433070868 0.68503937007874016 0.69291338582677164 0.70078740157480313 0.70866141732283461 0.71653543307086609 0.72440944881889768 0.73228346456692917 0.74015748031496065 0.74803149606299213 0.75590551181102361 0.76377952755905509 0.77165354330708658 0.77952755905511806 0.78740157480314965 0.79527559055118113 0.80314960629921262 0.8110236220472441 0.81889763779527558 0.82677165354330706 0.83464566929133854 0.84251968503937003 0.85039370078740162 0.8582677165354331 0.86614173228346458 0.87401574803149606 0.88188976377952755 0.88976377952755903 0.89763779527559051 0.90551181102362199 0.91338582677165359 0.92125984251968507 0.92913385826771655 0.93700787401574803 0.94488188976377951 0.952755905511811 0.96062992125984248 0.96850393700787396 0.97637795275590555 0.98425196850393704 0.99212598425196852 1
        </DataArray>
      </PointData>
      <CellData Scalars="P">
        <DataArray type="Float32" Name="P" NumberOfComponents="1">
          -0.0098030748489495879 -0.029058454528689596 -0.047843787043732287 -0.066245699575354228 -0.084433561143925043 -0.10261498017519144 -0.12100954246260909 -0.13983169180292032 -0.15927874900213085 -0.17952230270300695 -0.20070180022574607 -0.22291983780063002 -0.24623867711738451 -0.27067736387142827 -0.29620948160619737 -0.32276169680392514 -0.35021384678629019 -0.37839785766889245 -0.40709815195880505 -0.43605282501482129 -0.46495464347955356 -0.49345176864626006 -0.52114980481395057 -0.54761441451972059 -0.57237191398047615 -0.59491493527142991 -0.61470322732595417 -0.63116359673856592 -0.64369586633680786 -0.65169277912459189 -0.65451265326064867 -0.65149839633461126 -0.6419796058757733 -0.62527922550426396 -0.60071672557733713 -0.56761340394346582 -0.52529004217650266 -0.47308215987771918 -0.410347437360008 -0.33645975431000913 -0.25081598244744047 -0.15284493195210264 0.82427887382034226 1.838194901313458 2.8851499449366513 3.9598032288978007 5.0563148935515958 6.1671400415505842 7.2842211531020844 8.3977747652402019 9.4972717128250466 10.571500103748098 11.607745547155369 12.592601423807359 12.024355215049823 11.399601358609926 10.725987681720543 10.011158289562736 9.2628251454017914 8.4885868670564903 7.6958351217859011 7.1097667106730729 6.5436744884165616 6.0035888831308677 5.493838775501608 4.9987338606592742 4.5205267983968618 4.0611219503561156 3.6322067443307535 3.2248751423674618 2.8403945391402248 2.4789834642527002 2.1409859078815647 1.8363141994562557 1.5548332967577163 1.2961941484071677 1.060202649263621 0.84584515402288496 0.66112328166422074 0.49596899689181301 0.34934316582777014 0.22013220041726489 0.10741492350345114 0.0097150888032498557 -0.067336932242730671 -0.1322885995739865 -0.18639728011998741 -0.2307258583332075 -0.26667482883942684 -0.29541198370388472 -0.31361306663053357 -0.32711928168880866 -0.33703938932850136 -0.3442670473094957 -0.34960386050793485 -0.35143898263134399 -0.35316104411329485 -0.35524665519224152 -0.35805521811118252 -0.36130924332976411 -0.36609093906663231 -0.37237853148222866 -0.38002731508784143 -0.38991781451370011 -0.40093732824436551 -0.41254442851404577 -0.42638123476171114 -0.43979703364699968 -0.45197824503309086 -0.46524149362182032 -0.475629798181955 -0.48224525217620395 -0.48799560416176224 -0.48811675558578799 -0.48599217932923122 -0.47661055338134983 -0.46374126752502848 -0.42853820198401815 -0.38870141820437437 -0.33981923886857518 -0.28725822068552231 -0.22761982291188837 -0.16664177163494562 -0.11008890414661537 -0.056737825247961497 -0.015887901649932614 0.0037781358274013746
        </DataArray>
      </CellData>
      <Points>
        <DataArray type="Float32" NumberOfComponents="3" format="ascii">
          3.8609721352655213 8.2886151291698287 0
          3.8623701083930677 8.2963650063672798 0
          3.8637895953407053 8.304110952472028 0
          3.8652385256298332 8.3118514152988716 0
          3.8667220835650524 8.3195852790765681 0
          3.8682438241586241 8.3273116784597452 0
          3.8698061452873147 8.3350299285331424 0
          3.871410559123539 8.3427394898112297 0
          3.8730578668667937 8.350439949216991 0
          3.8747482820161316 8.3581310087670353 0
          3.8764815174610101 8.3658124794334352 0
          3.8782568540442708 8.3734842768683606 0
          3.8800731930613237 8.3811464187623468 0
          3.8819290979298202 8.3887990229445482 0
          3.8838228244966175 8.3964423066157501 0
          3.8857523444744602 8.4040765858767124 0
          3.8877153652995635 8.4117022748650729 0
          3.889709351392705 8.4193198832637535 0
          3.8917315372689796 8.4269300146709671 0
          3.8937789399986151 8.4345333640037694 0
          3.8958483715531793 8.4421307137922597 0
          3.8979364488711745 8.4497229299645582 0
          3.9000396007531881 8.4573109574160004 0
          3.9021540748102126 8.4648958145097861 0
          3.9042759446238255 8.4724785864666181 0
          3.9064011127181382 8.4800604188895772 0
          3.9085253185559852 8.4876425088659655 0
          3.9106441419086275 8.4952260963632451 0
          3.9127530015792646 8.5028124559394289 0
          3.9148471584693398 8.5104028862484338 0
          3.9169217382990715 8.5179986932087601 0
          3.9189717139076925 8.5256011834721885 0
          3.9209919082712905 8.5332116511919409 0
          3.922976995316743 8.5408313644907174 0
          3.9249215034202138 8.5484615503498755 0
          3.9268198176559679 8.5561033790204526 0
          3.9286661829285938 8.5637579474388872 0
          3.9304547012506621 8.5714262632979903 0
          3.9321793388163875 8.5791092259971347 0
          3.9338339349022982 8.5868076067172385 0
          3.9354122021057907 8.5945220299610714 0
          3.9369077289154428 8.6022529539488506 0
          3.9383139859145513 8.6100006497817905 0
          3.939009416327993 8.6178442039526235 0
          3.9389813485127707 8.625718518140598 0
          3.9382228757789295 8.6335563113865703 0
          3.9367336160783539 8.6412886515772627 0
          3.9345196816372519 8.6488455151866948 0
          3.9315943521625765 8.6561565254398349 0
          3.9279779289562504 8.6631515699758381 0
          3.9236982568976 8.6697617380821885 0
          3.9187905903490217 8.6759201048003121 0
          3.9132973872705645 8.681562457943846 0
          3.9072684801292774 8.6866284687083812 0
          3.9007607426702426 8.6910626874808887 0
          3.8945073077079142 8.6958489373272663 0
          3.8885234583127684 8.7009682987343346 0
          3.8828225608451361 8.7064010459646592 0
          3.8774161046315747 8.7121269383581872 0
          3.8723136870878756 8.7181254016154028 0
          3.8675230521149144 8.7243757319813469 0
          3.8630501475156018 8.7308572823640134 0
          3.8588131802544376 8.7374954366885778 0
          3.8548042055720861 8.7442736829929721 0
          3.8510134623074381 8.7511763046189373 0
          3.8474299102156171 8.7581886793921111 0
          3.8440490736903752 8.76530095738784 0
          3.8408659401115997 8.7725038393320194 0
          3.8378750266610866 8.7797885882297937 0
          3.8350662743053321 8.7871454407834531 0
          3.8324333788857965 8.7945669949830414 0
          3.8299696025163512 8.8020463428701348 0
          3.8276681510793455 8.8095771725915846 0
          3.8255220640894398 8.8171536907437247 0
          3.8235197964230676 8.8247694285363476 0
          3.8216541554427077 8.8324197329227498 0
          3.8199179225693918 8.8401003918727827 0
          3.818303726790075 8.8478075749714407 0
          3.8168044035411666 8.8555378806572307 0
          3.8154081633488235 8.8632874232963026 0
          3.8141080016943469 8.8710536201009038 0
          3.8128970485207963 8.8788341855070652 0
          3.8117685916094537 8.8866271056062605 0
          3.8107159387114167 8.894430591816727 0
          3.8097327568023336 8.9022431030977813 0
          3.8088080261082498 8.9100627191176027 0
          3.8079358619661519 8.9178883470121573 0
          3.8071106355085527 8.9257190421343431 0
          3.8063268346467414 8.9335539747336696 0
          3.8055793898189383 8.9413924462587051 0
          3.8048635345101669 8.9492338575169939 0
          3.8041697312105485 8.9570772472149702 0
          3.8034937129133386 8.9649221917158712 0
          3.8028317125115985 8.9727683390780335 0
          3.8021803284470228 8.9806153882878714 0
          3.8015365407720161 8.9884630837763915 0
          3.8008923159897283 8.9963107698420401 0
          3.8002454476538507 9.0041582717117539 0
          3.7995941631019821 9.0120054485965984 0
          3.7989371422736968 9.0198521948134101 0
          3.7982679517310407 9.0276979690232153 0
          3.7975862384356622 9.0355427295542228 0
          3.7968921652280514 9.0433864788857949 0
          3.7961864326572257 9.0512292688598279 0
          3.7954646801756522 9.0590706927464204 0
          3.7947286349299518 9.066910889108355 0
          3.7939807829643617 9.0747500785853443 0
          3.7932184479656939 9.0825879959375317 0
          3.7924454639467218 9.0904250034189129 0
          3.7916663994188902 9.0982615522873793 0
          3.7908805844186566 9.1060975849582952 0
          3.7900943272650922 9.113933742218876 0
          3.7893146885308595 9.121770741093659 0
          3.7885434553763622 9.1296087683431146 0
          3.7877898077678416 9.1374487151235808 0
          3.7870574606917216 9.1452909075781452 0
          3.7863579347088518 9.1531363366634793 0
          3.7856972841362682 9.1609853961304442 0
          3.7851119341882558 9.1688406851933966 0
          3.7846123778144052 9.1767021709513408 0
          3.7842188002887673 9.184569961315006 0
          3.7839456719760154 9.1924431614240163 0
          3.7838189873516193 9.200320399105971 0
          3.7838608527475119 9.2081988836164097 0
          3.7840483675905645 9.21607426844397 0
          3.7844592724081787 9.2239414779586415 0
          3.7851232458326338 9.2317917087461154 0
          3.7860598016537486 9.2396144569779377 0
        </DataArray>
      </Points>
      <Cells>
        <DataArray type="Int32" Name="connectivity" format="ascii">
          0 1 1 2 2 3 3 4 4 5 5 6 6 7 7 8 8 9 9 10 10 11 11 12 12 13 13 14 14 15 15 16 16 17 17 18 18 19 19 20 20 21 21 22 22 23 23 24 24 25 25 26 26 27 27 28 28 29 29 30 30 31 31 32 32 33 33 34 34 35 35 36 36 37 37 38 38 39 39 40 40 41 41 42 42 43 43 44 44 45 45 46 46 47 47 48 48 49 49 50 50 51 51 52 52 53 53 54 54 55 55 56 56 57 57 58 58 59 59 60 60 61 61 62 62 63 63 64 64 65 65 66 66 67 67 68 68 69 69 70 70 71 71 72 72 73 73 74 74 75 75 76 76 77 77 78 78 79 79 80 80 81 81 82 82 83 83 84 84 85 85 86 86 87 87 88 88 89 89 90 90 91 91 92 92 93 93 94 94 95 95 96 96 97 97 98 98 99 99 100 100 101 101 102 102 103 103 104 104 105 105 106 106 107 107 108 108 109 109 110 110 111 111 112 112 113 113 114 114 115 115 116 116 117 117 118 118 119 119 120 120 121 121 122 122 123 123 124 124 125 125 126 126 127 
        </DataArray>
        <DataArray type="Int32" Name="offsets" format="ascii">
          2 4 6 8 10 12 14 16 18 20 22 24 26 28 30 32 34 36 38 40 42 44 46 48 50 52 54 56 58 60 62 64 66 68 70 72 74 76 78 80 82 84 86 88 90 92 94 96 98 100 102 104 106 108 110 112 114 116 118 120 122 124 126 128 130 132 134 136 138 140 142 144 146 148 150 152 154 156 158 160 162 164 166 168 170 172 174 176 178 180 182 184 186 188 190 192 194 196 198 200 202 204 206 208 210 212 214 216 218 220 222 224 226 228 230 232 234 236 238 240 242 244 246 248 250 252 254 
        </DataArray>
        <DataArray type="Int32" Name="types" format="ascii">
          3 3 3 3 3 3 3 3 3 3 3 3 3 3 3 3 3 3 3 3 3 3 3 3 3 3 3 3 3 3 3 3 3 3 3 3 3 3 3 3 3 3 3 3 3 3 3 3 3 3 3 3 3 3 3 3 3 3 3 3 3 3 3 3 3 3 3 3 3 3 3 3 3 3 3 3 3 3 3 3 3 3 3 3 3 3 3 3 3 3 3 3 3 3 3 3 3 3 3 3 3 3 3 3 3 3 3 3 3 3 3 3 3 3 3 3 3 3 3 3 3 3 3 3 3 3 3         </DataArray>
      </Cells>
    </Piece>
  </UnstructuredGrid>
</VTKFile>
