<?xml version="1.0"?>
<VTKFile type="UnstructuredGrid" version="0.1" byte_order="LittleEndian">
  <UnstructuredGrid>
    <Piece NumberOfPoints="128" NumberOfCells="127">
      <PointData Scalars="W">
        <DataArray type="Float32" Name="W" NumberOfComponents="2">
          0 0 -0.11451895526592877 -0.0031210287993540115 -0.25290412353752789 -0.0072587693365933677 -0.3695484433796028 -0.011513510485364677 -0.47579359732574783 -0.016409740332926043 -0.57612794647642296 -0.022261029058097879 -0.67258724464086828 -0.029303169495046674 -0.76627156101419014 -0.03773972030247285 -0.85781684531147939 -0.047756173535401777 -0.94767993598045319 -0.059531075894204172 -1.0361073599513178 -0.07323249946569331 -1.1232951924609025 -0.089025743085457479 -1.2093968955813827 -0.1070744748268776 -1.2945301237884939 -0.12754162922367737 -1.3788002872129796 -0.15059219651280595 -1.4622770256313591 -0.1763915647497927 -1.5449159872442555 -0.2050941465330712 -1.6267339513439887 -0.23686294086255488 -1.7076963101881399 -0.27185680710048427 -1.7877061762098139 -0.31022565557813941 -1.8666654566259566 -0.3521179636247373 -1.9444767073678086 -0.39768182844306182 -2.0210112855929006 -0.44705866508731107 -2.0961105269503104 -0.50038130717316476 -2.1696208785527569 -0.55778097909684132 -2.2412961136221985 -0.6193607373071266 -2.310935088299177 -0.68522738603581346 -2.3783826083549782 -0.75549763566493766 -2.4433677689187019 -0.83024844977460566 -2.5053011367647695 -0.90942637415981142 -2.5642417433273028 -0.99318681579657642 -2.6198731314507731 -1.0815541139044056 -2.6718691900072375 -1.1745321365099106 -2.719880130824142 -1.2720956719911745 -2.7635602080676449 -1.374200003253218 -2.8025323039546968 -1.4807615282751661 -2.8365118540913592 -1.5917221960062271 -2.8650648494838853 -1.7069188633090138 -2.8877357611707417 -1.8261334721991587 -2.904192081193675 -1.9491834754979875 -2.9140760404093724 -2.075838188684195 -2.916998342447866 -2.205804427130857 -10.376076648332837 -9.0277983895597149 -9.384212660234871 -10.151501661131931 3.0710518900260784 3.5712647715539303 4.0554402187101086 4.3344857501501579 4.1995789237891943 4.0900860558448535 4.3266824573253491 3.8434504651932926 4.4372563964540417 3.5959133021263705 4.5317798991783045 3.3486060754310705 4.6108614673315316 3.102613146412819 3.864010807598723 2.3825897725090766 3.8795349226172315 2.2063449471975276 3.8578225468163994 2.0201012880933038 3.8788943880047544 1.8655232496362897 3.8706878084297474 1.7039335539645992 3.8566799741431295 1.547892651885713 3.8363409078208197 1.3970493862222415 3.7783567307788282 1.2416355949807745 3.6801946918708235 1.0851428507575012 3.60853857699886 0.94812700408180495 3.5305623140334097 0.81913075212935149 3.4087652931747705 0.69103978442090097 3.3210779237539843 0.5805035160736487 3.1390465508308441 0.4656812540898802 3.0878186340399445 0.38026608779054899 3.0370125988603922 0.29940836091832929 2.9847792872210315 0.22268634641082349 2.884369608799001 0.14813800540708982 2.8322319270570868 0.081553873926689099 2.7806225349203184 0.018584173583720706 2.7297691924016267 -0.040986132439329477 2.6301553296563323 -0.095053521626834017 2.5826745305294021 -0.14651942386920697 2.5354672492569139 -0.19528013971644156 2.4898195591637693 -0.24159027164567576 2.4458652170483686 -0.2856749289424193 2.3528348255299241 -0.32033434028761576 2.3130276628263116 -0.35876632571265965 2.2753610744758443 -0.39571046576142327 2.2399446667719962 -0.43139579673979261 2.2068797325603913 -0.46605291236679186 2.1762614893190735 -0.49991471870548548 2.0966100277541422 -0.51995000209416498 2.0716049561410985 -0.55117052110320242 2.0493212256783897 -0.58233743901590362 2.0298288569389462 -0.6136929211778428 2.0131919910775666 -0.64548465281286438 1.9994704454165235 -0.67796743737414977 1.9887171877411602 -0.71140367758829248 1.9296057545591674 -0.72623944584490341 1.9255840117659893 -0.7607130813936801 1.9246914134575199 -0.79698667162500059 1.9269580301747415 -0.83536353148487641 1.9324056220184098 -0.8761631596181062 1.9410455306490755 -0.91972302153682317 1.9528616682082125 -0.96639302578832997 1.9165082664591784 -0.98948077331094098 1.9356197453073305 -1.0417623116762531 1.9578992734358005 -1.0983475818315445 1.9832862401628102 -1.159697577923593 2.0116931670797422 -1.2263075740632094 2.0430022024222962 -1.2987112782154093 2.0282926821260037 -1.3444658562493579 2.066205217092334 -1.428265747464412 2.1074608728112874 -1.5203407990949034 2.1499172405378233 -1.6201074816711523 2.1466995629454928 -1.6907538122700523 2.1939839279604483 -1.8074146236156075 2.2422360300535522 -1.9348466819128811 2.2454791325142525 -2.0319735440571249 2.2957662449939642 -2.181658761801601 2.344931947639505 -2.3451567277513266 2.3485750835042509 -2.4766908142960884 2.394775760090579 -2.6690094912197271 2.3942680064526556 -2.8276972192196994 2.4331945190498048 -3.0547517684858398 2.4220976962656673 -3.2443142697264036 2.4051578234190059 -3.4500828386573152 -1.5315167592289292 2.2248720975141913 -1.7241249950575852 2.3891461048997304 -1.4707872876775354 1.9495593003909404 -1.3356366802352206 1.7051669791517168 -1.2277828150982564 1.5161923071033037 -0.78998262714249556 0.95090242358911303 0.29821080043373832 -0.35674701032513551 3.8340017672825355 -4.8381214811977893 0 0
        </DataArray>
        <DataArray type="Float32" Name="u" NumberOfComponents="1">
          0 0.007874015748031496 0.015748031496062992 0.023622047244094488 0.031496062992125984 0.03937007874015748 0.047244094488188976 0.055118110236220472 0.062992125984251968 0.070866141732283464 0.07874015748031496 0.086614173228346455 0.094488188976377951 0.10236220472440945 0.11023622047244094 0.11811023622047244 0.12598425196850394 0.13385826771653545 0.14173228346456693 0.14960629921259844 0.15748031496062992 0.16535433070866143 0.17322834645669291 0.18110236220472442 0.1889763779527559 0.19685039370078741 0.20472440944881889 0.2125984251968504 0.22047244094488189 0.2283464566929134 0.23622047244094488 0.24409448818897639 0.25196850393700787 0.25984251968503935 0.26771653543307089 0.27559055118110237 0.28346456692913385 0.29133858267716534 0.29921259842519687 0.30708661417322836 0.31496062992125984 0.32283464566929132 0.33070866141732286 0.33858267716535434 0.34645669291338582 0.3543307086614173 0.36220472440944884 0.37007874015748032 0.37795275590551181 0.38582677165354329 0.39370078740157483 0.40157480314960631 0.40944881889763779 0.41732283464566927 0.42519685039370081 0.43307086614173229 0.44094488188976377 0.44881889763779526 0.45669291338582679 0.46456692913385828 0.47244094488188976 0.48031496062992124 0.48818897637795278 0.49606299212598426 0.50393700787401574 0.51181102362204722 0.51968503937007871 0.52755905511811019 0.53543307086614178 0.54330708661417326 0.55118110236220474 0.55905511811023623 0.56692913385826771 0.57480314960629919 0.58267716535433067 0.59055118110236215 0.59842519685039375 0.60629921259842523 0.61417322834645671 0.62204724409448819 0.62992125984251968 0.63779527559055116 0.64566929133858264 0.65354330708661412 0.66141732283464572 0.6692913385826772 0.67716535433070868 0.68503937007874016 0.69291338582677164 0.70078740157480313 0.70866141732283461 0.71653543307086609 0.72440944881889768 0.73228346456692917 0.74015748031496065 0.74803149606299213 0.75590551181102361 0.76377952755905509 0.77165354330708658 0.77952755905511806 0.78740157480314965 0.79527559055118113 0.80314960629921262 0.8110236220472441 0.81889763779527558 0.82677165354330706 0.83464566929133854 0.84251968503937003 0.85039370078740162 0.8582677165354331 0.86614173228346458 0.87401574803149606 0.88188976377952755 0.88976377952755903 0.89763779527559051 0.90551181102362199 0.91338582677165359 0.92125984251968507 0.92913385826771655 0.93700787401574803 0.94488188976377951 0.952755905511811 0.96062992125984248 0.96850393700787396 0.97637795275590555 0.98425196850393704 0.99212598425196852 1
        </DataArray>
      </PointData>
      <CellData Scalars="P">
        <DataArray type="Float32" Name="P" NumberOfComponents="1">
          0.0005960427906431231 0.0018822535359718736 0.0035278202444078144 0.0057823340743648121 0.0089091144758925035 0.013191258116589343 0.018931671697093387 0.026451971329181919 0.036090639060918715 0.048201674719136306 0.063151844540857288 0.081318888617248702 0.10308964501242816 0.1288581071446144 0.15902381152709616 0.19398971881775953 0.23415788071502472 0.27992886145236745 0.33169857899818683 0.38985435682495234 0.4547724895482369 0.52681597975980576 0.60633116835660228 0.69364418506626713 0.78905871260870664 0.89284947564658135 1.0052614167500438 1.1265095927550415 1.2567712541980658 1.3961655818332754 1.5447852533850723 1.7026747616157907 1.8698271537647737 2.0461799348536598 2.2316127072751297 2.4259426053185407 2.6289282974333097 2.8402575634792786 3.0595429304098114 3.2863283595324195 3.5200856780142544 3.7602103305624834 4.6372740642693957 5.475011396711901 5.1615971052890526 4.7995520557957461 4.4293603293435844 4.0528740311622142 3.6718882060105082 3.2881427780686785 2.903310451218815 2.5883055097913985 2.276495765689083 1.9712638011349057 1.6692746642379819 1.3732007009515772 1.0837167720758356 0.80151159904502667 0.52961928790364865 0.27105730275654066 0.023776113323514085 -0.21180324015796903 -0.43271760927362579 -0.64150966642497942 -0.83215482142520136 -1.0134651805854626 -1.185455114010407 -1.3480409143397909 -1.4985124198884878 -1.6397660611238811 -1.7718778401235424 -1.8949453413367692 -2.0067396880915376 -2.1099333981553414 -2.2046189922848902 -2.2909515406748544 -2.3690919373790882 -2.4374808668866463 -2.4981792053420295 -2.5513537334918452 -2.5971683134291537 -2.6357817770379772 -2.6673459865635123 -2.6911661145317658 -2.7083953927489981 -2.7191528593220182 -2.7235443234359806 -2.7216610937679486 -2.7135788958092677 -2.6993569749013941 -2.6793351183672791 -2.6534221579957049 -2.6216204007204644 -2.5839146723703923 -2.5402727899036677 -2.4906464517786593 -2.4349729783424534 -2.3746079194103222 -2.3081930969394659 -2.2356255955559607 -2.15679883049209 -2.0716073529184915 -1.979952638757005 -1.8839434601720901 -1.781432622317265 -1.6723285237427665 -1.5566714861503153 -1.4370884720657715 -1.3111852689782624 -1.1791549648827198 -1.0439920473357387 -0.90344037118247267 -0.75807130435398551 -0.61134202347228284 -0.46147630037630494 -0.31231519824251042 -0.16260642144809681 -0.016736553117010659 0.12335137506369741 0.066603353644034233 0.011134422386568043 -0.023961338754266773 -0.04633640825818796 -0.058782161401425961 -0.057143547444716059 -0.039332866357355174 -0.0054243415647604945
        </DataArray>
      </CellData>
      <Points>
        <DataArray type="Float32" NumberOfComponents="3" format="ascii">
          3.9843078801738021 7.3974272930155411 0
          3.984096912697106 7.4052986219517631 0
          3.9838788449051665 7.4131697528872653 0
          3.9836450966964323 7.4210404269422883 0
          3.9833884359728762 7.4289103788410999 0
          3.9831022754394305 7.4367793040694412 0
          3.9827803943172682 7.4446468392883673 0
          3.9824168121208259 7.4525125476295697 0
          3.9820057204473791 7.4603759060155745 0
          3.9815414435417922 7.4682362936140585 0
          3.9810184099658716 7.4760929807312033 0
          3.9804311373070522 7.4839451183600785 0
          3.9797742200151376 7.4917917279049897 0
          3.9790423198813181 7.4996316910100482 0
          3.9782301587376936 7.5074637394357682 0
          3.9773325119164991 7.5152864448103811 0
          3.9763442039277721 7.5230982083584479 0
          3.975260111205269 7.5308972513117443 0
          3.9740751610629927 7.538681604789466 0
          3.9727843338385389 7.5464490999367033 0
          3.971382668898614 7.5541973586193061 0
          3.9698652707200606 7.5619237842091129 0
          3.968227314931422 7.5696255523942186 0
          3.9664640562895386 7.5772996024049633 0
          3.9645708385181178 7.5849426287733888 0
          3.962543103829943 7.5925510731937926 0
          3.9603764081953292 7.6001211181310016 0
          3.9580664338157887 7.6076486801975181 0
          3.9556089987490464 7.6151294029176197 0
          3.9530000737082576 7.6225586519568367 0
          3.9502358186100741 7.6299315184383252 0
          3.9473125789176584 7.6372428093106457 0
          3.9442269052638523 7.6444870458424852 0
          3.9409755736725822 7.6516584633872098 0
          3.9375556072478592 7.6587510129507912 0
          3.9339642976116851 7.6657583639693954 0
          3.930199228286499 7.6726739094980099 0
          3.9262582923387037 7.6794907698149011 0
          3.922139719287232 7.6862018025416843 0
          3.9178421033457642 7.6927996161678864 0
          3.9133644240369838 7.6992765813734039 0
          3.9087060683724539 7.705624845334988 0
          3.903866854986668 7.7118363499071254 0
          3.8983843143918815 7.7174881262134942 0
          3.8923199421377808 7.7225105030352879 0
          3.8864457987416574 7.7277544673301906 0
          3.8808231072339621 7.7332671948897769 0
          3.8754608055119459 7.7390335324416846 0
          3.8703667752042508 7.7450381880779373 0
          3.8655478730288388 7.7512658139954373 0
          3.8610099605148562 7.757701076655934 0
          3.8567579417429916 7.7643287240209826 0
          3.8527455175586813 7.7711040956832509 0
          3.8489736493604569 7.7780162634077934 0
          3.8454409900064048 7.7850536785585831 0
          3.8421488447415326 7.7922067569754505 0
          3.8390967037017552 7.7994654794133913 0
          3.8362836973807313 7.8068201707652642 0
          3.833708563780815 7.8142614782541306 0
          3.831367706981204 7.8217797651990804 0
          3.8292550400245404 7.8293653274747657 0
          3.8273661192443345 7.83700966919631 0
          3.8256961091161887 7.8447047917292689 0
          3.8242374571853976 7.8524427519586357 0
          3.8229847257802101 7.8602166958838584 0
          3.8219266277638888 7.8680195023851365 0
          3.8210599859474668 7.875845875809893 0
          3.8203816493716323 7.8836908030967887 0
          3.8198883786499929 7.8915495275910059 0
          3.8195739474075858 7.8994174267478288 0
          3.8194351222679011 7.9072903725141019 0
          3.8194687026626695 7.9151644609330658 0
          3.819671534948323 7.9230359988111392 0
          3.8200374422340593 7.9309016335467719 0
          3.8205634800420665 7.938758174483282 0
          3.8212467208925784 7.946602598674561 0
          3.8220843340402921 7.9544320351153681 0
          3.8230735937649718 7.9622437507866488 0
          3.8242087315180293 7.9700355965662117 0
          3.8254872787670853 7.9778051899797795 0
          3.8269068997339595 7.9855502408169281 0
          3.8284653981903665 7.9932685369347523 0
          3.8301607237388291 8.0009579299652138 0
          3.8319909777175774 8.0086163208793142 0
          3.8339512213259752 8.0162424676124271 0
          3.8360399040173339 8.0238344350353241 0
          3.8382556440218836 8.0313902913872024 0
          3.8405972326923696 8.0389080932660288 0
          3.8430636384859085 8.0463858702764561 0
          3.845654010678595 8.0538216092361434 0
          3.8483676826562969 8.0612132379105343 0
          3.8512009896447639 8.0685598372905467 0
          3.8541536825917593 8.0758592710383628 0
          3.8572257065590927 8.0831092912908939 0
          3.8604172025978656 8.0903075198550205 0
          3.8637285091095768 8.0974514283982018 0
          3.8671601625624388 8.1045383175236516 0
          3.8707128965082753 8.1115652950723156 0
          3.8743844582726967 8.1185309313059335 0
          3.8781760341415046 8.1254319863662285 0
          3.8820890070343066 8.1322649536068727 0
          3.8861249527662873 8.1390260309970675 0
          3.8902856346453079 8.1457110903958441 0
          3.8945729961868194 8.152315644438934 0
          3.8989861283500207 8.1588368585866533 0
          3.9035273847803804 8.1652695389109464 0
          3.9081993267452839 8.171607978292144 0
          3.9130045903400426 8.1778459925748965 0
          3.9179429807341632 8.1839792037710737 0
          3.9230174343025692 8.1900003798985086 0
          3.9282309478697686 8.1959016207820934 0
          3.9335837287836344 8.2016769058889594 0
          3.9390789011201766 8.2073169544337858 0
          3.9447195199045679 8.2128116285368922 0
          3.9505058190474247 8.2181527727348023 0
          3.9564406708144233 8.2233284605439696 0
          3.9625240529382229 8.2283288511585084 0
          3.9687583875613108 8.2331398619790068 0
          3.9751429968276724 8.2377497353836553 0
          3.9816768410125687 8.2421457073777713 0
          3.988115459931949 8.2466794783228945 0
          3.9944469745280817 8.2513612585751694 0
          4.0006871388217782 8.2561638069017675 0
          4.0068443804687988 8.2610719952690737 0
          4.0129254324872887 8.2660741364257344 0
          4.0189574815805269 8.2711352141821131 0
          4.025008047560334 8.2761741966289097 0
          4.0312963102069856 8.2809132020940215 0
        </DataArray>
      </Points>
      <Cells>
        <DataArray type="Int32" Name="connectivity" format="ascii">
          0 1 1 2 2 3 3 4 4 5 5 6 6 7 7 8 8 9 9 10 10 11 11 12 12 13 13 14 14 15 15 16 16 17 17 18 18 19 19 20 20 21 21 22 22 23 23 24 24 25 25 26 26 27 27 28 28 29 29 30 30 31 31 32 32 33 33 34 34 35 35 36 36 37 37 38 38 39 39 40 40 41 41 42 42 43 43 44 44 45 45 46 46 47 47 48 48 49 49 50 50 51 51 52 52 53 53 54 54 55 55 56 56 57 57 58 58 59 59 60 60 61 61 62 62 63 63 64 64 65 65 66 66 67 67 68 68 69 69 70 70 71 71 72 72 73 73 74 74 75 75 76 76 77 77 78 78 79 79 80 80 81 81 82 82 83 83 84 84 85 85 86 86 87 87 88 88 89 89 90 90 91 91 92 92 93 93 94 94 95 95 96 96 97 97 98 98 99 99 100 100 101 101 102 102 103 103 104 104 105 105 106 106 107 107 108 108 109 109 110 110 111 111 112 112 113 113 114 114 115 115 116 116 117 117 118 118 119 119 120 120 121 121 122 122 123 123 124 124 125 125 126 126 127 
        </DataArray>
        <DataArray type="Int32" Name="offsets" format="ascii">
          2 4 6 8 10 12 14 16 18 20 22 24 26 28 30 32 34 36 38 40 42 44 46 48 50 52 54 56 58 60 62 64 66 68 70 72 74 76 78 80 82 84 86 88 90 92 94 96 98 100 102 104 106 108 110 112 114 116 118 120 122 124 126 128 130 132 134 136 138 140 142 144 146 148 150 152 154 156 158 160 162 164 166 168 170 172 174 176 178 180 182 184 186 188 190 192 194 196 198 200 202 204 206 208 210 212 214 216 218 220 222 224 226 228 230 232 234 236 238 240 242 244 246 248 250 252 254 
        </DataArray>
        <DataArray type="Int32" Name="types" format="ascii">
          3 3 3 3 3 3 3 3 3 3 3 3 3 3 3 3 3 3 3 3 3 3 3 3 3 3 3 3 3 3 3 3 3 3 3 3 3 3 3 3 3 3 3 3 3 3 3 3 3 3 3 3 3 3 3 3 3 3 3 3 3 3 3 3 3 3 3 3 3 3 3 3 3 3 3 3 3 3 3 3 3 3 3 3 3 3 3 3 3 3 3 3 3 3 3 3 3 3 3 3 3 3 3 3 3 3 3 3 3 3 3 3 3 3 3 3 3 3 3 3 3 3 3 3 3 3 3         </DataArray>
      </Cells>
    </Piece>
  </UnstructuredGrid>
</VTKFile>
