<?xml version="1.0"?>
<VTKFile type="UnstructuredGrid" version="0.1" byte_order="LittleEndian">
  <UnstructuredGrid>
    <Piece NumberOfPoints="128" NumberOfCells="127">
      <PointData Scalars="W">
        <DataArray type="Float32" Name="W" NumberOfComponents="2">
          0 0 -0.11644514271629106 0.51220162351774023 -0.19549455420292713 0.83870723231856192 -0.26256954403613703 1.0880268738170649 -0.32605675585637139 1.2960263270271766 -0.38940062970924361 1.4772046825495082 -0.45435008552057421 1.6387966594804371 -0.52190415768710952 1.7848943276744187 -0.59267308646248162 1.9180178615215502 -0.66707199380413484 2.0399088418430238 -0.74535335444739159 2.1517082658983293 -0.8276678069858342 2.2542075055082123 -0.91409412138284163 2.3479696116378861 -1.0046784162093614 2.4334497264238029 -1.0994449079533062 2.5110200338242645 -1.1983808265308615 2.5809376717973804 -1.3014113676771029 2.6433105129453573 -1.4084632852417216 2.6982479569276641 -1.5194451970962133 2.7458144163126583 -1.6342103105521255 2.7859714488307636 -1.7526115356943859 2.8186892647215922 -1.874496121843767 2.8439309954999228 -1.9996766711347589 2.861609473361642 -2.127932760966917 2.8716013556719604 -2.2590632452857471 2.8738212947454911 -2.3927752863923035 2.8680786192156766 -2.5287983326681949 2.8542360822117745 -2.6668954886476617 2.8322057125413815 -2.8067661812284306 2.8018372522617652 -2.9478089677608108 2.7627230930841069 -3.0898953987217959 2.7149555384395088 -3.2326379251342012 2.6583744697480749 -3.3756376429927379 2.5928370541543835 -3.5184528832984094 2.51819489562696 -3.6606347398378221 2.4343253791260628 -3.8016936440461162 2.3411094824659044 -3.9411996075172668 2.2384939401855859 -4.0785706275272959 2.1263652308787009 -4.2132018300281278 2.0046467346489902 -4.3446091265991145 1.8733593330921701 -4.4722550480648398 1.7325225179940078 -4.5955590713121337 1.5821696794130138 3.4277150192668473 -1.1613957120804503 3.9172926514675392 -1.4628532523115498 4.3996586487090044 -1.821944252699953 4.2537061574894715 -1.9497285781519302 4.1078666646084949 -2.0676489164743233 3.9637163419934143 -2.1768643424237206 3.8128666100946753 -2.2726516313691438 3.6657314878520402 -2.3607634872503769 3.5182315925399776 -2.4389743132478765 3.3710216786894263 -2.5076237670565429 3.2246792984726427 -2.5670715509843411 3.0797136471858706 -2.6176913646467512 2.9365665962147651 -2.6598600394765337 2.8063367199186167 -2.7046012253425991 2.2123537270613371 -2.2539868937986465 1.6710095742595787 -1.7792665852747691 2.0108426049640151 -2.235307191091759 1.9062863501947693 -2.2213240887893932 2.2213170583631392 -2.7253639401665675 2.0982076876913993 -2.723286435372394 1.9790159791003665 -2.7159500841336617 1.8593110562854442 -2.6969952839153892 1.7495711713034614 -2.6816749618239064 1.6436134410986114 -2.6619565431695649 1.5471777872567385 -2.6481577300549954 1.4547981591940373 -2.6326365526922584 1.366172434291135 -2.6153635338870851 1.277315704799016 -2.5885225588468095 1.1970087479436908 -2.5700959779047361 1.1201276467204311 -2.5510625040505754 1.0432359025650677 -2.5234520527094575 0.97354645249851812 -2.5049202154627541 0.90716545145773286 -2.4876522638582146 0.8435330197259715 -2.4709362319736119 0.78263982272029631 -2.4554941631183587 0.72160267617155438 -2.4321927985862226 0.66592363781739483 -2.4198384964161148 0.61246606246244506 -2.4099174529211558 0.5607210273561094 -2.4015256790711783 0.5084943562578218 -2.3849298238985153 0.46029296149193644 -2.3816190575229159 0.41312564043162642 -2.3802272579876664 0.36687992358353122 -2.3814504542282688 0.32138544385465001 -2.3860056855408889 0.27621231588347622 -2.3927554667501942 0.23025547537440469 -2.3914723404561986 0.18560591436438426 -2.4047271846579008 0.14051629709405622 -2.4204124634168283 0.094770478304254224 -2.4392214796946914 0.048080713698901871 -2.4618431676006622 0.00010312164018546545 -2.4870477018934425 -0.049452012254818191 -2.5155054412982523 -0.1003909629944388 -2.5365602864303858 -0.15369401654212467 -2.5716107553694236 -0.20962761427910795 -2.609948821712857 -0.2686678259163196 -2.6523029493966566 -0.33110763720944586 -2.6972330831009237 -0.39744385041905295 -2.7453999150615744 -0.46828283640062884 -2.797460935272734 -0.54391001690510243 -2.8518828806720764 -0.62514512614416196 -2.910055028733245 -0.70940005002642814 -2.9589512322416414 -0.80263503799305702 -3.0220756785721328 -0.90344033329932105 -3.088491700000191 -1.0121393470247597 -3.1564421338699979 -1.1299970532298953 -3.2271228727598489 -1.2573959186173951 -3.2987055242404253 -1.3910367849981178 -3.3611136189597417 -1.5403050405700243 -3.4349195688434548 -1.7028635587845691 -3.5097171728999634 -1.8796674926559687 -3.5840300179274704 -2.0652650270603821 -3.6454019042229917 -2.2741241669190342 -3.7166386402225902 -2.5019269582842338 -3.7845891470780164 -2.7429347959270962 -3.8375519475794873 -3.014916311450532 -3.8964283194705756 -3.3041938194391478 -3.9374245724897756 -3.6318671277448185 -3.9804783521939462 -3.9856500221782776 -4.0040197301077169 -1.7990874841078752 -1.6953388598879375 -1.7620231749023585 -1.5979878583907423 -1.4886682932174458 -1.3042340678381206 -1.0565380425743627 -0.90115820760126997 -0.03540109208020531 -0.029850917694409618 0.63476122612259533 0.53861500527218487 0 0
        </DataArray>
        <DataArray type="Float32" Name="u" NumberOfComponents="1">
          0 0.007874015748031496 0.015748031496062992 0.023622047244094488 0.031496062992125984 0.03937007874015748 0.047244094488188976 0.055118110236220472 0.062992125984251968 0.070866141732283464 0.07874015748031496 0.086614173228346455 0.094488188976377951 0.10236220472440945 0.11023622047244094 0.11811023622047244 0.12598425196850394 0.13385826771653545 0.14173228346456693 0.14960629921259844 0.15748031496062992 0.16535433070866143 0.17322834645669291 0.18110236220472442 0.1889763779527559 0.19685039370078741 0.20472440944881889 0.2125984251968504 0.22047244094488189 0.2283464566929134 0.23622047244094488 0.24409448818897639 0.25196850393700787 0.25984251968503935 0.26771653543307089 0.27559055118110237 0.28346456692913385 0.29133858267716534 0.29921259842519687 0.30708661417322836 0.31496062992125984 0.32283464566929132 0.33070866141732286 0.33858267716535434 0.34645669291338582 0.3543307086614173 0.36220472440944884 0.37007874015748032 0.37795275590551181 0.38582677165354329 0.39370078740157483 0.40157480314960631 0.40944881889763779 0.41732283464566927 0.42519685039370081 0.43307086614173229 0.44094488188976377 0.44881889763779526 0.45669291338582679 0.46456692913385828 0.47244094488188976 0.48031496062992124 0.48818897637795278 0.49606299212598426 0.50393700787401574 0.51181102362204722 0.51968503937007871 0.52755905511811019 0.53543307086614178 0.54330708661417326 0.55118110236220474 0.55905511811023623 0.56692913385826771 0.57480314960629919 0.58267716535433067 0.59055118110236215 0.59842519685039375 0.60629921259842523 0.61417322834645671 0.62204724409448819 0.62992125984251968 0.63779527559055116 0.64566929133858264 0.65354330708661412 0.66141732283464572 0.6692913385826772 0.67716535433070868 0.68503937007874016 0.69291338582677164 0.70078740157480313 0.70866141732283461 0.71653543307086609 0.72440944881889768 0.73228346456692917 0.74015748031496065 0.74803149606299213 0.75590551181102361 0.76377952755905509 0.77165354330708658 0.77952755905511806 0.78740157480314965 0.79527559055118113 0.80314960629921262 0.8110236220472441 0.81889763779527558 0.82677165354330706 0.83464566929133854 0.84251968503937003 0.85039370078740162 0.8582677165354331 0.86614173228346458 0.87401574803149606 0.88188976377952755 0.88976377952755903 0.89763779527559051 0.90551181102362199 0.91338582677165359 0.92125984251968507 0.92913385826771655 0.93700787401574803 0.94488188976377951 0.952755905511811 0.96062992125984248 0.96850393700787396 0.97637795275590555 0.98425196850393704 0.99212598425196852 1
        </DataArray>
      </PointData>
      <CellData Scalars="P">
        <DataArray type="Float32" Name="P" NumberOfComponents="1">
          -0.0064654779455466157 -0.018131022580107684 -0.027007250526023294 -0.032204925010582183 -0.033080568928785789 -0.029131254483737296 -0.019949793836562778 -0.0052007782375768745 0.015394260408533133 0.042068748928493431 0.075017512941919121 0.1144021162141045 0.16035513597017992 0.2129849574136867 0.27237988927955942 0.33861027570902225 0.41172825856236933 0.49177113458617133 0.57876300392011926 0.67271378460806075 0.7736216483953019 0.881474924363989 0.99625210434528055 1.117922034965162 1.2464473729465901 1.3817813050677521 1.5238714879488664 1.6726645275912424 1.8281047200348242 1.9901197465484788 2.1586515110859854 2.3336437901573928 2.5150450157816713 2.7028094874502337 2.8969007872355004 3.0972935142233871 3.3039805762291405 3.5169691650178385 3.7362841178000012 3.9619787994063569 4.1941365347878659 4.4328727202970493 4.2091953835045048 3.9409385649738882 3.6639686427902358 3.3805144095879012 3.0923089722596599 2.8008155538067432 2.5080109150108263 2.214952001465103 1.9228790974372716 1.6328600335958579 1.3457947961100778 1.0624211838295983 0.78332198556318089 0.50782341278803211 0.23729337658840491 0.019148621858580031 -0.24075132494802981 -0.49407183840424468 -0.74045730618798333 -0.97837617289918122 -1.207019402195701 -1.4251653378728257 -1.632986952609695 -1.8300453448094436 -2.0167322927685882 -2.1928782796947557 -2.3583648396314381 -2.5126563224608609 -2.6563740330080434 -2.7895839723048179 -2.9119992498066161 -3.0242435429251495 -3.1265289466706929 -3.2190441868579804 -3.3020120112663096 -3.3753932496796217 -3.4397292088356908 -3.4952626624586891 -3.542206156912306 -3.5806311506724926 -3.6109422763102472 -3.633327315091031 -3.6479691059468711 -3.6550362692499805 -3.6546792088487119 -3.6470983341448364 -3.632387592112027 -3.6106566355379606 -3.5819974041211911 -3.5464773565278804 -3.5041715247428931 -3.4551353587996361 -3.3996801670251533 -3.3376119915472335 -3.2689658005786173 -3.1937519448154355 -3.1120247226613738 -3.0238231684883075 -2.9291684289769355 -2.8281464144459858 -2.7208045283134896 -2.6077428721171594 -2.4886349237686911 -2.3636066774683711 -2.23288935258467 -2.0966967819986775 -1.9553643779785252 -1.8097450779034412 -1.659796343504985 -1.5060025938019892 -1.3489801140227333 -1.1900023771158781 -1.0293569838803074 -0.86802429634348388 -0.70761100922200115 -0.54888499418019365 -0.39377758312979694 -0.24349303809820652 -0.10027733555268983 -0.051103063697492665 -0.01143771759133432 0.013314378232635392 0.022941268534815873 0.014601505648104415 0.0028881962505401893
        </DataArray>
      </CellData>
      <Points>
        <DataArray type="Float32" NumberOfComponents="3" format="ascii">
          4.2147930418182744 9.82523041159717 0
          4.222474892648969 9.8269601223016867 0
          4.2301495224137238 9.8287215906396082 0
          4.237812029552062 9.8305350607566684 0
          4.2454582551435136 9.8324159910828932 0
          4.2530842628105905 9.8343772780910612 0
          4.2606861251099604 9.8364301552738933 0
          4.2682598150699551 9.8385846417135117 0
          4.2758011442319539 9.8408497957989436 0
          4.2833057248030073 9.8432338714818428 0
          4.2907689439093897 9.8457444262569727 0
          4.2981859479368003 9.8483883919043915 0
          4.3055516331862353 9.8511721235533614 0
          4.3128606409871626 9.8541014345891629 0
          4.3201073548363098 9.8571816248687085 0
          4.3272858988955454 9.8604175037920356 0
          4.3343901387841495 9.8638134062402347 0
          4.3414136862185631 9.867373199258278 0
          4.3483499035568336 9.8711002888324337 0
          4.3551919094689806 9.8749976238784978 0
          4.3619325880444428 9.8790676938531625 0
          4.3685645979196304 9.8833125269025963 0
          4.3750803817581287 9.8877336875732134 0
          4.3814721778808678 9.8923322714053068 0
          4.3877320339456123 9.8971088972857952 0
          4.3938518194328537 9.9020637021592961 0
          4.3998232438182203 9.9071963292120859 0
          4.4056378733641868 9.9125059193722613 0
          4.4112871458257494 9.9179911058694685 0
          4.4167623891043455 9.923650004937782 0
          4.4220548585554678 9.9294801905681407 0
          4.42715574496843 9.9354787002622267 0
          4.4320561986080698 9.9416420251423681 0
          4.4367473539565383 9.9479661011400449 0
          4.4412203571011801 9.954446299846424 0
          4.4454663935641028 9.9610774209681274 0
          4.4494767186440676 9.9678536850120043 0
          4.4532426840537775 9.9747687300523058 0
          4.4567557739696078 9.9818156047659823 0
          4.4600076424850279 9.9889867637582483 0
          4.4629901435592325 9.9962740689331415 0
          4.4656953642579396 10.003668790774885 0
          4.4681156606450152 10.011161610484395 0
          4.4707484899727508 10.018582461157028 0
          4.4736242684711591 10.025912793194779 0
          4.4767728233779325 10.033130115231961 0
          4.4801851018583001 10.040226509182441 0
          4.4838520591662387 10.047194669302419 0
          4.4877647564666052 10.054027830206303 0
          4.4919138407627957 10.060720059503877 0
          4.4962901906996455 10.067265901093235 0
          4.5008846636541628 10.073660512966956 0
          4.5056881363527559 10.079899646011738 0
          4.5106915406719406 10.085979621555106 0
          4.5158858951658187 10.091897308035056 0
          4.5212623323788872 10.097650097467715 0
          4.5268127867462482 10.103235221704853 0
          4.5325003616793529 10.10868055139384 0
          4.5382915827181023 10.114015605465067 0
          4.5442076207193818 10.119212190478402 0
          4.5502421028761999 10.124271246599116 0
          4.5564142483714178 10.129161245223477 0
          4.5627164279542534 10.133882328449246 0
          4.5691412560838094 10.138434963157446 0
          4.5756813158094234 10.142820335215465 0
          4.5823298085070334 10.14703940391848 0
          4.5890801701439967 10.15109339997332 0
          4.5959264271206255 10.154983185916951 0
          4.6028628571015693 10.158709729950479 0
          4.609883970190559 10.162274107869406 0
          4.6169842617593204 10.16567798775659 0
          4.6241587569463602 10.168922515231705 0
          4.6314026928713625 10.17200887284277 0
          4.6387113055621167 10.174938774309103 0
          4.6460802772102188 10.177713369979482 0
          4.6535054947362564 10.180333731414612 0
          4.6609830151032563 10.182800895602794 0
          4.6685090647688217 10.185115820257822 0
          4.6760798610024263 10.187279950152011 0
          4.6836919529813992 10.189294051142349 0
          4.6913420273714825 10.191158738074822 0
          4.6990268768120727 10.192874530866657 0
          4.7067432639879847 10.194442458026103 0
          4.7144882009338174 10.195862724290961 0
          4.722258763679072 10.197135415371953 0
          4.730052085294397 10.198260454809503 0
          4.7378653453429704 10.19923755952402 0
          4.7456957432579632 10.200066310349296 0
          4.7535404299686732 10.200746786169196 0
          4.7613966372992067 10.201278164452027 0
          4.7692615697755265 10.201659471956768 0
          4.7771323912255736 10.201889541743835 0
          4.7850062069362256 10.20196697045575 0
          4.7928800423544233 10.201890194565788 0
          4.8007508251190618 10.20165744880816 0
          4.8086153972441563 10.201267426877903 0
          4.8164704540095666 10.200717954652543 0
          4.8243125275990923 10.200006654117024 0
          4.8321379575675421 10.199130898189562 0
          4.8399428726951461 10.198087900000489 0
          4.8477231601678614 10.196874671918664 0
          4.855474427960571 10.195487984777094 0
          4.8631919871596097 10.193924462928711 0
          4.8708708010989463 10.192180498099091 0
          4.8785056460902503 10.190253057004393 0
          4.886090741373426 10.188138224053979 0
          4.8936198367233983 10.185831879432694 0
          4.9010861924144073 10.183329808034427 0
          4.908482500735496 10.180627625305608 0
          4.9158008622893163 10.177720890593214 0
          4.9230329907749315 10.174605731845237 0
          4.9301696305115943 10.171277570142802 0
          4.9372007015493766 10.167731764869389 0
          4.9441152404271689 10.163963705237229 0
          4.9509017385012335 10.15996958248866 0
          4.957547244144866 10.155744976040438 0
          4.9640376307455965 10.151285668807715 0
          4.97035795278632 10.146588372590223 0
          4.9764913433045077 10.141649432395061 0
          4.9824198625785963 10.136466301457819 0
          4.9881231889327493 10.131036305429204 0
          4.9935793810323599 10.125357979575115 0
          4.9989241096933066 10.119574405069898 0
          5.0041596856910289 10.113691591750687 0
          5.0093030844633217 10.107727716988851 0
          5.0143811410119623 10.101707726409506 0
          5.019457262291521 10.095685575043195 0
          5.0245731003046084 10.089696439888847 0
        </DataArray>
      </Points>
      <Cells>
        <DataArray type="Int32" Name="connectivity" format="ascii">
          0 1 1 2 2 3 3 4 4 5 5 6 6 7 7 8 8 9 9 10 10 11 11 12 12 13 13 14 14 15 15 16 16 17 17 18 18 19 19 20 20 21 21 22 22 23 23 24 24 25 25 26 26 27 27 28 28 29 29 30 30 31 31 32 32 33 33 34 34 35 35 36 36 37 37 38 38 39 39 40 40 41 41 42 42 43 43 44 44 45 45 46 46 47 47 48 48 49 49 50 50 51 51 52 52 53 53 54 54 55 55 56 56 57 57 58 58 59 59 60 60 61 61 62 62 63 63 64 64 65 65 66 66 67 67 68 68 69 69 70 70 71 71 72 72 73 73 74 74 75 75 76 76 77 77 78 78 79 79 80 80 81 81 82 82 83 83 84 84 85 85 86 86 87 87 88 88 89 89 90 90 91 91 92 92 93 93 94 94 95 95 96 96 97 97 98 98 99 99 100 100 101 101 102 102 103 103 104 104 105 105 106 106 107 107 108 108 109 109 110 110 111 111 112 112 113 113 114 114 115 115 116 116 117 117 118 118 119 119 120 120 121 121 122 122 123 123 124 124 125 125 126 126 127 
        </DataArray>
        <DataArray type="Int32" Name="offsets" format="ascii">
          2 4 6 8 10 12 14 16 18 20 22 24 26 28 30 32 34 36 38 40 42 44 46 48 50 52 54 56 58 60 62 64 66 68 70 72 74 76 78 80 82 84 86 88 90 92 94 96 98 100 102 104 106 108 110 112 114 116 118 120 122 124 126 128 130 132 134 136 138 140 142 144 146 148 150 152 154 156 158 160 162 164 166 168 170 172 174 176 178 180 182 184 186 188 190 192 194 196 198 200 202 204 206 208 210 212 214 216 218 220 222 224 226 228 230 232 234 236 238 240 242 244 246 248 250 252 254 
        </DataArray>
        <DataArray type="Int32" Name="types" format="ascii">
          3 3 3 3 3 3 3 3 3 3 3 3 3 3 3 3 3 3 3 3 3 3 3 3 3 3 3 3 3 3 3 3 3 3 3 3 3 3 3 3 3 3 3 3 3 3 3 3 3 3 3 3 3 3 3 3 3 3 3 3 3 3 3 3 3 3 3 3 3 3 3 3 3 3 3 3 3 3 3 3 3 3 3 3 3 3 3 3 3 3 3 3 3 3 3 3 3 3 3 3 3 3 3 3 3 3 3 3 3 3 3 3 3 3 3 3 3 3 3 3 3 3 3 3 3 3 3         </DataArray>
      </Cells>
    </Piece>
  </UnstructuredGrid>
</VTKFile>
