<?xml version="1.0"?>
<VTKFile type="UnstructuredGrid" version="0.1" byte_order="LittleEndian">
  <UnstructuredGrid>
    <Piece NumberOfPoints="128" NumberOfCells="127">
      <PointData Scalars="W">
        <DataArray type="Float32" Name="W" NumberOfComponents="2">
          0 0 0.58239146241774919 -0.48815425308254284 0.86817966198307817 -0.73882577951568196 1.0800336961606913 -0.93812639673466736 1.2489433836684509 -1.1119000565326598 1.3876791708686602 -1.27065926394263 1.5031386554032893 -1.4199768250181077 1.5995613845925745 -1.563204507326643 1.6797641308187281 -1.7025198093056246 1.7456318507903339 -1.839323123297016 1.7985484520205701 -1.9746146203291415 1.8395155001151486 -2.1090849267003864 1.8692541119327453 -2.2431929693499391 1.8882580616389615 -2.3771939893059026 1.8968555160672351 -2.5111805599165793 1.8952848822003954 -2.6451540581365482 1.8837612575799858 -2.7791075502367257 1.8623943092986828 -2.9129023997938015 1.8312568059747905 -3.0463445404307321 1.7904184447488294 -3.1792333019561476 1.7399082161846711 -3.3112934929855236 1.679732334549628 -3.4421866678800352 1.6099050957600864 -3.5715586894064026 1.5304573155814261 -3.6990612456723349 1.4413972974999656 -3.8242554772900039 1.342777755062164 -3.9467668007540162 1.2346390905701252 -4.0661450206348251 1.1170135490811077 -4.1818238463735247 0.98998583195683831 -4.2932965852988971 0.85372993732808888 -4.4004103787154518 0.70828443043711597 -4.5023215428064338 0.55380615166645986 -4.5985024094433893 0.39047681644537025 -4.6883896032875336 0.21851249435195794 -4.771457772669403 0.038155708550454782 -4.8471437559719392 -0.15031853763506445 -4.9149026446857524 -0.34659625641675829 -4.9740947492458485 -0.55033211710818064 -5.0242284632379786 -0.76116136422267877 -5.0648317425713598 -0.97866313423117568 -5.0952628700018909 -1.2023779468931257 -5.1149562626070928 -1.4318125436787292 -5.1233876991921052 1.1520887187749298 4.0543348233154441 0.99341511339639998 3.9888170398154612 0.84628168066325238 3.9305854277914301 0.70934953704791759 3.8827744240895745 0.57574630084477219 3.809788198051137 0.45193249048998047 3.7496605597868116 0.3329498853652717 3.6654219666101979 0.22292442567798768 3.5961905629764601 0.11888893353847423 3.5033839152452151 0.022850413587140368 3.4070417872163454 -0.065989614846866024 3.3293107060982621 -0.14749166217257575 3.2284694149919089 -0.22140283590983292 3.1257255253521197 -0.30932417514318922 3.2194638398022191 -0.38351781379157035 3.1534002591727504 -0.45332730675412036 3.0868258979424961 -0.51321377771093091 2.9890431531995811 -0.57019996736927925 2.90764286877749 -0.62245014990394865 2.8271720262597486 -0.67021408581630448 2.7477490295317861 -0.70944090574163843 2.654095973658265 -0.74856643234487696 2.5781558991916733 -0.7789741278330663 2.4880910581293652 -0.81064522632178493 2.4161251073370944 -0.83939415129218076 2.3463533904783938 -0.86557780891262937 2.2790757953173215 -0.88934493184805086 2.2140340134772964 -0.91103236315819636 2.1514895565470042 -0.93090710973825963 2.0915066008899643 -0.94923215405090666 2.0341416430434363 -0.96634804152867793 1.9796069628423214 -0.98233233940833709 1.927575755894791 -0.997506127523756 1.8782431004698059 -1.0121010821220229 1.8316138673011149 -1.0263459297713271 1.7876907336533781 -1.049285574602502 1.7610081810624101 -1.0639448201656689 1.7221767573549511 -1.0789954198276368 1.6861664588103014 -1.0944269878181645 1.6526026359058015 -1.1105509427807092 1.6216281174782565 -1.1275662030316935 1.5932001984446946 -1.1456707533250745 1.5672729359757858 -1.1650609602717912 1.5437948805506434 -1.1961419178789265 1.5356125994877625 -1.21908382209108 1.5165444909736798 -1.2438975070220288 1.4997330244577853 -1.2707820250688961 1.4851006878657611 -1.2999410203212611 1.472565054934019 -1.3423879910226539 1.4737150488137594 -1.3770940083938448 1.4647549785323846 -1.4147141788407236 1.457583379650607 -1.4554744402340478 1.4520784726405078 -1.4996151741657762 1.4481122330894414 -1.5587121286594077 1.45594569740607 -1.6107171203658806 1.4542165021760105 -1.6668784708288795 1.4535208809901552 -1.7274822111842059 1.4536586133026075 -1.7928280299517261 1.4544048627310036 -1.8750504450562906 1.4645634413172808 -1.9512154674616771 1.4653053079265836 -2.0331499698866522 1.4657916587488058 -2.1212406556567323 1.465669380402157 -2.2158990772662852 1.4645396406396447 -2.3175746059936508 1.4619578515849374 -2.4267433854781979 1.4574160920435117 -2.5439201419563111 1.4503396141115057 -2.6566796682921399 1.4332704390080007 -2.7912768603354774 1.4197271709869785 -2.9359269994420027 1.4015503778927736 -3.0909914298742631 1.3775848373367121 -3.2434006023914956 1.3412189760838467 -3.4219465191414784 1.3031771307595945 -3.5990728269888561 1.2506966476625276 -3.8054980069620394 1.1928097034792495 -1.5479448949914658 0.4479620979086073 -1.5835507361342636 0.43635718352878977 -1.5303867852729045 0.40087232975323145 -1.578020433228275 0.39211713829408573 -1.5614220747771732 0.36697216313734982 -1.7206548630673091 0.38040100024604839 -1.6421949988239077 0.33979530981783562 -1.435223432481431 0.27851465825699651 -0.94754964618523441 0.17450342320923323 0.14985370459689193 -0.027102789200295224 0.87523670628035855 -0.16201060836452708 0 0
        </DataArray>
        <DataArray type="Float32" Name="u" NumberOfComponents="1">
          0 0.007874015748031496 0.015748031496062992 0.023622047244094488 0.031496062992125984 0.03937007874015748 0.047244094488188976 0.055118110236220472 0.062992125984251968 0.070866141732283464 0.07874015748031496 0.086614173228346455 0.094488188976377951 0.10236220472440945 0.11023622047244094 0.11811023622047244 0.12598425196850394 0.13385826771653545 0.14173228346456693 0.14960629921259844 0.15748031496062992 0.16535433070866143 0.17322834645669291 0.18110236220472442 0.1889763779527559 0.19685039370078741 0.20472440944881889 0.2125984251968504 0.22047244094488189 0.2283464566929134 0.23622047244094488 0.24409448818897639 0.25196850393700787 0.25984251968503935 0.26771653543307089 0.27559055118110237 0.28346456692913385 0.29133858267716534 0.29921259842519687 0.30708661417322836 0.31496062992125984 0.32283464566929132 0.33070866141732286 0.33858267716535434 0.34645669291338582 0.3543307086614173 0.36220472440944884 0.37007874015748032 0.37795275590551181 0.38582677165354329 0.39370078740157483 0.40157480314960631 0.40944881889763779 0.41732283464566927 0.42519685039370081 0.43307086614173229 0.44094488188976377 0.44881889763779526 0.45669291338582679 0.46456692913385828 0.47244094488188976 0.48031496062992124 0.48818897637795278 0.49606299212598426 0.50393700787401574 0.51181102362204722 0.51968503937007871 0.52755905511811019 0.53543307086614178 0.54330708661417326 0.55118110236220474 0.55905511811023623 0.56692913385826771 0.57480314960629919 0.58267716535433067 0.59055118110236215 0.59842519685039375 0.60629921259842523 0.61417322834645671 0.62204724409448819 0.62992125984251968 0.63779527559055116 0.64566929133858264 0.65354330708661412 0.66141732283464572 0.6692913385826772 0.67716535433070868 0.68503937007874016 0.69291338582677164 0.70078740157480313 0.70866141732283461 0.71653543307086609 0.72440944881889768 0.73228346456692917 0.74015748031496065 0.74803149606299213 0.75590551181102361 0.76377952755905509 0.77165354330708658 0.77952755905511806 0.78740157480314965 0.79527559055118113 0.80314960629921262 0.8110236220472441 0.81889763779527558 0.82677165354330706 0.83464566929133854 0.84251968503937003 0.85039370078740162 0.8582677165354331 0.86614173228346458 0.87401574803149606 0.88188976377952755 0.88976377952755903 0.89763779527559051 0.90551181102362199 0.91338582677165359 0.92125984251968507 0.92913385826771655 0.93700787401574803 0.94488188976377951 0.952755905511811 0.96062992125984248 0.96850393700787396 0.97637795275590555 0.98425196850393704 0.99212598425196852 1
        </DataArray>
      </PointData>
      <CellData Scalars="P">
        <DataArray type="Float32" Name="P" NumberOfComponents="1">
          -0.010467840652347312 -0.029428371290142957 -0.044602098926856834 -0.054985257391015369 -0.059899449769387096 -0.05885640595259288 -0.051490964279168785 -0.037522009562221473 -0.016727377555648796 0.011071030876899429 0.046019875628555633 0.088242623768603104 0.13784521953846154 0.19491919337179944 0.25954353130302077 0.33178712361959734 0.41171296249261535 0.49937725175246361 0.59483033442906152 0.69811891077471611 0.80928530526685794 0.92836668111209586 1.0553957642631973 1.1904022170322945 1.333409845126506 1.4844399471535747 1.6435086736877831 1.8106222757158994 1.9857796815040483 2.1689883185458747 2.3602330226429253 2.5594896540459784 2.7667228073734829 2.9818867822312716 3.2049228005655919 3.4357587061704242 3.6743028268597993 3.9204497711302491 4.1740798422622722 4.4350482308133685 4.7031866454266122 4.9783030649118158 4.7282841675519665 4.4711883459344444 4.2082091165902868 3.940122231698723 3.6700112542394683 3.3982586791441736 3.1277730151721301 2.8585572868086322 2.5933511516562708 2.3333457359112244 2.077961366104939 1.8296707605467335 1.5892675558046521 1.3425053436099068 1.1019529956702141 0.8681487869999831 0.6438326691342644 0.42816350917413676 0.22138646066961973 0.023687094782115756 -0.16375220045638375 -0.34199810587309248 -0.51001541539072315 -0.66892301448535474 -0.8188132188037458 -0.9598222804894726 -1.0920931235970264 -1.2158026792587096 -1.3311462979949358 -1.4383338110562864 -1.5375932380928534 -1.6291425071908288 -1.7132114633106181 -1.7900300935190214 -1.8598260175254164 -1.9232649314394783 -1.9800607717495105 -2.0304224097916697 -2.0745390950403721 -2.1125926733515352 -2.1447515007218234 -2.1711695209925925 -2.1919855149485965 -2.2073560579051517 -2.2173010531269624 -2.2219111360450152 -2.2212608342337563 -2.2154088588849707 -2.2042118413372123 -2.1878383093330211 -2.1663033898536437 -2.1396094982665539 -2.1077474867979786 -2.070334532150937 -2.0276688409793184 -1.9797174389449566 -1.9264431980964825 -1.8678074044516479 -1.8032818494007066 -1.7332954112685712 -1.657822834668873 -1.5768498878907771 -1.4903775357303473 -1.3984260744384438 -1.3010403755738043 -1.1982952813130741 -1.0908978453943772 -0.97841193807021765 -0.8610293451911244 -0.73901672746974778 -0.61331047683174367 -0.48369257892033135 -0.35125795103882651 -0.21596181466971878 -0.17310763134662896 -0.13159919354654909 -0.095031223532090189 -0.060313640654212186 -0.030026847240680523 0.0001713185803209585 0.023171431060127479 0.036490298826085149 0.036964337149372736 0.022016158432056794 0.0050380272893695626
        </DataArray>
      </CellData>
      <Points>
        <DataArray type="Float32" NumberOfComponents="3" format="ascii">
          3.8681712888981568 9.3396507505922308 0
          3.8732115555481128 9.3457007066413844 0
          3.8782879333202698 9.3517203931394519 0
          3.8834181424765739 9.3576942664816514 0
          3.8886153189591286 9.3636099685100405 0
          3.8938899359121351 9.3694567239775566 0
          3.8992505955136818 9.375224688687215 0
          3.9047044566624813 9.3809046039334785 0
          3.9102574978526818 9.3864875886665207 0
          3.915914691829796 9.3919650044710021 0
          3.921680122469545 9.3973283687317526 0
          3.9275570705893399 9.4025692926165636 0
          3.9335480760527926 9.4076794382532416 0
          3.9396549824851306 9.4126504902738102 0
          3.9458789678923361 9.4174741399886592 0
          3.9522205650119688 9.4221420796471609 0
          3.9586796760986118 9.4266460023530296 0
          3.9652555862642331 9.4309776024949787 0
          3.9719469702814907 9.4351285843436088 0
          3.9787518970993427 9.4390906740851452 0
          3.9856678341683986 9.4428556322644841 0
          3.992691649242432 9.4464152708487585 0
          3.999819610767815 9.4497614742127638 0
          4.0070473887742075 9.4528862210970619 0
          4.0143700567896801 9.4557816062045923 0
          4.0217820923600787 9.4584398674113448 0
          4.0292773803221067 9.4608534089912855 0
          4.0368492153130804 9.4630148295291878 0
          4.0444903037749311 9.4649169570314911 0
          4.0521927692107091 9.4665528803413839 0
          4.0599481629778076 9.4679159586142738 0
          4.0677474666836737 9.468999873626947 0
          4.0755811019149357 9.469798662491911 0
          4.0834389415087049 9.4703067525852855 0
          4.0913103229537278 9.4705189941166417 0
          4.0991840634314913 9.4704306950427739 0
          4.107048476870883 9.4700376548492962 0
          4.1148913934196667 9.4693362042086004 0
          4.1227001808589092 9.4683232354557738 0
          4.1304617672213508 9.4669962318512759 0
          4.1381626668881788 9.4653533073636176 0
          4.1457890090796221 9.4633932417311808 0
          4.1533265684393417 9.4611155129592728 0
          4.1609355479480268 9.4590891676402951 0
          4.1686061091322406 9.4573101422536219 0
          4.176329129379531 9.4557748250287545 0
          4.1840961189076484 9.4544802503243943 0
          4.1918987942034303 9.4534218917030231 0
          4.1997294790188109 9.4525960200360082 0
          4.2075807965204941 9.4519974113849958 0
          4.2154459255046666 9.4516217723521709 0
          4.2233184160256627 9.4514633479434611 0
          4.2311923140332084 9.4515161640456089 0
          4.2390621120237251 9.4517754005427559 0
          4.2469227573346222 9.452234804552619 0
          4.2547696680022238 9.4528880053187603 0
          4.2625973946126452 9.453740814326185 0
          4.2704013377610508 9.4547891352461235 0
          4.2781771698428344 9.4560288401499957 0
          4.2859211783335347 9.4574538662149852 0
          4.2936298306121596 9.459059166409638 0
          4.3012998876911999 9.4608397513860414 0
          4.3089283887284466 9.4627906968178497 0
          4.3165129021482285 9.4649061961553009 0
          4.32405100269819 9.4671815411195581 0
          4.331540805609583 9.4696111477372966 0
          4.3389803478055242 9.4721905542249818 0
          4.3463678473735845 9.4749154348860838 0
          4.353701681436573 9.4777816187017603 0
          4.3609803769304696 9.4807850733135659 0
          4.3682025897196661 9.4839219212352788 0
          4.3753670880421112 9.4871884438301297 0
          4.3824727362040443 9.490581084812078 0
          4.3895184734652659 9.494096463405624 0
          4.3965033092308348 9.4977313540833102 0
          4.4034263031434406 9.5014826986596042 0
          4.4102865507192313 9.5053476065923128 0
          4.4170831691664683 9.5093233551482204 0
          4.423814736502079 9.5134082904930928 0
          4.4304803441959129 9.5176000056283563 0
          4.4370790594368765 9.5218962684949062 0
          4.4436099257787083 9.5262949987466783 0
          4.4500719438298839 9.530794276606283 0
          4.4564640589195728 9.5353923402183245 0
          4.4627851488212285 9.5400875828021903 0
          4.4690340115762339 9.5448785494636343 0
          4.4752087202158659 9.549764733592367 0
          4.4813078525140559 9.5547449537711486 0
          4.4873298701664934 9.5598181685348678 0
          4.4932731064463658 9.5649834715670217 0
          4.4991357535749268 9.5702400865916886 0
          4.5049151796871563 9.5755880857687927 0
          4.5106092329959404 9.5810269145869924 0
          4.5162155809889786 9.5865561294722426 0
          4.5217316964147924 9.5921753902403548 0
          4.5271548423723136 9.5978844521623436 0
          4.5324813543835427 9.6036838019987822 0
          4.5377080078098961 9.6095733338212632 0
          4.542831320233442 9.6155530058482466 0
          4.5478475337122815 9.6216228280339084 0
          4.5527525961879194 9.627782848130586 0
          4.5575414088819022 9.6340336973371681 0
          4.5622092486813131 9.6403754232554011 0
          4.566751034613576 9.6468080577174078 0
          4.5711613038521568 9.6533315948922276 0
          4.5754341861794874 9.6599459665566378 0
          4.5795633761025156 9.6666510145274529 0
          4.5835421033058665 9.6734464591653939 0
          4.5873631007099052 9.6803318637332936 0
          4.5910193750922055 9.6873061722651954 0
          4.5945025786635814 9.6943685471896739 0
          4.5978037399670386 9.7015178636654351 0
          4.600913241438584 9.7087526379411813 0
          4.6038216299812689 9.7160706177455278 0
          4.6065178311631829 9.7234694465082381 0
          4.6089908583032564 9.7309458727192446 0
          4.6112279071787396 9.738496309119494 0
          4.6133689964373374 9.7460746479146092 0
          4.6154119171358046 9.7536801855699053 0
          4.6173599661206541 9.7613107428494015 0
          4.6192101875427047 9.768965797004304 0
          4.6209636094279052 9.7766438140504324 0
          4.6226103510742469 9.7843456479599986 0
          4.6241552768280867 9.7920688154532805 0
          4.6256112248734436 9.7998095628922481 0
          4.6270084537331826 9.807561509538262 0
          4.6284150704743254 9.8153122700311251 0
          4.6298761181179904 9.8230536009181062 0
        </DataArray>
      </Points>
      <Cells>
        <DataArray type="Int32" Name="connectivity" format="ascii">
          0 1 1 2 2 3 3 4 4 5 5 6 6 7 7 8 8 9 9 10 10 11 11 12 12 13 13 14 14 15 15 16 16 17 17 18 18 19 19 20 20 21 21 22 22 23 23 24 24 25 25 26 26 27 27 28 28 29 29 30 30 31 31 32 32 33 33 34 34 35 35 36 36 37 37 38 38 39 39 40 40 41 41 42 42 43 43 44 44 45 45 46 46 47 47 48 48 49 49 50 50 51 51 52 52 53 53 54 54 55 55 56 56 57 57 58 58 59 59 60 60 61 61 62 62 63 63 64 64 65 65 66 66 67 67 68 68 69 69 70 70 71 71 72 72 73 73 74 74 75 75 76 76 77 77 78 78 79 79 80 80 81 81 82 82 83 83 84 84 85 85 86 86 87 87 88 88 89 89 90 90 91 91 92 92 93 93 94 94 95 95 96 96 97 97 98 98 99 99 100 100 101 101 102 102 103 103 104 104 105 105 106 106 107 107 108 108 109 109 110 110 111 111 112 112 113 113 114 114 115 115 116 116 117 117 118 118 119 119 120 120 121 121 122 122 123 123 124 124 125 125 126 126 127 
        </DataArray>
        <DataArray type="Int32" Name="offsets" format="ascii">
          2 4 6 8 10 12 14 16 18 20 22 24 26 28 30 32 34 36 38 40 42 44 46 48 50 52 54 56 58 60 62 64 66 68 70 72 74 76 78 80 82 84 86 88 90 92 94 96 98 100 102 104 106 108 110 112 114 116 118 120 122 124 126 128 130 132 134 136 138 140 142 144 146 148 150 152 154 156 158 160 162 164 166 168 170 172 174 176 178 180 182 184 186 188 190 192 194 196 198 200 202 204 206 208 210 212 214 216 218 220 222 224 226 228 230 232 234 236 238 240 242 244 246 248 250 252 254 
        </DataArray>
        <DataArray type="Int32" Name="types" format="ascii">
          3 3 3 3 3 3 3 3 3 3 3 3 3 3 3 3 3 3 3 3 3 3 3 3 3 3 3 3 3 3 3 3 3 3 3 3 3 3 3 3 3 3 3 3 3 3 3 3 3 3 3 3 3 3 3 3 3 3 3 3 3 3 3 3 3 3 3 3 3 3 3 3 3 3 3 3 3 3 3 3 3 3 3 3 3 3 3 3 3 3 3 3 3 3 3 3 3 3 3 3 3 3 3 3 3 3 3 3 3 3 3 3 3 3 3 3 3 3 3 3 3 3 3 3 3 3 3         </DataArray>
      </Cells>
    </Piece>
  </UnstructuredGrid>
</VTKFile>
