<?xml version="1.0"?>
<VTKFile type="UnstructuredGrid" version="0.1" byte_order="LittleEndian">
  <UnstructuredGrid>
    <Piece NumberOfPoints="128" NumberOfCells="127">
      <PointData Scalars="W">
        <DataArray type="Float32" Name="W" NumberOfComponents="2">
          0 0 0.54787141279431473 0.06382002111422326 0.8372610761943976 0.092875832897858501 1.0619082941821598 0.1097188004047505 1.251435723195752 0.11773678983872216 1.4179138188096858 0.1183216270614918 1.5677499523954916 0.11223029191179429 1.7047676922209372 0.099934537670986617 1.8314485251332051 0.081760079266827643 1.9494081027712833 0.057947050603837369 2.0598175072615019 0.028691015391821648 2.1634656959898 -0.0058416034579673263 2.2609152516353905 -0.04549801692868647 2.3525627521397974 -0.090131157471426276 2.4386461837309836 -0.13959160749474431 2.5193119802717838 -0.19372237831713937 2.5947294393663083 -0.25236554362939767 2.664933644583364 -0.31534919482401974 2.7299619210345578 -0.38249441932192224 2.7898555396139377 -0.45361834844182619 2.8446253033804747 -0.52853011058600252 2.8942396909507155 -0.6070257535910385 2.938681789815099 -0.68889738101043896 2.9779200211169972 -0.77392816856541902 3.0119190891222929 -0.86189398344432577 3.0406980801904995 -0.952582067627323 3.064228931791789 -1.0457642445397537 3.0824441636483124 -1.1411921454877532 3.0953673659671712 -1.2386439452607321 3.1033044910139238 -1.3380259727779384 3.1059296315404876 -1.4389896736554491 3.1032797903211913 -1.541319144529143 3.0954118771635 -1.6448130842144506 3.0823868250480317 -1.7492798749000207 3.0642627823672006 -1.8545346618444782 3.041089266222619 -1.960395346121397 3.0128632537601292 -2.0666499131339595 2.9797027347303726 -2.1731733115559067 2.9417438114011762 -2.279877971806072 2.8990071368978869 -2.386609086315163 2.8515535821976048 -2.4932533344140038 2.7994558968510224 -2.5997258123294036 0.39022445886051282 -0.37506995281406386 0.092370817001565325 -0.089253387537474263 -0.21718343771965171 0.20956723871714658 -0.18570125563949963 0.17840101318904247 -0.5053166668076331 0.48180865315168553 -0.4711310034413303 0.44447110845980198 -0.80403526245742007 0.74815835363221794 -0.77169240948495244 0.70600271804474712 -0.7359751802862341 0.66256626690544274 -0.69658962598912666 0.61763405182645781 -0.65352090386436246 0.57123082612229092 -0.60705557159715406 0.52361673008982468 -0.55726817134937379 0.47483350825564064 -1.3205756869042538 1.1033903298808114 -1.7034418916833598 1.3792830213254506 -2.1130772897976389 1.6448918373472585 -3.0539514798049567 2.2546514488695832 -3.5667592170795386 2.4607926859458122 -4.1205976911558801 2.6272932448901654 -4.1245016829528938 2.4140116450210325 -4.1224307952889641 2.2109228426548007 -4.1014445917827169 2.0109277265263303 -4.0690782160989372 1.8186341844299192 -4.0443130382837387 1.6414768019865891 -4.0027057454714337 1.4682490779096358 -3.9634295565269104 1.3061696193301608 -3.9089699939282614 1.1489032211953036 -3.8594990957874225 1.0024239951635241 -3.7958294763790903 0.86111245988457574 -3.7390250119084696 0.72976084643077876 -3.6799170711587745 0.60543187492744688 -3.6089358965676013 0.48664543225509238 -3.5471688773124943 0.37615742343188252 -3.4850304082496812 0.27181857903437234 -3.4120762079330489 0.1728700386693692 -3.3507610555802745 0.080334408852601583 -3.2908907109376515 -0.0071917480799260627 -3.220884302100262 -0.089661768874090275 -3.1641721591795955 -0.16783844052912666 -3.1097047828014497 -0.24227157491775989 -3.0577718155033189 -0.31339590636538495 -2.9972983914457521 -0.38007704795149316 -2.9512523729611821 -0.44537599267358152 -2.9084286689772973 -0.50870977183517996 -2.8570948178365558 -0.56802009807660925 -2.8213055725067329 -0.6282353064114975 -2.7891684879499774 -0.68785405627718466 -2.7486780733196738 -0.74391685296357779 -2.7245647182301163 -0.80328685496344632 -2.7039849057610441 -0.86338035507096944 -2.6750315584752866 -0.92039315924951148 -2.6623943572911437 -0.98300521411401265 -2.653607729661636 -1.047899702409917 -2.6486128871042389 -1.1155928015209196 -2.6351138113478894 -1.1809781813674769 -2.6379833581890031 -1.2554799581191669 -2.6316439587116789 -1.3278907602618284 -2.641214345466897 -1.4111850531027559 -2.6538367671380567 -1.5001552248626691 -2.6569763704006886 -1.5879284382017671 -2.6754837776199087 -1.6898360881645482 -2.6834804629575193 -1.7908851507817198 -2.7057760676037117 -1.9082037227263737 -2.7291396110185691 -2.0347997004349141 -2.7409867032630051 -2.1618273660874165 -2.7532062119061056 -2.2987382068414561 -2.7766169168432313 -2.4569772598876223 -2.7860354830585807 -2.6165905716565816 -2.8048862383000892 -2.8009724522734771 -2.8072869819147299 -2.9872562466991606 -2.8042481529197101 -3.1876786648726494 -2.8056355782617914 -3.4176629026789178 -2.7857309443630447 -3.65018120394511 -2.7546121772978971 -3.8995439057824992 -2.7091691049912132 -4.1655227521476075 -2.6468750542965629 -4.4489367611307413 0.044206741398720197 0.077809422833531178 0.21522310273925485 0.37700807392804081 0.33955905303568618 0.58879638253326505 0.38862566337439003 0.66507553266283959 0.57602060909995711 0.96907898150388916 1.1080397375162674 1.8109544577285412 1.9224472896151585 2.9897552348400729 3.9591568270090427 5.6338696151735563 3.0448709359867703 3.9292606503108916 0 0
        </DataArray>
        <DataArray type="Float32" Name="u" NumberOfComponents="1">
          0 0.007874015748031496 0.015748031496062992 0.023622047244094488 0.031496062992125984 0.03937007874015748 0.047244094488188976 0.055118110236220472 0.062992125984251968 0.070866141732283464 0.07874015748031496 0.086614173228346455 0.094488188976377951 0.10236220472440945 0.11023622047244094 0.11811023622047244 0.12598425196850394 0.13385826771653545 0.14173228346456693 0.14960629921259844 0.15748031496062992 0.16535433070866143 0.17322834645669291 0.18110236220472442 0.1889763779527559 0.19685039370078741 0.20472440944881889 0.2125984251968504 0.22047244094488189 0.2283464566929134 0.23622047244094488 0.24409448818897639 0.25196850393700787 0.25984251968503935 0.26771653543307089 0.27559055118110237 0.28346456692913385 0.29133858267716534 0.29921259842519687 0.30708661417322836 0.31496062992125984 0.32283464566929132 0.33070866141732286 0.33858267716535434 0.34645669291338582 0.3543307086614173 0.36220472440944884 0.37007874015748032 0.37795275590551181 0.38582677165354329 0.39370078740157483 0.40157480314960631 0.40944881889763779 0.41732283464566927 0.42519685039370081 0.43307086614173229 0.44094488188976377 0.44881889763779526 0.45669291338582679 0.46456692913385828 0.47244094488188976 0.48031496062992124 0.48818897637795278 0.49606299212598426 0.50393700787401574 0.51181102362204722 0.51968503937007871 0.52755905511811019 0.53543307086614178 0.54330708661417326 0.55118110236220474 0.55905511811023623 0.56692913385826771 0.57480314960629919 0.58267716535433067 0.59055118110236215 0.59842519685039375 0.60629921259842523 0.61417322834645671 0.62204724409448819 0.62992125984251968 0.63779527559055116 0.64566929133858264 0.65354330708661412 0.66141732283464572 0.6692913385826772 0.67716535433070868 0.68503937007874016 0.69291338582677164 0.70078740157480313 0.70866141732283461 0.71653543307086609 0.72440944881889768 0.73228346456692917 0.74015748031496065 0.74803149606299213 0.75590551181102361 0.76377952755905509 0.77165354330708658 0.77952755905511806 0.78740157480314965 0.79527559055118113 0.80314960629921262 0.8110236220472441 0.81889763779527558 0.82677165354330706 0.83464566929133854 0.84251968503937003 0.85039370078740162 0.8582677165354331 0.86614173228346458 0.87401574803149606 0.88188976377952755 0.88976377952755903 0.89763779527559051 0.90551181102362199 0.91338582677165359 0.92125984251968507 0.92913385826771655 0.93700787401574803 0.94488188976377951 0.952755905511811 0.96062992125984248 0.96850393700787396 0.97637795275590555 0.98425196850393704 0.99212598425196852 1
        </DataArray>
      </PointData>
      <CellData Scalars="P">
        <DataArray type="Float32" Name="P" NumberOfComponents="1">
          0.010226291864926768 0.031837467188217151 0.055793848560437766 0.082814585515414832 0.11341118572369266 0.14795713749155559 0.18672218242515909 0.22989219021341459 0.2775826865140496 0.32984755537323646 0.38668736563753214 0.44805490442362544 0.51386068982562216 0.5839779492681394 0.65824654687618078 0.73647741602535266 0.81845905992045165 0.90396028020119068 0.99273561921586562 1.0845307505681536 1.1790868960356917 1.2761447504408929 1.3754496819589257 1.4767560751415505 1.5798318108803504 1.6844641412764998 1.7904627385184408 1.8976627346326398 2.0059310921020148 2.1151780766138706 2.2253435553223242 2.3364101653427762 2.4484069997580065 2.5614126423429249 2.6755577933308037 2.7910275026705444 2.9080618319030482 3.0269615366763531 3.1480907378382046 3.2718751224375873 3.3988048258492376 3.5294364384943737 3.5582941082264954 3.5744992250422927 3.5753908176166305 3.5759957274607759 3.5567560324307514 3.5359779325444021 3.4898667221514388 3.4406665752979859 3.3888958781709682 3.3352286482757569 3.2804612680328828 3.2254686041897864 3.1711995737537384 3.039580816769555 2.8643538339893122 2.641839937326282 2.3170147465060325 1.9351459244061218 1.5524541374141869 1.1720672139434432 0.79602621300737753 0.42751622631568736 0.068742186036524114 -0.28012747390595438 -0.61664448124548288 -0.94036859203130718 -1.2493486328452217 -1.5436156071054212 -1.8216115188555864 -2.0837022695910932 -2.3295346682602736 -2.5581331226035142 -2.770205413974212 -2.965764986468101 -3.1442235199397013 -3.3065016073392939 -3.4528575702036832 -3.5829847336376432 -3.6978445478499133 -3.7977907660829415 -3.8831942644136093 -3.9540506842157965 -4.0111820073919695 -4.0549605600812519 -4.0855005578562249 -4.103453657367421 -4.1091404991071778 -4.1027674980460311 -4.0847580228150369 -4.0553492715034931 -4.0148215835063512 -3.9633492246179252 -3.901084589932319 -3.8281547606028479 -3.7449387681504049 -3.6512931571743485 -3.5476682567484308 -3.4337955401493847 -3.3097258376932048 -3.1760304610346588 -3.0322968513081618 -2.8792325779206189 -2.7164050640361088 -2.5439945859065483 -2.3629529963249385 -2.1736692296171864 -1.9758799626934336 -1.7709489406055903 -1.5588116874786051 -1.3412296595931654 -1.1193723882002944 -0.89379578331928844 -0.66707048257954071 -0.44124263570902289 -0.21878859854600471 -0.0025999629223361896 0.014974756853225394 0.022667326748925059 0.025732521793667276 0.029808882136645589 0.03040644219879873 0.02019133472577584 0.0022513822623450763 -0.026575928952337964 -0.015295140094313993
        </DataArray>
      </CellData>
      <Points>
        <DataArray type="Float32" NumberOfComponents="3" format="ascii">
          4.1409067230985528 6.2416251412153256 0
          4.1399786787051145 6.2494442806408008 0
          4.1390846025268786 6.2572673762625337 0
          4.138242436799433 6.265096229255648 0
          4.1374661096809211 6.2729318837682282 0
          4.1367673718717093 6.2807748369417258 0
          4.1361565449936748 6.288625125199065 0
          4.1356429188583546 6.2964823711798781 0
          4.135234988540506 6.3043458129950896 0
          4.1349406082443192 6.3122143244287585 0
          4.1347670914897963 6.3200864298345678 0
          4.1347212837379583 6.3279603162689346 0
          4.1348096113265429 6.335833843816828 0
          4.1350381163727281 6.3437045550712616 0
          4.135412481385826 6.3515696842565879 0
          4.1359380440494604 6.3594261664956164 0
          4.1366198063295467 6.3672706475438527 0
          4.1374624450017796 6.3750994935792162 0
          4.1384703138594761 6.3829088018556073 0
          4.1396474460618338 6.3906944117873348 0
          4.1409975567279522 6.3984519162751097 0
          4.1425240436425943 6.4061766735241612 0
          4.1442299853381108 6.4138638196691033 0
          4.1461181400820122 6.4215082816388138 0
          4.1481909439545799 6.4291047905701761 0
          4.1504505086948553 6.4366478956701423 0
          4.152898622916843 6.444131977367646 0
          4.1555367504000831 6.4515512614166095 0
          4.1583660259332085 6.4588998342461359 0
          4.1613872568008601 6.4661716566602054 0
          4.1646009417753707 6.4733605695862133 0
          4.1680072509242976 6.4804603156236587 0
          4.1716060279153986 6.487464552363698 0
          4.1753967935504601 6.4943668647995274 0
          4.1793787495426162 6.5011607771329585 0
          4.1835507821145299 6.5078397641587173 0
          4.1879114650543841 6.5143972624754083 0
          4.1924590595060831 6.5208266835499389 0
          4.1971915212563884 6.5271214213875535 0
          4.2021065091378444 6.5332748578761581 0
          4.2072013862635522 6.5392803723002757 0
          4.2124732237476064 6.5451313482822968 0
          4.2179188051536363 6.550821178962007 0
          4.2233882993810914 6.5564874431510649 0
          4.2288632596324556 6.5621479000473739 0
          4.2343245226794908 6.5678211156653035 0
          4.2397740881837285 6.5735052037812878 0
          4.2451921797772556 6.5792190177802929 0
          4.2505809676077915 6.5849602919250421 0
          4.2559198592370411 6.5907479036259558 0
          4.26121091124869 6.596579293731379 0
          4.2664563869109084 6.6024518245137314 0
          4.2716587746057169 6.6083627660551576 0
          4.2768207889957113 6.6143092974992603 0
          4.2819453535508272 6.6202885229165149 0
          4.2870355962579989 6.6262974736424631 0
          4.2920442416739988 6.6323752263677473 0
          4.2969475918427307 6.6385389928677174 0
          4.3017202801975563 6.6448053672243104 0
          4.3063039839051562 6.65121235632009 0
          4.3106668927270615 6.657772932233172 0
          4.3147738425053088 6.6644963125409085 0
          4.3186246290878545 6.6713692494625665 0
          4.3222194181208904 6.6783791324535073 0
          4.3255595473014479 6.6855135462457174 0
          4.3286470586743961 6.6927605569123925 0
          4.331483521010961 6.7001091738389551 0
          4.3340715457358554 6.7075486523246157 0
          4.3364135975848388 6.7150689421653658 0
          4.3385130808540353 6.7226602931934911 0
          4.3403730882382288 6.7303136265997097 0
          4.3419975908871189 6.7380201849750172 0
          4.3433901320401009 6.7457718302862482 0
          4.3445543957431259 6.7535608608956323 0
          4.3454948004407274 6.7613799191150203 0
          4.3462151912774347 6.7692221627863294 0
          4.3467194346945366 6.7770811313422534 0
          4.3470120662593992 6.7849506982170258 0
          4.3470968982496885 6.7928251349103945 0
          4.3469776519806675 6.8006990234349853 0
          4.3466586760933046 6.8085672587798589 0
          4.3461434936960313 6.8164250022173816 0
          4.3454354876939885 6.8242676467914221 0
          4.3445378829406085 6.8320907903156325 0
          4.343454433092937 6.8398903054413891 0
          4.3421879964756904 6.8476621503480022 0
          4.3407412310004867 6.8554024046036304 0
          4.339117321754661 6.8631073965858524 0
          4.3373184894889087 6.8707733983370689 0
          4.335346728115657 6.87839671843036 0
          4.3332045491866218 6.885973885325062 0
          4.3308934485032937 6.8935012221929757 0
          4.3284147025489137 6.9009750069413363 0
          4.3257701068272896 6.9083917079907282 0
          4.3229604450129671 6.9157474463851889 0
          4.3199862619147584 6.9230382013220026 0
          4.3168478671476178 6.9302597781737205 0
          4.3135460975474684 6.9374081250419151 0
          4.3100807749858374 6.9444786246375667 0
          4.3064522922724624 6.9514667890263349 0
          4.3026600557367649 6.9583674553469752 0
          4.2987032824553397 6.965175108638598 0
          4.2945817774335779 6.9718843079595034 0
          4.2902943928321458 6.9784887359140262 0
          4.285840632465483 6.9849821281982365 0
          4.281219113584978 6.9913572116942078 0
          4.2764283872118867 6.9976061379757866 0
          4.2714677183514924 7.0037210317765402 0
          4.2663363488725308 7.0096934050069235 0
          4.261032826761963 7.0155134471318901 0
          4.2555565674391884 7.0211712623785862 0
          4.2499064014966539 7.0266554192136859 0
          4.244082179309169 7.0319543681642571 0
          4.2380840884013331 7.0370556830939632 0
          4.2319120418326346 7.0419451048756132 0
          4.2255672725880817 7.0466082172315625 0
          4.2190517087960977 7.0510295593998338 0
          4.2123681665530839 7.0551926402537335 0
          4.2055205065912178 7.0590798874736755 0
          4.1986755259514812 7.0629719939906614 0
          4.1918437970710958 7.0668875291166628 0
          4.1850329940287327 7.0708396467616152 0
          4.1782461221600178 7.0748331016482728 0
          4.1714947543116727 7.0788867786185232 0
          4.1648118110153378 7.0830529420744544 0
          4.1582477042851931 7.0874047932963018 0
          4.1519285872888316 7.0921065490335415 0
          4.1457985981799466 7.0970518733461745 0
        </DataArray>
      </Points>
      <Cells>
        <DataArray type="Int32" Name="connectivity" format="ascii">
          0 1 1 2 2 3 3 4 4 5 5 6 6 7 7 8 8 9 9 10 10 11 11 12 12 13 13 14 14 15 15 16 16 17 17 18 18 19 19 20 20 21 21 22 22 23 23 24 24 25 25 26 26 27 27 28 28 29 29 30 30 31 31 32 32 33 33 34 34 35 35 36 36 37 37 38 38 39 39 40 40 41 41 42 42 43 43 44 44 45 45 46 46 47 47 48 48 49 49 50 50 51 51 52 52 53 53 54 54 55 55 56 56 57 57 58 58 59 59 60 60 61 61 62 62 63 63 64 64 65 65 66 66 67 67 68 68 69 69 70 70 71 71 72 72 73 73 74 74 75 75 76 76 77 77 78 78 79 79 80 80 81 81 82 82 83 83 84 84 85 85 86 86 87 87 88 88 89 89 90 90 91 91 92 92 93 93 94 94 95 95 96 96 97 97 98 98 99 99 100 100 101 101 102 102 103 103 104 104 105 105 106 106 107 107 108 108 109 109 110 110 111 111 112 112 113 113 114 114 115 115 116 116 117 117 118 118 119 119 120 120 121 121 122 122 123 123 124 124 125 125 126 126 127 
        </DataArray>
        <DataArray type="Int32" Name="offsets" format="ascii">
          2 4 6 8 10 12 14 16 18 20 22 24 26 28 30 32 34 36 38 40 42 44 46 48 50 52 54 56 58 60 62 64 66 68 70 72 74 76 78 80 82 84 86 88 90 92 94 96 98 100 102 104 106 108 110 112 114 116 118 120 122 124 126 128 130 132 134 136 138 140 142 144 146 148 150 152 154 156 158 160 162 164 166 168 170 172 174 176 178 180 182 184 186 188 190 192 194 196 198 200 202 204 206 208 210 212 214 216 218 220 222 224 226 228 230 232 234 236 238 240 242 244 246 248 250 252 254 
        </DataArray>
        <DataArray type="Int32" Name="types" format="ascii">
          3 3 3 3 3 3 3 3 3 3 3 3 3 3 3 3 3 3 3 3 3 3 3 3 3 3 3 3 3 3 3 3 3 3 3 3 3 3 3 3 3 3 3 3 3 3 3 3 3 3 3 3 3 3 3 3 3 3 3 3 3 3 3 3 3 3 3 3 3 3 3 3 3 3 3 3 3 3 3 3 3 3 3 3 3 3 3 3 3 3 3 3 3 3 3 3 3 3 3 3 3 3 3 3 3 3 3 3 3 3 3 3 3 3 3 3 3 3 3 3 3 3 3 3 3 3 3         </DataArray>
      </Cells>
    </Piece>
  </UnstructuredGrid>
</VTKFile>
