<?xml version="1.0"?>
<VTKFile type="UnstructuredGrid" version="0.1" byte_order="LittleEndian">
  <UnstructuredGrid>
    <Piece NumberOfPoints="128" NumberOfCells="127">
      <PointData Scalars="W">
        <DataArray type="Float32" Name="W" NumberOfComponents="2">
          0 0 -0.16773886462956794 0.59165887796213301 -0.2729113207062962 0.94009893511322662 -0.3547396280927872 1.1833287624943136 -0.4258543036357969 1.3681129176609284 -0.49101791940204625 1.5136855970752239 -0.55235004393318454 1.6299932887226334 -0.61082359741718184 1.7229371663975244 -0.6668507628071243 1.796411429185466 -0.72056439143259432 1.8532497168726563 -0.77191178138985062 1.8955627769904193 -0.82074488654100552 1.9250304246765355 -0.86685420047425699 1.943019802574306 -0.91003544615974985 1.9507587674193057 -0.95011138968912079 1.9493817426855766 -0.98691243854315402 1.9398904218447897 -1.0202550453542394 1.9231266682632309 -1.0500132007469682 1.8999224974225648 -1.0761022712323376 1.8710638332944554 -1.0984438210486591 1.837233999151114 -1.1169975517127739 1.7990792531009621 -1.1317787746276944 1.7572375026842544 -1.1428169320674237 1.7122741214945896 -1.1501640992929989 1.6647045430931837 -1.1539623841304893 1.6150935138188136 -1.1543079049860845 1.5638617204035112 -1.1513625184225809 1.5114544318005281 -1.1453582317965185 1.4583409614683129 -1.1365221809314696 1.4049178385646131 -1.1248470720327908 1.3512482167798161 -1.1108144950145644 1.2979488725881632 -1.0947049708355372 1.245328262230573 -1.0768166513872404 1.1936731594860452 -1.0574534932077089 1.1432395110939075 -1.0369509706022078 1.0942841230551816 -1.0156405227094647 1.047028961970826 -0.99393989932591786 1.0017566362887143 -0.97217491583471283 0.95862961318732898 -0.95069292287403451 0.91781460193435083 -0.92995329606000443 0.87956747423138415 -0.91040691948753305 0.84411288246212779 -0.89251151394622119 0.81166233382490227 1.4142587753218891 -1.2933909045084351 1.7416217692243972 -1.6479756748922156 1.7199592548120888 -1.6903496457846698 2.0313972988530899 -2.0818609733148223 2.3206333346679533 -2.4998091770874393 2.2599041475529096 -2.5697066374599533 2.5116070567488089 -3.0284663190828525 2.4195459940489776 -3.1087494960867383 2.6233142728428214 -3.6109378024227943 2.494832080266522 -3.7009318957815647 2.9176320125022697 -4.7193186279246744 3.2477430244549921 -5.8685552304412809 3.8410842487692034 -8.0786373555587385 3.2662989271812206 -8.3387325341474963 2.6458735207592823 -8.4585030671274684 2.0522442166040129 -8.636264532854204 1.4463212311957754 -8.7773891096943011 0.82964374677293706 -8.8814034178836216 0.20361123552667615 -8.9522982478705373 -0.43097801983821094 -8.9812619994213136 -0.17824392143870219 -1.9514555277247898 -0.163854785182239 -1.5553300936235601 -0.24067071844116994 -2.0111818684472036 -0.27886691286396387 -2.0496762004293956 -0.3188403989450303 -2.0859043153511463 -0.36215336199342568 -2.1289543118350052 -0.40840214988298429 -2.1737886290230293 -0.45777833620167668 -2.2200874005493629 -0.51046717870417702 -2.2675356636513051 -0.46199401970059006 -1.9019576723706537 -0.50719034735006274 -1.954106614633734 -0.55568064728820943 -2.0070496270198195 -0.6061487109626289 -2.0556796486688778 -0.66142639520854196 -2.1091622162524666 -0.72036859222741589 -2.1624519757555971 -0.64255797853970553 -1.8271357737492409 -0.6955791053310203 -1.883872321725599 -0.75204116736255233 -1.940071228568802 -0.81203777661081544 -1.995447472582216 -0.87561306258078986 -2.0496188995164091 -0.77686426084712801 -1.7395330074492596 -0.8354103461216521 -1.7962877537285951 -0.89724639894814517 -1.8516553033295799 -0.96242298455606268 -1.9053564640060539 -1.0309802295736705 -1.9571116348436273 -0.91445555689227365 -1.6697180976691612 -0.97824784849824054 -1.7230952843549621 -1.0449938755664916 -1.7743066861267551 -1.114691085018618 -1.8230794851726106 -0.98487415877024442 -1.5554852082949691 -1.0499570147213275 -1.6052042571751004 -1.1174714190099226 -1.6522829364737446 -1.1873604538790841 -1.6964557335044277 -1.0456209202071565 -1.4466853003027509 -1.1106258753205689 -1.491081838655921 -1.1773599458863633 -1.5323801244060871 -1.0270305039274485 -1.298336485490073 -1.0886221270421135 -1.3391643693810369 -1.1510899182441565 -1.3765799519859441 -1.2143343121956316 -1.4104536649390922 -1.2780488732822555 -1.4404526396693071 -1.1125101826309671 -1.2188704249560507 -1.1654189663863939 -1.24345004289381 -1.2210055382346654 -1.2676535279336523 -1.2754346355491526 -1.287421068070473 -1.3282124789882224 -1.3024766621083488 -1.3749366089323689 -1.308950136449438 -1.4225308302696611 -1.3138932149212357 -1.7158416734216466 -1.5325612562443078 -1.7629208513503065 -1.5177943118621917 -1.8001339168388466 -1.4931519263693878 -2.1101021738344725 -1.6807647370742214 -2.1412453763186376 -1.6325221771756264 -2.1677833026015123 -1.5813448902097682 -2.4770187618823836 -1.7231046965204513 -1.8202695832531488 -1.2116733259360934 -1.7274619682158265 -1.1087410304954319 -1.9545665205951852 -1.2077463398862986 -1.8283841162596244 -1.086232433427331 -1.6379667681718917 -0.93840345277411663 -1.7555294160924886 -0.97031951680994255 -1.7726466799902638 -0.94352082557882733 -1.6787652380928817 -0.86077891829480946 -1.618594657061065 -0.80042641857537233 -3.0399664871996941 -1.427145118128925 0 0
        </DataArray>
        <DataArray type="Float32" Name="u" NumberOfComponents="1">
          0 0.007874015748031496 0.015748031496062992 0.023622047244094488 0.031496062992125984 0.03937007874015748 0.047244094488188976 0.055118110236220472 0.062992125984251968 0.070866141732283464 0.07874015748031496 0.086614173228346455 0.094488188976377951 0.10236220472440945 0.11023622047244094 0.11811023622047244 0.12598425196850394 0.13385826771653545 0.14173228346456693 0.14960629921259844 0.15748031496062992 0.16535433070866143 0.17322834645669291 0.18110236220472442 0.1889763779527559 0.19685039370078741 0.20472440944881889 0.2125984251968504 0.22047244094488189 0.2283464566929134 0.23622047244094488 0.24409448818897639 0.25196850393700787 0.25984251968503935 0.26771653543307089 0.27559055118110237 0.28346456692913385 0.29133858267716534 0.29921259842519687 0.30708661417322836 0.31496062992125984 0.32283464566929132 0.33070866141732286 0.33858267716535434 0.34645669291338582 0.3543307086614173 0.36220472440944884 0.37007874015748032 0.37795275590551181 0.38582677165354329 0.39370078740157483 0.40157480314960631 0.40944881889763779 0.41732283464566927 0.42519685039370081 0.43307086614173229 0.44094488188976377 0.44881889763779526 0.45669291338582679 0.46456692913385828 0.47244094488188976 0.48031496062992124 0.48818897637795278 0.49606299212598426 0.50393700787401574 0.51181102362204722 0.51968503937007871 0.52755905511811019 0.53543307086614178 0.54330708661417326 0.55118110236220474 0.55905511811023623 0.56692913385826771 0.57480314960629919 0.58267716535433067 0.59055118110236215 0.59842519685039375 0.60629921259842523 0.61417322834645671 0.62204724409448819 0.62992125984251968 0.63779527559055116 0.64566929133858264 0.65354330708661412 0.66141732283464572 0.6692913385826772 0.67716535433070868 0.68503937007874016 0.69291338582677164 0.70078740157480313 0.70866141732283461 0.71653543307086609 0.72440944881889768 0.73228346456692917 0.74015748031496065 0.74803149606299213 0.75590551181102361 0.76377952755905509 0.77165354330708658 0.77952755905511806 0.78740157480314965 0.79527559055118113 0.80314960629921262 0.8110236220472441 0.81889763779527558 0.82677165354330706 0.83464566929133854 0.84251968503937003 0.85039370078740162 0.8582677165354331 0.86614173228346458 0.87401574803149606 0.88188976377952755 0.88976377952755903 0.89763779527559051 0.90551181102362199 0.91338582677165359 0.92125984251968507 0.92913385826771655 0.93700787401574803 0.94488188976377951 0.952755905511811 0.96062992125984248 0.96850393700787396 0.97637795275590555 0.98425196850393704 0.99212598425196852 1
        </DataArray>
      </PointData>
      <CellData Scalars="P">
        <DataArray type="Float32" Name="P" NumberOfComponents="1">
          -0.020120060602664424 -0.058637835351084841 -0.093925689839924817 -0.12570738378703908 -0.15420396705525741 -0.17991067436950267 -0.20348714740573051 -0.22569015757815827 -0.24732646759982477 -0.26921706100550252 -0.29217034686252441 -0.31696057870843275 -0.34431080243728129 -0.37487878236397298 -0.40924644834584495 -0.44791260237496511 -0.49128776172424582 -0.53969078632799783 -0.59334775652272742 -0.65239210742703369 -0.71686626869677139 -0.78672508098350025 -0.86183961191175462 -0.94200185923292268 -1.0269324545299452 -1.1162849218208497 -1.2096538673431541 -1.3065843578174678 -1.40657864963852 -1.5090917366215015 -1.6135605187394826 -1.7194014439646657 -1.8260173651422602 -1.9328032192560074 -2.0391522852273032 -2.144459582155946 -2.2481287903676663 -2.349568150231681 -2.448190807164921 -2.5434173761169281 -2.6346693629032116 -2.7213602717191425 -2.7062516112173132 -2.6843116998714303 -2.6691221957782316 -2.6511110035358985 -2.6327638664896993 -2.6237537511173827 -2.6174035742311186 -2.6204199343792554 -2.6275083331671687 -2.642392468746722 -2.6572941874658191 -2.6697893167089233 -2.6715130775375537 -2.6615431794255948 -2.6340128348189764 -2.5821423830780241 -2.5003027335698604 -2.3834434895770755 -2.2270114375964849 -2.027256399276101 -2.00227355085481 -1.9841728804631129 -1.9408625550053105 -1.888475464375897 -1.8274014199657267 -1.7575733440153847 -1.6791311246440015 -1.5922106245030381 -1.4969455924424249 -1.4194056883288233 -1.3347597025681281 -1.2431518088175504 -1.145070665153719 -1.040388178256979 -0.92930483141814968 -0.83995418796736143 -0.74499446103022793 -0.64468640504655161 -0.53931478716761005 -0.42919218750093557 -0.34172825017896757 -0.25009821839210006 -0.15467903254231782 -0.055870685738927686 0.045908618052155445 0.12557738843103392 0.20774557513447783 0.29193123889108241 0.37763715637635764 0.44269866872581992 0.50887388865207339 0.57561289308450647 0.64235726720751041 0.69043088187563317 0.73816696570376583 0.78497553632787209 0.81519195750845053 0.84417573078851149 0.87131653844332513 0.89602007758003865 0.91770647265329308 0.92577778727193938 0.93058594489134094 0.93175045385455624 0.92877798763248332 0.92122566155078767 0.90863280143018099 0.89078564220886991 0.87052272837628031 0.84372806870588934 0.8104807969517599 0.77145804189226586 0.72583477254040751 0.67430609514903428 0.61591906490853388 0.55815646831346433 0.4986038126628603 0.43495984096638002 0.37147051779022272 0.3097265913188133 0.24735014037040529 0.18636835530386084 0.12874142502443142 0.075046763840669939 0.021326414073803712
        </DataArray>
      </CellData>
      <Points>
        <DataArray type="Float32" NumberOfComponents="3" format="ascii">
          6.8787660188867727 9.6558892339225775 0
          6.8863499333267955 9.6580194867080724 0
          6.8939234007838968 9.6601864431183468 0
          6.9014798730225646 9.6624117176034403 0
          6.9090142557364924 9.6647103961882195 0
          6.9165221226603597 9.6670939378257241 0
          6.923999419215888 9.6695713677947133 0
          6.9314423305911319 9.6721498949039457 0
          6.9388472211552878 9.6748352777398043 0
          6.9462106087584026 9.6776320664146755 0
          6.9535291564104602 9.6805437785291666 0
          6.9607996754981674 9.6835730302942498 0
          6.9680191349288929 9.6867216409243699 0
          6.9751846740911931 9.6899907176360518 0
          6.9822936154896293 9.6933807320059167 0
          6.9893434756980799 9.6968915905297415 0
          6.9963319758329696 9.7005226969424871 0
          7.0032570528852442 9.7042730046172423 0
          7.0101168674766079 9.7081410683444496 0
          7.0169098090432112 9.7121250932414629 0
          7.0236345006296155 9.7162229772868063 0
          7.0302898013128239 9.7204323515427227 0
          7.0368748051747154 9.7247506198459597 0
          7.0433888393967594 9.7291749939861525 0
          7.0498314609512738 9.7337025257730954 0
          7.0562024477118053 9.7383301421473956 0
          7.0625017924183675 9.7430546713444102 0
          7.0687296925712761 9.7478728705693953 0
          7.0748865359816566 9.7527814551510765 0
          7.0809728866314368 9.7577771231713175 0
          7.086989485076133 9.7628565594159191 0
          7.0929372185456572 9.7680164736423745 0
          7.0988171035211645 9.7732536197254216 0
          7.1046302672283881 9.7785648134544729 0
          7.1103779287805482 9.7839469484181425 0
          7.1160613783762683 9.7893970119429543 0
          7.1216819567559879 9.7949120988752991 0
          7.1272410293138622 9.8004894291299571 0
          7.1327399659158539 9.8061263577985684 0
          7.1381801193869636 9.8118203855330837 0
          7.1435627970532201 9.8175691744743929 0
          7.1488892328082496 9.8233705622653158 0
          7.1541605587507284 9.8292225752729632 0
          7.159519455766933 9.8349941861942547 0
          7.1649862225139831 9.8406634097393191 0
          7.1705595221646528 9.8462276426492092 0
          7.1762586638654486 9.8516626138340015 0
          7.1821015793523948 9.8569424172196065 0
          7.1880845095370294 9.8620627448916043 0
          7.1942230594694347 9.8669951640776699 0
          7.2005115291806243 9.871734722169565 0
          7.2069625539685678 9.8762502967257646 0
          7.2135681785418315 9.8805363314381616 0
          7.2203546167047854 9.8845296961154538 0
          7.2273423433604185 9.8881591554146091 0
          7.2345683354839174 9.8912877730862281 0
          7.2419970221676033 9.8938994167989804 0
          7.2495900090852388 9.8959866390611158 0
          7.2573105632886623 9.8975383777749375 0
          7.2651211879875497 9.898545823314036 0
          7.2729837149353269 9.8990024473355795 0
          7.2808593877854477 9.8989037550194592 0
          7.2887089086220884 9.89824783180471 0
          7.2965472582798441 9.8974708420921296 0
          7.3043753575210291 9.8965973642854337 0
          7.3121884211839934 9.8955991226424249 0
          7.3199840836026926 9.8944737334667447 0
          7.3277598689370436 9.8932189535907789 0
          7.3355130937773634 9.8918321166573691 0
          7.3432408924626218 9.8903104456412088 0
          7.3509402052181656 9.888651072711971 0
          7.358607766687026 9.886851058790695 0
          7.3662466058833775 9.8849330801011082 0
          7.3738539209116931 9.8828939045844528 0
          7.3814267054646328 9.8807302510600632 0
          7.3889618307004019 9.8784391059506564 0
          7.3964558691829261 9.876017154891013 0
          7.4039051661570499 9.8734610956393229 0
          7.4113145652048598 9.870791723294662 0
          7.4186807777902617 9.8680055210421038 0
          7.4260003019383962 9.8650990056112562 0
          7.4332694164551452 9.8620687449627358 0
          7.4404841782218067 9.8589113819956165 0
          7.4476507257667119 9.8556461449431723 0
          7.4547654270584633 9.852269516047139 0
          7.4618244460537761 9.8487780638163702 0
          7.4688237395923558 9.8451684603484164 0
          7.4757590549421566 9.8414374986736046 0
          7.4826376300259261 9.8376029985828328 0
          7.4894555069697262 9.8336616523057057 0
          7.4962085448220597 9.8296102866397259 0
          7.5028924197522286 9.8254458798683721 0
          7.509515191727786 9.821185023438181 0
          7.516072822571771 9.8168246368934593 0
          7.5225611234820748 9.8123618037666098 0
          7.5289757586091968 9.8077937880324608 0
          7.5353255253414089 9.8031360756655364 0
          7.541606390347976 9.7983859167849499 0
          7.5478142133269071 9.7935407538441535 0
          7.5539583228336955 9.7886150975518298 0
          7.5600348972256164 9.7836064195784562 0
          7.5660400608426226 9.7785124033362578 0
          7.5719698902386741 9.7733309519710083 0
          7.5778204332482995 9.7680602089432114 0
          7.5836019601641835 9.7627139121819901 0
          7.5893111889663256 9.757290540933953 0
          7.5949446719973608 9.7517885977412817 0
          7.6004990339456073 9.7462068600002798 0
          7.6059710025214438 9.7405443969590166 0
          7.6113576815551429 9.7348008094811558 0
          7.6166561215761703 9.7289757928006431 0
          7.6218481352056999 9.7230557935504525 0
          7.6269308078598055 9.7170417267564062 0
          7.631901837566704 9.7109351183170052 0
          7.636742010147068 9.7047243348318357 0
          7.6414494030399753 9.6984123607480246 0
          7.6460223798354274 9.6920023600323972 0
          7.6504417775046143 9.6854855315854387 0
          7.6547483242441086 9.6788935698477676 0
          7.65894778296592 9.6722328413632486 0
          7.6630260839884885 9.6654971863330061 0
          7.6669910610281713 9.658694115407128 0
          7.6708545306531075 9.6518327684034766 0
          7.6746092174940106 9.6449111296686727 0
          7.6782540747369525 9.6379308174240954 0
          7.6817949389992748 9.6308969123174712 0
          7.6852355601740703 9.6238130938059339 0
          7.688487832017036 9.6166403446843756 0
        </DataArray>
      </Points>
      <Cells>
        <DataArray type="Int32" Name="connectivity" format="ascii">
          0 1 1 2 2 3 3 4 4 5 5 6 6 7 7 8 8 9 9 10 10 11 11 12 12 13 13 14 14 15 15 16 16 17 17 18 18 19 19 20 20 21 21 22 22 23 23 24 24 25 25 26 26 27 27 28 28 29 29 30 30 31 31 32 32 33 33 34 34 35 35 36 36 37 37 38 38 39 39 40 40 41 41 42 42 43 43 44 44 45 45 46 46 47 47 48 48 49 49 50 50 51 51 52 52 53 53 54 54 55 55 56 56 57 57 58 58 59 59 60 60 61 61 62 62 63 63 64 64 65 65 66 66 67 67 68 68 69 69 70 70 71 71 72 72 73 73 74 74 75 75 76 76 77 77 78 78 79 79 80 80 81 81 82 82 83 83 84 84 85 85 86 86 87 87 88 88 89 89 90 90 91 91 92 92 93 93 94 94 95 95 96 96 97 97 98 98 99 99 100 100 101 101 102 102 103 103 104 104 105 105 106 106 107 107 108 108 109 109 110 110 111 111 112 112 113 113 114 114 115 115 116 116 117 117 118 118 119 119 120 120 121 121 122 122 123 123 124 124 125 125 126 126 127 
        </DataArray>
        <DataArray type="Int32" Name="offsets" format="ascii">
          2 4 6 8 10 12 14 16 18 20 22 24 26 28 30 32 34 36 38 40 42 44 46 48 50 52 54 56 58 60 62 64 66 68 70 72 74 76 78 80 82 84 86 88 90 92 94 96 98 100 102 104 106 108 110 112 114 116 118 120 122 124 126 128 130 132 134 136 138 140 142 144 146 148 150 152 154 156 158 160 162 164 166 168 170 172 174 176 178 180 182 184 186 188 190 192 194 196 198 200 202 204 206 208 210 212 214 216 218 220 222 224 226 228 230 232 234 236 238 240 242 244 246 248 250 252 254 
        </DataArray>
        <DataArray type="Int32" Name="types" format="ascii">
          3 3 3 3 3 3 3 3 3 3 3 3 3 3 3 3 3 3 3 3 3 3 3 3 3 3 3 3 3 3 3 3 3 3 3 3 3 3 3 3 3 3 3 3 3 3 3 3 3 3 3 3 3 3 3 3 3 3 3 3 3 3 3 3 3 3 3 3 3 3 3 3 3 3 3 3 3 3 3 3 3 3 3 3 3 3 3 3 3 3 3 3 3 3 3 3 3 3 3 3 3 3 3 3 3 3 3 3 3 3 3 3 3 3 3 3 3 3 3 3 3 3 3 3 3 3 3         </DataArray>
      </Cells>
    </Piece>
  </UnstructuredGrid>
</VTKFile>
