<?xml version="1.0"?>
<VTKFile type="UnstructuredGrid" version="0.1" byte_order="LittleEndian">
  <UnstructuredGrid>
    <Piece NumberOfPoints="128" NumberOfCells="127">
      <PointData Scalars="W">
        <DataArray type="Float32" Name="W" NumberOfComponents="2">
          0 0 0.59562637965469623 0.086048863250977783 0.89760605184641817 0.12423954950983833 1.1332247323069768 0.14754556400820787 1.33315217673068 0.16032550680114363 1.5099876867610516 0.16435608089325851 1.6705441382284758 0.1605830890195139 1.8189661824140462 0.14956156689472869 1.9579919098034535 0.13163210213263754 2.089418999986123 0.10699628045934706 2.2145409728775358 0.075773457193142713 2.3342712170763211 0.038022930239888619 2.44923730932683 -0.006237875772868131 2.5598165939398219 -0.057018033882327922 2.6662022253070039 -0.11433857574387589 2.7684757488959426 -0.17822365597039241 2.8667364602651562 -0.24870540794021617 2.9608929815077314 -0.32580707954163307 3.0508074052277858 -0.40954237665972887 3.1363376347348342 -0.49991960549733855 3.2172688727963803 -0.59693091931848874 3.2933087152810212 -0.70054284843642289 3.3641619276408949 -0.81070482091023166 3.4295313122844711 -0.9273506297138403 3.4890292087460884 -1.0503718360565795 3.5423391107853184 -1.1796584377496724 3.5890692072171917 -1.3150573867516089 3.6287307354781762 -1.4563490569884658 3.6609056471984327 -1.6033019306231211 3.6854948836200281 -1.755809468268168 3.7017491398807332 -1.9134466487206609 3.7092484261587866 -2.0758774222680767 3.7075689795780673 -2.2427229436034488 3.6963144163145287 -2.4135774656407407 3.6750712506842791 -2.5879788602261504 3.6434669309380485 -2.7654425106581249 3.6010566697491337 -2.9453710415152141 3.5475526846440486 -3.1272259842238785 3.4826914259208746 -3.3104452599164116 3.4061163344211107 -3.4943188225782325 3.3175527974770898 -3.6781294613368902 3.2167829788744466 -3.8611375585283225 -3.1889249267216195 3.8290027437137186 -3.2853832256800612 3.6462227527369677 -3.1633032784596384 3.2583849004076844 -3.2055777172763578 3.0763510044307467 -3.2431892987405586 2.9035423976819654 -3.2610804899823056 2.7263359111180581 -3.2861681038063573 2.5671389361693553 -3.2930364765795734 2.4045165893922698 -3.2909448713344474 2.2464091716085184 -3.3037498804543968 2.1075342266480943 -3.2869323149168745 1.958437614145532 -3.2749781630111698 1.8212645004195533 -3.2567738721674511 1.6885977847909743 -3.2340286972038395 1.5611996547880445 -3.1826889289426084 1.4284523185893045 -3.1255662601207415 1.30237078792664 -3.0632237496697408 1.1829877662071713 -2.995079612738651 1.0699106631490234 -2.9220691304546245 0.96334875153931954 -2.8445420837928892 0.86324768386449457 -2.7634833795560678 0.76970957717698685 -2.6988697178563466 0.68736573125078937 -2.5896107097311196 0.60075220698221976 -2.5445574427558095 0.53504145126010794 -2.4759279403800618 0.46870652966970866 -2.4314103414531143 0.41101793583073487 -2.3636454939850999 0.3532280276658798 -2.322238631406933 0.30292953579002385 -2.2816716832652491 0.25536263392100494 -2.2175336881978258 0.20827480649855773 -2.1806499203459531 0.16663643987880927 -2.1204404256797948 0.12587771394527819 -2.0879832342480045 0.089218154075393602 -2.0579966814382926 0.054282177691637699 -2.0033964444747387 0.020789905042797558 -1.9787389704604685 -0.01049025747419495 -1.9577673224509957 -0.040730228364409947 -1.9107904835874268 -0.068892188012899855 -1.8950504360781517 -0.096801878757517071 -1.8824796059772899 -0.12430195019669653 -1.8441698201421122 -0.14905016921275521 -1.8382680581831592 -0.17553672225584926 -1.8366476026535299 -0.20237907181510129 -1.8376722704782715 -0.22963007782210296 -1.8124834445920235 -0.25321771550467553 -1.8208321972739638 -0.28128148797303648 -1.8328833365062598 -0.31055451121927891 -1.818135728745107 -0.33542851434285459 -1.8387837383725099 -0.36719214888829099 -1.8624159113493246 -0.40082270201498438 -1.8586287258117058 -0.42929604158724993 -1.8902953735291126 -0.46693706919406908 -1.9259151218868329 -0.50754874086874047 -1.9335101002736936 -0.54225177363405941 -1.9773316701116501 -0.58888685486997161 -2.0259789935752557 -0.63992517889611777 -2.0450974976419309 -0.68408094275084885 -2.1010029607567682 -0.74335223702537401 -2.1274665343096442 -0.79539856368943473 -2.1913085551470588 -0.86508687692664865 -2.2595942236410735 -0.94182202289799277 -2.2968149855954145 -1.0103924467759315 -2.3713367492657893 -1.1007899424972749 -2.4147432440533443 -1.1828356936986519 -2.4963142950001957 -1.2905404678154364 -2.5448292890710489 -1.3889850538286521 -2.6302457927358747 -1.5164322453679038 -2.6822534332528201 -1.6345947347314524 -2.7360004622981733 -1.7633381942109347 -2.8248092993613771 -1.927491904481659 -2.878198158794588 -2.0819673086829975 -2.9292749010975805 -2.2489311524066911 -2.9778541575142947 -2.4300076566259436 -3.0235473215288708 -2.6270511677523838 -3.0640065334417841 -2.8405375369320267 2.8930922148351823 2.6869614809614846 3.1616916994689181 2.7530487983345076 2.8663283928997458 2.343284458039852 2.7304165499227153 2.1067685171922186 2.5700653739649733 1.8780729160951566 2.4222093805118603 1.6818595508721916 1.9636498592218559 1.3035237434588327 1.5090335563218251 0.96660287560449598 0.66323277439158512 0.41540957364810666 -3.7960276657855432 -2.4561388662178425 0 0
        </DataArray>
        <DataArray type="Float32" Name="u" NumberOfComponents="1">
          0 0.007874015748031496 0.015748031496062992 0.023622047244094488 0.031496062992125984 0.03937007874015748 0.047244094488188976 0.055118110236220472 0.062992125984251968 0.070866141732283464 0.07874015748031496 0.086614173228346455 0.094488188976377951 0.10236220472440945 0.11023622047244094 0.11811023622047244 0.12598425196850394 0.13385826771653545 0.14173228346456693 0.14960629921259844 0.15748031496062992 0.16535433070866143 0.17322834645669291 0.18110236220472442 0.1889763779527559 0.19685039370078741 0.20472440944881889 0.2125984251968504 0.22047244094488189 0.2283464566929134 0.23622047244094488 0.24409448818897639 0.25196850393700787 0.25984251968503935 0.26771653543307089 0.27559055118110237 0.28346456692913385 0.29133858267716534 0.29921259842519687 0.30708661417322836 0.31496062992125984 0.32283464566929132 0.33070866141732286 0.33858267716535434 0.34645669291338582 0.3543307086614173 0.36220472440944884 0.37007874015748032 0.37795275590551181 0.38582677165354329 0.39370078740157483 0.40157480314960631 0.40944881889763779 0.41732283464566927 0.42519685039370081 0.43307086614173229 0.44094488188976377 0.44881889763779526 0.45669291338582679 0.46456692913385828 0.47244094488188976 0.48031496062992124 0.48818897637795278 0.49606299212598426 0.50393700787401574 0.51181102362204722 0.51968503937007871 0.52755905511811019 0.53543307086614178 0.54330708661417326 0.55118110236220474 0.55905511811023623 0.56692913385826771 0.57480314960629919 0.58267716535433067 0.59055118110236215 0.59842519685039375 0.60629921259842523 0.61417322834645671 0.62204724409448819 0.62992125984251968 0.63779527559055116 0.64566929133858264 0.65354330708661412 0.66141732283464572 0.6692913385826772 0.67716535433070868 0.68503937007874016 0.69291338582677164 0.70078740157480313 0.70866141732283461 0.71653543307086609 0.72440944881889768 0.73228346456692917 0.74015748031496065 0.74803149606299213 0.75590551181102361 0.76377952755905509 0.77165354330708658 0.77952755905511806 0.78740157480314965 0.79527559055118113 0.80314960629921262 0.8110236220472441 0.81889763779527558 0.82677165354330706 0.83464566929133854 0.84251968503937003 0.85039370078740162 0.8582677165354331 0.86614173228346458 0.87401574803149606 0.88188976377952755 0.88976377952755903 0.89763779527559051 0.90551181102362199 0.91338582677165359 0.92125984251968507 0.92913385826771655 0.93700787401574803 0.94488188976377951 0.952755905511811 0.96062992125984248 0.96850393700787396 0.97637795275590555 0.98425196850393704 0.99212598425196852 1
        </DataArray>
      </PointData>
      <CellData Scalars="P">
        <DataArray type="Float32" Name="P" NumberOfComponents="1">
          -0.0069199051861687476 -0.019514380390417106 -0.029641737684749141 -0.036527303837144538 -0.039568580297721499 -0.038261181265526488 -0.032162470447277443 -0.020871297531959588 -0.0040151811074854524 0.018756389557553117 0.047777669241758178 0.083369943469449925 0.12584324884863371 0.17549622820608751 0.23261538188522846 0.29747465286613728 0.37033785009061265 0.4514546358513285 0.54105962736473323 0.63937258369212835 0.74659603577295675 0.86291207662951963 0.98848149433674715 1.1234429222597335 1.2679080192143457 1.4219633045497395 1.5856655523295884 1.7590352850103819 1.9420580444866844 2.1347000701482348 2.3368718396271326 2.5484425658799372 2.7692376015194249 2.9990376270401615 3.2375749609461759 3.4845334448655496 3.7395402537965352 4.0021737122021488 4.2719625941941208 4.5483755713409675 4.8308235458688946 5.1186604170081562 4.8090000613074642 4.4893501834676526 4.1818778850762843 3.8710933166783761 3.5581884133468873 3.245755631721905 2.9337272807805168 2.6244328312150951 2.3192350494823195 2.0172443245968301 1.7216442898248239 1.4323772009762246 1.1503591314673884 0.87630235342906315 0.61286276488239233 0.36063010346897328 0.12008204740816925 -0.10832521733275934 -0.32427712098252398 -0.52755124927132679 -0.71805898908946642 -0.89709158453439064 -1.061952921349727 -1.2169660195317098 -1.3608343998488919 -1.4951122013168667 -1.6187001802569123 -1.7331545666018022 -1.8386342257032775 -1.9342773200415626 -2.0214594149523073 -2.0994919277473985 -2.1695959686533572 -2.2319874276893032 -2.286179303170516 -2.3331676416564657 -2.3731532537256692 -2.4058592073293421 -2.4319737956909848 -2.4516299012781513 -2.464799722590457 -2.471823369122649 -2.4727648648387519 -2.4676642824281654 -2.4568028595658249 -2.4400188682695374 -2.4172790116474152 -2.38910004566833 -2.3549160531654185 -2.3146393703546062 -2.2690290956487744 -2.2171626869628147 -2.1588808235384351 -2.0951926583824214 -2.0248309882277997 -1.94757204740056 -1.8647209598605832 -1.7747227768969063 -1.679047558642293 -1.5759764156824798 -1.4653385988400698 -1.3489453588273095 -1.2249586178962348 -1.0953788435661669 -0.95830009404258454 -0.81602926256899433 -0.66678311105851951 -0.51310037420495591 -0.35550703844210474 -0.19254739297339374 -0.027224891984271492 0.13935691665819258 0.30594637116215068 0.47111396700331587 0.63311837163434892 0.4947650762875947 0.35842082375638562 0.25067870918305601 0.16227319486599021 0.092284925798327866 0.038438266379129775 0.0049885973313302159 -0.013255299159296052 -0.01746990762679583 0.00070900289249405297
        </DataArray>
      </CellData>
      <Points>
        <DataArray type="Float32" NumberOfComponents="3" format="ascii">
          3.9413549685687057 9.0118724498207481 0
          3.9402106456988339 9.0196629221476794 0
          3.9391032521261895 9.0274587302617721 0
          3.9380515108339349 9.0352622424339373 0
          3.9370700303968187 9.0430749039639728 0
          3.9361712065274168 9.0508975074681608 0
          3.935366003241469 9.0587303030560982 0
          3.9346643752607471 9.0665730569807348 0
          3.9340755249840602 9.0744250860560012 0
          3.9336080722504172 9.0822852787761494 0
          3.9332701657959181 9.0901521078155412 0
          3.9330695634522828 9.0980236374292573 0
          3.933013688776839 9.1058975271295761 0
          3.9331096699618251 9.113771032765932 0
          3.9333643632289172 9.1216410059617701 0
          3.9337843648036657 9.1295038928098169 0
          3.9343760159699213 9.1373557323736438 0
          3.9351454092246914 9.1451921546945272 0
          3.9360983826108584 9.1530083793492363 0
          3.9372405111648829 9.160799214599491 0
          3.9385770981046484 9.1685590568762994 0
          3.9401131615096627 9.1762818912659245 0
          3.9418534161894025 9.1839612935846215 0
          3.9438022553760876 9.1915904335139444 0
          3.9459637322956773 9.1991620787056014 0
          3.9483415361299676 9.2066686015049601 0
          3.9509389723903579 9.2141019857717055 0
          3.9537589386225762 9.2214538363695997 0
          3.956803894100271 9.2287153927844692 0
          3.9600758339030597 9.2358775434797096 0
          3.9635762827726722 9.2429308325031023 0
          3.9673062486526764 9.2498654858403508 0
          3.9712661966465141 9.2566714322524231 0
          3.9754560227417866 9.2633383267664975 0
          3.9798750292323142 9.2698555758350523 0
          3.9845218990800806 9.2762123659908529 0
          3.9893946728154357 9.2823976938963888 0
          3.9944907209588139 9.2884004033846814 0
          3.9998067261774128 9.2942092188478131 0
          4.0053386669446587 9.2998127800893116 0
          4.0110817954332161 9.305199686350818 0
          4.0170306204891775 9.3103585407829108 0
          4.0231788941268434 9.3152779963050705 0
          4.0291294476745945 9.3204348594121669 0
          4.0348763003474977 9.3258177973147038 0
          4.0404270187267342 9.3314027605025238 0
          4.0457789817101268 9.3371784619864169 0
          4.050929857424971 9.3431341868575739 0
          4.0558785366490389 9.3492589474313412 0
          4.0606234641685646 9.355542872874997 0
          4.0651642143331213 9.3619758798862716 0
          4.0695009170514069 9.3685481651144986 0
          4.0736327787913318 9.3752511179398166 0
          4.0775608425137957 9.3820754937449529 0
          4.0812858497244529 9.3890127873400644 0
          4.0848089294452281 9.396054772956111 0
          4.0881314922429208 9.4031935515134766 0
          4.0912567214905504 9.4104208920538177 0
          4.094188159132651 9.4177289769325867 0
          4.0969296707718881 9.4251104038516349 0
          4.0994854817338613 9.4325581615131728 0
          4.1018601190776156 9.4400656426059921 0
          4.1040583899052949 9.4476266404421168 0
          4.1060853202944161 9.4552353553006068 0
          4.1079449167533726 9.4628866817266282 0
          4.109643953763352 9.4705752492943258 0
          4.1111852250956256 9.4782969841139817 0
          4.1125729862061355 9.4860477734921442 0
          4.1138099975972029 9.4938240410167385 0
          4.1149004610608682 9.5016222039152947 0
          4.1158469441688164 9.5094391440760901 0
          4.1166519623789792 9.517271912783734 0
          4.1173194925156622 9.52511759098563 0
          4.1178518216040709 9.5329735976482848 0
          4.1182526828243136 9.5408374062676948 0
          4.118524088669429 9.5487067446113887 0
          4.1186678984063114 9.5565794473506926 0
          4.118687497305805 9.5644534387086377 0
          4.1185844141339727 9.5723267801362013 0
          4.1183599490826861 9.5801975976160989 0
          4.1180170146127235 9.5880641460687901 0
          4.1175565864410197 9.5959246960752189 0
          4.11697944373116 9.6037775436516934 0
          4.1162879613954431 9.6116211555959499 0
          4.1154825049750903 9.6194538908808251 0
          4.1145631744958351 9.6272740864484891 0
          4.1135299059065566 9.6350800539391237 0
          4.1123842602996881 9.6428703323813796 0
          4.1111257193457202 9.6506431831248314 0
          4.1097535350685623 9.6583967925640497 0
          4.1082686208927486 9.6661296201682223 0
          4.1066696956036175 9.6738396979769004 0
          4.104955292844207 9.6815249422863996 0
          4.1031256460990795 9.6891835895534388 0
          4.1011787905793051 9.6968133074483287 0
          4.0991125162477386 9.7044115794243986 0
          4.0969263503977347 9.7119762557597884 0
          4.0946175741093382 9.7195044463991529 0
          4.0921831690734676 9.7269929881792123 0
          4.0896219475057283 9.7344391452290662 0
          4.086930440635709 9.7418392437740806 0
          4.0841070047838777 9.7491900585945537 0
          4.0811476785934824 9.7564872697636105 0
          4.078048224942199 9.7637261201874175 0
          4.0748063323556432 9.7709023596566862 0
          4.0714173764705892 9.7780103834970653 0
          4.0678786616459632 9.7850451055182024 0
          4.0641851258220028 9.7919998472185004 0
          4.0603337559416843 9.7988685049411064 0
          4.0563192508651698 9.8056431751702799 0
          4.0521383802949238 9.8123165307218692 0
          4.0477878057105343 9.8188805877879766 0
          4.0432620146831493 9.825325164947305 0
          4.0385576902948213 9.8316406814496684 0
          4.0336716586598511 9.8378167814262643 0
          4.0286009004674312 9.8438422330345006 0
          4.0233425751500231 9.849704813316329 0
          4.01789416652817 9.8553912786038023 0
          4.0126254206247909 9.8612441282867653 0
          4.0075529281917515 9.8672674893592749 0
          4.0026583273671461 9.8734359683569348 0
          3.9979331444964865 9.8797349282203282 0
          3.9933673957878857 9.8861502223105155 0
          3.9889518768894479 9.8926697227244844 0
          3.9846581247326402 9.8992700125645623 0
          3.9804579221601499 9.9059302491435695 0
          3.9762987961670317 9.9126163127731814 0
          3.9719041746345076 9.9191502847562809 0
        </DataArray>
      </Points>
      <Cells>
        <DataArray type="Int32" Name="connectivity" format="ascii">
          0 1 1 2 2 3 3 4 4 5 5 6 6 7 7 8 8 9 9 10 10 11 11 12 12 13 13 14 14 15 15 16 16 17 17 18 18 19 19 20 20 21 21 22 22 23 23 24 24 25 25 26 26 27 27 28 28 29 29 30 30 31 31 32 32 33 33 34 34 35 35 36 36 37 37 38 38 39 39 40 40 41 41 42 42 43 43 44 44 45 45 46 46 47 47 48 48 49 49 50 50 51 51 52 52 53 53 54 54 55 55 56 56 57 57 58 58 59 59 60 60 61 61 62 62 63 63 64 64 65 65 66 66 67 67 68 68 69 69 70 70 71 71 72 72 73 73 74 74 75 75 76 76 77 77 78 78 79 79 80 80 81 81 82 82 83 83 84 84 85 85 86 86 87 87 88 88 89 89 90 90 91 91 92 92 93 93 94 94 95 95 96 96 97 97 98 98 99 99 100 100 101 101 102 102 103 103 104 104 105 105 106 106 107 107 108 108 109 109 110 110 111 111 112 112 113 113 114 114 115 115 116 116 117 117 118 118 119 119 120 120 121 121 122 122 123 123 124 124 125 125 126 126 127 
        </DataArray>
        <DataArray type="Int32" Name="offsets" format="ascii">
          2 4 6 8 10 12 14 16 18 20 22 24 26 28 30 32 34 36 38 40 42 44 46 48 50 52 54 56 58 60 62 64 66 68 70 72 74 76 78 80 82 84 86 88 90 92 94 96 98 100 102 104 106 108 110 112 114 116 118 120 122 124 126 128 130 132 134 136 138 140 142 144 146 148 150 152 154 156 158 160 162 164 166 168 170 172 174 176 178 180 182 184 186 188 190 192 194 196 198 200 202 204 206 208 210 212 214 216 218 220 222 224 226 228 230 232 234 236 238 240 242 244 246 248 250 252 254 
        </DataArray>
        <DataArray type="Int32" Name="types" format="ascii">
          3 3 3 3 3 3 3 3 3 3 3 3 3 3 3 3 3 3 3 3 3 3 3 3 3 3 3 3 3 3 3 3 3 3 3 3 3 3 3 3 3 3 3 3 3 3 3 3 3 3 3 3 3 3 3 3 3 3 3 3 3 3 3 3 3 3 3 3 3 3 3 3 3 3 3 3 3 3 3 3 3 3 3 3 3 3 3 3 3 3 3 3 3 3 3 3 3 3 3 3 3 3 3 3 3 3 3 3 3 3 3 3 3 3 3 3 3 3 3 3 3 3 3 3 3 3 3         </DataArray>
      </Cells>
    </Piece>
  </UnstructuredGrid>
</VTKFile>
