<?xml version="1.0"?>
<VTKFile type="UnstructuredGrid" version="0.1" byte_order="LittleEndian">
  <UnstructuredGrid>
    <Piece NumberOfPoints="128" NumberOfCells="127">
      <PointData Scalars="W">
        <DataArray type="Float32" Name="W" NumberOfComponents="2">
          0 0 -0.6198174419609046 -0.00026131404039190321 -1.0018325196497362 -0.0068190517639544011 -1.2941559360498269 -0.020510226797355077 -1.5379919445418655 -0.041536906285272283 -1.7501339934335507 -0.069962951080787317 -1.9391409989261581 -0.1057819161897315 -2.1100486286110356 -0.14894508284556782 -2.2660595263859777 -0.19937359368886809 -2.4093803094902615 -0.25697213278388109 -2.5415029673728151 -0.32162425523822696 -2.6635216458120841 -0.39320329284275529 -2.7762456313069732 -0.47157510676331005 -2.8802643930631011 -0.55659786248887566 -2.9760303259456582 -0.64812899350126862 -3.0638726957593811 -0.74602356583893381 -3.1439350979809695 -0.85010978600979481 -3.2163648059122836 -0.96022748679671999 -3.2812068998558308 -1.0762002846888001 -3.3384240494092001 -1.1978317040461381 -3.3879460562018946 -1.3249152307918928 -3.4296938654063576 -1.4572426865331598 -3.463545059440635 -1.5945897895738512 -3.4893404219464057 -1.736713669011954 -3.5069124056825514 -1.8833630171224325 -3.5160174390455317 -2.0342376598164984 -3.51645524152678 -2.189047205226764 -3.5080611380196922 -2.3475176078149622 -3.4905733430608383 -2.5093043830931681 -3.463481489923395 -2.6738426147563374 -3.4268401894910392 -2.8409556806991474 -3.3803860741448486 -3.0102366123316791 -3.3238547279093358 -3.1812489815607718 -3.256979312658022 -3.3535204344267933 -3.1795082979742038 -3.5265554905735326 -3.0911983189634897 -3.6998257528572904 -2.9918827128230863 -3.8728562034682614 -2.8813095298881857 -4.0450268391586537 -2.7592388599857109 -4.2156563722710034 -2.6255366261687025 -4.3841457404729489 -2.480065917387138 -4.5498354333100144 -2.322696575044394 -4.711996942100793 1.9192262751176432 3.9278172847997208 2.0123037514283886 3.7854591583734001 2.0940869290795625 3.6403919613110975 2.16976998650525 3.5014260104456518 2.230376596909506 3.3539859865999597 2.2862315822848189 3.2144151882192284 2.3330853708594272 3.0756458520041212 2.37128230165552 2.9381982182526825 2.4013696273550353 2.8027451602114555 2.4238654394946231 2.6698029750338472 2.4393044587298225 2.5398142828330972 2.4482305234693329 2.4131523759516544 2.4579944717705913 2.2963164233478324 2.4558426287132868 2.1768159174930295 2.4556568532511491 2.0670384801798707 2.4446304380050035 1.9556180409468973 2.4296424283982785 1.8484605635432398 2.4039189427441308 1.7405022674363095 2.3746769833492403 1.6372872272351993 2.3423902749646137 1.5388107487473157 2.3075075296950684 1.445036814683736 2.2704569493060389 1.3559053884448802 2.2317476884320917 1.2713921517692091 2.201257027492161 1.1964261055988925 2.1604239282447497 1.1203743668335451 2.1291166643873782 1.0534761369787757 2.0980201564313146 0.9902419120082171 2.0675396444677845 0.93057738290164449 2.0376871791044957 0.87421164987258571 2.0088260953630441 0.82104139525266651 1.9811869359446626 0.77090272245816738 1.9549802957244988 0.72362679260023655 1.9305372631011974 0.6790889409228773 1.9077779698650421 0.63702192311702399 1.8761407120643514 0.59395569514353497 1.8574249881608584 0.55674593340581102 1.8410238678733428 0.52153232372088953 1.827080935195879 0.48814090060266963 1.8158707702764123 0.45643065192203364 1.807245033989656 0.42615379395652458 1.8014638882493048 0.39717056444168358 1.7986440235221282 0.36930104159956417 1.7988971059114889 0.34236237862020191 1.8023284867123899 0.31616768919802807 1.8202902272926289 0.29224872608466396 1.8304437892500895 0.26663756708161468 1.8442238792167667 0.24119387614782958 1.8614285061275784 0.21566331198662406 1.8822963136729853 0.18984547285389097 1.9069217482318648 0.16350672235906102 1.9463695181702281 0.13708882125453534 1.9787917272744162 0.10861026626532873 2.0152216132525989 0.078813354025738788 2.055736977814095 0.047398543893787538 2.1004186862409751 0.014044736380334082 2.1493367593298425 -0.021593878666277745 2.2133441572456065 -0.060277892952067903 2.2709178677360753 -0.10202184691671001 2.3329043521276689 -0.14728282967030984 2.3993449940290215 -0.19653980399663445 2.4702720176815114 -0.25031504631043788 2.5457017152284251 -0.30917894975596671 2.6257991717772859 -0.37378117150649171 2.7102260514038043 -0.44476550870455583 2.7886631800751545 -0.5208330623948122 2.8820059438336996 -0.60647001026306557 2.9798016956393405 -0.70102328748827236 3.0815827086216707 -0.80543537210994287 3.1768004428162522 -0.91767709859932944 3.2865963265728309 -1.0448676610188099 3.3996757803419388 -1.1856721562771002 3.5054225081700099 -1.3375768166769746 3.624445839449121 -1.5100378810062269 3.7351175491219921 -1.6966276118188091 3.8472536084096252 -1.9033774396997345 3.9715554872258694 -2.1393133515675826 4.0851652114497714 -2.3963593336935989 4.1871280487124505 -2.6763090378383239 1.8803626094643102 -1.2788527626105806 1.8517036951694039 -1.3083941908493406 1.7356978518054409 -1.2722820955020551 1.5895948973144527 -1.2055836007871419 1.0457928432383177 -0.81491330308300269 -0.014282207832969468 0.011247813305420871 -0.45154031592981286 0.35390376129120044 0 0
        </DataArray>
        <DataArray type="Float32" Name="u" NumberOfComponents="1">
          0 0.007874015748031496 0.015748031496062992 0.023622047244094488 0.031496062992125984 0.03937007874015748 0.047244094488188976 0.055118110236220472 0.062992125984251968 0.070866141732283464 0.07874015748031496 0.086614173228346455 0.094488188976377951 0.10236220472440945 0.11023622047244094 0.11811023622047244 0.12598425196850394 0.13385826771653545 0.14173228346456693 0.14960629921259844 0.15748031496062992 0.16535433070866143 0.17322834645669291 0.18110236220472442 0.1889763779527559 0.19685039370078741 0.20472440944881889 0.2125984251968504 0.22047244094488189 0.2283464566929134 0.23622047244094488 0.24409448818897639 0.25196850393700787 0.25984251968503935 0.26771653543307089 0.27559055118110237 0.28346456692913385 0.29133858267716534 0.29921259842519687 0.30708661417322836 0.31496062992125984 0.32283464566929132 0.33070866141732286 0.33858267716535434 0.34645669291338582 0.3543307086614173 0.36220472440944884 0.37007874015748032 0.37795275590551181 0.38582677165354329 0.39370078740157483 0.40157480314960631 0.40944881889763779 0.41732283464566927 0.42519685039370081 0.43307086614173229 0.44094488188976377 0.44881889763779526 0.45669291338582679 0.46456692913385828 0.47244094488188976 0.48031496062992124 0.48818897637795278 0.49606299212598426 0.50393700787401574 0.51181102362204722 0.51968503937007871 0.52755905511811019 0.53543307086614178 0.54330708661417326 0.55118110236220474 0.55905511811023623 0.56692913385826771 0.57480314960629919 0.58267716535433067 0.59055118110236215 0.59842519685039375 0.60629921259842523 0.61417322834645671 0.62204724409448819 0.62992125984251968 0.63779527559055116 0.64566929133858264 0.65354330708661412 0.66141732283464572 0.6692913385826772 0.67716535433070868 0.68503937007874016 0.69291338582677164 0.70078740157480313 0.70866141732283461 0.71653543307086609 0.72440944881889768 0.73228346456692917 0.74015748031496065 0.74803149606299213 0.75590551181102361 0.76377952755905509 0.77165354330708658 0.77952755905511806 0.78740157480314965 0.79527559055118113 0.80314960629921262 0.8110236220472441 0.81889763779527558 0.82677165354330706 0.83464566929133854 0.84251968503937003 0.85039370078740162 0.8582677165354331 0.86614173228346458 0.87401574803149606 0.88188976377952755 0.88976377952755903 0.89763779527559051 0.90551181102362199 0.91338582677165359 0.92125984251968507 0.92913385826771655 0.93700787401574803 0.94488188976377951 0.952755905511811 0.96062992125984248 0.96850393700787396 0.97637795275590555 0.98425196850393704 0.99212598425196852 1
        </DataArray>
      </PointData>
      <CellData Scalars="P">
        <DataArray type="Float32" Name="P" NumberOfComponents="1">
          -0.011338717854798711 -0.032393998793719708 -0.049983959685388629 -0.063080456838196894 -0.07097820593755344 -0.073156903584246952 -0.069218749820857128 -0.058852132787785616 -0.041808576197954098 -0.017885814321701332 0.013082788678746727 0.051237492482395862 0.096699228022594716 0.14957481711389858 0.20996181793790525 0.27795204098888854 0.35363167127585909 0.43708562302107218 0.52839805685070107 0.62765252161222129 0.73493305821183108 0.85032580670351676 0.97391898676061917 1.1058026409033408 1.2460691990586574 1.3948106090054166 1.5521204501410852 1.7180960377767867 1.8928335513731185 2.0764127262385998 2.2689274230043428 2.4704678173153889 2.6811188471188547 2.9009581453596467 3.1300548015598695 3.3684672977432957 3.6162470889333229 3.8734284373269436 4.1400243271904573 4.4160316493590912 4.7014263660180395 4.9961581268035147 4.7138425877564014 4.4216478419133001 4.1220132934530982 3.8165659050285563 3.5080859850614408 3.1978363277477184 2.8875895408380852 2.5789808059094663 2.2734849499676901 1.9724253697406728 1.6769772555940328 1.3881722227402618 1.1061460750808056 0.83242480151716269 0.56693168521875403 0.31091026293492957 0.0647924086544414 -0.17040469400163122 -0.39445800342595289 -0.60723565218673525 -0.80868820696380395 -0.99884056352984441 -1.1777917743374653 -1.3463854334111613 -1.5040986445011857 -1.6518349830049608 -1.7898208780037421 -1.9183131218848497 -2.0375711777510901 -2.1478743074670921 -2.2495095169634647 -2.3427669306343017 -2.427941010330438 -2.5053110894528348 -2.5748181138389854 -2.6371096224992816 -2.6924407137613668 -2.7410513673805954 -2.7831669030972601 -2.8189890554662504 -2.8487027247090735 -2.8724722397066422 -2.8904407414793383 -2.9027298528628704 -2.909398186139216 -2.9105253697131608 -2.9061677081557025 -2.8963637363676833 -2.8811318973591922 -2.8604726734841597 -2.8341395302589034 -2.8022993564121794 -2.7649096071412704 -2.7219176242500276 -2.6732631191702372 -2.6188813214353241 -2.5583339260634608 -2.4919051331249715 -2.4195381875693935 -2.3411869961439042 -2.2568208024955658 -2.1664294583973791 -2.0700219110495928 -1.9676530116408972 -1.8598799755631974 -1.7463751924410382 -1.6273175651313903 -1.5029636166922715 -1.3741239758783699 -1.2407041330567266 -1.1032060927933178 -0.9627048041175682 -0.81943231587221066 -0.67469721864418308 -0.52947956896422887 -0.38443943098357169 -0.24133788258971861 -0.10208913308297336 -0.054626205009306282 -0.013806055750212043 0.017252999754165853 0.037889640330095689 0.040907780523287793 0.024533331345912027 0.0065037195984384366
        </DataArray>
      </CellData>
      <Points>
        <DataArray type="Float32" NumberOfComponents="3" format="ascii">
          4.3102327144412556 6.3060169184830199 0
          4.3102486109351572 6.3138913169535256 0
          4.3102260747842367 6.3217656981135075 0
          4.3101414186424156 6.3296396548461917 0
          4.3099765166516315 6.3375123378341289 0
          4.3097162495145929 6.3453824429727232 0
          4.3093474631936468 6.3532482073878258 0
          4.3088584382033632 6.361107409824351 0
          4.308238577367117 6.3689573736614919 0
          4.3074782072328484 6.3767949717996935 0
          4.3065684412488272 6.3846166325699585 0
          4.3055010872508133 6.3924183469544502 0
          4.3042685796179692 6.400195676441812 0
          4.3028639290917337 6.4079437613462744 0
          4.3012806862246178 6.4156573296043797 0
          4.299512913328309 6.4233307056174027 0
          4.2975551640563685 6.4309578192408559 0
          4.295402474499376 6.4385322164396301 0
          4.2930503540518288 6.4460470692224217 0
          4.2904947826153483 6.453495186581784 0
          4.2877322129115338 6.4608690266801112 0
          4.2847595748325267 6.4681607096581057 0
          4.281574280340398 6.4753620305464885 0
          4.2781742310549378 6.4824644731761829 0
          4.2745578281228012 6.4894592252410899 0
          4.2707239826028589 6.4963371938838916 0
          4.2666721305650341 6.5030890243117199 0
          4.2624022455044974 6.5097051178050727 0
          4.2579148485477729 6.5161756487130029 0
          4.253211024679767 6.5224905858155795 0
          4.2482924543834981 6.5286397273537844 0
          4.2431614102483435 6.5346127119830681 0
          4.2378207732940352 6.5403990440090451 0
          4.2322740493593152 6.5459881204493362 0
          4.2265253856404481 6.5513692603224474 0
          4.2205795862803086 6.5565317353700374 0
          4.2144421274509423 6.5614648028195255 0
          4.2081191676801177 6.5661577348363576 0
          4.2016175634658444 6.57059985696523 0
          4.1949448841442942 6.574780590370394 0
          4.1881094201956968 6.5786894889769671 0
          4.1811201917260368 6.5823162803594544 0
          4.1739869565302126 6.5856509109075914 0
          4.1669727285711158 6.5892290719196458 0
          4.1600832782590009 6.5930419358740622 0
          4.1533236756836613 6.5970805073689682 0
          4.1466986125801926 6.6013361694460562 0
          4.1402118459781061 6.605799779773351 0
          4.1338668381838275 6.6104626840843261 0
          4.1276664934037335 6.6153162779024637 0
          4.1216131791023036 6.6203520387940902 0
          4.1157087599381867 6.625561568086038 0
          4.1099546298925977 6.6309366228741808 0
          4.1043517454281915 6.6364691434634793 0
          4.0989006592126822 6.6421512765092601 0
          4.0936019758373696 6.6479757780183313 0
          4.088455561180405 6.6539352388167581 0
          4.083461403007405 6.6600228526863701 0
          4.0786188170264994 6.6662317115652483 0
          4.0739268733542655 6.6725551717647704 0
          4.0693839765571678 6.67898653997623 0
          4.0649883130779374 6.6855194170464616 0
          4.0607378806088565 6.6921476976849767 0
          4.0566305159139215 6.6988655682291167 0
          4.0526639213790236 6.7056675029201163 0
          4.0488356965808636 6.7125482623939758 0
          4.0451439506765476 6.71950319928703 0
          4.0415861516328748 6.7265275989649176 0
          4.03816035805312 6.7336173143693303 0
          4.0348646416489169 6.740768425650483 0
          4.0316971123651673 6.7479772343170561 0
          4.0286559191269244 6.7552402464381407 0
          4.025739272366132 6.7625541662351978 0
          4.0229454583152737 6.7699158859183202 0
          4.0202728520643545 6.7773224752162502 0
          4.0177199380889013 6.7847711736446872 0
          4.015285305298022 6.7922593739365631 0
          4.0129669921813447 6.7997844069651432 0
          4.010763838432025 6.8073439666745417 0
          4.0086748272936941 6.8149358707912153 0
          4.0066990944640759 6.8225580500367347 0
          4.0048359451211768 6.8302085393824665 0
          4.0030848447274314 6.8378854626879404 0
          4.0014454351626787 6.8455870240332182 0
          3.9999175419618829 6.8533114965623501 0
          3.9985011812417826 6.8610572111454147 0
          3.9971965662364966 6.8688225447899933 0
          3.996004811181622 6.8766060154590907 0
          3.9949265462262629 6.8844060363380839 0
          3.9939626264418724 6.8922210309980612 0
          3.9931141193032875 6.9000494176282707 0
          3.9923823194919303 6.907889596606374 0
          3.9917687547587057 6.915739936009544 0
          3.9912758720048624 6.9235987988040515 0
          3.9909056825965714 6.9314644203605047 0
          3.9906604464972664 6.9393349542933516 0
          3.9905426771012125 6.9472084538832624 0
          3.9905551462577757 6.9550828521617261 0
          3.9907008886240343 6.9629559404625727 0
          3.9909838746262145 6.9708253210085234 0
          3.9914076759076842 6.9786884064736414 0
          3.9919761378937801 6.9865423914026188 0
          3.9926933823715949 6.9943842225002069 0
          3.9935638095024939 7.0022105662328533 0
          3.9945920988473502 7.0100177734444964 0
          3.9957832196183198 7.0178018390502102 0
          3.9971424097157455 7.0255583621032818 0
          3.998674535899307 7.0332826266169448 0
          4.0003853894476338 7.0409693227569727 0
          4.0022810380398077 7.0486125875906813 0
          4.0043677967687747 7.056205946617542 0
          4.0066515741031443 7.0637424399006852 0
          4.0091391827767398 7.0712141798661055 0
          4.0118376394672213 7.0786124343688472 0
          4.0147535065677991 7.0859277828844061 0
          4.0178941700409485 7.0931495292960962 0
          4.0212664984049908 7.1002661011748716 0
          4.0248774513605667 7.1072646752916064 0
          4.0287347432374832 7.1141306173065697 0
          4.032845425758727 7.1208479833351159 0
          4.0372158288714637 7.1273994086194881 0
          4.0417029580145973 7.1338716630905381 0
          4.0463050575185111 7.1402629281148542 0
          4.0510149599707912 7.146575463272014 0
          4.0558236362209836 7.1528134304823778 0
          4.0606974063906538 7.1590011172830552 0
          4.0655705874025898 7.1651898790514581 0
          4.07041611507747 7.1714010690221377 0
        </DataArray>
      </Points>
      <Cells>
        <DataArray type="Int32" Name="connectivity" format="ascii">
          0 1 1 2 2 3 3 4 4 5 5 6 6 7 7 8 8 9 9 10 10 11 11 12 12 13 13 14 14 15 15 16 16 17 17 18 18 19 19 20 20 21 21 22 22 23 23 24 24 25 25 26 26 27 27 28 28 29 29 30 30 31 31 32 32 33 33 34 34 35 35 36 36 37 37 38 38 39 39 40 40 41 41 42 42 43 43 44 44 45 45 46 46 47 47 48 48 49 49 50 50 51 51 52 52 53 53 54 54 55 55 56 56 57 57 58 58 59 59 60 60 61 61 62 62 63 63 64 64 65 65 66 66 67 67 68 68 69 69 70 70 71 71 72 72 73 73 74 74 75 75 76 76 77 77 78 78 79 79 80 80 81 81 82 82 83 83 84 84 85 85 86 86 87 87 88 88 89 89 90 90 91 91 92 92 93 93 94 94 95 95 96 96 97 97 98 98 99 99 100 100 101 101 102 102 103 103 104 104 105 105 106 106 107 107 108 108 109 109 110 110 111 111 112 112 113 113 114 114 115 115 116 116 117 117 118 118 119 119 120 120 121 121 122 122 123 123 124 124 125 125 126 126 127 
        </DataArray>
        <DataArray type="Int32" Name="offsets" format="ascii">
          2 4 6 8 10 12 14 16 18 20 22 24 26 28 30 32 34 36 38 40 42 44 46 48 50 52 54 56 58 60 62 64 66 68 70 72 74 76 78 80 82 84 86 88 90 92 94 96 98 100 102 104 106 108 110 112 114 116 118 120 122 124 126 128 130 132 134 136 138 140 142 144 146 148 150 152 154 156 158 160 162 164 166 168 170 172 174 176 178 180 182 184 186 188 190 192 194 196 198 200 202 204 206 208 210 212 214 216 218 220 222 224 226 228 230 232 234 236 238 240 242 244 246 248 250 252 254 
        </DataArray>
        <DataArray type="Int32" Name="types" format="ascii">
          3 3 3 3 3 3 3 3 3 3 3 3 3 3 3 3 3 3 3 3 3 3 3 3 3 3 3 3 3 3 3 3 3 3 3 3 3 3 3 3 3 3 3 3 3 3 3 3 3 3 3 3 3 3 3 3 3 3 3 3 3 3 3 3 3 3 3 3 3 3 3 3 3 3 3 3 3 3 3 3 3 3 3 3 3 3 3 3 3 3 3 3 3 3 3 3 3 3 3 3 3 3 3 3 3 3 3 3 3 3 3 3 3 3 3 3 3 3 3 3 3 3 3 3 3 3 3         </DataArray>
      </Cells>
    </Piece>
  </UnstructuredGrid>
</VTKFile>
