<?xml version="1.0"?>
<VTKFile type="UnstructuredGrid" version="0.1" byte_order="LittleEndian">
  <UnstructuredGrid>
    <Piece NumberOfPoints="128" NumberOfCells="127">
      <PointData Scalars="W">
        <DataArray type="Float32" Name="W" NumberOfComponents="2">
          0 0 0.19327178179223906 -0.018639121287263648 0.23856562371212001 -0.023418660143632041 0.25918884595910047 -0.025958597112056121 0.26365575232831046 -0.026957088068572929 0.2557007997770106 -0.026675000965168793 0.23768944913939535 -0.025265471658739682 0.21125063884236195 -0.022834983088166571 0.17759684126448066 -0.019473943695236792 0.137589698085926 -0.015260924277110935 0.091939940973318146 -0.010282263553477233 0.041229331271440399 -0.0046329795963378217 -0.014075818702929633 0.0015832467059732271 -0.073642725231924722 0.0082574109455226096 -0.13721376024833348 0.015269456008970068 -0.20456344218423619 0.022483955215047285 -0.27539607692410084 0.029739617800876247 -0.34953915635586008 0.03687148063834933 -0.42681830195018328 0.043697568872699412 -0.50702899543396107 0.050017077988246422 -0.58998744911463263 0.055616937279558604 -0.67554860715855103 0.060274166889100943 -0.76353669664718171 0.063750250825008001 -0.8537526893486217 0.06579397259017436 -0.94604578347387291 0.06614858463230279 -1.0401590751745355 0.064542140824814881 -1.1358912513444959 0.06070223071991801 -1.233101934124039 0.054355175020080262 -1.3315519161308422 0.045219129562216277 -1.4306292780096896 0.03300669983172777 -1.5303927201037282 0.01745920613273411 -1.6305250562309714 -0.0016912532228154766 -1.7307023744601142 -0.024701002915012149 -1.8305391327947276 -0.051810197005607787 -1.9296532072802877 -0.083238556262657942 -2.027615058776449 -0.11917983907576228 -2.1240716761730374 -0.15980519791865175 -2.2184863991048278 -0.20524232182778118 -2.3102773386029387 -0.25557012620746761 -2.3990008236770981 -0.31083538317390291 -2.4841481337892128 -0.37103288079729291 -2.5651588700960049 -0.43609716968839424 -12.289747846523484 -2.8560412872489946 -12.015138605799596 -4.0890202124901895 6.6247393575026461 2.4200668863416017 6.6796588335902056 2.0296005282236709 6.7123542049968252 1.6446132620785039 6.7235047853318095 1.2660644103821463 6.7140366589965437 0.89492889217491778 6.6845959676732463 0.53209357403464386 6.6359970729262443 0.17845288740323642 4.6680336691290778 -0.082352649096980687 4.5982542200705883 -0.24927139471838472 4.4586149364043903 -0.40199244955324515 4.4298763886739536 -0.55720500173086762 4.3460869229133214 -0.70155697477265855 4.2600795536860288 -0.83908042526295878 4.1046122167363368 -0.95312163820803619 3.8751714103871131 -1.0331561507964226 3.7128564543658245 -1.1144573763333085 3.5466178337249832 -1.1815711706231649 3.3806439107634909 -1.2358814174724129 3.1349808747511254 -1.2446614917063117 2.9647730745964984 -1.2671918885042472 2.7130879790770535 -1.2388822669056243 2.5421298340872713 -1.2318236493803176 2.4608955050837618 -1.2600728913597583 2.3804024241080648 -1.2842955143491663 2.3008502828065218 -1.3046794860390292 2.1381510852265619 -1.2701908950296565 2.0628947155319746 -1.2801289158130706 1.9889440511899925 -1.2868939858371538 1.9163971106263977 -1.2906570526702528 1.7604796323212446 -1.2311178881154947 1.693104998151383 -1.2265819456237519 1.627364732244124 -1.2197378305412774 1.5633217072272749 -1.2107620539035333 1.5010317140340399 -1.1998320101453666 1.3578732679653884 -1.1180314177224968 1.3029106801820183 -1.102952698601487 1.2480257443120224 -1.0851639675487432 1.1949957621890226 -1.0662556858428218 1.1439021394519593 -1.0464509406132421 1.0947489548779488 -1.0259086170368497 0.96755269428194279 -0.92725031664783231 0.92402787634410011 -0.90409977415113618 0.88246049686757522 -0.88087119925812207 0.84288292737179171 -0.8577513943068511 0.80532663466296583 -0.83492773496429584 0.76826932856035091 -0.81093403494525973 0.65667170985526935 -0.70460895596141804 0.62673494344386982 -0.68259998746226158 0.59891386257788892 -0.66175114774849142 0.57324449981043912 -0.64224479072120455 0.54983671032447234 -0.62434605396772735 0.52873870770736131 -0.60825248923053177 0.51002677433401322 -0.59419371203735261 0.41693748351118642 -0.49130231787334933 0.40424137079973566 -0.48120906323073731 0.39418986511129372 -0.47394100729513561 0.38691195482695218 -0.46978095318690227 0.38252430552984973 -0.46900292617851153 0.30395262240357673 -0.37594668039423301 0.3066980770478992 -0.38233062948975632 0.3128719148274659 -0.3931649809456243 0.32266184832494899 -0.40883702918220888 0.25794932581913477 -0.32933807837361778 0.27652450834226383 -0.35555252325517256 0.29952383245731778 -0.3880820716330925 0.32866997663395275 -0.42943834675870002 0.2820175252178671 -0.37152587477842725 0.32115701150377179 -0.42656596196798485 0.28633611129800096 -0.38348835731208242 0.33877494894288451 -0.4576462732699017 0.39968805648796146 -0.54550742786069462 0.38426620166828734 -0.53026626740978322 0.37769298115255301 -0.52686390020722473 0.4664175776845329 -0.65856722053106376 0.47796874668974204 -0.68421158604982812 0.49800040677435048 -0.72322774149061164 0.84231821697457909 -1.2481920218442506 0.93043009810405153 -1.4169575536535741 1.0490288137137009 -1.64873444739254 1.1906629062329248 -1.942060057129001 1.3069966934216961 -2.2263317864788985 1.4472819899152434 -2.5935523712527635 1.2560059108279469 -2.3735190183481296 0 0
        </DataArray>
        <DataArray type="Float32" Name="u" NumberOfComponents="1">
          0 0.007874015748031496 0.015748031496062992 0.023622047244094488 0.031496062992125984 0.03937007874015748 0.047244094488188976 0.055118110236220472 0.062992125984251968 0.070866141732283464 0.07874015748031496 0.086614173228346455 0.094488188976377951 0.10236220472440945 0.11023622047244094 0.11811023622047244 0.12598425196850394 0.13385826771653545 0.14173228346456693 0.14960629921259844 0.15748031496062992 0.16535433070866143 0.17322834645669291 0.18110236220472442 0.1889763779527559 0.19685039370078741 0.20472440944881889 0.2125984251968504 0.22047244094488189 0.2283464566929134 0.23622047244094488 0.24409448818897639 0.25196850393700787 0.25984251968503935 0.26771653543307089 0.27559055118110237 0.28346456692913385 0.29133858267716534 0.29921259842519687 0.30708661417322836 0.31496062992125984 0.32283464566929132 0.33070866141732286 0.33858267716535434 0.34645669291338582 0.3543307086614173 0.36220472440944884 0.37007874015748032 0.37795275590551181 0.38582677165354329 0.39370078740157483 0.40157480314960631 0.40944881889763779 0.41732283464566927 0.42519685039370081 0.43307086614173229 0.44094488188976377 0.44881889763779526 0.45669291338582679 0.46456692913385828 0.47244094488188976 0.48031496062992124 0.48818897637795278 0.49606299212598426 0.50393700787401574 0.51181102362204722 0.51968503937007871 0.52755905511811019 0.53543307086614178 0.54330708661417326 0.55118110236220474 0.55905511811023623 0.56692913385826771 0.57480314960629919 0.58267716535433067 0.59055118110236215 0.59842519685039375 0.60629921259842523 0.61417322834645671 0.62204724409448819 0.62992125984251968 0.63779527559055116 0.64566929133858264 0.65354330708661412 0.66141732283464572 0.6692913385826772 0.67716535433070868 0.68503937007874016 0.69291338582677164 0.70078740157480313 0.70866141732283461 0.71653543307086609 0.72440944881889768 0.73228346456692917 0.74015748031496065 0.74803149606299213 0.75590551181102361 0.76377952755905509 0.77165354330708658 0.77952755905511806 0.78740157480314965 0.79527559055118113 0.80314960629921262 0.8110236220472441 0.81889763779527558 0.82677165354330706 0.83464566929133854 0.84251968503937003 0.85039370078740162 0.8582677165354331 0.86614173228346458 0.87401574803149606 0.88188976377952755 0.88976377952755903 0.89763779527559051 0.90551181102362199 0.91338582677165359 0.92125984251968507 0.92913385826771655 0.93700787401574803 0.94488188976377951 0.952755905511811 0.96062992125984248 0.96850393700787396 0.97637795275590555 0.98425196850393704 0.99212598425196852 1
        </DataArray>
      </PointData>
      <CellData Scalars="P">
        <DataArray type="Float32" Name="P" NumberOfComponents="1">
          0.016320983032415592 0.049033548771304593 0.081787112014154423 0.11450509808287379 0.14710296505927933 0.17950804190562186 0.21167322984458761 0.24358677919620361 0.27527925758594096 0.30682879253449419 0.33836435382661084 0.37006760158255986 0.40217365724726006 0.43497149781714861 0.46880336970242603 0.50406298296874141 0.54119073203440649 0.58067152674546041 0.62302989763216909 0.66882330657204625 0.71863583283317456 0.77307202228883254 0.83274791191354181 0.89828127997048335 0.97028421433155188 1.0493485567831191 1.1360376365144913 1.2308788235007375 1.3343477625766655 1.4468351777759765 1.5686728449022234 1.7001016329848895 1.8412595108714485 1.9921662658415535 2.1527127457486568 2.3226473793685458 2.5015721127050168 2.6889211108827205 2.8839500422878848 3.0857402767468427 3.293190270874057 3.5050097592761618 4.3918432383884811 5.2162136509663588 4.8297072369416085 4.4521607109899817 4.082129407268698 3.7182555978855856 3.3592649098816891 3.0039938236891479 2.6513892366398757 2.4154300821418091 2.1829660174865051 1.9577332578908935 1.7326406898624287 1.510603793977279 1.2914252169642795 1.0791681402312994 0.87844924954914505 0.6851718206808779 0.49971134396403488 0.32224269472322359 0.15829465988273766 0.0033042865107969616 -0.13685620498120732 -0.26713825335770602 -0.39330639594720901 -0.51516875496503056 -0.63255136575476023 -0.73940241756744007 -0.84151504453571135 -0.93875190826474786 -1.0309940226876064 -1.112191908930767 -1.1883087375345414 -1.2592761963554724 -1.3250470048723346 -1.3855945721756069 -1.4353522691740133 -1.4801629556127425 -1.5199381984439313 -1.554726391983676 -1.5845985942680658 -1.6096425858134253 -1.6252963948107744 -1.6365712418630791 -1.6435998501260061 -1.6465291538207263 -1.6455181158193239 -1.6406642861761085 -1.6288761814119657 -1.613964242089766 -1.5961106137058736 -1.5754973009199418 -1.5523053220856711 -1.5267091082028461 -1.4988740192482781 -1.4676230101005678 -1.4347504950096928 -1.4003696339538378 -1.3645710588824027 -1.3274195531249637 -1.2892176879824839 -1.2500298976675879 -1.2098149310529041 -1.1684943330087454 -1.1274948409186081 -1.0854116914949137 -1.042029940783515 -0.99705151015837512 -0.95291400912748481 -0.90683182915872074 -0.86158303283782456 -0.81379242378055916 -0.76296356720348768 -0.71247546931529049 -0.66212451418334439 -0.60762938882612183 -0.55276666205098246 -0.4974215984700639 -0.42743992733207131 -0.35540941755546729 -0.28141604845605517 -0.20662228045488287 -0.13471575305234676 -0.068785972393334449 -0.018300850411379022
        </DataArray>
      </CellData>
      <Points>
        <DataArray type="Float32" NumberOfComponents="3" format="ascii">
          4.0221993273326611 9.2980353381129284 0
          4.0229492513713563 9.3058741232174711 0
          4.0237111590556163 9.3137117430143483 0
          4.0244878583805939 9.3215478954160229 0
          4.0252806276406643 9.3293824187110754 0
          4.0260897433564127 9.3372152477038632 0
          4.0269147118418047 9.3450463973053068 0
          4.0277544158914536 9.3528759529128216 0
          4.0286072158001849 9.3607040637296937 0
          4.0294710245583971 9.3685309371044578 0
          4.0303433612920445 9.3763568336171872 0
          4.0312213953431453 9.3841820616917957 0
          4.0321019823508477 9.392006971675098 0
          4.032981693171334 9.3998319493820937 0
          4.0338568345155688 9.4076574093135292 0
          4.034723464924407 9.4154837871899648 0
          4.035577408747856 9.423311531534317 0
          4.036414274475062 9.4311410936520286 0
          4.037229465423783 9.4389729173846497 0
          4.0380181905434256 9.446807427809663 0
          4.0387754770844619 9.454645018773725 0
          4.039496181980323 9.4624860396662474 0
          4.0401750008258688 9.4703307815793583 0
          4.0408064787585554 9.4781794625052935 0
          4.0413850227798269 9.4860322117469575 0
          4.0419049110850302 9.4938890539860239 0
          4.0423603089705225 9.5017498924091157 0
          4.0427452812931586 9.5096144918054577 0
          4.0430538011510793 9.5174824615860025 0
          4.043279764691448 9.5253532382963613 0
          4.0434170290261511 9.533226067785515 0
          4.0434594085689843 9.5410999891546275 0
          4.043400694678069 9.5489738181337813 0
          4.0432346757156985 9.5568461311760728 0
          4.0429551609299672 9.5647152505538084 0
          4.0425560041253803 9.5725792307210735 0
          4.042031130274359 9.5804358462853951 0
          4.0413745573851445 9.5882825813804367 0
          4.0405804297577079 9.5961166217329534 0
          4.0396430540457091 9.6039348497533403 0
          4.0385569267503598 9.6117338416188165 0
          4.0373167657492983 9.619509867579465 0
          4.0359175450315847 9.6272588959991516 0
          4.0337562793140789 9.6348308818994397 0
          4.030849980290669 9.6421493724133516 0
          4.0283544453267979 9.649617974252946 0
          4.0262730874117425 9.6572124812547635 0
          4.0246079421842387 9.6649090264385755 0
          4.0233597100192124 9.6726841414244618 0
          4.022527813408634 9.6805148168209687 0
          4.0221104369761509 9.6883785571440892 0
          4.0221045779118549 9.6962534362093002 0
          4.0223882019348611 9.704123222837584 0
          4.0229569833906753 9.7119775662479952 0
          4.0238022640861599 9.719806993919148 0
          4.0249222635879756 9.7276018823965273 0
          4.0263117874453433 9.735353279976664 0
          4.0279655036786517 9.743052658335051 0
          4.0298737721310456 9.7506929430666816 0
          4.0320223640509516 9.7582691661756922 0
          4.0344012135929601 9.7657762832892274 0
          4.0370000111768478 9.7732101296962739 0
          4.0398084632720037 9.7805673346723854 0
          4.042811332853181 9.7878473483747914 0
          4.0459980628282208 9.7950487707636995 0
          4.0493530416009769 9.8021733519580945 0
          4.052865664744477 9.8092215269237073 0
          4.0565308934046636 9.8161915439564265 0
          4.0603437346849587 9.8230819010269865 0
          4.064299254027782 9.8298913341307266 0
          4.0683873588938191 9.8366219794513761 0
          4.0726033810151323 9.8432732208753055 0
          4.0769427330958088 9.8498446390421837 0
          4.0814009148915176 9.8563360007483425 0
          4.0859682542643876 9.8627509957897974 0
          4.090640571714288 9.8690899057468169 0
          4.0954137891213218 9.8753531553386811 0
          4.1002839336493082 9.8815413014817644 0
          4.1052471412107598 9.8876550222926998 0
          4.1102945311490009 9.8936993883806768 0
          4.1154226939550087 9.8996753353455968 0
          4.1206282249727382 9.9055839668085852 0
          4.1259078346580909 9.9114264558393081 0
          4.1312583536359231 9.9172040311275964 0
          4.1366767329606589 9.9229179671343921 0
          4.1421550827656617 9.9285743803165225 0
          4.1476907034963402 9.9341747070790092 0
          4.1532810171237751 9.9397203887115655 0
          4.1589235691612059 9.9452128598112601 0
          4.1646160306244688 9.9506535366699378 0
          4.1703561036225487 9.9560439081629166 0
          4.1761368672626267 9.9613905668462159 0
          4.1819564658191055 9.9666948788536445 0
          4.1878131749734404 9.9719581384727363 0
          4.1937054040571891 9.9771815568464675 0
          4.1996317028732699 9.982366245543222 0
          4.205590764694092 9.9875132043162917 0
          4.2115814310004467 9.9926233068755099 0
          4.2175979314001513 9.9977029341902846 0
          4.2236394812291191 10.002752714558117 0
          4.2297054600977795 10.007773101261199 0
          4.2357954198982135 10.012764355038792 0
          4.241909092047786 10.01772652710191 0
          4.2480416089522715 10.022665390138032 0
          4.2541931453124588 10.027580551915287 0
          4.2603640887582692 10.03247134445143 0
          4.266555051501939 10.037336799992978 0
          4.2727620277641378 10.042181852287069 0
          4.2789861756230483 10.047004880611803 0
          4.2852289278980651 10.051803872834117 0
          4.2914920989598606 10.056576269621404 0
          4.2977728056579201 10.061325668083557 0
          4.3040734833800851 10.066048660998506 0
          4.310391984380038 10.070747926718784 0
          4.3167315702054596 10.075418872981009 0
          4.3230960284727216 10.080056057528735 0
          4.3294844172407778 10.084660433645533 0
          4.335896344636657 10.089232221110217 0
          4.3423373259897691 10.093763258646444 0
          4.3488080960582618 10.098251964830018 0
          4.3553099174341519 10.102695929280639 0
          4.3618641482777898 10.107062587435884 0
          4.3684762729005424 10.111341474743721 0
          4.3751536672246178 10.115518215203521 0
          4.3819051372881122 10.119574611266627 0
          4.3887379254911227 10.123493025442853 0
          4.3956607633796354 10.127250669770312 0
          4.4026618580120589 10.130861212096168 0
        </DataArray>
      </Points>
      <Cells>
        <DataArray type="Int32" Name="connectivity" format="ascii">
          0 1 1 2 2 3 3 4 4 5 5 6 6 7 7 8 8 9 9 10 10 11 11 12 12 13 13 14 14 15 15 16 16 17 17 18 18 19 19 20 20 21 21 22 22 23 23 24 24 25 25 26 26 27 27 28 28 29 29 30 30 31 31 32 32 33 33 34 34 35 35 36 36 37 37 38 38 39 39 40 40 41 41 42 42 43 43 44 44 45 45 46 46 47 47 48 48 49 49 50 50 51 51 52 52 53 53 54 54 55 55 56 56 57 57 58 58 59 59 60 60 61 61 62 62 63 63 64 64 65 65 66 66 67 67 68 68 69 69 70 70 71 71 72 72 73 73 74 74 75 75 76 76 77 77 78 78 79 79 80 80 81 81 82 82 83 83 84 84 85 85 86 86 87 87 88 88 89 89 90 90 91 91 92 92 93 93 94 94 95 95 96 96 97 97 98 98 99 99 100 100 101 101 102 102 103 103 104 104 105 105 106 106 107 107 108 108 109 109 110 110 111 111 112 112 113 113 114 114 115 115 116 116 117 117 118 118 119 119 120 120 121 121 122 122 123 123 124 124 125 125 126 126 127 
        </DataArray>
        <DataArray type="Int32" Name="offsets" format="ascii">
          2 4 6 8 10 12 14 16 18 20 22 24 26 28 30 32 34 36 38 40 42 44 46 48 50 52 54 56 58 60 62 64 66 68 70 72 74 76 78 80 82 84 86 88 90 92 94 96 98 100 102 104 106 108 110 112 114 116 118 120 122 124 126 128 130 132 134 136 138 140 142 144 146 148 150 152 154 156 158 160 162 164 166 168 170 172 174 176 178 180 182 184 186 188 190 192 194 196 198 200 202 204 206 208 210 212 214 216 218 220 222 224 226 228 230 232 234 236 238 240 242 244 246 248 250 252 254 
        </DataArray>
        <DataArray type="Int32" Name="types" format="ascii">
          3 3 3 3 3 3 3 3 3 3 3 3 3 3 3 3 3 3 3 3 3 3 3 3 3 3 3 3 3 3 3 3 3 3 3 3 3 3 3 3 3 3 3 3 3 3 3 3 3 3 3 3 3 3 3 3 3 3 3 3 3 3 3 3 3 3 3 3 3 3 3 3 3 3 3 3 3 3 3 3 3 3 3 3 3 3 3 3 3 3 3 3 3 3 3 3 3 3 3 3 3 3 3 3 3 3 3 3 3 3 3 3 3 3 3 3 3 3 3 3 3 3 3 3 3 3 3         </DataArray>
      </Cells>
    </Piece>
  </UnstructuredGrid>
</VTKFile>
