<?xml version="1.0"?>
<VTKFile type="UnstructuredGrid" version="0.1" byte_order="LittleEndian">
  <UnstructuredGrid>
    <Piece NumberOfPoints="128" NumberOfCells="127">
      <PointData Scalars="W">
        <DataArray type="Float32" Name="W" NumberOfComponents="2">
          0 0 0.35694401912763385 -0.044660112393326443 0.59992389151495917 -0.072749606974991624 0.78504980948557201 -0.090827728304016128 0.94154173114775397 -0.10241157914074825 1.0812093072347153 -0.1088504562794653 1.2098904885822612 -0.11073981042425733 1.3308355654958834 -0.10834687698340392 1.4460390901865008 -0.1017785220269725 1.5568745283778329 -0.091056439451328991 1.6642549445155566 -0.076142241225068311 1.7688306627833992 -0.056960625674451766 1.8710514926548893 -0.033409519578107442 1.9713090596458067 -0.0053678742817875819 2.069956773184161 0.027306719599612533 2.1672552426344884 0.064779016164569853 2.2633212128456228 0.10723000256603146 2.3582842548599801 0.15485843540049815 2.4522401359420245 0.20788248958563682 2.5451757639023795 0.26653217355190495 2.6370462930252887 0.33105126426874437 2.7278006230616727 0.40170165139179864 2.8173028742032109 0.47875302085321542 2.905353972014721 0.56248055928603902 2.9918032148069758 0.65318637673296398 3.0763223544591374 0.7511542524548529 3.1585976317951139 0.85668222093898183 3.2383273057867954 0.97008971635588481 3.3150960882037706 1.0916836131397665 3.3880578376803787 1.2216260979452005 3.4570128024248681 1.3602981882360967 3.5213499648590805 1.5079651377168877 3.580387065004718 1.6648671427320063 3.6333629259231506 1.8312086364859244 3.679466902438461 2.0071658063887527 3.717788010400529 2.1928532009175599 3.7474335209122929 2.3883856527568814 3.7673039749436072 2.5937353127903884 3.7762438898983537 2.8087950615482549 3.7731373016018686 3.03344719656226 3.7567608005142761 3.2674565034849516 3.7258125125075003 3.5104687235687666 0.84961712680459067 0.8413945388754519 1.0757403331721864 1.0884677199523518 1.4471357429894378 1.5066452789028926 1.5101751815787683 1.6266793206775956 1.7194537585816958 1.9238283702276011 1.9147665701748333 2.2386052400132521 2.0948368169350093 2.575201777550888 2.2579877266668551 2.9382970892774183 2.3952253769199303 3.3235389065624461 2.5040368534925146 3.7348633840220424 2.7244193260033143 4.4193393152742546 2.8841925303413514 5.1724965695878158 -1.46077973354405 -2.6906098387482418 -1.457043310246388 -2.5389889290954235 0.13846370404221758 0.23554198651237981 0.26061496026409686 0.44651069036133362 0.3799023215507491 0.65847345314902039 0.49786482084985367 0.87699526628585045 0.55254362205777263 0.99275686569311727 0.65939454116766205 1.2128814995133759 0.75825133953622692 1.4349223988432749 0.8504637655776176 1.6644648202068959 0.93173566324408919 1.8963724457728044 0.94627321001198839 2.0120989474509696 1.0081289072636435 2.2506829157052608 1.0029214713148416 2.3636089445884192 0.98978445632403123 2.4731980245353884 0.96876768686173409 2.5789579856743452 0.9399762176024522 2.6803481974207153 0.90358660244438227 2.7768178779329906 0.86069730506326225 2.8707731773434988 0.80979558082040748 2.9558159858474218 0.78447370298249997 3.1718256519204919 0.71370464299563063 3.2448972778907761 0.63704769092244506 3.3100850269689106 0.5551394657021832 3.3669188719875658 0.46867519023392851 3.4149739470238165 0.37840215113259884 3.4538743526808928 0.28511314301642016 3.4833007450434317 0.18976011166099949 3.5060089683535649 0.092793296537545672 3.5157853566856287 -0.004618515645604602 3.5155018956211772 -0.10158209375270888 3.5051038260321077 -0.19720216203491858 3.484604760783907 -0.29059071581795731 3.4540875958769206 -0.38123442209710517 3.4165602865939397 -0.46772392243993416 3.36649989302953 -0.54944788258311794 3.3070478438249897 -0.62563453337947994 3.2385282427644073 -0.69619406957572849 3.1640243766305294 -0.75931806331792595 3.078452782357354 -0.81490604741958095 2.9850614331976622 -0.8624053677937682 2.8842732049672843 -0.90219847278558352 2.7791080373916133 -0.93226817802697903 2.6648948353983468 -0.95301453188639651 2.5446795232717556 -0.96416813356028741 2.4189025719934709 -0.96552797924363742 2.2879714953332146 -0.95803947218996455 2.1546198116426871 -0.93955739425516049 2.014386593266881 -0.91106100700522108 1.869928177634842 -0.87260010858178882 1.7214216281602031 -0.89309973202915272 1.6975867055376128 -0.83845959294294359 1.5393157414417236 -0.77377592196450007 1.3772338409888016 -0.69931794674681302 1.2112260689908687 -0.69286063603356929 1.1704954970248107 -0.60204511996185084 0.99441011905220056 -0.584405504013356 0.94604828567566424 -0.47576922876068545 0.75675353602657047 -0.4466607774703279 0.69986547098308682 -0.32176961091638728 0.49800047210424531 -0.28126832209462527 0.43117987302371352 -0.1407547975544319 0.21434969757373148 -0.089213374048945859 0.135372633130733 0.31880007814453898 -0.48548810315917751 0.49932473221415258 -0.77027087181265586 0.58037202208957184 -0.91091778792678157 0.76833549060387996 -1.2328965790104822 0.86636325657662328 -1.4290615699134062 1.0683842332618008 -1.8230291982903626 1.1900292303432405 -2.1164698607603825 1.2479744030889934 -2.3270635012932663 1.3955268741366842 -2.7492425048911646 1.2047879890819726 -2.5160168651009935 0 0
        </DataArray>
        <DataArray type="Float32" Name="u" NumberOfComponents="1">
          0 0.007874015748031496 0.015748031496062992 0.023622047244094488 0.031496062992125984 0.03937007874015748 0.047244094488188976 0.055118110236220472 0.062992125984251968 0.070866141732283464 0.07874015748031496 0.086614173228346455 0.094488188976377951 0.10236220472440945 0.11023622047244094 0.11811023622047244 0.12598425196850394 0.13385826771653545 0.14173228346456693 0.14960629921259844 0.15748031496062992 0.16535433070866143 0.17322834645669291 0.18110236220472442 0.1889763779527559 0.19685039370078741 0.20472440944881889 0.2125984251968504 0.22047244094488189 0.2283464566929134 0.23622047244094488 0.24409448818897639 0.25196850393700787 0.25984251968503935 0.26771653543307089 0.27559055118110237 0.28346456692913385 0.29133858267716534 0.29921259842519687 0.30708661417322836 0.31496062992125984 0.32283464566929132 0.33070866141732286 0.33858267716535434 0.34645669291338582 0.3543307086614173 0.36220472440944884 0.37007874015748032 0.37795275590551181 0.38582677165354329 0.39370078740157483 0.40157480314960631 0.40944881889763779 0.41732283464566927 0.42519685039370081 0.43307086614173229 0.44094488188976377 0.44881889763779526 0.45669291338582679 0.46456692913385828 0.47244094488188976 0.48031496062992124 0.48818897637795278 0.49606299212598426 0.50393700787401574 0.51181102362204722 0.51968503937007871 0.52755905511811019 0.53543307086614178 0.54330708661417326 0.55118110236220474 0.55905511811023623 0.56692913385826771 0.57480314960629919 0.58267716535433067 0.59055118110236215 0.59842519685039375 0.60629921259842523 0.61417322834645671 0.62204724409448819 0.62992125984251968 0.63779527559055116 0.64566929133858264 0.65354330708661412 0.66141732283464572 0.6692913385826772 0.67716535433070868 0.68503937007874016 0.69291338582677164 0.70078740157480313 0.70866141732283461 0.71653543307086609 0.72440944881889768 0.73228346456692917 0.74015748031496065 0.74803149606299213 0.75590551181102361 0.76377952755905509 0.77165354330708658 0.77952755905511806 0.78740157480314965 0.79527559055118113 0.80314960629921262 0.8110236220472441 0.81889763779527558 0.82677165354330706 0.83464566929133854 0.84251968503937003 0.85039370078740162 0.8582677165354331 0.86614173228346458 0.87401574803149606 0.88188976377952755 0.88976377952755903 0.89763779527559051 0.90551181102362199 0.91338582677165359 0.92125984251968507 0.92913385826771655 0.93700787401574803 0.94488188976377951 0.952755905511811 0.96062992125984248 0.96850393700787396 0.97637795275590555 0.98425196850393704 0.99212598425196852 1
        </DataArray>
      </PointData>
      <CellData Scalars="P">
        <DataArray type="Float32" Name="P" NumberOfComponents="1">
          -0.044848427163819482 -0.13395965081017364 -0.2217248910845297 -0.30769606162421947 -0.39151257811535933 -0.47284218827116847 -0.55135771544732337 -0.62672586148422593 -0.69860062175809712 -0.76661809472549414 -0.83039396501506657 -0.8895213115609073 -0.94356938281379221 -0.99208094126888346 -1.0345694462241835 -1.0705176741864222 -1.0993783180630534 -1.1205710342411372 -1.1334804421318927 -1.1374566358309062 -1.1318136620598409 -1.1158268948872014 -1.0887332794029834 -1.0497311959060804 -0.99797526089443322 -0.93258136406858061 -0.85262335446789306 -0.75712894929207342 -0.6450823618767535 -0.51544922876731836 -0.36713429524082786 -0.1990032225582862 -0.0098853718488222594 0.20142196803731674 0.43615086521114771 0.69555474171162879 0.98091035677524885 1.293497074989584 1.6345871075234226 2.0054458004754401 2.4073147953757177 2.8413951081559108 2.8971248777769616 2.9952600182169604 3.1632821066898904 3.3518742008968521 3.588597879203415 3.8742982579247909 4.2100445461250153 4.5972887377641456 5.0365485936463514 5.5288735138722256 6.1117238772373126 6.7896127522819247 6.3092683587761034 5.8366381658259696 5.791185921456119 5.7778787517704124 5.7960175369661151 5.8451743380461636 5.9082268255927346 5.9987030395683405 6.1141281538506034 6.252405081488206 6.4103781362646659 6.5703456273742695 6.7442775212832293 6.9147528140589412 7.0794768212336079 7.2362104963398144 7.3827907837216573 7.5171539124947309 7.6375659551207669 7.7419969663556865 7.8364189013768923 7.9106197927836686 7.9634195109654904 7.9938627776974993 8.0012287661171939 7.9850378009059897 7.9450552035879722 7.8813065184953564 7.7940083744298025 7.6836567465159291 7.5509778759067521 7.3969171197603378 7.2226251163413355 7.0293485590331546 6.8186725020995373 6.5922606381859588 6.3519049082711332 6.0993582869687719 5.8367316878506896 5.5660612266214384 5.2894168391135503 5.0086990863846248 4.726138764370714 4.443762163188536 4.1635352584452399 3.887343833047415 3.6167792518046076 3.3537075681418536 3.0996743621805156 2.8560831922431849 2.6130061192695884 2.3828020191402839 2.1665003802937766 1.9649328802753652 1.7677512676423006 1.5866517570874661 1.4111697330274144 1.252698373352217 1.1006330127145305 0.96557685941172278 0.83714202247758041 0.72482356237688472 0.61863983176455817 0.54783767259069638 0.48909754532864119 0.43288495256004633 0.38450814061749539 0.33615719106263647 0.29087365801021564 0.24218598603115771 0.18588573414476936 0.12225984776658542 0.044471580166247776
        </DataArray>
      </CellData>
      <Points>
        <DataArray type="Float32" NumberOfComponents="3" format="ascii">
          6.6280121262785254 10.135741801381309 0
          6.6270234590435333 10.127929752518869 0
          6.626056921672502 10.120114912773584 0
          6.6251275791888817 10.112295528265523 0
          6.624246910066554 10.104470468050724 0
          6.6234246179046092 10.096639004689836 0
          6.6226693636788161 10.088800730105813 0
          6.6219891277523626 10.080955518464457 0
          6.6213914114530157 10.073103509525158 0
          6.6208833607944397 10.065245101994433 0
          6.6204718516898016 10.057380952192963 0
          6.6201635466181097 10.049511976467311 0
          6.6199649349981495 10.041639355902662 0
          6.6198823611271971 10.033764542703995 0
          6.6199220485104071 10.025889267759947 0
          6.6200901218191843 10.018015549536193 0
          6.6203926230930508 10.010145704358747 0
          6.6208355190170245 10.002282357708003 0
          6.6214247089926808 9.9944284566187953 0
          6.6221660311109307 9.9865872832889728 0
          6.6230652613703844 9.9787624694263943 0
          6.6241281109236585 9.9709580114547034 0
          6.6253602229335069 9.963178286847894 0
          6.6267671641670294 9.9554280709542429 0
          6.6283544126662086 9.9477125541676727 0
          6.6301273484168739 9.9400373607764241 0
          6.6320912329980146 9.9324085666818824 0
          6.6342511901257577 9.9248327180100286 0
          6.636612186939181 9.9173168510598497 0
          6.6391790082352049 9.9098685114823333 0
          6.64195620395546 9.9024957644896805 0
          6.6449480767838818 9.8952072186572337 0
          6.6481586442126446 9.8880120425533935 0
          6.6515915961765666 9.8809199798275102 0
          6.655250247777599 9.8739413620919763 0
          6.6591374889255954 9.8670871200660653 0
          6.6632557277347422 9.860368790909078 0
          6.6676068350369029 9.8537985255886138 0
          6.6721920760386402 9.847389087407409 0
          6.6770120384752181 9.8411538456257333 0
          6.6820665631925138 9.8351067684460318 0
          6.6873546680261686 9.8292624087197655 0
          6.6928744667724676 9.8236358822805006 0
          6.6984468953328982 9.8180617803865573 0
          6.7040859856921413 9.8125554570134224 0
          6.7098147770405285 9.8071429047127321 0
          6.7156371810295559 9.8018315649177232 0
          6.7215661763760322 9.7966398914720134 0
          6.7276138721318572 9.7915874285264231 0
          6.7337914282675797 9.7866950705404303 0
          6.7401089514678958 9.7819853523981237 0
          6.7465749374472388 9.7774821780802803 0
          6.7531961151799775 9.7732110645865742 0
          6.7599861197284925 9.7692144892888386 0
          6.7669548196629785 9.7655391781923573 0
          6.7738330883283675 9.7616967209959302 0
          6.7806211555344076 9.7576965079557887 0
          6.7874178686481805 9.7537108879278378 0
          6.7942308039239929 9.749752962597217 0
          6.8010673594746125 9.7458358959519273 0
          6.807934850323357 9.7419732598505213 0
          6.8148366702303811 9.738172242390938 0
          6.8217794434374968 9.7344465154898963 0
          6.8287692972099707 9.7308098700353938 0
          6.8358119451297226 9.7272765626211406 0
          6.8429124207113192 9.7238609961874758 0
          6.8500716227160581 9.7205703559771255 0
          6.8572933773313238 9.717419458429843 0
          6.8645773562497734 9.7144153138152127 0
          6.8719227383983785 9.7115647248602244 0
          6.87932821305355 9.7088742561248491 0
          6.8867919863975722 9.7063502003683553 0
          6.8943117925244533 9.7039985442877565 0
          6.9018849614650248 9.7018251178785224 0
          6.9095083257864074 9.6998351970563874 0
          6.9171802955737931 9.6980421888571584 0
          6.9248964697259412 9.6964506233145542 0
          6.9326520817017236 9.6950645401499393 0
          6.9404420391541493 9.6938874595914779 0
          6.9482609672071822 9.6929223560144617 0
          6.9561032549672479 9.6921716346403706 0
          6.9639631048597259 9.6916371117667346 0
          6.971834591640059 9.6913201858739448 0
          6.9797116908707642 9.6912214520512681 0
          6.9875883513725379 9.691340880381393 0
          6.9954585507669931 9.6916778126752252 0
          7.003316351132252 9.6922309634683224 0
          7.0111559541905404 9.6929984253333998 0
          7.01897173306517 9.6939778556738343 0
          7.0267583201183488 9.6951661342630597 0
          7.0345106447347474 9.6965595583638517 0
          7.0422239812117375 9.6981538630455582 0
          7.0498939541846743 9.6999444126353005 0
          7.0575166510691307 9.7019258856220016 0
          7.0650886280847933 9.7040924763333116 0
          7.0726069444663322 9.7064379213601306 0
          7.0800691385502352 9.708955687010711 0
          7.0874733530142979 9.7116386798146888 0
          7.0948183098286046 9.7144794355655169 0
          7.1021033268417906 9.7174701467605296 0
          7.1093283301206558 9.7206026879718603 0
          7.1164937951303635 9.7238687853987642 0
          7.123600879791991 9.7272597403407328 0
          7.1306513635542323 9.7307665939139341 0
          7.1376476441975694 9.7343801380185262 0
          7.1445884618900495 9.7380988953122998 0
          7.1514772192588998 9.7419130557687268 0
          7.158317941896069 9.745812574768971 0
          7.1651152616130629 9.7497871658355901 0
          7.1718695937551198 9.7538343107760586 0
          7.1785865855480084 9.7579431012947335 0
          7.1852673477553521 9.7621105492285558 0
          7.1919186336598457 9.7663249297584489 0
          7.1985422671808816 9.7705827288248521 0
          7.2051460106427418 9.7748714438348632 0
          7.2117323965308016 9.7791869468886254 0
          7.2183101572435975 9.7835158078916677 0
          7.2248825122266975 9.7878531460955749 0
          7.2314747725522457 9.7921604690987269 0
          7.2380981512664233 9.7964201256563985 0
          7.2447576984374775 9.8006234036212465 0
          7.2514650902789208 9.8047503391761524 0
          7.2582264317159728 9.808788771090537 0
          7.2650542714998965 9.8127142611404583 0
          7.2719561791967644 9.8165086042408536 0
          7.2789357794871377 9.8201587327301656 0
          7.2860022480265316 9.8236384425051799 0
          7.2931438137253402 9.8269622075123024 0
        </DataArray>
      </Points>
      <Cells>
        <DataArray type="Int32" Name="connectivity" format="ascii">
          0 1 1 2 2 3 3 4 4 5 5 6 6 7 7 8 8 9 9 10 10 11 11 12 12 13 13 14 14 15 15 16 16 17 17 18 18 19 19 20 20 21 21 22 22 23 23 24 24 25 25 26 26 27 27 28 28 29 29 30 30 31 31 32 32 33 33 34 34 35 35 36 36 37 37 38 38 39 39 40 40 41 41 42 42 43 43 44 44 45 45 46 46 47 47 48 48 49 49 50 50 51 51 52 52 53 53 54 54 55 55 56 56 57 57 58 58 59 59 60 60 61 61 62 62 63 63 64 64 65 65 66 66 67 67 68 68 69 69 70 70 71 71 72 72 73 73 74 74 75 75 76 76 77 77 78 78 79 79 80 80 81 81 82 82 83 83 84 84 85 85 86 86 87 87 88 88 89 89 90 90 91 91 92 92 93 93 94 94 95 95 96 96 97 97 98 98 99 99 100 100 101 101 102 102 103 103 104 104 105 105 106 106 107 107 108 108 109 109 110 110 111 111 112 112 113 113 114 114 115 115 116 116 117 117 118 118 119 119 120 120 121 121 122 122 123 123 124 124 125 125 126 126 127 
        </DataArray>
        <DataArray type="Int32" Name="offsets" format="ascii">
          2 4 6 8 10 12 14 16 18 20 22 24 26 28 30 32 34 36 38 40 42 44 46 48 50 52 54 56 58 60 62 64 66 68 70 72 74 76 78 80 82 84 86 88 90 92 94 96 98 100 102 104 106 108 110 112 114 116 118 120 122 124 126 128 130 132 134 136 138 140 142 144 146 148 150 152 154 156 158 160 162 164 166 168 170 172 174 176 178 180 182 184 186 188 190 192 194 196 198 200 202 204 206 208 210 212 214 216 218 220 222 224 226 228 230 232 234 236 238 240 242 244 246 248 250 252 254 
        </DataArray>
        <DataArray type="Int32" Name="types" format="ascii">
          3 3 3 3 3 3 3 3 3 3 3 3 3 3 3 3 3 3 3 3 3 3 3 3 3 3 3 3 3 3 3 3 3 3 3 3 3 3 3 3 3 3 3 3 3 3 3 3 3 3 3 3 3 3 3 3 3 3 3 3 3 3 3 3 3 3 3 3 3 3 3 3 3 3 3 3 3 3 3 3 3 3 3 3 3 3 3 3 3 3 3 3 3 3 3 3 3 3 3 3 3 3 3 3 3 3 3 3 3 3 3 3 3 3 3 3 3 3 3 3 3 3 3 3 3 3 3         </DataArray>
      </Cells>
    </Piece>
  </UnstructuredGrid>
</VTKFile>
