<?xml version="1.0"?>
<VTKFile type="UnstructuredGrid" version="0.1" byte_order="LittleEndian">
  <UnstructuredGrid>
    <Piece NumberOfPoints="128" NumberOfCells="127">
      <PointData Scalars="W">
        <DataArray type="Float32" Name="W" NumberOfComponents="2">
          0 0 0.56950419252565643 0.21547053866619381 0.84678871803151035 0.31462972664489597 1.0536258273712071 0.38195351196055144 1.2212328398953538 0.42961820866226269 1.3623343270249739 0.46284174326415234 1.4837145284427684 0.4846108518240746 1.5894398230269913 0.4968907237033241 1.6821526935953028 0.50110905565919117 1.7636122391924745 0.49836306694232541 1.835101516547865 0.48956532764321303 1.8975344402390133 0.47548851773966333 1.9515928700427336 0.45681454367396884 1.9977595348940871 0.4341521670673365 2.0363728346862788 0.40805888423395215 2.0677187105995674 0.37906541277507472 2.0921026692598432 0.34768775123010753 2.1097092764666434 0.31440185209036942 2.1207375598614351 0.2796700438768091 2.1254022180347749 0.24393757747926445 2.1238918609461872 0.20762568103576881 2.1163744226155181 0.17113337509300391 2.1030323934577111 0.13484054181095406 2.0840757124097826 0.099106182081668145 2.0596850571202729 0.064263803904217501 2.0301263128969587 0.03062462027400515 1.9956097115407447 -0.0015297226576526993 1.9562966907557013 -0.031942195019628007 1.9124377158814088 -0.060381574562411895 1.8646256797332945 -0.086664406846886949 1.8127805166519246 -0.11061521294234349 1.7571813975849442 -0.1320928046222935 1.6980981117605629 -0.15098597131439492 1.6358396527740029 -0.16721762118808897 1.5706890892982945 -0.18073939951674034 1.5029472814178744 -0.19153479805728579 1.4328370313639112 -0.19960568801522591 1.3607218080083137 -0.20500020396824939 1.2869886976240543 -0.20780149084944455 1.2118860672080569 -0.20809846563745057 1.135693612289183 -0.20600723925659437 1.0587462655557862 -0.20167601002876262 2.3162376369185611 -0.47382740768696258 1.9469505620324865 -0.43322294115328469 1.571603472051331 -0.37322365429557641 1.4953716005734412 -0.37481540189814516 1.1123268194279974 -0.29136728015143565 1.0401355468224975 -0.28222868810751328 0.96596008379022047 -0.27061804250156757 0.57996826433155135 -0.16644419622329581 0.5097851573487221 -0.14877012046011218 0.44109522462713074 -0.13059429001470596 0.37389636613630262 -0.1120617168708371 0.62014126596334485 -0.18863140716282883 0.5554287483316307 -0.17188953013502536 0.48927301478346075 -0.15372909766931647 0.73509255936216922 -0.23505676342839765 0.3787089049033347 -0.12302341830248571 0.015011374405399187 -0.004903501250037386 -0.35743065559813447 0.11619509891861167 -0.4077117198830888 0.13111498106946912 -0.78907503909670307 0.24945852447414024 -1.1823280107390899 0.36323839618718318 -1.5844314449187227 0.46712100625195391 -2.3861170729613703 0.66152060479112262 -2.4445201602449722 0.62617125269036811 -2.4957448482166278 0.58629181144899656 -2.5496166334882746 0.54443148044314094 -2.6009166424876948 0.4993549571020901 -2.6495475632477099 0.45119978533400362 -3.0990013189923338 0.45494163701607426 -3.1441570634192693 0.38218171390839928 -3.1855645159163286 0.30640258647316182 -3.2231385527575234 0.22782973022272729 -3.2565951885421796 0.14668513719041068 -3.2804453549328971 0.06318726873333462 -3.7319523157111365 -0.031171707372791683 -3.7517533245890617 -0.1419901810850184 -3.7660360267385262 -0.25448714778073406 -3.7748150847022464 -0.36832330650594519 -3.7725651644990972 -0.48237212862395801 -3.7703146674998838 -0.59753657213458866 -3.7625562103212262 -0.71302579692883672 -3.7493347111792308 -0.82851131510034703 -3.7307959791033745 -0.943693757387151 -3.7068809032349392 -1.0582281979460328 -3.6722678093680581 -1.169985173492788 -3.6383137837838651 -1.2820775238568132 -3.5994000522651062 -1.3926776808086565 -3.5557722775537748 -1.5015624579319755 -3.5076114529368798 -1.6085033468187606 -3.4551884895185068 -1.7133312792090587 -3.3985523282485772 -1.8157838796801371 -3.3328202385928054 -1.9126540239869554 -3.2687421633669391 -2.0096296286127751 -3.2012595686519116 -2.1038772051101846 -3.1304425507755895 -2.1951931002277996 -3.0565866460669668 -2.2835331815480724 -2.9799763308033747 -2.3688815473587135 -2.8959878791340876 -2.4469856428143841 -2.5008264236017848 -2.23666470330883 -2.4336897401443083 -2.2949937357476866 -2.3652572859642604 -2.3510038563702231 -2.295528859735144 -2.4045732848860397 -2.5022486406736952 -2.7713593783539676 -2.4127018983573061 -2.835251857574923 -2.3217007080544509 -2.895932149744211 -2.2254948228738649 -2.9480831372347183 -2.3818389118018608 -3.3657862895105617 -2.2649796919599745 -3.4313786679076124 -2.1429370888015562 -3.4863890238235515 -2.2425207377761982 -3.9425920869569389 -2.0942432112660394 -4.0080309049892309 -2.136399808690872 -4.4899911128962762 -1.9531099296474264 -4.5556559652932735 -1.930328828717234 -5.0642928178141045 -1.8525942483491242 -5.5977087685836677 -1.5852451021294014 -5.6559951088290807 -1.4198340349954022 -6.200958952921253 -1.1857257556171745 -6.7891872838366734 -0.67940222332403666 -5.4434380798234763 -0.42299259629758129 -5.1271344454308023 -0.22036034585909176 -5.4016124517914124 0.01082162370462989 -5.4531076257143649 0.28481651168881222 -6.0276559903083511 0.51492576433647486 -5.5300712682548765 0.58702195599961571 -4.4130454557350527 0 0
        </DataArray>
        <DataArray type="Float32" Name="u" NumberOfComponents="1">
          0 0.007874015748031496 0.015748031496062992 0.023622047244094488 0.031496062992125984 0.03937007874015748 0.047244094488188976 0.055118110236220472 0.062992125984251968 0.070866141732283464 0.07874015748031496 0.086614173228346455 0.094488188976377951 0.10236220472440945 0.11023622047244094 0.11811023622047244 0.12598425196850394 0.13385826771653545 0.14173228346456693 0.14960629921259844 0.15748031496062992 0.16535433070866143 0.17322834645669291 0.18110236220472442 0.1889763779527559 0.19685039370078741 0.20472440944881889 0.2125984251968504 0.22047244094488189 0.2283464566929134 0.23622047244094488 0.24409448818897639 0.25196850393700787 0.25984251968503935 0.26771653543307089 0.27559055118110237 0.28346456692913385 0.29133858267716534 0.29921259842519687 0.30708661417322836 0.31496062992125984 0.32283464566929132 0.33070866141732286 0.33858267716535434 0.34645669291338582 0.3543307086614173 0.36220472440944884 0.37007874015748032 0.37795275590551181 0.38582677165354329 0.39370078740157483 0.40157480314960631 0.40944881889763779 0.41732283464566927 0.42519685039370081 0.43307086614173229 0.44094488188976377 0.44881889763779526 0.45669291338582679 0.46456692913385828 0.47244094488188976 0.48031496062992124 0.48818897637795278 0.49606299212598426 0.50393700787401574 0.51181102362204722 0.51968503937007871 0.52755905511811019 0.53543307086614178 0.54330708661417326 0.55118110236220474 0.55905511811023623 0.56692913385826771 0.57480314960629919 0.58267716535433067 0.59055118110236215 0.59842519685039375 0.60629921259842523 0.61417322834645671 0.62204724409448819 0.62992125984251968 0.63779527559055116 0.64566929133858264 0.65354330708661412 0.66141732283464572 0.6692913385826772 0.67716535433070868 0.68503937007874016 0.69291338582677164 0.70078740157480313 0.70866141732283461 0.71653543307086609 0.72440944881889768 0.73228346456692917 0.74015748031496065 0.74803149606299213 0.75590551181102361 0.76377952755905509 0.77165354330708658 0.77952755905511806 0.78740157480314965 0.79527559055118113 0.80314960629921262 0.8110236220472441 0.81889763779527558 0.82677165354330706 0.83464566929133854 0.84251968503937003 0.85039370078740162 0.8582677165354331 0.86614173228346458 0.87401574803149606 0.88188976377952755 0.88976377952755903 0.89763779527559051 0.90551181102362199 0.91338582677165359 0.92125984251968507 0.92913385826771655 0.93700787401574803 0.94488188976377951 0.952755905511811 0.96062992125984248 0.96850393700787396 0.97637795275590555 0.98425196850393704 0.99212598425196852 1
        </DataArray>
      </PointData>
      <CellData Scalars="P">
        <DataArray type="Float32" Name="P" NumberOfComponents="1">
          0.0042871760140243288 0.014134647041434825 0.026288754882726598 0.041140022231309845 0.058775884900942828 0.079082701160760785 0.10180066278351051 0.12655880504045167 0.15290052267468465 0.18030315818314033 0.20819531823766396 0.23597136778224967 0.26300477975613146 0.28866013532406459 0.31230456380333704 0.3333191143738396 0.35110960386299883 0.36511582300468215 0.3748208633871366 0.379759387301561 0.37952494641201773 0.3737766301125755 0.36224474983684879 0.34473526899855134 0.32113371941979257 0.29140656950621691 0.25560319764426537 0.21385752134275471 0.1663856959717441 0.11347374751548289 0.055492327385406631 -0.0071162721514347188 -0.07384331365263834 -0.14412173888489607 -0.21733286570458213 -0.29281570005424801 -0.36987233804361286 -0.44778493390850549 -0.52582854551822145 -0.6032749092940346 -0.67940533200855047 -0.75352568082703941 -0.89366860393850012 -1.0120733457956448 -1.1067895243022559 -1.1979460693044603 -1.2629914642061721 -1.3237437231158511 -1.3797991482385001 -1.4083871886690449 -1.4322938691730136 -1.4515921954014483 -1.4663943350569462 -1.4986629252397103 -1.5264051161314216 -1.5495724245835332 -1.5889803597834118 -1.6046866443097165 -1.5972308123159398 -1.5672533173710876 -1.5354091077643564 -1.4827142499593988 -1.4101006949179891 -1.3188495928829846 -1.1902576014519763 -1.0647774501081111 -0.94311508681317724 -0.82545770440457766 -0.71220217769928529 -0.60370194863158566 -0.4852387515683253 -0.37304779815697264 -0.26738184607311394 -0.16843727841826917 -0.076361525249157777 0.0086142894497020263 0.096476403148845105 0.17636105123087423 0.24832557317729728 0.31248666418681786 0.36893411712214197 0.41798118788959093 0.45989349182326639 0.49497719543236851 0.52357464505810558 0.54605742776768706 0.56279936884504544 0.57425117970592843 0.58084421529678543 0.58301971371174177 0.58122346440683426 0.57590086289859355 0.5674926949448007 0.55645000797028399 0.5431763528289979 0.52807226469743862 0.51151881805338806 0.49387363977714788 0.47546821235482373 0.45664058275940217 0.43995409013368736 0.42336503577446177 0.40704564696265316 0.39113301884987561 0.37357785992946646 0.35663125083024505 0.34034046472999674 0.3247516413869006 0.30785114531763896 0.29160375974670083 0.27597476661032166 0.25899819384361261 0.2424425190405263 0.22437872350601901 0.20651153730327726 0.18688759126415558 0.16535086743003977 0.14378673490270891 0.1202731121296768 0.094804701127407548 0.075098983936494543 0.057403532125961422 0.040032656941613017 0.024432919014257291 0.010125578317163915 0.0020707974156216136 -0.00061132611614782967
        </DataArray>
      </CellData>
      <Points>
        <DataArray type="Float32" NumberOfComponents="3" format="ascii">
          4.0279854058507913 6.6955649428920365 0
          4.0251812275549321 6.7029232397273395 0
          4.0224123630466435 6.7102948974457446 0
          4.0196960064990908 6.7176860638006382 0
          4.0170449839036024 6.7251009120558134 0
          4.0144696887118183 6.7325423961378785 0
          4.0119788708074262 6.7400125742518142 0
          4.0095800571401679 6.7475127941293351 0
          4.0072798038370667 6.7550438149293868 0
          4.005083860025862 6.7626058958106414 0
          4.0029972768867621 6.7701988640142563 0
          4.0010244871911622 6.777822171500067 0
          3.9991693619564632 6.7854749429117982 0
          3.9974352527179016 6.7931560179167398 0
          3.995825021459436 6.8008639890124609 0
          3.9943410616021247 6.8085972361570377 0
          3.992985315746814 6.8163539597403053 0
          3.9917592946370366 6.8241322126431303 0
          3.99066408862994 6.8319299298135521 0
          3.9897003800706776 6.8397449569973272 0
          3.9888684566447536 6.8475750784079663 0
          3.9881682231184818 6.8554180429049278 0
          3.9875992118025021 6.8632715887919273 0
          3.9871605939220198 6.8711334674251159 0
          3.9868511926920842 6.8790014655226583 0
          3.9866694945807368 6.8868734258895365 0
          3.9866136658560873 6.8947472667556937 0
          3.9866815656825647 6.9026209992767305 0
          3.9868707561905139 6.910492743504248 0
          3.987178518062902 6.9183607427523377 0
          3.9876018873487205 6.926223374999128 0
          3.9881376505480004 6.9340791637911527 0
          3.9887823619635792 6.9419267870196864 0
          3.9895323604642492 6.9497650838372742 0
          3.990383788670858 6.9575930594585991 0
          3.9913326105266265 6.9654098881802433 0
          3.992374629961621 6.973214914427512 0
          3.9935055047079433 6.9810076526642542 0
          3.9947207688271469 6.9887877844375357 0
          3.9960158566929906 6.9965551532558532 0
          3.9973861183635075 7.0043097591145456 0
          3.9988268368863733 7.0120517513408167 0
          4.000333249021125 7.0197814194555841 0
          4.0019832862251663 7.0274816077984283 0
          4.0037540421550633 7.0351548357581342 0
          4.0056222361781666 7.0428048256585853 0
          4.0075831400376778 7.0504314892892168 0
          4.0096129982314288 7.0580400027273038 0
          4.0117073345748553 7.0656309423124872 0
          4.0138615501288166 7.0732050367166934 0
          4.0160517094776145 7.0807687465982294 0
          4.0182734622599465 7.0883231758806238 0
          4.0205225507774891 7.0958694588120341 0
          4.0227948098217299 7.1034087510230384 0
          4.0251055103522084 7.110936315653956 0
          4.0274506408895183 7.1184531953144514 0
          4.0298261004596734 7.1259605200079701 0
          4.032247132628501 7.1334532547701919 0
          4.0346916401883215 7.1409383450339732 0
          4.0371370727692915 7.1484231137755323 0
          4.0395603381920875 7.1559150688827717 0
          4.0419583200984803 7.1634151384343525 0
          4.0443073736116366 7.1709306596487803 0
          4.0465831170643067 7.1784686871800902 0
          4.0487606204526481 7.1860356625825013 0
          4.0507901793904511 7.1936436383670532 0
          4.0526681748263425 7.2012904274013056 0
          4.0543914322697443 7.2089735611083539 0
          4.055956612660359 7.2166904474990181 0
          4.057360536005886 7.2244382946191887 0
          4.0586001874749584 7.2322141190956613 0
          4.0596477010182266 7.2400181559540853 0
          4.060500276726021 7.2478458961780641 0
          4.0611553468246004 7.2556926429824928 0
          4.0616105810255503 7.2635535258212549 0
          4.0618639042009228 7.2714235141839287 0
          4.0619138367746794 7.2792974311359702 0
          4.0617323838003472 7.2871694298006746 0
          4.0613183163243667 7.2950326391555746 0
          4.0606707475789854 7.3028800836341636 0
          4.0597891321326784 7.3107047042207371 0
          4.058673608532998 7.3184994282934985 0
          4.0573243155508862 7.3262571138318302 0
          4.0557417336825079 7.33397059845763 0
          4.0539266823842537 7.341632719870387 0
          4.0518803110418409 7.3492363344773084 0
          4.0496041026358895 7.3567743388431284 0
          4.0471002037163988 7.3642398017118369 0
          4.0443707201693568 7.3716257712120257 0
          4.0414180655892791 7.3789253881455465 0
          4.0382449460146832 7.3861318998720584 0
          4.0348543486680981 7.3932386745150076 0
          4.0312495251163032 7.4002392114749815 0
          4.0274339881919952 7.4071271577167188 0
          4.0234118147225049 7.4138965065715112 0
          4.0191869788937362 7.420541245204217 0
          4.0147636658793449 7.4270555302236057 0
          4.01014626745489 7.4334337002931257 0
          4.005339363637467 7.4396702788455746 0
          4.000347705017286 7.4457599750398167 0
          3.9951764994418686 7.451697947351497 0
          3.9898502493296601 7.4574972350326361 0
          3.9843731166851333 7.4631542236179573 0
          3.97874934354232 7.4686654424454453 0
          3.9729832520042896 7.4740275721467233 0
          3.9670620234624501 7.4792178743059772 0
          3.960991208955158 7.4842323887283797 0
          3.9547764495967392 7.4890673542422279 0
          3.9484237091485022 7.493719538325414 0
          3.9419232937051021 7.4981630436754294 0
          3.9352824481503141 7.5023938037114863 0
          3.9285087388586541 7.5064084078087756 0
          3.9215959924566448 7.5101785706883959 0
          3.9145534024639743 7.5137002349399129 0
          3.9073783564087554 7.5169435183885875 0
          3.9000822184777499 7.5199043498873195 0
          3.8926664013160059 7.522551193979349 0
          3.8851357227336889 7.5248509795075789 0
          3.877506754497519 7.526800093565547 0
          3.8697897440306357 7.5283647490794605 0
          3.8619991913340099 7.5295084754744197 0
          3.8541664838473175 7.5303147067773821 0
          3.8463075069077157 7.5308030508142147 0
          3.838434799319757 7.5309564839634762 0
          3.8305626625359346 7.5307718032166493 0
          3.8227080259462607 7.5302133646271363 0
          3.8148855301829809 7.5293120510670954 0
          3.8070995629446611 7.5281371340020975 0
        </DataArray>
      </Points>
      <Cells>
        <DataArray type="Int32" Name="connectivity" format="ascii">
          0 1 1 2 2 3 3 4 4 5 5 6 6 7 7 8 8 9 9 10 10 11 11 12 12 13 13 14 14 15 15 16 16 17 17 18 18 19 19 20 20 21 21 22 22 23 23 24 24 25 25 26 26 27 27 28 28 29 29 30 30 31 31 32 32 33 33 34 34 35 35 36 36 37 37 38 38 39 39 40 40 41 41 42 42 43 43 44 44 45 45 46 46 47 47 48 48 49 49 50 50 51 51 52 52 53 53 54 54 55 55 56 56 57 57 58 58 59 59 60 60 61 61 62 62 63 63 64 64 65 65 66 66 67 67 68 68 69 69 70 70 71 71 72 72 73 73 74 74 75 75 76 76 77 77 78 78 79 79 80 80 81 81 82 82 83 83 84 84 85 85 86 86 87 87 88 88 89 89 90 90 91 91 92 92 93 93 94 94 95 95 96 96 97 97 98 98 99 99 100 100 101 101 102 102 103 103 104 104 105 105 106 106 107 107 108 108 109 109 110 110 111 111 112 112 113 113 114 114 115 115 116 116 117 117 118 118 119 119 120 120 121 121 122 122 123 123 124 124 125 125 126 126 127 
        </DataArray>
        <DataArray type="Int32" Name="offsets" format="ascii">
          2 4 6 8 10 12 14 16 18 20 22 24 26 28 30 32 34 36 38 40 42 44 46 48 50 52 54 56 58 60 62 64 66 68 70 72 74 76 78 80 82 84 86 88 90 92 94 96 98 100 102 104 106 108 110 112 114 116 118 120 122 124 126 128 130 132 134 136 138 140 142 144 146 148 150 152 154 156 158 160 162 164 166 168 170 172 174 176 178 180 182 184 186 188 190 192 194 196 198 200 202 204 206 208 210 212 214 216 218 220 222 224 226 228 230 232 234 236 238 240 242 244 246 248 250 252 254 
        </DataArray>
        <DataArray type="Int32" Name="types" format="ascii">
          3 3 3 3 3 3 3 3 3 3 3 3 3 3 3 3 3 3 3 3 3 3 3 3 3 3 3 3 3 3 3 3 3 3 3 3 3 3 3 3 3 3 3 3 3 3 3 3 3 3 3 3 3 3 3 3 3 3 3 3 3 3 3 3 3 3 3 3 3 3 3 3 3 3 3 3 3 3 3 3 3 3 3 3 3 3 3 3 3 3 3 3 3 3 3 3 3 3 3 3 3 3 3 3 3 3 3 3 3 3 3 3 3 3 3 3 3 3 3 3 3 3 3 3 3 3 3         </DataArray>
      </Cells>
    </Piece>
  </UnstructuredGrid>
</VTKFile>
