<?xml version="1.0"?>
<VTKFile type="UnstructuredGrid" version="0.1" byte_order="LittleEndian">
  <UnstructuredGrid>
    <Piece NumberOfPoints="128" NumberOfCells="127">
      <PointData Scalars="W">
        <DataArray type="Float32" Name="W" NumberOfComponents="2">
          0 0 -0.028237383662393371 -0.00040623128716454817 -0.073286850600369227 -0.0010836310686225007 -0.09366546783190853 -0.0014465447930581614 -0.09841368891383101 -0.0015943315517543974 -0.09131669681059125 -0.001547602691698834 -0.074267799479837818 -0.0013071052857064269 -0.048439570350468246 -0.00087594528624153226 -0.014640548357706598 -0.00026838682731687393 0.026458700408901633 0.00048380243637737204 0.074362851233253133 0.0013302056326067997 0.12861365678905953 0.0021978157860831548 0.18879169664304898 0.0029901421983946383 0.25452859798661326 0.0035868921624626826 0.32544728706177434 0.0038429660794627738 0.40119071706638137 0.0035894188183852611 0.48150861223198232 0.0026344940350509875 0.56607621874513436 0.00076238289339193078 0.65461873601874332 -0.0022644881944462081 0.74689737862033456 -0.0067052717078895062 0.84266387402905563 -0.01283980767217883 0.94163814531102585 -0.020966400336270504 1.0435474448615281 -0.031400172997598834 1.1481118444854637 -0.044470996479086533 1.2550360852070315 -0.060520880181035568 1.3640732050006241 -0.07990527531950381 1.4748965610381906 -0.1029849240336097 1.5870995729779644 -0.13011879497412696 1.7003521305921452 -0.16167165114092774 1.8145977803125248 -0.19804094133550362 1.9290644031140645 -0.23955045700090874 2.0433241007870167 -0.28653991227733933 2.1569188904672552 -0.33933187954745225 2.2693657309431288 -0.39822774454221532 2.3801356151133306 -0.46349880109281577 2.4886553094533195 -0.53537922943336658 2.5942270036624171 -0.61403828171557451 2.6962665389305029 -0.69962491427224494 2.7941818963010259 -0.79224404041691665 2.8872141307719672 -0.89190170918550171 2.9746179708708618 -0.99853823045688572 3.0556668921564545 -1.1120262136468217 -4.0085903378827439 1.4408253539962279 -3.8691660568314603 1.2491096593450235 -3.7175576084930571 1.0731490731194369 -3.6425200089244889 0.93392918919209766 -3.4740602275865204 0.78475297136751565 -3.3881926545622676 0.66758406697652428 -3.2064644229622949 0.54426766765829759 -3.1128962121538297 0.44804444891094919 -3.0167450692250366 0.35948929949181846 -2.918445697194854 0.27838539607995499 -2.8184002082318038 0.2044987499702739 -2.7169791898576126 0.13758096427817787 -2.7086917021539092 0.079153154464366729 -2.6076340288232709 0.021583449900903429 -2.5960373743226759 -0.0317058699864812 -2.3078607046771289 -0.072781315596665813 -2.1090931284420757 -0.103282413588748 -1.9064184890507396 -0.12364546159531545 -1.7012044613594075 -0.13468834167319085 -1.493545111004092 -0.13724041939799411 -1.2849466028334107 -0.13232962476467655 -1.0724696655949826 -0.12057547744415505 -0.73674067036301483 -0.088184168557217876 -0.51511331143241423 -0.06425232385350331 -0.41940240330021411 -0.053894233041197559 -0.32475090769513681 -0.042706954328756423 -0.23288368608560128 -0.031150620556263896 -0.0097951255748356426 -0.0013198125716022116 0.081522402280666345 0.010960823214492202 0.16986966793662558 0.022666590351821624 0.25877395131941955 0.034081287605916853 0.34641397095484672 0.044777192688184954 0.56799714097492648 0.07132411999743099 0.65116074011437719 0.078570284032549079 0.73470251726996705 0.084558101765510152 0.81662913759949995 0.088905406085059771 0.89684624914928213 0.091487259174187693 0.97525154513459389 0.092192913216670849 1.1902964532112186 0.10224943603838277 1.2647979349687786 0.096303347740509151 1.336987810135311 0.088000992366656511 1.4066984729843741 0.077310797877325754 1.473682093236012 0.064219153794260603 1.5357615284550372 0.048689152262721205 1.5967127572687707 0.030909996194371517 1.6542689560810206 0.010844803526330677 1.8540460581050968 -0.013455354646542199 1.9040545485171581 -0.042000759385171775 1.9477490245537157 -0.072542225926225765 1.9889882460191681 -0.10500128682097709 2.0254590518351954 -0.13911851786661394 2.0568250486011652 -0.17462563747740231 2.0828281527428225 -0.21122466539890444 2.1010755546471152 -0.24831508902802932 2.1155421025124319 -0.28599686376486999 2.1237773851398973 -0.3236651483495942 2.2740243816964298 -0.38749057135237874 2.2658292657152441 -0.42857620816784658 2.2526214605764188 -0.46854871658102815 2.2319892744865508 -0.50649845791936421 2.2036107637722906 -0.54181595995176857 2.1650880692220129 -0.57328826133147703 2.2701520631555545 -0.64532252425975345 2.2153545193277857 -0.67406365123497514 2.1494286644016856 -0.69654764091163068 2.0765347838310384 -0.71341236793335694 2.1451749787648824 -0.77954685384917799 2.0484889403599138 -0.7855551279020847 1.9436576575450901 -0.78326139198661759 1.9787575712298024 -0.83610681650845731 1.8493532237433357 -0.8174726372947958 1.8613980997938915 -0.8587342116697716 1.7043462382857471 -0.81859241826368623 1.6897403945946152 -0.84275060745417718 1.4980710782174707 -0.77367754479280293 1.4511534381182518 -0.77372494750459964 1.3987865654487561 -0.76889149435082316 1.314506910615334 -0.74365028146545198 0.36797040887523408 -0.21188828391154288 0.19014650142654396 -0.1101355733332408 -0.13224943284221086 0.076647297619338764 -0.25935658973209086 0.14969758857939724 -0.59734578159156193 0.34168948223353174 -1.1279345466913286 0.63355621321306488 -0.85194220074521054 0.46857629999079575 0 0
        </DataArray>
        <DataArray type="Float32" Name="u" NumberOfComponents="1">
          0 0.007874015748031496 0.015748031496062992 0.023622047244094488 0.031496062992125984 0.03937007874015748 0.047244094488188976 0.055118110236220472 0.062992125984251968 0.070866141732283464 0.07874015748031496 0.086614173228346455 0.094488188976377951 0.10236220472440945 0.11023622047244094 0.11811023622047244 0.12598425196850394 0.13385826771653545 0.14173228346456693 0.14960629921259844 0.15748031496062992 0.16535433070866143 0.17322834645669291 0.18110236220472442 0.1889763779527559 0.19685039370078741 0.20472440944881889 0.2125984251968504 0.22047244094488189 0.2283464566929134 0.23622047244094488 0.24409448818897639 0.25196850393700787 0.25984251968503935 0.26771653543307089 0.27559055118110237 0.28346456692913385 0.29133858267716534 0.29921259842519687 0.30708661417322836 0.31496062992125984 0.32283464566929132 0.33070866141732286 0.33858267716535434 0.34645669291338582 0.3543307086614173 0.36220472440944884 0.37007874015748032 0.37795275590551181 0.38582677165354329 0.39370078740157483 0.40157480314960631 0.40944881889763779 0.41732283464566927 0.42519685039370081 0.43307086614173229 0.44094488188976377 0.44881889763779526 0.45669291338582679 0.46456692913385828 0.47244094488188976 0.48031496062992124 0.48818897637795278 0.49606299212598426 0.50393700787401574 0.51181102362204722 0.51968503937007871 0.52755905511811019 0.53543307086614178 0.54330708661417326 0.55118110236220474 0.55905511811023623 0.56692913385826771 0.57480314960629919 0.58267716535433067 0.59055118110236215 0.59842519685039375 0.60629921259842523 0.61417322834645671 0.62204724409448819 0.62992125984251968 0.63779527559055116 0.64566929133858264 0.65354330708661412 0.66141732283464572 0.6692913385826772 0.67716535433070868 0.68503937007874016 0.69291338582677164 0.70078740157480313 0.70866141732283461 0.71653543307086609 0.72440944881889768 0.73228346456692917 0.74015748031496065 0.74803149606299213 0.75590551181102361 0.76377952755905509 0.77165354330708658 0.77952755905511806 0.78740157480314965 0.79527559055118113 0.80314960629921262 0.8110236220472441 0.81889763779527558 0.82677165354330706 0.83464566929133854 0.84251968503937003 0.85039370078740162 0.8582677165354331 0.86614173228346458 0.87401574803149606 0.88188976377952755 0.88976377952755903 0.89763779527559051 0.90551181102362199 0.91338582677165359 0.92125984251968507 0.92913385826771655 0.93700787401574803 0.94488188976377951 0.952755905511811 0.96062992125984248 0.96850393700787396 0.97637795275590555 0.98425196850393704 0.99212598425196852 1
        </DataArray>
      </PointData>
      <CellData Scalars="P">
        <DataArray type="Float32" Name="P" NumberOfComponents="1">
          0.0088939291005798605 0.026699629551792812 0.044528246469527702 0.062340762978098568 0.080091877598672034 0.097748797471923776 0.1153049344827832 0.13279102619280536 0.15028436552132104 0.16791599693810733 0.18587681459017261 0.20442167876338563 0.22387202697911426 0.24461732312378323 0.26711440405082948 0.2918857491497765 0.31951861631654122 0.35065956578006335 0.38601036251200249 0.4263230542106532 0.47239294289284339 0.52504956489297361 0.5851479659396126 0.65355864138757869 0.73115625620320379 0.81881094740558613 0.91737261945467341 1.0276534279044405 1.1504186926602988 1.2863923161576445 1.4361962513761248 1.6003570325594378 1.7792891630505796 1.973278734371305 2.1824653575523096 2.4068241532144912 2.6461408650531393 2.9000078664889744 3.1678113275111306 3.4487045600787907 3.7415985077827769 4.0451545865206135 3.6806754318808639 3.3279044992988895 2.9881428515346875 2.6538236033117508 2.3344825088177981 2.0219359689317979 1.7261150723393932 1.4382344622284229 1.1587427701007489 0.88805080555506588 0.62653206735494982 0.37452327608654917 0.1225348736352902 -0.11962190125772719 -0.36108579271040886 -0.57288198925492784 -0.76415823373101988 -0.93436845432941829 -1.0831462428494532 -1.2101821878386221 -1.315378950941976 -1.3984030660156219 -1.4468839331161567 -1.4727360867166974 -1.4888425373506853 -1.4954516176980477 -1.4930177954735193 -1.4692147257891059 -1.4371150892775453 -1.3973106681305907 -1.3500974563817774 -1.2959730446890658 -1.2238371544208704 -1.1463592548563664 -1.0639951828313583 -0.97739072229771307 -0.88721420580479526 -0.79415296923830292 -0.68922085910513464 -0.58326488666455056 -0.47703966730308178 -0.37130233981042537 -0.26681123644854804 -0.16442173747520425 -0.064754763096551357 0.031473265546293469 0.12975277956400638 0.22266581673890362 0.3095012775175407 0.38975087580276685 0.46288578917827972 0.52844174867729843 0.58602896335901089 0.63530722487240698 0.6760965395502746 0.70827028633534239 0.73224421101207171 0.74703267510484772 0.75283265874722294 0.74995334525034973 0.73882615289946407 0.72003985531804526 0.69133396231945299 0.6558923588223643 0.61471018870672256 0.5687916424653815 0.51448284849435799 0.45755557404167763 0.39932712450777519 0.33539551672365986 0.27290492819321177 0.2070000870210516 0.14562635649234892 0.08359833822065639 0.029452709910716503 -0.022296065891337521 -0.070641254241146048 -0.11352408289722787 -0.11716879287304013 -0.1133966254911609 -0.098621478828742573 -0.080769437626192597 -0.056615221419333665 -0.027484400899553302 -0.00751470574682735
        </DataArray>
      </CellData>
      <Points>
        <DataArray type="Float32" NumberOfComponents="3" format="ascii">
          4.1547562221426855 5.8577148702487136 0
          4.1546438209548517 5.8655888157854834 0
          4.1545296688935016 5.8734627242681707 0
          4.1544109724945271 5.8813365468477139 0
          4.1542864681748206 5.8892102559578694 0
          4.1541558616149121 5.8970838384546962 0
          4.1540195930202533 5.904957294054368 0
          4.1538787196973548 5.9128306351381141 0
          4.1537348433227361 5.9207038864694352 0
          4.1535900597863469 5.9285770842489871 0
          4.1534469175920972 5.9364502741006842 0
          4.1533083871269332 5.9443235079114363 0
          4.1531778322314832 5.9521968392765032 0
          4.1530589841811913 5.9600703174930736 0
          4.152955918835957 5.9679439800810332 0
          4.1528730332537496 5.9758178437677829 0
          4.152815023549687 5.9836918939962151 0
          4.1527868693791268 5.9915660730196016 0
          4.1527938138065226 5.9994402665061326 0
          4.1528413462753617 6.0073142887948112 0
          4.1529351878148262 6.0151878668139878 0
          4.1530812756618083 6.0230606227175771 0
          4.1532857459144887 6.0309320553766188 0
          4.1535549166437207 6.038801520827942 0
          4.1538952705623711 6.0466682118081252 0
          4.1543134367470653 6.0545311365342345 0
          4.1548161753570092 6.0623890966502074 0
          4.1554103574148806 6.0702406648439942 0
          4.1561029396335707 6.0780841625730471 0
          4.1569009439856686 6.0859176374286186 0
          4.1578114542408153 6.0937388384712552 0
          4.158841568132372 6.1015451961304104 0
          4.159998370865873 6.109333801113908 0
          4.1612889067616745 6.1171013843769293 0
          4.162720149342789 6.1248442984011033 0
          4.1642989685709271 6.1325585003356036 0
          4.1660320953378411 6.1402395374355416 0
          4.1679260782292289 6.1478825365221468 0
          4.1699872473309636 6.1554821946975249 0
          4.1722216775431002 6.1630327727865488 0
          4.1746351415381469 6.1705280949052819 0
          4.1772330635603643 6.1779615521026079 0
          4.1800204743800249 6.1853261101973454 0
          4.1825593289225846 6.1927800144835228 0
          4.1848582713031526 6.2003113757267299 0
          4.1869267013706519 6.2079092814363142 0
          4.1887692717345084 6.2155650990425029 0
          4.1903964274398628 6.2232695766964632 0
          4.1918134928189268 6.2310154490930021 0
          4.1930317359203446 6.2387950677502904 0
          4.1940569587293979 6.2466024661258572 0
          4.1948951233873668 6.2544321531557552 0
          4.1955523252362221 6.2622790998074933 0
          4.1960347678845027 6.2701387245687066 0
          4.1963487402282054 6.2780068780425315 0
          4.1964947563007788 6.2858799392698659 0
          4.1964790823421962 6.2937543385297827 0
          4.1963024373751363 6.3016267734231652 0
          4.1959826903146356 6.3094946929864877 0
          4.1955321662867844 6.3173562038511601 0
          4.1949634327907601 6.3252100412109709 0
          4.1942892148637814 6.3330555181512462 0
          4.1935223892152091 6.3408924742408512 0
          4.1926758907962318 6.3487212118428085 0
          4.1917628950196377 6.3565424576613454 0
          4.1908042197953863 6.364358215782091 0
          4.1898136076986843 6.3721699682276345 0
          4.1887969934342353 6.3799783578214093 0
          4.1877602459303347 6.3877840787960567 0
          4.1867090613913653 6.3955878482940935 0
          4.1856572724132768 6.4033915144786944 0
          4.1846105408768262 6.4111958395675277 0
          4.1835743444181697 6.4190015501752491 0
          4.1825541951444531 6.4268093548628853 0
          4.18155552671079 6.4346199176512959 0
          4.1805920776478054 6.4424348838383132 0
          4.179669003846076 6.4502547038761655 0
          4.1787914846069878 6.4580797502282312 0
          4.1779645990585355 6.4659102937050754 0
          4.1771933203157907 6.4737464957258153 0
          4.1764825091487943 6.4815884014593372 0
          4.1758454981266615 6.4894366351380883 0
          4.1752869059192186 6.4972908299829291 0
          4.1748112079181787 6.5051504732330701 0
          4.1744227258617643 6.5130149041955541 0
          4.1741256124860877 6.5208833134078832 0
          4.1739237165596004 6.5287547403549846 0
          4.1738208170122943 6.5366280852002259 0
          4.1738204824104654 6.5445021065069495 0
          4.1739350992180109 6.5523753009607235 0
          4.174167768426738 6.5602459020044082 0
          4.1745211997805889 6.5681120194568061 0
          4.1749979510418536 6.575971644396529 0
          4.1756002845943287 6.5838226652349423 0
          4.1763301466055331 6.5916628843442764 0
          4.1771891510426027 6.5994900365265643 0
          4.178178431323694 6.6073018262103647 0
          4.1792988867857286 6.6150959212973932 0
          4.1805510307622598 6.6228699906319797 0
          4.1819441828506472 6.6306200840174281 0
          4.1834778387891207 6.6383436589613627 0
          4.1851511839400306 6.6460382420898432 0
          4.1869629437416487 6.6537014855039844 0
          4.1889113637313651 6.6613312045627282 0
          4.1909940608176468 6.6689254530355333 0
          4.1932175576295005 6.6764797737784614 0
          4.1955784633804587 6.6839923903990712 0
          4.1980726975536422 6.6914619144512164 0
          4.2006957478750886 6.6988873060360179 0
          4.2034518822117004 6.7062644751751952 0
          4.206335114229609 6.7135930555503078 0
          4.2093389526306897 6.7208731958585579 0
          4.2124655883949824 6.7281016313466182 0
          4.215707007349919 6.7352795247136639 0
          4.2190639730191002 6.742404330768859 0
          4.2225267571969418 6.7494785470378824 0
          4.2260944725933376 6.7565006906360203 0
          4.2297552437332362 6.7634750549039602 0
          4.2335061806131984 6.7704016546630594 0
          4.2373440573326153 6.7772808097549744 0
          4.2412636691745069 6.7841141073959417 0
          4.2452062672101816 6.790934515927229 0
          4.2491608308522348 6.7977483724798757 0
          4.2531073604512759 6.8045672879144394 0
          4.2570379864879246 6.8113958358772084 0
          4.2609317409925431 6.8182459691542432 0
          4.2647556894419498 6.8251358429239817 0
          4.2685270239304973 6.8320553408621336 0
        </DataArray>
      </Points>
      <Cells>
        <DataArray type="Int32" Name="connectivity" format="ascii">
          0 1 1 2 2 3 3 4 4 5 5 6 6 7 7 8 8 9 9 10 10 11 11 12 12 13 13 14 14 15 15 16 16 17 17 18 18 19 19 20 20 21 21 22 22 23 23 24 24 25 25 26 26 27 27 28 28 29 29 30 30 31 31 32 32 33 33 34 34 35 35 36 36 37 37 38 38 39 39 40 40 41 41 42 42 43 43 44 44 45 45 46 46 47 47 48 48 49 49 50 50 51 51 52 52 53 53 54 54 55 55 56 56 57 57 58 58 59 59 60 60 61 61 62 62 63 63 64 64 65 65 66 66 67 67 68 68 69 69 70 70 71 71 72 72 73 73 74 74 75 75 76 76 77 77 78 78 79 79 80 80 81 81 82 82 83 83 84 84 85 85 86 86 87 87 88 88 89 89 90 90 91 91 92 92 93 93 94 94 95 95 96 96 97 97 98 98 99 99 100 100 101 101 102 102 103 103 104 104 105 105 106 106 107 107 108 108 109 109 110 110 111 111 112 112 113 113 114 114 115 115 116 116 117 117 118 118 119 119 120 120 121 121 122 122 123 123 124 124 125 125 126 126 127 
        </DataArray>
        <DataArray type="Int32" Name="offsets" format="ascii">
          2 4 6 8 10 12 14 16 18 20 22 24 26 28 30 32 34 36 38 40 42 44 46 48 50 52 54 56 58 60 62 64 66 68 70 72 74 76 78 80 82 84 86 88 90 92 94 96 98 100 102 104 106 108 110 112 114 116 118 120 122 124 126 128 130 132 134 136 138 140 142 144 146 148 150 152 154 156 158 160 162 164 166 168 170 172 174 176 178 180 182 184 186 188 190 192 194 196 198 200 202 204 206 208 210 212 214 216 218 220 222 224 226 228 230 232 234 236 238 240 242 244 246 248 250 252 254 
        </DataArray>
        <DataArray type="Int32" Name="types" format="ascii">
          3 3 3 3 3 3 3 3 3 3 3 3 3 3 3 3 3 3 3 3 3 3 3 3 3 3 3 3 3 3 3 3 3 3 3 3 3 3 3 3 3 3 3 3 3 3 3 3 3 3 3 3 3 3 3 3 3 3 3 3 3 3 3 3 3 3 3 3 3 3 3 3 3 3 3 3 3 3 3 3 3 3 3 3 3 3 3 3 3 3 3 3 3 3 3 3 3 3 3 3 3 3 3 3 3 3 3 3 3 3 3 3 3 3 3 3 3 3 3 3 3 3 3 3 3 3 3         </DataArray>
      </Cells>
    </Piece>
  </UnstructuredGrid>
</VTKFile>
