<?xml version="1.0"?>
<VTKFile type="UnstructuredGrid" version="0.1" byte_order="LittleEndian">
  <UnstructuredGrid>
    <Piece NumberOfPoints="128" NumberOfCells="127">
      <PointData Scalars="W">
        <DataArray type="Float32" Name="W" NumberOfComponents="2">
          0 0 0.41091261673616869 -0.014990100270248177 0.61045522728129054 -0.024729820512980269 0.75285417676989297 -0.034550986527631215 0.86206376130879903 -0.045064243875570391 0.94798791001411375 -0.056343700835384702 1.0161042469306509 -0.068297386384123096 1.0698341518274754 -0.0807626591420504 1.1115170143541355 -0.093547256548197205 1.1427843203490351 -0.1064418755677297 1.1648950210196476 -0.11923772801766533 1.1788181972319265 -0.13172848087861588 1.1853150531205425 -0.14371310190168438 1.1849492909360035 -0.15499164409261615 1.1781692840195572 -0.16537038728447176 1.1653581562216924 -0.17466643677846674 1.1469248775749885 -0.18272172149814325 1.1231548751777856 -0.18938078630142863 1.094317174890147 -0.19450529230628222 1.0606838317764977 -0.1979784577684558 1.0224973004542919 -0.19970004913214315 0.97994782586751006 -0.19958127573993076 0.9332330529756292 -0.1975561056914894 0.88256633515222227 -0.19358442782073243 0.82808694225669066 -0.18763279644243974 0.77002018192658095 -0.17970983406749289 0.70852633538772603 -0.1698334349101146 0.64368177174840946 -0.15802380480916567 0.57563723304494363 -0.1443412021534142 0.50487046906911459 -0.12895366011025286 0.43119381449361238 -0.11188480931099543 0.35475680723818498 -0.093263072942810235 0.27567919803431645 -0.073231255410721452 0.19411494857837022 -0.051962562984562762 0.11019657033482695 -0.029645015167970083 0.024076849923684841 -0.0064912765598867878 -0.064197909159480163 0.017296912215258697 -0.15442432529474256 0.041459121316280066 -0.24636435293415088 0.065711521230803135 -0.33992968527127082 0.089798719292397106 -0.43498492091022084 0.11344275582525852 -0.53135058944353697 0.13634678359746399 4.9934972165048013 -1.3788897651028225 4.4232235092036438 -1.4076125253724572 3.8216985909900898 -1.3619927273849031 3.3586836550698713 -1.3124732811766044 2.8850498133810705 -1.2165539100789327 2.5852688134185131 -1.1623956697480149 2.0973066440039423 -0.99465825874167435 1.797032531031268 -0.89005901383211694 1.4970793823688926 -0.76876595492920363 1.1966939866378579 -0.63270776295229236 0.89494771699137288 -0.48391409062101021 0.80880028708134 -0.44535286563831233 0.70739142833849822 -0.39583095119443457 0.62498519093211868 -0.35467726321751403 0.32772158081951519 -0.18785584585435111 0.24960478577421677 -0.14394861931856673 0.18719107652179337 -0.10845027009660221 -0.10357375286975037 0.060058704761952839 -0.15284172843378702 0.088389356665705548 -0.45650131371278002 0.26231414276073989 -0.75941881252181587 0.43082723577605669 -0.82418974214365393 0.45981079854147894 -1.3936267960532731 0.75938801495557395 -1.4728771636173912 0.77827561098753784 -1.5399605990663301 0.78757102923206046 -1.6061282792872804 0.79351738400433003 -1.9707067812245904 0.93558079356140489 -2.0527524220466336 0.93096188345349751 -2.1209148036032963 0.91628881550018559 -2.2012954310440089 0.90316093224461647 -2.5721397255603118 0.99502421152265352 -2.6552362500071531 0.96064353138101222 -2.7215462401561816 0.91616529884278997 -2.8003173957509921 0.87196608578000967 -2.876864073607984 0.82270120253659274 -3.2630258707534958 0.84531435736810534 -3.3384348941168005 0.77015127440161169 -3.4096780848228492 0.68954549289611355 -3.4606310050221212 0.60122368964966921 -3.5233363340361907 0.51150497055987032 -3.5813864892088283 0.41715471191460429 -3.965467374544156 0.3422309195117374 -4.0147963064651275 0.21937818718557336 -4.0570588833894909 0.092435862189778728 -4.0748553543632378 -0.037659687485030208 -4.1031698512896702 -0.17019342692857634 -4.1241197439039237 -0.30535161457882187 -4.1194314471223654 -0.44038146000029493 -4.1257642235745244 -0.57809997356505016 -4.1237398058529111 -0.71676632775081894 -4.0953871080418676 -0.8517050355018948 -4.077693848295695 -0.98938791698154993 -4.0520296401574143 -1.1262905972209363 -4.0004749259684891 -1.2558402284391805 -3.9593833996819789 -1.3881564114069265 -3.9105586317138159 -1.5178579150566669 -3.8357534155287532 -1.6361199522865884 -3.773022661377412 -1.7577951587392038 -3.7026136213090841 -1.8748142735536006 -3.6072328933255862 -1.9764935809610089 -3.5240576578932394 -2.0816858843791133 -3.1253732700204893 -1.97794259179355 -3.0429002550188544 -2.0517349595553642 -2.9556559211102491 -2.119077682650079 -2.8469134133810541 -2.1661199263731272 -2.7518453279891268 -2.2181275969205774 -2.6356709381975816 -2.2470393428199382 -2.5346460294591835 -2.2822006736122247 -2.4129310376129833 -2.291385967633353 -2.2891202220579712 -2.2891939189627117 -2.1812820684111847 -2.2942041818603442 -2.053781017570306 -2.2689682217938829 -2.1498819752956928 -2.4980309069164446 -2.0069623553787652 -2.4557549716509639 -2.0813318174110456 -2.6856141650928254 -1.9040054797884636 -2.5935896771245623 -1.7284783760457643 -2.4799863617848947 -1.7353376782370471 -2.623414822735644 -1.7043188183178 -2.722220147127357 -1.524902372412158 -2.5733029620386181 -1.4686290441419709 -2.6172257228622593 -1.3614021645259127 -2.5640403960145575 -1.3089472347409625 -2.6078529299283835 -1.0979549682656129 -2.3104396685284589 -1.7188175061546154 -3.881902396545319 0 0
        </DataArray>
        <DataArray type="Float32" Name="u" NumberOfComponents="1">
          0 0.007874015748031496 0.015748031496062992 0.023622047244094488 0.031496062992125984 0.03937007874015748 0.047244094488188976 0.055118110236220472 0.062992125984251968 0.070866141732283464 0.07874015748031496 0.086614173228346455 0.094488188976377951 0.10236220472440945 0.11023622047244094 0.11811023622047244 0.12598425196850394 0.13385826771653545 0.14173228346456693 0.14960629921259844 0.15748031496062992 0.16535433070866143 0.17322834645669291 0.18110236220472442 0.1889763779527559 0.19685039370078741 0.20472440944881889 0.2125984251968504 0.22047244094488189 0.2283464566929134 0.23622047244094488 0.24409448818897639 0.25196850393700787 0.25984251968503935 0.26771653543307089 0.27559055118110237 0.28346456692913385 0.29133858267716534 0.29921259842519687 0.30708661417322836 0.31496062992125984 0.32283464566929132 0.33070866141732286 0.33858267716535434 0.34645669291338582 0.3543307086614173 0.36220472440944884 0.37007874015748032 0.37795275590551181 0.38582677165354329 0.39370078740157483 0.40157480314960631 0.40944881889763779 0.41732283464566927 0.42519685039370081 0.43307086614173229 0.44094488188976377 0.44881889763779526 0.45669291338582679 0.46456692913385828 0.47244094488188976 0.48031496062992124 0.48818897637795278 0.49606299212598426 0.50393700787401574 0.51181102362204722 0.51968503937007871 0.52755905511811019 0.53543307086614178 0.54330708661417326 0.55118110236220474 0.55905511811023623 0.56692913385826771 0.57480314960629919 0.58267716535433067 0.59055118110236215 0.59842519685039375 0.60629921259842523 0.61417322834645671 0.62204724409448819 0.62992125984251968 0.63779527559055116 0.64566929133858264 0.65354330708661412 0.66141732283464572 0.6692913385826772 0.67716535433070868 0.68503937007874016 0.69291338582677164 0.70078740157480313 0.70866141732283461 0.71653543307086609 0.72440944881889768 0.73228346456692917 0.74015748031496065 0.74803149606299213 0.75590551181102361 0.76377952755905509 0.77165354330708658 0.77952755905511806 0.78740157480314965 0.79527559055118113 0.80314960629921262 0.8110236220472441 0.81889763779527558 0.82677165354330706 0.83464566929133854 0.84251968503937003 0.85039370078740162 0.8582677165354331 0.86614173228346458 0.87401574803149606 0.88188976377952755 0.88976377952755903 0.89763779527559051 0.90551181102362199 0.91338582677165359 0.92125984251968507 0.92913385826771655 0.93700787401574803 0.94488188976377951 0.952755905511811 0.96062992125984248 0.96850393700787396 0.97637795275590555 0.98425196850393704 0.99212598425196852 1
        </DataArray>
      </PointData>
      <CellData Scalars="P">
        <DataArray type="Float32" Name="P" NumberOfComponents="1">
          0.0039229333274158808 0.012355124326661573 0.021798091487606044 0.032325554348829978 0.043845486646212149 0.056161281663229701 0.069007488856959787 0.082073910239126455 0.095023719003330329 0.10750756556767981 0.11917569592189577 0.12968805397651154 0.13872306618409985 0.14598543416238069 0.1512133801834751 0.15418520015358003 0.15472462193942746 0.15270589596890141 0.14805799561459518 0.14076774463317582 0.13088239875599994 0.11851204819357854 0.10383051574657075 0.087074988510990672 0.068546944542668173 0.048608300209945131 0.027680406232893667 0.0062439065889210409 -0.015167483604535844 -0.035986927279302715 -0.055592607331187614 -0.073327501474087814 -0.088505482749730441 -0.10042154416826904 -0.10835990273321558 -0.11160522312055952 -0.10944602127598053 -0.10119610469874904 -0.08620969502302174 -0.063882903071256977 -0.033669270037719176 0.0049040817923834195 -0.41550205125782336 -0.79896322115408258 -1.1383914098934496 -1.4431343132372429 -1.7091839032553922 -1.9513162317577328 -2.1485808281643615 -2.3182950909729345 -2.4592669782544254 -2.5704638352064397 -2.6510046043002635 -2.723272633742237 -2.7854467868537953 -2.8393986762238401 -2.8624128715021704 -2.8776674501504029 -2.8868611829654154 -2.8666786247386313 -2.8422819946465778 -2.7885293075883335 -2.7066310425659088 -2.6206693850858582 -2.4839254333960272 -2.3439331364384728 -2.2023185618688794 -2.0596455603984234 -1.8916415771895765 -1.7232227979957411 -1.5560428221886287 -1.38967830281237 -1.2040062264631537 -1.0210544546511984 -0.84245510250302325 -0.66784842868443628 -0.4978403750079301 -0.31564823619832066 -0.14006131509506606 0.028321086682276439 0.18821307986835648 0.33992420897291065 0.48300751284416976 0.62934196029674094 0.76524328089501636 0.89036222369341156 1.0039356039927221 1.1063127763962102 1.1973530755385862 1.2766274504859014 1.3445444670294293 1.4011439154113261 1.4463309880547073 1.4805442872755226 1.5040146316079832 1.5169694543289767 1.5198663564608985 1.5130984591883891 1.4971845770438803 1.4725863551219418 1.439836784128057 1.3997108826768696 1.352660001398629 1.304164194453161 1.2507114591145112 1.192917749432119 1.1317833000945026 1.067613229701355 1.001497130896331 0.93367100251859003 0.86529693671064123 0.79708906548271319 0.72920341392013965 0.6628609770168491 0.5913347122139041 0.52274519208837289 0.45035186033864505 0.38317371984493109 0.32193407017837838 0.26115144759347769 0.20283025714199313 0.1525300257585081 0.10723252215867658 0.069276808965519132 0.038263118611236727 0.018067337853740539 0.00055179886490865646
        </DataArray>
      </CellData>
      <Points>
        <DataArray type="Float32" NumberOfComponents="3" format="ascii">
          3.7903966339311355 7.997965196107911 0
          3.7906709672489884 8.0058349947149949 0
          3.7909707806852877 8.0137038598377099 0
          3.7913084474903722 8.0215711847738049 0
          3.7916927974196724 8.0294363580755483 0
          3.7921306021037378 8.0372987255358677 0
          3.7926271891768741 8.0451575855467965 0
          3.7931867819394691 8.0530121947910764 0
          3.7938127115181079 8.0608617783312724 0
          3.7945075619355708 8.0687055415436024 0
          3.7952732712872725 8.0765426831126863 0
          3.7961112098197809 8.0843724079970887 0
          3.797022240037208 8.0921939402440159 0
          3.7980067639196342 8.1000065354759965 0
          3.7990647578968315 8.1078094933103877 0
          3.8001958006724412 8.11560216939246 0
          3.8013990970036362 8.1233839867568953 0
          3.80267350308428 8.1311544456494129 0
          3.8040175442683801 8.1389131331854436 0
          3.8054294317767945 8.1466597319466629 0
          3.806907079591503 8.1543940272401052 0
          3.8084481195137903 8.1621159133304086 0
          3.8100499129841174 8.169825398962006 0
          3.8117095633591567 8.177522611469719 0
          3.8134239291605816 8.1852077992819048 0
          3.8151896327278547 8.1928813340102256 0
          3.8170030742022498 8.2005437099312921 0
          3.8188604414754108 8.2081955428939075 0
          3.8207577149311081 8.2158375690836483 0
          3.8226906767934365 8.2234706413051573 0
          3.8246549407442805 8.2310957185836369 0
          3.8266459402792594 8.2387138647208076 0
          3.8286589379642018 8.2463262403554278 0
          3.8306890328381553 8.2539340941340527 0
          3.8327311699304283 8.261538751998911 0
          3.8347801484402302 8.2691416055594118 0
          3.8368306311655518 8.2767440989376873 0
          3.8388771473216234 8.2843477162934551 0
          3.8409141050899178 8.2919539657117856 0
          3.8429358063078878 8.2995643616414299 0
          3.8449364518653941 8.3071804090973842 0
          3.8469101500117628 8.3148035864646577 0
          3.8488509273860285 8.3224353271309468 0
          3.8511013548023558 8.3299815716767736 0
          3.8536260674831566 8.3374405302802881 0
          3.8563877610572148 8.344815022368298 0
          3.8593577206187626 8.3521081130814299 0
          3.8625065722559975 8.3593257446974043 0
          3.8658157244527032 8.3664712745429846 0
          3.8692549146191126 8.3735550981681381 0
          3.8728055209507395 8.3805837008264277 0
          3.8764489418846324 8.3875646029018327 0
          3.8801665494528459 8.3945062403035546 0
          3.8839396317633703 8.4014178386090475 0
          3.8877628483041566 8.4083017927270287 0
          3.8916299121484688 8.4151611764862988 0
          3.8955357148859884 8.4219985448546115 0
          3.8994618237584988 8.4288242406211875 0
          3.9034033966215844 8.4356409891674975 0
          3.9073565650814004 8.4424509944284178 0
          3.9113033000660704 8.4492647036455963 0
          3.9152405484915942 8.4560838761945618 0
          3.9191494821339967 8.4629192948945473 0
          3.9230113192479594 8.4697814072368285 0
          3.9268220457125635 8.4766720126480468 0
          3.9305463540413155 8.4836096820715028 0
          3.9341793328153893 8.4905955890783602 0
          3.9377168247839642 8.4976303123678214 0
          3.9411547292115436 8.5047142227332113 0
          3.9444704424557928 8.5118561280198435 0
          3.9476588792396261 8.5190557438499663 0
          3.9507158148324799 8.526312162324702 0
          3.953636266697051 8.5336245710469978 0
          3.9563972429114593 8.5409986659394139 0
          3.9589935924180963 8.548432316959131 0
          3.9614212047114368 8.5559227678199434 0
          3.9636751964808643 8.563467279281971 0
          3.9657508221694413 8.5710627978351575 0
          3.9676241399519574 8.5787107264287208 0
          3.9692904746194411 8.5864064059185115 0
          3.9707454090978542 8.5941448395055708 0
          3.9719857841907165 8.6019205517565123 0
          3.9730077119704528 8.6097279804752915 0
          3.9738075930715238 8.6175612761487148 0
          3.9743616141452693 8.6254157950325254 0
          3.9746667163334144 8.6332839205272105 0
          3.9747202788505911 8.6411577823130976 0
          3.9745211978071753 8.6490293143192734 0
          3.974067717194703 8.6568902992785244 0
          3.9733585376276679 8.6647323571104593 0
          3.9723939493509008 8.672547115485143 0
          3.9711735593197348 8.6803260354474077 0
          3.969697492676266 8.6880605192411338 0
          3.9679675070120255 8.6957422000649949 0
          3.9659846990326275 8.7033625411275324 0
          3.9637506596735985 8.7109130540326554 0
          3.9612685851817111 8.7183857061578642 0
          3.9585410230390861 8.725772293554634 0
          3.9555710001876427 8.7330647744430276 0
          3.9523631544461231 8.7402558161947734 0
          3.948921374896579 8.7473378748062469 0
          3.9452500266274457 8.7543036950234985 0
          3.9413550230343017 8.761146972577377 0
          3.9372415205699123 8.7678611856445663 0
          3.9329342397689713 8.7744527636597294 0
          3.928438293649918 8.780917131905694 0
          3.9237590909103175 8.7872501156233227 0
          3.9189033731371281 8.7934487986103544 0
          3.9138770337516915 8.7995099570600122 0
          3.9086872747300356 8.8054317990478204 0
          3.9033403583151896 8.8112121454574606 0
          3.8978438294327815 8.8168504276446882 0
          3.8922053625936384 8.8223467825120068 0
          3.8864316412791711 8.8277009007800125 0
          3.8805305677784223 8.8329143484763932 0
          3.8744961757902741 8.8379729278181429 0
          3.8683373211863081 8.8428792618917633 0
          3.8620493808637297 8.8476191043367951 0
          3.8556433406149835 8.8521981632686675 0
          3.8491300729977023 8.8566234853061481 0
          3.8425091328334533 8.8608861840033075 0
          3.8357824189612217 8.8649801399214194 0
          3.8289610324259806 8.86891459189901 0
          3.8220484257980161 8.8726868253291844 0
          3.8150512040325606 8.8763001477133976 0
          3.8079725578488826 8.8797518553586858 0
          3.8008255043598611 8.8830604059757494 0
          3.793571336597759 8.8861283765360657 0
        </DataArray>
      </Points>
      <Cells>
        <DataArray type="Int32" Name="connectivity" format="ascii">
          0 1 1 2 2 3 3 4 4 5 5 6 6 7 7 8 8 9 9 10 10 11 11 12 12 13 13 14 14 15 15 16 16 17 17 18 18 19 19 20 20 21 21 22 22 23 23 24 24 25 25 26 26 27 27 28 28 29 29 30 30 31 31 32 32 33 33 34 34 35 35 36 36 37 37 38 38 39 39 40 40 41 41 42 42 43 43 44 44 45 45 46 46 47 47 48 48 49 49 50 50 51 51 52 52 53 53 54 54 55 55 56 56 57 57 58 58 59 59 60 60 61 61 62 62 63 63 64 64 65 65 66 66 67 67 68 68 69 69 70 70 71 71 72 72 73 73 74 74 75 75 76 76 77 77 78 78 79 79 80 80 81 81 82 82 83 83 84 84 85 85 86 86 87 87 88 88 89 89 90 90 91 91 92 92 93 93 94 94 95 95 96 96 97 97 98 98 99 99 100 100 101 101 102 102 103 103 104 104 105 105 106 106 107 107 108 108 109 109 110 110 111 111 112 112 113 113 114 114 115 115 116 116 117 117 118 118 119 119 120 120 121 121 122 122 123 123 124 124 125 125 126 126 127 
        </DataArray>
        <DataArray type="Int32" Name="offsets" format="ascii">
          2 4 6 8 10 12 14 16 18 20 22 24 26 28 30 32 34 36 38 40 42 44 46 48 50 52 54 56 58 60 62 64 66 68 70 72 74 76 78 80 82 84 86 88 90 92 94 96 98 100 102 104 106 108 110 112 114 116 118 120 122 124 126 128 130 132 134 136 138 140 142 144 146 148 150 152 154 156 158 160 162 164 166 168 170 172 174 176 178 180 182 184 186 188 190 192 194 196 198 200 202 204 206 208 210 212 214 216 218 220 222 224 226 228 230 232 234 236 238 240 242 244 246 248 250 252 254 
        </DataArray>
        <DataArray type="Int32" Name="types" format="ascii">
          3 3 3 3 3 3 3 3 3 3 3 3 3 3 3 3 3 3 3 3 3 3 3 3 3 3 3 3 3 3 3 3 3 3 3 3 3 3 3 3 3 3 3 3 3 3 3 3 3 3 3 3 3 3 3 3 3 3 3 3 3 3 3 3 3 3 3 3 3 3 3 3 3 3 3 3 3 3 3 3 3 3 3 3 3 3 3 3 3 3 3 3 3 3 3 3 3 3 3 3 3 3 3 3 3 3 3 3 3 3 3 3 3 3 3 3 3 3 3 3 3 3 3 3 3 3 3         </DataArray>
      </Cells>
    </Piece>
  </UnstructuredGrid>
</VTKFile>
