<?xml version="1.0"?>
<VTKFile type="UnstructuredGrid" version="0.1" byte_order="LittleEndian">
  <UnstructuredGrid>
    <Piece NumberOfPoints="128" NumberOfCells="127">
      <PointData Scalars="W">
        <DataArray type="Float32" Name="W" NumberOfComponents="2">
          0 0 -0.52138390896642939 -0.4586906331521044 -0.78463372436547607 -0.68084413664636223 -0.99227253741065691 -0.84510370680230185 -1.1707958592513672 -0.97487646491751079 -1.3310529998652685 -1.0798867418670213 -1.4788888126377844 -1.1654894564710989 -1.6179100702273219 -1.2350708064431972 -1.7504918156585865 -1.2909216346499275 -1.8782097376473754 -1.3346242608771692 -2.0021949907721872 -1.3673547224160567 -2.1232553700397969 -1.3899931771551797 -2.2419759223057985 -1.4032127802932497 -2.3587105264302557 -1.4074941926832156 -2.4736294172720177 -1.4031788712505351 -2.5868108451059455 -1.3905398170916663 -2.6983209280501579 -1.3698300504960359 -2.8081001346751822 -1.3412264841711177 -2.9160188536402205 -1.3048720061804637 -3.0219585016237782 -1.2609171115721174 -3.1257526317163071 -1.2094929512483854 -3.2271686438220679 -1.150711243786992 -3.3259864801044534 -1.0846987148220921 -3.421984283362796 -1.0115890510283261 -3.5148318075753013 -0.93149516829453827 -3.6043125882651248 -0.84457668716260181 -3.6901392493256622 -0.75098335771323765 -3.7719518773640375 -0.65086728547729877 -3.8494448367915721 -0.54441212267345573 -3.9227079506624669 -0.43185513655699298 -3.9910980205005275 -0.31334143388609215 -4.0543327213444345 -0.18909697634733494 -4.1121430429266548 -0.059361214857653055 -4.1642811786109002 0.075615032910836488 -4.2104873500791111 0.21557064789375424 -4.2505462137184047 0.36023653790418569 -4.2841492970016999 0.50932480100394417 -4.3111555533248804 0.66255262689387484 -4.3314237343585082 0.81964131016948494 -4.3446931969641334 0.98028647852321726 -4.3507592923801823 1.144179821842493 -4.3494506346574893 1.3110123006953063 4.7811044730681118 -1.4319219789333768 4.7848516109521837 -1.2314143761707421 4.7611509571798747 -1.0310275100357007 4.7271999900862243 -0.83666535191719993 4.7021376687476666 -0.65105240105774898 4.6504039224713711 -0.46890527553586175 4.5902752255106121 -0.29408185412112026 4.5427033942113288 -0.12712037106559798 4.4688104165802729 0.03356964909393665 4.3886181271797184 0.18619662820776872 4.3027331806446227 0.33061318632966441 4.1889027023951639 0.46379930509677741 -15.092654279773845 -1.0168768229723752 -15.148078838933786 0.78953775978136365 1.1806498624008022 -0.12699975330530239 1.7171220227631985 -0.16481298687046159 2.256879390147791 -0.18089903842697372 2.8323835557486179 -0.16985730058968596 2.7745850796739315 -0.10491399280720294 3.3510513809556368 -0.045800706167712112 3.9299732638295652 0.058974810017664581 3.8611100745486575 0.17657753468403842 3.7726000471116787 0.2865750657652012 3.6974667502106406 0.39098788764261105 3.6202533982165508 0.48942681175659558 3.5417397596101878 0.58207984249979849 3.4621143108546115 0.66909296166081256 3.3820708514294866 0.75072807000975084 3.3020685549868136 0.82725558764591112 3.2225236364483707 0.89897189056960325 3.1594620114473559 0.97122834781295975 3.0818156159280887 1.0351454845420518 3.0054148059661192 1.0951608889276292 2.9306944193229207 1.151680267638584 2.857870552879946 1.2050606948127178 2.7871223074290126 1.2556602205943816 2.7186027695732813 1.3038396392239222 2.6524276621832077 1.3499548192618651 2.5886864169450621 1.394359111684677 2.5413468059572275 1.4455226160520829 2.4822637886319985 1.4881762301827564 2.425714195831512 1.5301282150411044 2.3716952645587739 1.5717146942450824 2.3201768710487607 1.6132618368652605 2.2711111939437325 1.6550911537139978 2.2365565765772208 1.7069859033424144 2.1917597641071325 1.7508558839381014 2.1491470446431591 1.7959282811859634 2.108595206073161 1.8425052360880056 2.0808404585421476 1.9010453466756503 2.0433896569902292 1.9518821764978631 2.0076591807853768 2.0052427580510717 1.9733060931195816 2.0612941383745929 1.9497026681590675 2.1310573425690116 1.9169393635643976 2.1938256423235245 1.8848105516354177 2.2601747971441402 1.8530282155445466 2.330414891108239 1.8212704286791286 2.404854401526463 1.7971788894930749 2.4951942561580522 1.7638210063955004 2.5793801949110269 1.7292934134415681 2.668723767057942 1.6931265136489493 2.7635678553563809 1.6547964464724376 2.8642579615901336 1.6137248871115153 2.9711523668690925 1.5692688667688348 3.0846187544973152 1.5207171715203263 3.2050457316360954 1.4673484612790804 3.3330098514594404 1.4081071814262247 3.4685674150655226 1.3421495680148854 3.6125265911286011 1.2639651505180685 3.7517155943237417 1.1816808266215508 3.9130377606706017 1.0853898025572761 4.0703182012079671 0.98127568586793446 4.2516274393552136 0.86044194846760591 4.4290681030189285 0.72699874869030434 4.6329515616785626 0.30549650924179728 2.37849163430085 0.25689918286457075 2.347504768948959 0.21664909325916432 2.3943936058534403 0.17022533411881965 2.3810695739713093 0.12350007197603002 2.3392521599075793 0.078106507311219903 2.2538494508587736 0.03618296691427627 2.0419791794074422 0.0055204602265002834 1.5557882287895042 -0.00053082289230763048 0.16451988709236212 0.00094563374169125407 -0.53461839335367634 0 0
        </DataArray>
        <DataArray type="Float32" Name="u" NumberOfComponents="1">
          0 0.007874015748031496 0.015748031496062992 0.023622047244094488 0.031496062992125984 0.03937007874015748 0.047244094488188976 0.055118110236220472 0.062992125984251968 0.070866141732283464 0.07874015748031496 0.086614173228346455 0.094488188976377951 0.10236220472440945 0.11023622047244094 0.11811023622047244 0.12598425196850394 0.13385826771653545 0.14173228346456693 0.14960629921259844 0.15748031496062992 0.16535433070866143 0.17322834645669291 0.18110236220472442 0.1889763779527559 0.19685039370078741 0.20472440944881889 0.2125984251968504 0.22047244094488189 0.2283464566929134 0.23622047244094488 0.24409448818897639 0.25196850393700787 0.25984251968503935 0.26771653543307089 0.27559055118110237 0.28346456692913385 0.29133858267716534 0.29921259842519687 0.30708661417322836 0.31496062992125984 0.32283464566929132 0.33070866141732286 0.33858267716535434 0.34645669291338582 0.3543307086614173 0.36220472440944884 0.37007874015748032 0.37795275590551181 0.38582677165354329 0.39370078740157483 0.40157480314960631 0.40944881889763779 0.41732283464566927 0.42519685039370081 0.43307086614173229 0.44094488188976377 0.44881889763779526 0.45669291338582679 0.46456692913385828 0.47244094488188976 0.48031496062992124 0.48818897637795278 0.49606299212598426 0.50393700787401574 0.51181102362204722 0.51968503937007871 0.52755905511811019 0.53543307086614178 0.54330708661417326 0.55118110236220474 0.55905511811023623 0.56692913385826771 0.57480314960629919 0.58267716535433067 0.59055118110236215 0.59842519685039375 0.60629921259842523 0.61417322834645671 0.62204724409448819 0.62992125984251968 0.63779527559055116 0.64566929133858264 0.65354330708661412 0.66141732283464572 0.6692913385826772 0.67716535433070868 0.68503937007874016 0.69291338582677164 0.70078740157480313 0.70866141732283461 0.71653543307086609 0.72440944881889768 0.73228346456692917 0.74015748031496065 0.74803149606299213 0.75590551181102361 0.76377952755905509 0.77165354330708658 0.77952755905511806 0.78740157480314965 0.79527559055118113 0.80314960629921262 0.8110236220472441 0.81889763779527558 0.82677165354330706 0.83464566929133854 0.84251968503937003 0.85039370078740162 0.8582677165354331 0.86614173228346458 0.87401574803149606 0.88188976377952755 0.88976377952755903 0.89763779527559051 0.90551181102362199 0.91338582677165359 0.92125984251968507 0.92913385826771655 0.93700787401574803 0.94488188976377951 0.952755905511811 0.96062992125984248 0.96850393700787396 0.97637795275590555 0.98425196850393704 0.99212598425196852 1
        </DataArray>
      </PointData>
      <CellData Scalars="P">
        <DataArray type="Float32" Name="P" NumberOfComponents="1">
          -0.0068984341499004186 -0.019094605751408256 -0.028226574401742602 -0.033472526652182026 -0.03427925723462736 -0.030256590176234648 -0.021123571502567162 -0.0066759876960477207 0.013234273271704827 0.038711944846308272 0.069828505121468737 0.10662911018282249 0.14913783665412475 0.19735988383101019 0.2512826986696034 0.31087796504655196 0.37610491064832219 0.44690979466547931 0.52322626621372847 0.60497775901203554 0.69207789575720879 0.78443003696001001 0.88192914168830872 0.98446313133760155 1.0919106348386851 1.2041460767015875 1.3210386193391215 1.4424509470871176 1.5682424454216906 1.6982846651596386 1.8324367900563341 1.9705599161363081 2.1125191271792403 2.2581859519166252 2.4074396844036507 2.5601709039585376 2.716279874232169 2.8756849666733477 3.0383248848501299 3.2041562527052139 3.3731581075832948 3.5453356482923915 3.3339364849568893 3.1142879118835434 2.8886139567547473 2.6583033791887072 2.423695912179654 2.1868128484378997 1.948694666042547 1.7091704858300967 1.4700372838178606 1.2319569483855342 0.99547045244044052 0.76229767671417203 1.5788495202557007 2.3886310944791354 2.28978357720524 2.1568768523136175 1.98763769717866 1.7780073779227163 1.5666834036742558 1.3135394724006582 1.0616452009048118 0.81172761063595134 0.56643788341349977 0.32608330263938262 0.091858257307518551 -0.13522332855934888 -0.35428126975685897 -0.56459408353725193 -0.76557468849173094 -0.95675855310159208 -1.1387047685169498 -1.3102079259286461 -1.4710846158329256 -1.6212390570913446 -1.7606422033813247 -1.8893219476183074 -2.0073544115667734 -2.1148553021896137 -2.2119724170387847 -2.2993380306026703 -2.3766219402289357 -2.4440279638654512 -2.5017688450670388 -2.5500618740696068 -2.5891253775809386 -2.619306018840954 -2.64062672228243 -2.653293043457726 -2.6575028547644783 -2.6533846609657767 -2.6411282054626444 -2.6209042224705823 -2.5928752414224747 -2.556976173928303 -2.5135292553030304 -2.4626771990762935 -2.4045587644183768 -2.3393111098780195 -2.2667032611888756 -2.1872132880318569 -2.1009920061425698 -2.0082009909421465 -1.9090170472943304 -1.8036368532573055 -1.6922822985203292 -1.5752060014790541 -1.4526908937772076 -1.325078664324463 -1.192748703672921 -1.0566730323295672 -0.91685611531283628 -0.7744127688138247 -0.62950433050700882 -0.48345351108502788 -0.33663724253837818 -0.2705302341789958 -0.20956161494200343 -0.15192063860890101 -0.10000850298681732 -0.055077757405264459 -0.018475199299386142 0.0074251447751939583 0.019656789333281896 0.012745310223262413 0.00276995130444007
        </DataArray>
      </CellData>
      <Points>
        <DataArray type="Float32" NumberOfComponents="3" format="ascii">
          6.5708972378932771 10.426773023173169 0
          6.5761145176066185 10.420875245461058 0
          6.5812994680886012 10.414949028861603 0
          6.586435766398516 10.408980599636624 0
          6.5915105379743153 10.402959773435169 0
          6.5965127136836772 10.396878504092022 0
          6.6014323570681119 10.390730280734516 0
          6.6062603019063495 10.384509795784579 0
          6.6109879285587949 10.378212735018073 0
          6.6156070166905758 10.371835635534788 0
          6.6201096475618799 10.365375787656495 0
          6.6244881338841113 10.358831162014292 0
          6.6287349697277689 10.352200354980612 0
          6.6328427942433326 10.345482546935525 0
          6.6368043697168133 10.338677472468074 0
          6.6406125710131407 10.331785399208455 0
          6.644260380724015 10.324807110904526 0
          6.6477408850690756 10.31774389173702 0
          6.651047277588706 10.310597515353429 0
          6.654172867182945 10.303370236011181 0
          6.6571110854675153 10.296064779248747 0
          6.6598554970983628 10.288684333755572 0
          6.6623998141986522 10.281232544446119 0
          6.6647379100087596 10.273713504602554 0
          6.66686383264841 10.266131747584714 0
          6.6687718255996051 10.258492239826616 0
          6.6704563411350195 10.250800370935673 0
          6.6719120581430964 10.243061944402205 0
          6.6731339044503342 10.235283168160976 0
          6.6741170757775734 10.227470643194732 0
          6.6748570301760113 10.219631348811259 0
          6.6753495279107415 10.211772633632309 0
          6.6755906489673533 10.20390220156697 0
          6.6755768097305301 10.196028096946362 0
          6.6753047783449286 10.188158688951329 0
          6.6747716908146613 10.18030265539943 0
          6.6739750643434599 10.172468966035847 0
          6.6729128164440157 10.164666864656773 0
          6.6715832736611151 10.156905851547776 0
          6.6699851803011683 10.149195666176636 0
          6.668117714557634 10.141546268295638 0
          6.6659805011575575 10.133967818801553 0
          6.6635736219382737 10.126470660553407 0
          6.661463175616305 10.118884731331962 0
          6.6596493929878351 10.111222460655618 0
          6.6581308033590654 10.103496269979832 0
          6.6569053008592185 10.095718206536388 0
          6.6559713311589128 10.087899774434236 0
          6.6553256868344581 10.080052262217171 0
          6.6549646406065834 10.072186503675534 0
          6.6548852444619513 10.06431284465453 0
          6.6550829192711003 10.056441241517485 0
          6.6555526962332863 10.048581150212712 0
          6.6562892545521866 10.040741517228721 0
          6.6572855417848995 10.032930592117886 0
          6.6573460346502387 10.025056570471305 0
          6.6564672785982255 10.017231449359253 0
          6.6556617470729673 10.009398643714515 0
          6.654962687784657 10.001555713059007 0
          6.654403554601398 9.9937015510263887 0
          6.6540200253680606 9.9858367187932515 0
          6.6538085236536446 9.9779651184157743 0
          6.6538048151706626 9.9700902713964172 0
          6.6540448116678297 9.962219198011308 0
          6.6545242328550893 9.9543591810298739 0
          6.6552375816019183 9.9465170314813012 0
          6.6561801917376249 9.9386992133510752 0
          6.6573472694864115 9.9309118201298716 0
          6.6587339417305564 9.9231605866624957 0
          6.660335267591865 9.9154508983707697 0
          6.6621462813366845 9.9077878076227286 0
          6.6641620207262999 9.9001760506056389 0
          6.6663775527020528 9.8926200657818946 0
          6.668788966934283 9.8851243256093859 0
          6.6713914493489836 9.8776927863452872 0
          6.6741802635790526 9.8703291630162617 0
          6.6771507778263235 9.8630369545714913 0
          6.6802984781702577 9.8558194660090557 0
          6.6836189795927829 9.8486798305521912 0
          6.6871080354004215 9.8416210319873461 0
          6.6907615443398809 9.8346459266906585 0
          6.69457555609329 9.8277572654940162 0
          6.6985471372032377 9.8209582188618789 0
          6.7026726260999068 9.8142514300427202 0
          6.7069485182247002 9.8076394991756661 0
          6.7113714658417791 9.8011250040855966 0
          6.7159382761593278 9.7947105204627718 0
          6.7206459083588195 9.7883986417560287 0
          6.7254922211248003 9.78219258584976 0
          6.7304744380963824 9.7760950731494773 0
          6.7355899182375865 9.7701088987682514 0
          6.7408361482061929 9.7642369512319966 0
          6.7462114078927424 9.7584828610725971 0
          6.7517133760687322 9.7528497811284538 0
          6.7573398381167005 9.7473410207798654 0
          6.7630886647823854 9.7419600562902904 0
          6.76895839312456 9.7367112143023196 0
          6.7749469924036996 9.7315983876130492 0
          6.7810524712231022 9.7266256910637772 0
          6.7872728596845331 9.7217974807647511 0
          6.7936061894410846 9.7171183732231032 0
          6.8000509673128349 9.7125939710192863 0
          6.8066051258170521 9.7082294950216461 0
          6.8132665250103361 9.704030485927559 0
          6.820032923382489 9.7000028255363873 0
          6.8269019453849573 9.6961527581877949 0
          6.8338710455809633 9.6924869129957525 0
          6.8409374687859481 9.6890123266689674 0
          6.8480982059743898 9.6857364676325979 0
          6.8553499495523189 9.6826672718098035 0
          6.8626890279154331 9.6798131461427506 0
          6.8701113531186904 9.6771830187474492 0
          6.877612079517248 9.6747855220858909 0
          6.8851861070411084 9.6726306614822963 0
          6.8928274675380443 9.6707281918904755 0
          6.9005297074709473 9.6690893587921618 0
          6.9082853369509554 9.6677251681694134 0
          6.916086083731309 9.666648266363481 0
          6.9239058864824639 9.6657188458677403 0
          6.9317417497149485 9.6649349897814769 0
          6.9395911951342857 9.6642996119779223 0
          6.9474513658760433 9.6638118932928716 0
          6.9553193903119332 9.6634692487226044 0
          6.9631924847778981 9.6632663913297954 0
          6.9710680913193537 9.6631901908674838 0
          6.9789443713682351 9.6632105003632791 0
          6.9868210757832134 9.6632410181157304 0
          6.9946984112686055 9.663238364925343 0
        </DataArray>
      </Points>
      <Cells>
        <DataArray type="Int32" Name="connectivity" format="ascii">
          0 1 1 2 2 3 3 4 4 5 5 6 6 7 7 8 8 9 9 10 10 11 11 12 12 13 13 14 14 15 15 16 16 17 17 18 18 19 19 20 20 21 21 22 22 23 23 24 24 25 25 26 26 27 27 28 28 29 29 30 30 31 31 32 32 33 33 34 34 35 35 36 36 37 37 38 38 39 39 40 40 41 41 42 42 43 43 44 44 45 45 46 46 47 47 48 48 49 49 50 50 51 51 52 52 53 53 54 54 55 55 56 56 57 57 58 58 59 59 60 60 61 61 62 62 63 63 64 64 65 65 66 66 67 67 68 68 69 69 70 70 71 71 72 72 73 73 74 74 75 75 76 76 77 77 78 78 79 79 80 80 81 81 82 82 83 83 84 84 85 85 86 86 87 87 88 88 89 89 90 90 91 91 92 92 93 93 94 94 95 95 96 96 97 97 98 98 99 99 100 100 101 101 102 102 103 103 104 104 105 105 106 106 107 107 108 108 109 109 110 110 111 111 112 112 113 113 114 114 115 115 116 116 117 117 118 118 119 119 120 120 121 121 122 122 123 123 124 124 125 125 126 126 127 
        </DataArray>
        <DataArray type="Int32" Name="offsets" format="ascii">
          2 4 6 8 10 12 14 16 18 20 22 24 26 28 30 32 34 36 38 40 42 44 46 48 50 52 54 56 58 60 62 64 66 68 70 72 74 76 78 80 82 84 86 88 90 92 94 96 98 100 102 104 106 108 110 112 114 116 118 120 122 124 126 128 130 132 134 136 138 140 142 144 146 148 150 152 154 156 158 160 162 164 166 168 170 172 174 176 178 180 182 184 186 188 190 192 194 196 198 200 202 204 206 208 210 212 214 216 218 220 222 224 226 228 230 232 234 236 238 240 242 244 246 248 250 252 254 
        </DataArray>
        <DataArray type="Int32" Name="types" format="ascii">
          3 3 3 3 3 3 3 3 3 3 3 3 3 3 3 3 3 3 3 3 3 3 3 3 3 3 3 3 3 3 3 3 3 3 3 3 3 3 3 3 3 3 3 3 3 3 3 3 3 3 3 3 3 3 3 3 3 3 3 3 3 3 3 3 3 3 3 3 3 3 3 3 3 3 3 3 3 3 3 3 3 3 3 3 3 3 3 3 3 3 3 3 3 3 3 3 3 3 3 3 3 3 3 3 3 3 3 3 3 3 3 3 3 3 3 3 3 3 3 3 3 3 3 3 3 3 3         </DataArray>
      </Cells>
    </Piece>
  </UnstructuredGrid>
</VTKFile>
