<?xml version="1.0"?>
<VTKFile type="UnstructuredGrid" version="0.1" byte_order="LittleEndian">
  <UnstructuredGrid>
    <Piece NumberOfPoints="128" NumberOfCells="127">
      <PointData Scalars="W">
        <DataArray type="Float32" Name="W" NumberOfComponents="2">
          0 0 0.56577558994988209 0.14185948422932382 0.84813393259680059 0.20749487848903686 1.0704913660630409 0.25309718941698434 1.2610099040301728 0.28562489050592427 1.4312688130115039 0.3078963477878422 1.5875422364340803 0.32139946158184823 1.7336785849768579 0.32700371011179885 1.8722223552913038 0.32523732235294772 2.0048329537650527 0.31640169474708213 2.1327165567282114 0.30067235831163153 2.2567234574207857 0.27812854787181734 2.3774341358552702 0.24877962453100985 2.4951898750255119 0.21258310383264392 2.6101529246628932 0.16946526750157623 2.7223762969217953 0.11933742588076277 2.8319217037827169 0.062104877790080268 2.9386802623765602 -0.0023378080173745812 3.0424815952095066 -0.074092278130769518 3.1431477889090291 -0.15325474735225558 3.2404120784937076 -0.23991149794160835 3.3339347758988671 -0.33413045264642627 3.423365961625394 -0.43596104551417963 3.508346543425453 -0.5454349961237821 3.5884162294328616 -0.66254878469451628 3.663178715351683 -0.78728559517097307 3.7321519467503443 -0.91958943792479431 3.7947429085589928 -1.0593429620684438 3.8504110262674236 -1.2063992573006757 3.8989522779260399 -1.3606960967302562 3.9394843059521332 -1.5219207710354588 3.9714447499854137 -1.6898002437101101 3.9942489047084297 -1.8640041715835189 4.0073431976620899 -2.0441645936909203 4.0101476925094905 -2.2298467558971828 4.0021100579252158 -2.420570350902604 3.9826124743334148 -2.6157469317397015 3.9511897528350417 -2.8148101412029543 3.9073998038248328 -3.0171520137994565 3.8506886744205024 -3.2220040709715718 3.7805998832524645 -3.4285730577400906 3.6967453325146429 -3.6360283322981499 -3.0790970034282479 3.0489166505684331 -3.1064774753644602 2.8751600112432047 -3.1215030665143879 2.7038259188208298 -3.1251773657877093 2.536082846260912 -3.1329982404779453 2.3835398817131104 -3.1168713935707082 2.2241870283753151 -3.1074700493781098 2.0805905263347646 -3.090801995293019 1.9416426155025135 -3.0675221300414512 1.8076612734049453 -3.0382813109502118 1.6788932252746529 -3.0037043788461815 1.5555112472527248 -2.9644151291641734 1.4376368091278562 -2.9213854881621 1.325497645213261 -2.8922554103816149 1.226053269952633 -2.8071152611347348 1.1104464426166536 -2.735890138770936 1.0090037430259848 -2.6614324460000778 0.91388697510729255 -2.5847294131435645 0.82512572900992187 -2.5057373535854692 0.74238102952186646 -2.42543321282615 0.66562673537861772 -2.3436433039293636 0.59448836980556519 -2.2365171874710628 0.52332992292230274 -2.126060574212262 0.45816114438652733 -2.0679306289660557 0.40927382939883028 -1.9836575328469577 0.35923027501451688 -1.9280745908648287 0.31812485857440653 -1.874177376179714 0.2801275100838454 -1.8225470120068006 0.24507716916244235 -1.7436722047133095 0.20939024324634847 -1.6958524772483015 0.1802394304915538 -1.6508210868610187 0.1533767375150471 -1.6079165797306996 0.12852888302328999 -1.5676720825971373 0.10555189055121726 -1.5005471753123736 0.082803396506153149 -1.4659306154530365 0.063709354338846086 -1.4343257771385478 0.045922625792079591 -1.4058283320560403 0.029273685345172329 -1.3809535241829671 0.01359865414238637 -1.3278253713104222 -0.0010859363064377096 -1.3092184896418133 -0.014664219802226749 -1.2940867888842444 -0.027763797686836858 -1.2829657423394467 -0.04055611976444741 -1.2750571630114467 -0.053173415727214811 -1.2708839093628646 -0.065780065047785247 -1.2388529894326781 -0.076422542297501367 -1.242442220509091 -0.08886245950956892 -1.250025276545542 -0.10177932002198313 -1.261681691464773 -0.11534518099031461 -1.2775099356650514 -0.12974255094819381 -1.2980572529101877 -0.14521773059952334 -1.322472391253269 -0.16187560301596715 -1.3183430724726988 -0.17541429171741657 -1.3518077040060053 -0.19448923125611819 -1.3903645894459542 -0.21555358663797142 -1.4331563215845178 -0.23874219194353988 -1.4807465311995525 -0.2644231872239502 -1.5337078127772577 -0.29302486777173853 -1.5574567358321341 -0.31763788457429232 -1.6201193127520779 -0.35205151968038284 -1.6879327066894412 -0.39045339014301417 -1.7614603731382568 -0.43345977148209536 -1.8397403948478659 -0.48137265579750449 -1.889103042737144 -0.52510865790176875 -1.9788438146036578 -0.583980180080787 -2.0734469690643791 -0.64968266001368502 -2.1390818239870759 -0.71142502877001668 -2.2447568364320905 -0.79234944013324027 -2.355677575362519 -0.88293035441971124 -2.4370026505011357 -0.97008509273058929 -2.5590859143497102 -1.082282311387198 -2.6853038031613381 -1.2076946835796885 -2.7810794019186424 -1.3309971028451764 -2.9163221744478403 -1.4865427776901368 -3.0199486145241408 -1.6412920729892075 -3.1266674449908312 -1.8135080724766204 -3.2703948565136076 -2.0275678736222811 -3.3805362095666576 -2.2444591818077426 -3.626191375752279 -2.5867386118636082 5.3954993206052437 3.7808528147738047 5.5651621380007459 3.484594616572172 5.434056369854896 3.0328822855244919 5.5211646108439272 2.7374377989308263 5.0087561610708944 2.2036677432402709 4.1122764570259163 1.6211965078493169 -0.42258906291799492 -0.15901484538347249 0 0
        </DataArray>
        <DataArray type="Float32" Name="u" NumberOfComponents="1">
          0 0.007874015748031496 0.015748031496062992 0.023622047244094488 0.031496062992125984 0.03937007874015748 0.047244094488188976 0.055118110236220472 0.062992125984251968 0.070866141732283464 0.07874015748031496 0.086614173228346455 0.094488188976377951 0.10236220472440945 0.11023622047244094 0.11811023622047244 0.12598425196850394 0.13385826771653545 0.14173228346456693 0.14960629921259844 0.15748031496062992 0.16535433070866143 0.17322834645669291 0.18110236220472442 0.1889763779527559 0.19685039370078741 0.20472440944881889 0.2125984251968504 0.22047244094488189 0.2283464566929134 0.23622047244094488 0.24409448818897639 0.25196850393700787 0.25984251968503935 0.26771653543307089 0.27559055118110237 0.28346456692913385 0.29133858267716534 0.29921259842519687 0.30708661417322836 0.31496062992125984 0.32283464566929132 0.33070866141732286 0.33858267716535434 0.34645669291338582 0.3543307086614173 0.36220472440944884 0.37007874015748032 0.37795275590551181 0.38582677165354329 0.39370078740157483 0.40157480314960631 0.40944881889763779 0.41732283464566927 0.42519685039370081 0.43307086614173229 0.44094488188976377 0.44881889763779526 0.45669291338582679 0.46456692913385828 0.47244094488188976 0.48031496062992124 0.48818897637795278 0.49606299212598426 0.50393700787401574 0.51181102362204722 0.51968503937007871 0.52755905511811019 0.53543307086614178 0.54330708661417326 0.55118110236220474 0.55905511811023623 0.56692913385826771 0.57480314960629919 0.58267716535433067 0.59055118110236215 0.59842519685039375 0.60629921259842523 0.61417322834645671 0.62204724409448819 0.62992125984251968 0.63779527559055116 0.64566929133858264 0.65354330708661412 0.66141732283464572 0.6692913385826772 0.67716535433070868 0.68503937007874016 0.69291338582677164 0.70078740157480313 0.70866141732283461 0.71653543307086609 0.72440944881889768 0.73228346456692917 0.74015748031496065 0.74803149606299213 0.75590551181102361 0.76377952755905509 0.77165354330708658 0.77952755905511806 0.78740157480314965 0.79527559055118113 0.80314960629921262 0.8110236220472441 0.81889763779527558 0.82677165354330706 0.83464566929133854 0.84251968503937003 0.85039370078740162 0.8582677165354331 0.86614173228346458 0.87401574803149606 0.88188976377952755 0.88976377952755903 0.89763779527559051 0.90551181102362199 0.91338582677165359 0.92125984251968507 0.92913385826771655 0.93700787401574803 0.94488188976377951 0.952755905511811 0.96062992125984248 0.96850393700787396 0.97637795275590555 0.98425196850393704 0.99212598425196852 1
        </DataArray>
      </PointData>
      <CellData Scalars="P">
        <DataArray type="Float32" Name="P" NumberOfComponents="1">
          -0.0077928157138380302 -0.022239078100093564 -0.034426549865374724 -0.04361098480577557 -0.049185552896928116 -0.050617955862164395 -0.047419864252737476 -0.039129858371619003 -0.025303029282791614 -0.0055061859219232802 0.02068662792726773 0.053696254338446867 0.093939105899197087 0.14182604865654436 0.1977606571713566 0.26213782728002444 0.33534506015775628 0.41775799527289886 0.50973817725332371 0.61163229633224525 0.72376827491974671 0.84645120769172111 0.97996134413650615 1.1245520910552542 1.2804436549221943 1.4478238406254884 1.6268418815596568 1.8176000422670329 2.0201531423518477 2.2345252117465111 2.4606686400377016 2.6984781509721363 2.9477860690795361 3.2083608337488356 3.4799017115232647 3.7620369239301192 4.0543148017751527 4.3562108988388539 4.6671263871477349 4.9863748799070233 5.3131853871071391 5.6467034973197059 5.3446562211122508 5.0364791027136908 4.7244469323304115 4.4106610368693175 4.0955829646714408 3.7824417880730965 3.4712863933341658 3.163519975817533 2.8604094178069968 2.5630869771284219 2.2725548754061258 1.9896880408118023 1.7152046423331404 1.4481318195797845 1.1938800528111699 0.95126488722721236 0.72063336273512146 0.50218425596960892 0.2960621736760552 0.10227616911161345 -0.079200885497520357 -0.24667183565310138 -0.40027303893002258 -0.54404191328228935 -0.67640742723689695 -0.79951781999188454 -0.91366259420249152 -1.0191711991177741 -1.1147976635882455 -1.2025135029791372 -1.2826727493616987 -1.355589672416047 -1.4215940536877518 -1.4799262608245203 -1.5320870044751 -1.5783731479128849 -1.6190637612396406 -1.6544271909803767 -1.6841032510705585 -1.7090081643708439 -1.7293288898379819 -1.7452287574568963 -1.7568335952161314 -1.7642450855684846 -1.7676007829877642 -1.7669902016740642 -1.7624234672126211 -1.7538807774323264 -1.7413128283918595 -1.7246334335138795 -1.7037449103335016 -1.679314704028839 -1.6504909262666985 -1.6170820185648203 -1.5789051501063149 -1.5357500648371092 -1.4873775794837549 -1.4349045557733764 -1.3768487191198464 -1.3129803508090314 -1.2430577704321308 -1.1669018858183189 -1.0859871755673218 -0.99853898056842927 -0.90447846778756569 -0.80552108050681348 -0.69994061021448617 -0.58783117469091772 -0.47121091989311226 -0.3485152393718301 -0.22020242992201189 -0.088656036242876449 0.047210434656182729 0.18469944345609218 0.32271956463280049 0.46155799195074221 0.5979502954675493 0.73561641125528088 0.54334275585272052 0.37233805440867374 0.2328006077591499 0.11890817000417608 0.041400088027641689 -0.0011219453738791352 0.0010259997402419154
        </DataArray>
      </CellData>
      <Points>
        <DataArray type="Float32" NumberOfComponents="3" format="ascii">
          3.8809052024102257 8.5874067490184505 0
          3.8789726543215441 8.595039946436243 0
          3.8770751843512312 8.6026819400997567 0
          3.8752302987341567 8.6103367999744584 0
          3.8734517836736257 8.6180073538659911 0
          3.8717514513860607 8.6256956189071712 0
          3.870139858017291 8.6334029763189744 0
          3.8686266926419002 8.6411302636696394 0
          3.8672210158673428 8.6488778287857908 0
          3.8659314175953425 8.6566455625030763 0
          3.8647661199074377 8.6644329173513679 0
          3.8637330518500064 8.6722389184351893 0
          3.8628399021541711 8.6800621683429799 0
          3.862094155226838 8.6879008477236752 0
          3.8615031123109849 8.6957527126484386 0
          3.8610739015452937 8.7036150900356422 0
          3.8608134812504669 8.7114848721474427 0
          3.8607286437544395 8.7193585107135672 0
          3.8608260086399646 8.7272320103898249 0
          3.8611120121788782 8.7351009224513216 0
          3.8615928962985429 8.7429603388225754 0
          3.8622746920387834 8.7508048867236763 0
          3.8631631984868773 8.7586287244550203 0
          3.8642639610776106 8.7664255383287184 0
          3.8655822493240746 8.774188540698729 0
          3.8671230282733839 8.7819104701763546 0
          3.8688909339293107 8.7895835926706969 0
          3.8708902433578363 8.797199704858496 0
          3.8731248379125516 8.8047501414591913 0
          3.8755981697112163 8.81222578434339 0
          3.8783132489793282 8.8196170663915119 0
          3.8812725893350706 8.8269139908836785 0
          3.8844781729149105 8.8341061484306085 0
          3.887931414113889 8.8411827374584426 0
          3.89163312525648 8.8481325870267167 0
          3.8955834806331926 8.8549441837884686 0
          3.899781982249225 8.8616057017754244 0
          3.904227421513228 8.8681050388888547 0
          3.9089178503903259 8.8744298520212972 0
          3.9138505539881532 8.8805675947585758 0
          3.9190220162078435 8.8865055650345095 0
          3.9244278914394672 8.8922309543220575 0
          3.9300629804984375 8.8977308991426618 0
          3.9355071512387809 8.9034198844289278 0
          3.9407587059758149 8.9092871359380652 0
          3.94581671313404 8.9153220296326321 0
          3.9506809450220088 8.9215141641438453 0
          3.9553509170679733 8.927854080802712 0
          3.9598276294114614 8.934331898518499 0
          3.9641116653882214 8.9409387134064069 0
          3.968204058910676 8.9476659098525904 0
          3.9721062538573046 8.9545051802303366 0
          3.9758200637129297 8.9614485401980186 0
          3.9793476328223325 8.9684883394114365 0
          3.9826913977091656 8.9756172690549363 0
          3.9858540268122553 8.9828283759655339 0
          3.9888373268476376 8.9901154943453658 0
          3.9916465770101648 8.997471455689654 0
          3.9942861938387675 9.0048899699712415 0
          3.9967607943020798 9.0123651394378648 0
          3.9990751345853739 9.0198914604549358 0
          4.0012341127926385 9.0274638024853591 0
          4.0032427083715731 9.0350774064769759 0
          4.0051059928764703 9.0427278616411222 0
          4.0068306086749113 9.0504107558060465 0
          4.0084234046195135 9.0581220482629572 0
          4.0098879853209608 9.0658587082968793 0
          4.011229576213263 9.0736176333657887 0
          4.0124516239157675 9.0813962753699915 0
          4.0135574704877994 9.0891922789600734 0
          4.0145503173994745 9.097003471551286 0
          4.0154350552306903 9.1048276410065103 0
          4.0162146491099051 9.1126629806392465 0
          4.0168918912442608 9.1205078256721457 0
          4.01746944193036 9.1283606362892336 0
          4.0179497965010773 9.1362199887099109 0
          4.0183371168351485 9.1440844733337947 0
          4.0186335492502083 9.1519529072467787 0
          4.0188410532939969 9.1598241886275833 0
          4.0189613958127817 9.1676972862360273 0
          4.0189961190059584 9.1755712292504672 0
          4.0189485167425634 9.1834451083819015 0
          4.0188197425215675 9.1913180829267187 0
          4.0186107343340334 9.199189341894753 0
          4.0183221814620458 9.2070580933752577 0
          4.0179545739644817 9.2149235563406116 0
          4.0175081702570656 9.2227849504508832 0
          4.0169849558862687 9.2306416174189092 0
          4.0163847078750923 9.2384927873440663 0
          4.0157069555642702 9.246337660774552 0
          4.0149509756760517 9.2541753980358852 0
          4.0141157862031935 9.2620051079106549 0
          4.0132001124729717 9.2698258323568368 0
          4.0122024399181111 9.2776365400098193 0
          4.0111230236540765 9.2854363933617368 0
          4.009959787832968 9.2932242112297256 0
          4.0087103407679114 9.3009986890555929 0
          4.0073720280823775 9.3087583905504232 0
          4.005941897752856 9.316501724851312 0
          4.0044166645950119 9.3242269199441647 0
          4.0027948544610101 9.3319324517465354 0
          4.0010725803235019 9.339616187815496 0
          3.9992456356052011 9.3472757483267728 0
          3.9973094592287093 9.354908467831347 0
          3.9952591952412906 9.3625113765304331 0
          3.993091780358264 9.370081764324679 0
          3.9908016475224 9.3776159816343601 0
          3.98838292792695 9.3851099551182173 0
          3.985831548527623 9.3925598577281395 0
          3.9831409534106617 9.399960671799203 0
          3.9803042610971247 9.4073067805666906 0
          3.9773164246983765 9.4145927804665259 0
          3.9741698699120387 9.4218117135998956 0
          3.9708567657344709 9.4289558021471844 0
          3.9673711681802026 9.4360173998379953 0
          3.9637046859253386 9.4429868591965747 0
          3.9598508874209779 9.4498545827947975 0
          3.9558031489420125 9.4566098894309807 0
          3.9515525519752468 9.4632395009164014 0
          3.9470922598829659 9.4697299639822798 0
          3.942407034958674 9.4760600426803414 0
          3.9380565871862947 9.482624388257836 0
          3.9340513856068835 9.4894046378718535 0
          3.930383258180608 9.4963727858728362 0
          3.927057566458021 9.5035105298162996 0
          3.9240425091269979 9.5107847809020623 0
          3.9212824775115944 9.5181594340991253 0
          3.9184962927524345 9.5255240996403518 0
        </DataArray>
      </Points>
      <Cells>
        <DataArray type="Int32" Name="connectivity" format="ascii">
          0 1 1 2 2 3 3 4 4 5 5 6 6 7 7 8 8 9 9 10 10 11 11 12 12 13 13 14 14 15 15 16 16 17 17 18 18 19 19 20 20 21 21 22 22 23 23 24 24 25 25 26 26 27 27 28 28 29 29 30 30 31 31 32 32 33 33 34 34 35 35 36 36 37 37 38 38 39 39 40 40 41 41 42 42 43 43 44 44 45 45 46 46 47 47 48 48 49 49 50 50 51 51 52 52 53 53 54 54 55 55 56 56 57 57 58 58 59 59 60 60 61 61 62 62 63 63 64 64 65 65 66 66 67 67 68 68 69 69 70 70 71 71 72 72 73 73 74 74 75 75 76 76 77 77 78 78 79 79 80 80 81 81 82 82 83 83 84 84 85 85 86 86 87 87 88 88 89 89 90 90 91 91 92 92 93 93 94 94 95 95 96 96 97 97 98 98 99 99 100 100 101 101 102 102 103 103 104 104 105 105 106 106 107 107 108 108 109 109 110 110 111 111 112 112 113 113 114 114 115 115 116 116 117 117 118 118 119 119 120 120 121 121 122 122 123 123 124 124 125 125 126 126 127 
        </DataArray>
        <DataArray type="Int32" Name="offsets" format="ascii">
          2 4 6 8 10 12 14 16 18 20 22 24 26 28 30 32 34 36 38 40 42 44 46 48 50 52 54 56 58 60 62 64 66 68 70 72 74 76 78 80 82 84 86 88 90 92 94 96 98 100 102 104 106 108 110 112 114 116 118 120 122 124 126 128 130 132 134 136 138 140 142 144 146 148 150 152 154 156 158 160 162 164 166 168 170 172 174 176 178 180 182 184 186 188 190 192 194 196 198 200 202 204 206 208 210 212 214 216 218 220 222 224 226 228 230 232 234 236 238 240 242 244 246 248 250 252 254 
        </DataArray>
        <DataArray type="Int32" Name="types" format="ascii">
          3 3 3 3 3 3 3 3 3 3 3 3 3 3 3 3 3 3 3 3 3 3 3 3 3 3 3 3 3 3 3 3 3 3 3 3 3 3 3 3 3 3 3 3 3 3 3 3 3 3 3 3 3 3 3 3 3 3 3 3 3 3 3 3 3 3 3 3 3 3 3 3 3 3 3 3 3 3 3 3 3 3 3 3 3 3 3 3 3 3 3 3 3 3 3 3 3 3 3 3 3 3 3 3 3 3 3 3 3 3 3 3 3 3 3 3 3 3 3 3 3 3 3 3 3 3 3         </DataArray>
      </Cells>
    </Piece>
  </UnstructuredGrid>
</VTKFile>
