<?xml version="1.0"?>
<VTKFile type="UnstructuredGrid" version="0.1" byte_order="LittleEndian">
  <UnstructuredGrid>
    <Piece NumberOfPoints="128" NumberOfCells="127">
      <PointData Scalars="W">
        <DataArray type="Float32" Name="W" NumberOfComponents="2">
          0 0 -0.16840609221851105 -0.43098147015219823 -0.25918706919821433 -0.65442362596086234 -0.33615542527522835 -0.83336528553541256 -0.40706506083672983 -0.98706251794250788 -0.47519381855017812 -1.1234485498245839 -0.54241559631821834 -1.2469239912195769 -0.60996493755666747 -1.3602675254613588 -0.67870944241910913 -1.4653168082609143 -0.74926707806884263 -1.5632749542881355 -0.82212814629559716 -1.6550065327872328 -0.89767161021495168 -1.7410910641897261 -0.97621259167150176 -1.8219368238161908 -1.057962787177964 -1.89772406327904 -1.143054618727253 -1.9684794505429697 -1.2315774708301337 -2.0341592130228925 -1.3236175644720551 -2.0947205043873827 -1.4191899169560633 -2.1500143539881722 -1.5182487557040034 -2.1998219740839122 -1.6207485916993902 -2.2439536001687634 -1.7266004727267539 -2.2821842556968579 -1.8356543900079267 -2.3142409991237618 -1.9477512749412009 -2.3398782756877572 -2.062696090988311 -2.3588432355273872 -2.1801991974803263 -2.370818387860405 -2.3000214990891812 -2.3755910864505942 -2.4218463780509003 -2.3729070865712143 -2.5452773586363873 -2.362485786513719 -2.6699019947698459 -2.3440914009229794 -2.7955993867264466 -2.3177774794868005 -2.92166737887591 -2.2831358786343054 -3.0476312110863457 -2.240031843555387 -3.1729891502616465 -2.1883628795419616 -3.2972338001263481 -2.1280739101705435 -3.4198227075004084 -2.0591369485096878 -3.5402257278088687 -1.9815815435722615 -3.6578084038398773 -1.8954301712198285 -3.7720523419782332 -1.800821769020164 -3.8824462858119202 -1.6979356973323556 -3.9883481832095025 -1.5869369697340243 -4.0891435929905375 -1.4680601684375343 -4.1842473816636208 -1.3416030624984923 5.3410640979341695 1.7409394180941926 5.2095133732915766 1.9556573399742898 5.0701106070609239 2.1599466898834807 4.9234719607663608 2.353557493287683 4.7704593851055979 2.536395424400709 4.6119148302387583 2.7084403904590064 4.4484148788258748 2.8695812573709318 4.2808461586168134 3.0199509474644972 4.1097437045310379 3.159517159745457 3.9359406788111597 3.2885204297137536 3.7598453879400742 3.4069236307214115 3.5822298809440949 3.5150420369190725 2.8693056375781696 3.0268618201436932 2.7154749763342951 3.0578797804248219 2.5820299416426744 3.1020365763774307 2.415665986074651 3.0944974108319823 2.2530678294535003 3.0749098910468953 2.0946751509376682 3.0434666542530628 1.9408836359477182 3.0003522582669127 1.7920456007737307 2.9457415916911454 1.6719499391965409 2.9221083553887226 1.533396674611049 2.8493030662555885 1.4004667980820327 2.7654458498217798 1.2926457639470255 2.7123640219222649 1.1907330782980625 2.6560834030002116 1.0930855209369712 2.5933248601801533 1.0196406673350047 2.5758962200083642 0.93077849367530263 2.5071585753836714 0.86454650424082147 2.4868096645132254 0.78491925850535604 2.4152527089969094 0.72553480105860302 2.3930664620458639 0.65350057696122432 2.3156705290532424 0.60068553177409634 2.2925971181838118 0.53660511834741054 2.2123262222727509 0.49038006007822565 2.1913457948626869 0.43377686680825178 2.1091674882408515 0.39270755276284258 2.0869763523670781 0.35327774283239305 2.065677892774846 0.30627738534037618 1.9831031771699825 0.27206953471521023 1.9659306898235704 0.23136086736961756 1.8833288413738183 0.20119921301247282 1.8666441165819592 0.17206320492340241 1.8516349399232948 0.13904893659667678 1.7712529433766355 0.11363087914691555 1.7621408776788443 0.08560071919681525 1.683362632455272 0.063001942886974194 1.6762670368429295 0.040760740981576428 1.6715807831510057 0.01838247879790593 1.5974103378081053 -0.0017333402549069878 1.6003768996862147 -0.021970845500657813 1.6037784539370266 -0.040032625166420678 1.5357303658543715 -0.059058809347247797 1.5453542754826251 -0.078656340771991379 1.5583849319278436 -0.093886514846828986 1.5004165952491035 -0.11336951770742791 1.5206747184350859 -0.12665768764213645 1.465544733669945 -0.14673914179437361 1.4939115903724602 -0.16868792455707357 1.5290589141915214 -0.18174177387017657 1.4844801787534521 -0.20544347743025773 1.5265768697800308 -0.21906004224576126 1.4920590453362679 -0.24590179825189698 1.5446497953397924 -0.26036682267990163 1.5160135537742614 -0.29210247659825772 1.5829430865028162 -0.30907435354441609 1.5640909477792002 -0.34638934048261544 1.6414513176823451 -0.36801040718038097 1.6365970525881572 -0.39017542797291055 1.6339542765593684 -0.4392784757558057 1.734377955997652 -0.46938024853903154 1.748712965436537 -0.50156016984342378 1.7668652769767459 -0.53810011081036191 1.7953126292414883 -0.57908238838795523 1.8320383990354727 -0.58596027698101927 1.7621383878493293 -0.63042016541297274 1.8058696052179823 -0.5904911633703287 1.6167700851152038 -0.53658468076948618 1.4130917573590722 -0.69035644662566498 1.7473964209887705 -0.41963387705089356 1.0266449873396213 -0.24102946858030277 0.57836649093862647 0.18476639202976675 -0.44263811367616146 0.96552834947332633 -2.3938522716983224 2.1324011559998284 -5.8667302762607703 1.7640717300791973 -5.6912575415611464 0 0
        </DataArray>
        <DataArray type="Float32" Name="u" NumberOfComponents="1">
          0 0.007874015748031496 0.015748031496062992 0.023622047244094488 0.031496062992125984 0.03937007874015748 0.047244094488188976 0.055118110236220472 0.062992125984251968 0.070866141732283464 0.07874015748031496 0.086614173228346455 0.094488188976377951 0.10236220472440945 0.11023622047244094 0.11811023622047244 0.12598425196850394 0.13385826771653545 0.14173228346456693 0.14960629921259844 0.15748031496062992 0.16535433070866143 0.17322834645669291 0.18110236220472442 0.1889763779527559 0.19685039370078741 0.20472440944881889 0.2125984251968504 0.22047244094488189 0.2283464566929134 0.23622047244094488 0.24409448818897639 0.25196850393700787 0.25984251968503935 0.26771653543307089 0.27559055118110237 0.28346456692913385 0.29133858267716534 0.29921259842519687 0.30708661417322836 0.31496062992125984 0.32283464566929132 0.33070866141732286 0.33858267716535434 0.34645669291338582 0.3543307086614173 0.36220472440944884 0.37007874015748032 0.37795275590551181 0.38582677165354329 0.39370078740157483 0.40157480314960631 0.40944881889763779 0.41732283464566927 0.42519685039370081 0.43307086614173229 0.44094488188976377 0.44881889763779526 0.45669291338582679 0.46456692913385828 0.47244094488188976 0.48031496062992124 0.48818897637795278 0.49606299212598426 0.50393700787401574 0.51181102362204722 0.51968503937007871 0.52755905511811019 0.53543307086614178 0.54330708661417326 0.55118110236220474 0.55905511811023623 0.56692913385826771 0.57480314960629919 0.58267716535433067 0.59055118110236215 0.59842519685039375 0.60629921259842523 0.61417322834645671 0.62204724409448819 0.62992125984251968 0.63779527559055116 0.64566929133858264 0.65354330708661412 0.66141732283464572 0.6692913385826772 0.67716535433070868 0.68503937007874016 0.69291338582677164 0.70078740157480313 0.70866141732283461 0.71653543307086609 0.72440944881889768 0.73228346456692917 0.74015748031496065 0.74803149606299213 0.75590551181102361 0.76377952755905509 0.77165354330708658 0.77952755905511806 0.78740157480314965 0.79527559055118113 0.80314960629921262 0.8110236220472441 0.81889763779527558 0.82677165354330706 0.83464566929133854 0.84251968503937003 0.85039370078740162 0.8582677165354331 0.86614173228346458 0.87401574803149606 0.88188976377952755 0.88976377952755903 0.89763779527559051 0.90551181102362199 0.91338582677165359 0.92125984251968507 0.92913385826771655 0.93700787401574803 0.94488188976377951 0.952755905511811 0.96062992125984248 0.96850393700787396 0.97637795275590555 0.98425196850393704 0.99212598425196852 1
        </DataArray>
      </PointData>
      <CellData Scalars="P">
        <DataArray type="Float32" Name="P" NumberOfComponents="1">
          0.0025680795411576088 0.0084020563447481742 0.015711538369025804 0.025099722471142304 0.037107723211132301 0.052240758546488984 0.070980693925076235 0.093792892505648637 0.12112940837975227 0.15342927514164084 0.19111885899198758 0.23461044858989413 0.28430097150379685 0.34056765439327735 0.40376343851789304 0.47421338206387886 0.55221283795944753 0.63802183802375056 0.73185963701012502 0.8339026343945346 0.94427986386662988 1.0630674174890324 1.1902861060000429 1.3258976707956087 1.4697975364083333 1.6218169115833674 1.7817171058579315 1.9491840807791807 2.1238274943398165 2.3051990239377904 2.4927564023527387 2.6858792864680447 2.8838692380875983 3.0859514357289943 3.2912750778717408 3.4989170305076356 3.7078794021456138 3.9171000778344531 4.1254569641845418 4.3317657542846995 4.5347870526669869 4.733233800542556 4.4982101434144628 4.2592813833526044 4.0169246499235793 3.7716381492422073 3.523927091704449 3.274301576076311 3.0232893177305153 2.7714151269831628 2.5192191816312799 2.2672352944771257 2.0160159958515975 1.7661049650349065 1.5604250267528164 1.358953819693866 1.1606344817325951 0.96886681525735419 0.78418417522620365 0.60708851066834413 0.43804841439827141 0.27749699119662513 0.12339463597776404 -0.021607763829502691 -0.15718778475361567 -0.28525276941692024 -0.40579187587779769 -0.51864216399697383 -0.62611209420602476 -0.72586039320498807 -0.8201839191366066 -0.9069442630014859 -0.98830886595637535 -1.062192965404537 -1.1307809854218389 -1.1921477939895933 -1.2484409681641124 -1.2978487365081763 -1.3423149734290842 -1.3818856709891589 -1.4151557767508955 -1.4438251543611498 -1.4666721525562505 -1.4851333181821809 -1.499263904305298 -1.5082974147284325 -1.5132924186521612 -1.5137364376958202 -1.5103712910568294 -1.5032282978801137 -1.4922832337134135 -1.4777743300048507 -1.4597022923241227 -1.438524317752941 -1.4139379496230333 -1.3859080449168908 -1.3553530760227588 -1.3214222040250911 -1.285404469228477 -1.2460195622909613 -1.2031086718596657 -1.1584987130683555 -1.1103303190864813 -1.0606461617817362 -1.0072627817108735 -0.95261825131402855 -0.89401702307889996 -0.83428611021091115 -0.7704926117788875 -0.70558134124796423 -0.6397858701611786 -0.56975828860381694 -0.49886822997860703 -0.42737575506149134 -0.35534992808734278 -0.28299001746540514 -0.214546542924929 -0.14662711847375054 -0.087375245813619301 -0.037167717498838883 0.019344906878556712 0.053246873472344136 0.074397831903922906 0.075200566954780446 0.05080781509128704 0.004845870016691861 -0.0073547222440501474
        </DataArray>
      </CellData>
      <Points>
        <DataArray type="Float32" NumberOfComponents="3" format="ascii">
          6.9427827484271205 10.089748724483933 0
          6.9501220114875846 10.086896306668743 0
          6.9574508313305143 10.08401716827589 0
          6.9647635784831987 10.081097456074971 0
          6.9720554802494306 10.078126075807699 0
          6.9793221398188567 10.075093498342028 0
          6.9865593329737026 10.071991267822964 0
          6.9937628918671857 10.068811728838721 0
          7.0009286284541528 10.065547854143334 0
          7.0080522806787906 10.062193130721624 0
          7.0151294741436461 10.058741485195039 0
          7.0221556916965744 10.05518723021699 0
          7.0291262499226308 10.051525028541121 0
          7.0360362795956286 10.047749867706818 0
          7.0428807125432646 10.04385704886235 0
          7.0496542734282919 10.039842185110357 0
          7.0563514741988618 10.035701204220885 0
          7.062966608735759 10.031430351287176 0
          7.0694937519149699 10.027026197961465 0
          7.0759267624398401 10.022485656019684 0
          7.0822592856562547 10.017805989126973 0
          7.0884847590630695 10.012984826786584 0
          7.0945964216085846 10.008020181262863 0
          7.1005873235492167 10.002910462806438 0
          7.1064503385386253 9.997654495331906 0
          7.112178181582772 9.9922515361033746 0
          7.1177634238615282 9.9867012889197895 0
          7.1231985123570842 9.9810039198794005 0
          7.1284757944338804 9.9751600747784259 0
          7.1335875434090061 9.9691708937310661 0
          7.1385259660468874 9.9630380078506402 0
          7.1432832460921851 9.9567635645556987 0
          7.1478515737042612 9.9503502359258587 0
          7.1522231765640605 9.943801225057328 0
          7.1563903513321296 9.937120269478287 0
          7.160345497280117 9.9303116428844973 0
          7.1640811491590126 9.923380153307372 0
          7.1675900165345929 9.9163311417203843 0
          7.170865015926589 9.9091704734244832 0
          7.1738993025049069 9.9019045269270212 0
          7.176686309894829 9.8945401837099212 0
          7.1792197882697399 9.8870848136843179 0
          7.1814938406260946 9.8795462567273322 0
          7.1840990475605162 9.8721156335439915 0
          7.1870272538210545 9.8648062567564043 0
          7.1902698173801598 9.8576307924547333 0
          7.1938176476367328 9.8506012447070503 0
          7.1976612588573099 9.8437289497176863 0
          7.2017908223764167 9.8370245745883711 0
          7.2061962023408608 9.8304981104374907 0
          7.2108670106783377 9.824158880647536 0
          7.2157926402627881 9.8180155388719577 0
          7.2209623165658732 9.812076083954091 0
          7.2263651229609174 9.8063478576348402 0
          7.23199004858267 9.8008375641041319 0
          7.2377928827167368 9.7955149431502662 0
          7.2437640875328109 9.7903819182933649 0
          7.2498953894561691 9.7854412274592093 0
          7.2561764731199583 9.7806924038100949 0
          7.262597256506294 9.7761342334657915 0
          7.2691479182042409 9.7717647674374071 0
          7.2758189219421601 9.7675813330604591 0
          7.2826010384335227 9.7635805448288764 0
          7.2894868210283299 9.7597609375475223 0
          7.2964676779176667 9.7561179975152879 0
          7.303535365826396 9.7526465257201593 0
          7.3106831988200627 9.7493432309812782 0
          7.3179048572889442 9.7462046237363094 0
          7.3251942860151287 9.7432268127482651 0
          7.3325469311237415 9.7404087170667211 0
          7.3399572820925458 9.7377460746957976 0
          7.3474212322613992 9.7352376236028348 0
          7.3549338437205796 9.7328789269384046 0
          7.3624914343840251 9.7306686087321683 0
          7.3700895371135173 9.7286018700727048 0
          7.3777248771678705 9.7266772799635426 0
          7.3853934806023354 9.7248898612016053 0
          7.3930924813391972 9.7232383125378554 0
          7.4008183691036269 9.7217175384758416 0
          7.4085685975222022 9.7203261626945423 0
          7.4163407218912401 9.7190628642332193 0
          7.4241318274718022 9.7179225230007145 0
          7.4319397934473708 9.7169040738480259 0
          7.4397620953143129 9.7160023949956535 0
          7.4475968632220901 9.7152164515485424 0
          7.4554422909466638 9.7145453125168668 0
          7.4632963313008771 9.7139839937810581 0
          7.471157408749999 9.7135319300033949 0
          7.4790237853561754 9.7131842365311201 0
          7.4868940605466863 9.7129404730934326 0
          7.4947668559728911 9.7128003488325003 0
          7.5026407845002208 9.7127592648722239 0
          7.5105145997850435 9.7128174049022196 0
          7.5183870479897692 9.7129749796250096 0
          7.5262570100553177 9.7132277698892064 0
          7.5341233075005647 9.7135763722872284 0
          7.5419847264921112 9.7140215946892408 0
          7.5498403240562784 9.7145598430839435 0
          7.5576888937387841 9.7151923735907211 0
          7.5655296134046326 9.715915768350003 0
          7.5733612397984134 9.7167317864088449 0
          7.5811824139532327 9.717642607305482 0
          7.5889923288913916 9.7186454676953211 0
          7.5967895172809881 9.7197429782385729 0
          7.6045731377481571 9.7209329996688805 0
          7.6123415285822222 9.7222187936098869 0
          7.6200937963528537 9.7235985858346652 0
          7.6278279761929708 9.7250765273949078 0
          7.6355430197827241 9.726651451159924 0
          7.6432366166193528 9.7283281554387848 0
          7.6509074306192906 9.7301063415837223 0
          7.6585540924289583 9.7319858484498436 0
          7.6661735610808606 9.7339729054250181 0
          7.6737639755581846 9.7360684048955388 0
          7.6813233464551285 9.7382734764982892 0
          7.6888494143748574 9.7405898888286817 0
          7.6963396448695702 9.7430199245133551 0
          7.703793621778277 9.745559256237506 0
          7.7112085966839725 9.7482106029658695 0
          7.7185870623956765 9.7509622491489463 0
          7.7259323820614139 9.753801576719562 0
          7.7332350237449505 9.7567493255403157 0
          7.7405118221177522 9.759760820649463 0
          7.7477738988151916 9.7628082825648352 0
          7.7550477462974232 9.7658284182599981 0
          7.7623819530236862 9.7687002406932955 0
          7.7698492207474636 9.7712083413160737 0
          7.7774256493450133 9.7733632176604157 0
        </DataArray>
      </Points>
      <Cells>
        <DataArray type="Int32" Name="connectivity" format="ascii">
          0 1 1 2 2 3 3 4 4 5 5 6 6 7 7 8 8 9 9 10 10 11 11 12 12 13 13 14 14 15 15 16 16 17 17 18 18 19 19 20 20 21 21 22 22 23 23 24 24 25 25 26 26 27 27 28 28 29 29 30 30 31 31 32 32 33 33 34 34 35 35 36 36 37 37 38 38 39 39 40 40 41 41 42 42 43 43 44 44 45 45 46 46 47 47 48 48 49 49 50 50 51 51 52 52 53 53 54 54 55 55 56 56 57 57 58 58 59 59 60 60 61 61 62 62 63 63 64 64 65 65 66 66 67 67 68 68 69 69 70 70 71 71 72 72 73 73 74 74 75 75 76 76 77 77 78 78 79 79 80 80 81 81 82 82 83 83 84 84 85 85 86 86 87 87 88 88 89 89 90 90 91 91 92 92 93 93 94 94 95 95 96 96 97 97 98 98 99 99 100 100 101 101 102 102 103 103 104 104 105 105 106 106 107 107 108 108 109 109 110 110 111 111 112 112 113 113 114 114 115 115 116 116 117 117 118 118 119 119 120 120 121 121 122 122 123 123 124 124 125 125 126 126 127 
        </DataArray>
        <DataArray type="Int32" Name="offsets" format="ascii">
          2 4 6 8 10 12 14 16 18 20 22 24 26 28 30 32 34 36 38 40 42 44 46 48 50 52 54 56 58 60 62 64 66 68 70 72 74 76 78 80 82 84 86 88 90 92 94 96 98 100 102 104 106 108 110 112 114 116 118 120 122 124 126 128 130 132 134 136 138 140 142 144 146 148 150 152 154 156 158 160 162 164 166 168 170 172 174 176 178 180 182 184 186 188 190 192 194 196 198 200 202 204 206 208 210 212 214 216 218 220 222 224 226 228 230 232 234 236 238 240 242 244 246 248 250 252 254 
        </DataArray>
        <DataArray type="Int32" Name="types" format="ascii">
          3 3 3 3 3 3 3 3 3 3 3 3 3 3 3 3 3 3 3 3 3 3 3 3 3 3 3 3 3 3 3 3 3 3 3 3 3 3 3 3 3 3 3 3 3 3 3 3 3 3 3 3 3 3 3 3 3 3 3 3 3 3 3 3 3 3 3 3 3 3 3 3 3 3 3 3 3 3 3 3 3 3 3 3 3 3 3 3 3 3 3 3 3 3 3 3 3 3 3 3 3 3 3 3 3 3 3 3 3 3 3 3 3 3 3 3 3 3 3 3 3 3 3 3 3 3 3         </DataArray>
      </Cells>
    </Piece>
  </UnstructuredGrid>
</VTKFile>
