<?xml version="1.0"?>
<VTKFile type="UnstructuredGrid" version="0.1" byte_order="LittleEndian">
  <UnstructuredGrid>
    <Piece NumberOfPoints="128" NumberOfCells="127">
      <PointData Scalars="W">
        <DataArray type="Float32" Name="W" NumberOfComponents="2">
          0 0 0.56245654908824727 0.31537367817463102 0.84477503899584305 0.46665866103733855 1.0662892342383887 0.57714924640791165 1.2564254769787615 0.66331562194258353 1.4272273030219687 0.73188988251684561 1.5851432689108056 0.7864587173682247 1.7340527236436991 0.8291547913482763 1.8764694212599986 0.86133125332155924 2.0140497479136865 0.88385512236320074 2.147974727218195 0.8973167729383017 2.2790484956204891 0.90209526946013108 2.4078251498375587 0.89843119391721238 2.5346401507335128 0.88645508384976657 2.6596512234913625 0.86621897658825886 2.7829274262941026 0.83773879053588807 2.9045171084217185 0.80101815377225505 3.0243086621295658 0.75601219618207638 3.142160641821194 0.70267445600511647 3.2579021299001685 0.64095722703551228 3.3712910127026565 0.57080566555422529 3.4820187108953347 0.49216638197117718 3.5897453297341713 0.40499884904680533 3.6941134107033968 0.30927883612023988 3.7946933223370944 0.20499662399652696 3.8910991720859087 0.092168543120685509 3.9828504751421772 -0.029170108187356669 4.0693816105323313 -0.15894987016146381 4.1501832519404767 -0.29706421110514059 4.225057658577998 -0.4434123125205594 4.2931088345514512 -0.59780662803381202 4.3537791056158817 -0.76002774536019713 4.4064850349302276 -0.92981014601425227 4.4506699339024216 -1.1068493417356839 4.4857444214937701 -1.2907878413915195 4.5111344710891181 -1.4812214903936931 4.5261952708244477 -1.6776655875874011 4.5304232564681115 -1.8796235268620152 4.5233503183668233 -2.0865668117482228 4.5043960412839876 -2.2978603247903293 4.4730355680765213 -2.5128186034116307 4.4288255878328915 -2.7307268539947334 -3.8538940433376161 2.3902509587078247 -3.8645996104406883 2.2115207394702208 -3.8641263876954368 2.0365094630548701 -3.8534174338371434 1.8660811346302477 -3.8431160114567464 1.7050450132352764 -3.8144311697687692 1.5448652541424179 -3.7883323454073339 1.39452366180536 -3.7556382418107122 1.2497437321379734 -3.7168301100195129 1.1106934598400722 -3.6725699399600105 0.97755252908604151 -3.6237102976749025 0.85048187772908701 -3.5710985375526931 0.72955593749457393 -3.5149176048247228 0.61466328220209543 -3.4667367647939353 0.50721723950884612 -3.3829775558821438 0.40130083012156725 -3.3078806959643035 0.30378779030080899 -3.23080964654807 0.21274727988720715 -3.1523715715803258 0.12801049327564379 -3.073164519881336 0.049368102043723112 -2.9932599505738233 -0.023417573291433607 -2.9133645995899751 -0.090588823778911087 -2.8186067924597524 -0.15142886885577789 -2.7230461131340702 -0.20608504284968085 -2.6597465011995052 -0.25829820576225349 -2.5813273777657675 -0.30487893796882676 -2.5211227835483054 -0.34967566653060056 -2.4624801123657618 -0.39147535259305039 -2.4057703350682496 -0.43056200205444983 -2.3346865045343463 -0.46376616741637317 -2.2823496648514072 -0.49758949907532246 -2.2323014295782651 -0.52948068759402966 -2.1848575816466336 -0.55974580703286192 -2.139638743334185 -0.58851414481612674 -2.080093203158822 -0.61097002694224767 -2.0401276826088228 -0.63698613238846125 -2.0030048054337084 -0.66234768928726495 -1.9682973334170173 -0.68713043419740882 -1.9362651702155296 -0.71162653847588409 -1.8902312206342899 -0.72945694934182037 -1.8637947360043881 -0.75349771295189727 -1.8400709539653552 -0.77790876044328339 -1.8190535721971983 -0.80290069799484254 -1.8009620339515147 -0.82879276942297231 -1.7853188613366706 -0.85558928096394316 -1.7555596452133391 -0.87507925904538353 -1.7457015820477442 -0.90413051764365948 -1.7382139376454231 -0.93472426628984573 -1.7332906126295462 -0.96719869646019352 -1.7308798100049263 -1.0017810695582718 -1.7311645073593873 -1.0388537704148877 -1.7336028708967086 -1.0783809204413608 -1.7220845611454565 -1.1100738280379288 -1.7294170544191445 -1.1550168315567186 -1.7391290904211396 -1.2035023140024499 -1.750636025515784 -1.2554989859641916 -1.7640530294674697 -1.3114724712518659 -1.7794613216891395 -1.3719250745944385 -1.7806218323624432 -1.4241322562985779 -1.7992576083857528 -1.4934798951641655 -1.8191115763979726 -1.5682092877491292 -1.8401606115322049 -1.6489365160574518 -1.8616759332862451 -1.7357101452508867 -1.8690077997762413 -1.8147667900341435 -1.8915244296739837 -1.9148622593281928 -1.9136844816801566 -2.0227194843947309 -1.920981872359466 -2.1230631850836676 -1.9416996686644528 -2.2476277368120452 -1.960712169108608 -2.3821500941392597 -1.9633947369337452 -2.5091910164274212 -1.9772703283700761 -2.6648082056442788 -1.9866557577813464 -2.8323846411862927 -1.9784813529136236 -2.994152520283814 -1.9772751211865716 -3.1890345697865357 -1.9565320306159018 -3.3789319057486455 -1.9269455957336983 -3.5826361700727816 -1.8996589694019932 -3.8281793302728775 -1.8485017586172325 -4.071392841641714 -1.8188674755792125 -4.4281875993117872 0.43518621915517708 1.1037717657918769 0.70023354028429496 1.715558610535086 0.93050914671434848 2.175698217479864 1.470293933921154 3.2277927477062169 2.2245360767581825 4.4776993768075792 3.8047883030079723 6.7797248827590497 2.56369295998859 4.0800517468809003 0 0
        </DataArray>
        <DataArray type="Float32" Name="u" NumberOfComponents="1">
          0 0.007874015748031496 0.015748031496062992 0.023622047244094488 0.031496062992125984 0.03937007874015748 0.047244094488188976 0.055118110236220472 0.062992125984251968 0.070866141732283464 0.07874015748031496 0.086614173228346455 0.094488188976377951 0.10236220472440945 0.11023622047244094 0.11811023622047244 0.12598425196850394 0.13385826771653545 0.14173228346456693 0.14960629921259844 0.15748031496062992 0.16535433070866143 0.17322834645669291 0.18110236220472442 0.1889763779527559 0.19685039370078741 0.20472440944881889 0.2125984251968504 0.22047244094488189 0.2283464566929134 0.23622047244094488 0.24409448818897639 0.25196850393700787 0.25984251968503935 0.26771653543307089 0.27559055118110237 0.28346456692913385 0.29133858267716534 0.29921259842519687 0.30708661417322836 0.31496062992125984 0.32283464566929132 0.33070866141732286 0.33858267716535434 0.34645669291338582 0.3543307086614173 0.36220472440944884 0.37007874015748032 0.37795275590551181 0.38582677165354329 0.39370078740157483 0.40157480314960631 0.40944881889763779 0.41732283464566927 0.42519685039370081 0.43307086614173229 0.44094488188976377 0.44881889763779526 0.45669291338582679 0.46456692913385828 0.47244094488188976 0.48031496062992124 0.48818897637795278 0.49606299212598426 0.50393700787401574 0.51181102362204722 0.51968503937007871 0.52755905511811019 0.53543307086614178 0.54330708661417326 0.55118110236220474 0.55905511811023623 0.56692913385826771 0.57480314960629919 0.58267716535433067 0.59055118110236215 0.59842519685039375 0.60629921259842523 0.61417322834645671 0.62204724409448819 0.62992125984251968 0.63779527559055116 0.64566929133858264 0.65354330708661412 0.66141732283464572 0.6692913385826772 0.67716535433070868 0.68503937007874016 0.69291338582677164 0.70078740157480313 0.70866141732283461 0.71653543307086609 0.72440944881889768 0.73228346456692917 0.74015748031496065 0.74803149606299213 0.75590551181102361 0.76377952755905509 0.77165354330708658 0.77952755905511806 0.78740157480314965 0.79527559055118113 0.80314960629921262 0.8110236220472441 0.81889763779527558 0.82677165354330706 0.83464566929133854 0.84251968503937003 0.85039370078740162 0.8582677165354331 0.86614173228346458 0.87401574803149606 0.88188976377952755 0.88976377952755903 0.89763779527559051 0.90551181102362199 0.91338582677165359 0.92125984251968507 0.92913385826771655 0.93700787401574803 0.94488188976377951 0.952755905511811 0.96062992125984248 0.96850393700787396 0.97637795275590555 0.98425196850393704 0.99212598425196852 1
        </DataArray>
      </PointData>
      <CellData Scalars="P">
        <DataArray type="Float32" Name="P" NumberOfComponents="1">
          -0.0077882238807399995 -0.02192158534591486 -0.033239025914627719 -0.040899030271300846 -0.044263435732575851 -0.042809224590050411 -0.036085995552727665 -0.023692659152108862 -0.0052633013149689933 0.019540860336216433 0.051037909704841844 0.089528459700209354 0.13529793626127246 0.18861702196070418 0.24974108224638075 0.31891059565276236 0.39635287614176606 0.48227892696729407 0.57688353149219485 0.6803451104055287 0.79282379771496814 0.91445921028609034 1.0453691930130669 1.1856489475841019 1.335367736720138 1.4945702558203737 1.663272027385859 1.841454658549611 2.0290673612843713 2.2260414113277478 2.4322554597087658 2.6475502760153073 2.8717261701101298 3.1045430631208784 3.3457173312652055 3.5949211004414057 3.8517764514586679 4.1158617678976652 4.3867123637999024 4.663811820302568 4.9465931444935141 5.2344417790147153 4.9597745475209924 4.6770626075829176 4.3883587471394216 4.0955914921446359 3.799806861106473 3.5034307342819631 3.2071958922215411 2.9124794885563494 2.6205557830918336 2.3325814166084822 2.0495807186164132 1.7724475873282151 1.5019993195030059 1.2381095664656236 0.9839064586300279 0.73907052330252532 0.50403354278482126 0.27912500069646073 0.064577482900028071 -0.13943224290205963 -0.33282325862445616 -0.51460544398595975 -0.68479733132215781 -0.84544589201617704 -0.99569330670468337 -1.1366598517890674 -1.2684874085286699 -1.3913524567201279 -1.5046712070897708 -1.6094822258330244 -1.7060042083931226 -1.7944705332385762 -1.875098700957428 -1.9475609399976539 -2.0126952995948248 -2.0707265635432361 -2.121858466438499 -2.1662918652700855 -2.2039282663572588 -2.2352937672836908 -2.2605508016552878 -2.2798465531218346 -2.2933132428254273 -2.3010638655577371 -2.3032352608336182 -2.299929941339601 -2.2912127692634479 -2.2771320061294338 -2.2577204200636349 -2.2329916883449319 -2.2029537351330566 -2.1680004349107667 -2.1277636463090075 -2.0822074249370939 -2.0313027362057849 -1.9750095156154777 -1.9132769058239381 -1.8467335207039162 -1.7747217503518948 -1.6972116732998495 -1.6141745438482915 -1.5256201803793015 -1.4323747949842827 -1.3337039278921139 -1.2296858172384546 -1.1213111174158408 -1.0078828895863763 -0.88960314279783936 -0.76768656827152526 -0.64154786139675812 -0.51163404835522952 -0.37937389749413902 -0.24447035069588241 -0.1085721633241217 0.027394655035156278 0.1633777739148648 0.29731867418965735 0.43082725296190377 0.3871529965914659 0.33020968040227722 0.26793877934579918 0.19222980403189546 0.10956806578230018 0.02826597358354116 0.0010822873540955211
        </DataArray>
      </CellData>
      <Points>
        <DataArray type="Float32" NumberOfComponents="3" format="ascii">
          4.047702403839704 6.7324522612737914 0
          4.0438339624087014 6.7393106000250231 0
          4.0400003937695086 6.7461884932623217 0
          4.0362192018935588 6.7530953213937295 0
          4.0325041208857666 6.7600379353834361 0
          4.0288669394323069 6.7670216779897885 0
          4.0253182475056191 6.7740508011890004 0
          4.0218678361779894 6.7811286885663833 0
          4.0185249381427832 6.7882579875503612 0
          4.0152983835678713 6.7954406933124423 0
          4.012196702791484 6.8026782025247758 0
          4.0092281995451273 6.8099713499643215 0
          4.0064010008089728 6.8173204320148404 0
          4.0037230911643613 6.82472522158234 0
          4.001202333590399 6.8321849761873459 0
          3.9988464792404685 6.8396984411898867 0
          3.9966631717210439 6.8472638507750254 0
          3.994659950086342 6.8548789281764302 0
          3.9928442419150914 6.8625408828930965 0
          3.9912233545371061 6.8702464078075671 0
          3.9898044644323423 6.8779916762272455 0
          3.9885946022154823 6.8857723384834761 0
          3.9876006334993503 6.8935835186211323 0
          3.9868292378166035 6.9014198118860799 0
          3.9862868864523682 6.9092752832235123 0
          3.9859798158019806 6.9171434666764693 0
          3.9859140034407061 6.9250173663999774 0
          3.9860951383286167 6.9328894588517382 0
          3.9865285857369921 6.9407516971014074 0
          3.987219355665391 6.9485955174389042 0
          3.9881720905781974 6.9564118456289705 0
          3.9893910098478864 6.9641911085435266 0
          3.9908798751756089 6.9719232477702118 0
          3.9926419544149701 6.9795977360799553 0
          3.9946799870548837 6.9872035963111028 0
          3.9969961476760747 6.9947294235400639 0
          3.9995920103603066 7.0021634101453527 0
          4.0024685087114937 7.0094933758657785 0
          4.0056259046353171 7.0167067985967053 0
          4.0090637593178986 7.0237908471634318 0
          4.0127808972420089 7.0307324207050703 0
          4.0167753736487928 7.0375181911795677 0
          4.0210444470562834 7.0441346476868061 0
          4.0250745664037773 7.0508993003505607 0
          4.0288650683933698 7.0578010669693825 0
          4.0324159828704831 7.0648290959725699 0
          4.0357279743473979 7.0719728199969891 0
          4.038801682139451 7.0792222541890659 0
          4.0416388853292604 7.0865674667338947 0
          4.0442412027135051 7.093999135978998 0
          4.0466106620005444 7.1015082851641882 0
          4.0487496699664103 7.1090862928335925 0
          4.0506609714060247 7.116724903974367 0
          4.0523475962692617 7.1244162399948081 0
          4.0538128071202539 7.13215280333847 0
          4.0550600877902223 7.1399274705686766 0
          4.0560924260782905 7.1477335800845161 0
          4.0569150156150169 7.1555645648942416 0
          4.0575325129463176 7.1634143791710239 0
          4.0579496969907218 7.1712773784410793 0
          4.058171431391437 7.1791483091169841 0
          4.0582026274337508 7.1870222955183483 0
          4.0580482396116366 7.1948948251315272 0
          4.0577132218071323 7.2027617335876268 0
          4.057203449343552 7.2106192490310281 0
          4.0565248472795075 7.218463983070305 0
          4.055681340416208 7.2262926989615055 0
          4.0546777909248979 7.2341025091414641 0
          4.0535179316140484 7.2418906367379225 0
          4.0522053984030171 7.2496544907071607 0
          4.0507437073229804 7.2573916482233898 0
          4.0491372655538118 7.2651000511702275 0
          4.0473893179070703 7.2727776030774631 0
          4.0455029672551106 7.2804223272691484 0
          4.0434811549540468 7.2880323478842595 0
          4.0413266843666449 7.295605881858668 0
          4.0390432470612723 7.3031415375328015 0
          4.0366333206060672 7.310637702486722 0
          4.0340992062857604 7.3180928048710721 0
          4.0314430555913816 7.3255053087104924 0
          4.0286668541074748 7.3328736957862013 0
          4.0257734554657354 7.340196861225734 0
          4.0227644982363513 7.3474733150241978 0
          4.0196414527664217 7.3547015441966677 0
          4.0164056215713684 7.3618799997181359 0
          4.0130581257306241 7.3690070767259535 0
          4.0095999344905691 7.3760811142536022 0
          4.0060328922010022 7.3831009044672236 0
          4.0023576093507218 7.3900646465543938 0
          3.9985745494273912 7.3969704440306696 0
          3.9946840168962385 7.4038162837661528 0
          3.9906861604111996 7.4106000218916321 0
          3.9865809614712324 7.4173193600835576 0
          3.9823682680112777 7.4239718477902885 0
          3.9780487931405224 7.43055552036751 0
          3.9736220812650593 7.4370675913744675 0
          3.9690875292223371 7.443505054661915 0
          3.9644444225252293 7.4498646863137372 0
          3.9596919282223322 7.4561430157681752 0
          3.9548290898638951 7.4623362946635998 0
          3.9498558341636825 7.4684412860790292 0
          3.9447710044575897 7.4744536899763245 0
          3.9395733685103789 7.4803688725322592 0
          3.9342616199523266 7.4861818279263046 0
          3.9288344234590498 7.4918871753289045 0
          3.9232913228268655 7.4974800125884267 0
          3.9176309205358488 7.5029541326195774 0
          3.9118518411340584 7.5083028469290936 0
          3.9059536303590479 7.5135199330806257 0
          3.8999350020708663 7.5185976663231502 0
          3.8937947758332743 7.5235277042782096 0
          3.8875327833196649 7.5283021686223544 0
          3.8811481625023521 7.5329114085524331 0
          3.8746403297354837 7.5373450314822055 0
          3.8680097897102237 7.5415930050911335 0
          3.8612566154571795 7.5456432430913534 0
          3.8543820908940685 7.5494839683296586 0
          3.8473880481647367 7.5531025471832329 0
          3.8402761773921625 7.5564837508689395 0
          3.8330496482550296 7.5596124949790964 0
          3.8257102983862166 7.5624666502252857 0
          3.8183977205664861 7.5653893398815173 0
          3.8111282935364144 7.5684185383478324 0
          3.8039162365066557 7.5715828282546589 0
          3.7967949306414464 7.5749475452452701 0
          3.7898110379133039 7.5785903528879048 0
          3.7830634097033746 7.5826536801384963 0
          3.7764751159547001 7.5869699471596803 0
        </DataArray>
      </Points>
      <Cells>
        <DataArray type="Int32" Name="connectivity" format="ascii">
          0 1 1 2 2 3 3 4 4 5 5 6 6 7 7 8 8 9 9 10 10 11 11 12 12 13 13 14 14 15 15 16 16 17 17 18 18 19 19 20 20 21 21 22 22 23 23 24 24 25 25 26 26 27 27 28 28 29 29 30 30 31 31 32 32 33 33 34 34 35 35 36 36 37 37 38 38 39 39 40 40 41 41 42 42 43 43 44 44 45 45 46 46 47 47 48 48 49 49 50 50 51 51 52 52 53 53 54 54 55 55 56 56 57 57 58 58 59 59 60 60 61 61 62 62 63 63 64 64 65 65 66 66 67 67 68 68 69 69 70 70 71 71 72 72 73 73 74 74 75 75 76 76 77 77 78 78 79 79 80 80 81 81 82 82 83 83 84 84 85 85 86 86 87 87 88 88 89 89 90 90 91 91 92 92 93 93 94 94 95 95 96 96 97 97 98 98 99 99 100 100 101 101 102 102 103 103 104 104 105 105 106 106 107 107 108 108 109 109 110 110 111 111 112 112 113 113 114 114 115 115 116 116 117 117 118 118 119 119 120 120 121 121 122 122 123 123 124 124 125 125 126 126 127 
        </DataArray>
        <DataArray type="Int32" Name="offsets" format="ascii">
          2 4 6 8 10 12 14 16 18 20 22 24 26 28 30 32 34 36 38 40 42 44 46 48 50 52 54 56 58 60 62 64 66 68 70 72 74 76 78 80 82 84 86 88 90 92 94 96 98 100 102 104 106 108 110 112 114 116 118 120 122 124 126 128 130 132 134 136 138 140 142 144 146 148 150 152 154 156 158 160 162 164 166 168 170 172 174 176 178 180 182 184 186 188 190 192 194 196 198 200 202 204 206 208 210 212 214 216 218 220 222 224 226 228 230 232 234 236 238 240 242 244 246 248 250 252 254 
        </DataArray>
        <DataArray type="Int32" Name="types" format="ascii">
          3 3 3 3 3 3 3 3 3 3 3 3 3 3 3 3 3 3 3 3 3 3 3 3 3 3 3 3 3 3 3 3 3 3 3 3 3 3 3 3 3 3 3 3 3 3 3 3 3 3 3 3 3 3 3 3 3 3 3 3 3 3 3 3 3 3 3 3 3 3 3 3 3 3 3 3 3 3 3 3 3 3 3 3 3 3 3 3 3 3 3 3 3 3 3 3 3 3 3 3 3 3 3 3 3 3 3 3 3 3 3 3 3 3 3 3 3 3 3 3 3 3 3 3 3 3 3         </DataArray>
      </Cells>
    </Piece>
  </UnstructuredGrid>
</VTKFile>
