<?xml version="1.0"?>
<VTKFile type="UnstructuredGrid" version="0.1" byte_order="LittleEndian">
  <UnstructuredGrid>
    <Piece NumberOfPoints="128" NumberOfCells="127">
      <PointData Scalars="W">
        <DataArray type="Float32" Name="W" NumberOfComponents="2">
          0 0 0.30547883832015121 0.040716476594243579 0.44766462956307684 0.058305970415883313 0.54989786381908246 0.06940816401000223 0.62900469781719248 0.076406179833083385 0.69192861187441967 0.080374763971034671 0.74250782091817791 0.081975824019705393 0.78309950181179611 0.081672159557002702 0.81531034704168226 0.079821897861590232 0.84021827205168742 0.076710314734911744 0.85866233242771794 0.072584251558221569 0.87125090696865681 0.067655851811783935 0.87846743351960832 0.062114669353245139 0.88069350798839208 0.056131053546236521 0.87822014432127093 0.049858626491644402 0.87129300064272908 0.043438333926173488 0.86019909242613335 0.037002302716778512 0.84512881364692316 0.030666479894828454 0.82629446359473591 0.024536754754291155 0.80392772216028419 0.018707319267211673 0.77823466025673405 0.01325882137539651 0.74939408186943102 0.0082590082446292387 0.71760494786323137 0.0037636102828209487 0.68304390572453799 -0.00018429137313576282 0.64589643409464625 -0.0035537239252778508 0.60640397909694188 -0.0063265370390055186 0.56474728986314249 -0.0084965800968404039 0.52107711134556711 -0.010068158499757998 0.47563117613772515 -0.011057782524172399 0.42894303903937286 -0.011501436541325426 0.38087401529818798 -0.011428384891206933 0.33166715277464759 -0.010883741030551064 0.28158520119118374 -0.00992136236305864 0.23088422300326578 -0.0086017464288584075 0.17983328019629427 -0.0069912542110355542 0.12867714927412785 -0.0051591645584553652 0.07761007740366839 -0.0031748811026995226 0.026973519717965137 -0.0011145712452668519 -0.022865372898384612 0.00094518953351971596 -0.071654758936171778 0.0029352675018840431 -0.11909785398070009 0.0047890495105697818 -0.16485402967036572 0.0064441897313811452 9.6939258550510257 -0.74514355358403495 9.5492560411183192 -1.4732322980018258 9.3511121914604018 -2.1791453549323179 9.1015166730358725 -2.8588601117212638 8.8032998799001216 -3.5085770699436059 8.4593815017851277 -4.124617046779985 8.0734747521595871 -4.7037798707224496 7.6490251371792954 -5.2428993276106439 3.6847317435109268 -2.8345831973825582 3.4134884314265479 -2.8258379281359232 3.2655524828026321 -2.8998096465580221 3.0853288708600628 -2.9331216008352761 2.9408375499870654 -2.9882427399041727 2.7930316394724062 -3.0304083983186496 2.6486100950741363 -3.0661190212969909 2.5053777438402371 -3.0928898872992643 2.2622363162806263 -2.9730733612960223 2.0326911398241525 -2.8353019315609833 1.709946316529634 -2.5195819703608624 1.5061355186683441 -2.3326216701063558 1.3097537912539099 -2.1239779577221429 1.0194212439056149 -1.7206045408467059 0.73668942113796199 -1.2831755856133134 0.56610242491976237 -1.0102016647701011 0.51399831561702469 -0.93637685244173752 0.46321655628604469 -0.86021627827380887 0.41371797898905266 -0.78197323725907064 0.25452857152855962 -0.48773386751274095 0.2093314582316412 -0.40502991088838997 0.16715873430530523 -0.32601460359622075 0.12293008543691201 -0.24124286586997334 -0.033889904467565506 0.066633958900594273 -0.077726084794948372 0.15245872381685194 -0.12208176530313346 0.2384424044242173 -0.16703296775362372 0.3242448568368399 -0.21271235298816957 0.40963876720043529 -0.37977826111218793 0.72246223809242671 -0.43014978364499495 0.80493451554509676 -0.48214388546401249 0.88604051837911613 -0.53585248216481618 0.96552254427224005 -0.59135236777042544 1.0431173234220605 -0.78109741436300451 1.3436584697596967 -0.84567912790122046 1.4134471400042194 -0.91267983618939708 1.4802773349591474 -0.98200627990624412 1.543739722439909 -1.0535972971100735 1.6035305374096334 -1.1273629809189476 1.6593502037338146 -1.2064580246206007 1.7154813768181092 -1.4488856773959964 1.9836399432334206 -1.5367520675502371 2.0193491502693699 -1.6263073779431767 2.0493703947434883 -1.7172136331351986 2.0734113613388385 -1.8090898505842457 2.0912040086564581 -1.9014366669438021 2.1024272524709806 -1.9939341460154993 2.107040237487297 -2.2893786856117551 2.3048128601183939 -2.3901384370068541 2.2851475112826822 -2.4891033571220502 2.2577206251468844 -2.585533643524736 2.2224914106088511 -2.6786499602759912 2.1794851056701741 -3.0040948525501769 2.305125890070431 -3.0977735844054091 2.2328740345074132 -3.1849681251158128 2.1527397047661356 -3.2598557725790913 2.0621631650766323 -3.3308297111268428 1.9677906983217932 -3.6618035026913387 2.0096162053408042 -3.7207701917097751 1.8855539746626446 -3.7616749354045087 1.7537997760907178 -4.085971250249929 1.7392232492220183 -4.1044037806528797 1.580669862213379 -4.1106836110010194 1.4224871198344398 -4.4115738235977355 1.3541900298037091 -4.3778583592118121 1.173029026043432 -4.657211973608729 1.0664876883881169 -4.5792164322822719 0.87082223206788956 -4.8422084830405279 0.73311327706970397 -5.0679382624355496 0.56417359647003407 -5.2824624413970875 0.36984628419284227 -5.4702285611765973 0.15025009632952224 -4.0796240370507748 -0.041580196509124 -3.9826274660840593 -0.16732184954834664 -4.0978147280666084 -0.30339375895569948 -4.0503174443896972 -0.4316254121177 -3.9325916033081518 -0.54570517478242364 -5.8595850732343662 -1.04825236775918 0 0
        </DataArray>
        <DataArray type="Float32" Name="u" NumberOfComponents="1">
          0 0.007874015748031496 0.015748031496062992 0.023622047244094488 0.031496062992125984 0.03937007874015748 0.047244094488188976 0.055118110236220472 0.062992125984251968 0.070866141732283464 0.07874015748031496 0.086614173228346455 0.094488188976377951 0.10236220472440945 0.11023622047244094 0.11811023622047244 0.12598425196850394 0.13385826771653545 0.14173228346456693 0.14960629921259844 0.15748031496062992 0.16535433070866143 0.17322834645669291 0.18110236220472442 0.1889763779527559 0.19685039370078741 0.20472440944881889 0.2125984251968504 0.22047244094488189 0.2283464566929134 0.23622047244094488 0.24409448818897639 0.25196850393700787 0.25984251968503935 0.26771653543307089 0.27559055118110237 0.28346456692913385 0.29133858267716534 0.29921259842519687 0.30708661417322836 0.31496062992125984 0.32283464566929132 0.33070866141732286 0.33858267716535434 0.34645669291338582 0.3543307086614173 0.36220472440944884 0.37007874015748032 0.37795275590551181 0.38582677165354329 0.39370078740157483 0.40157480314960631 0.40944881889763779 0.41732283464566927 0.42519685039370081 0.43307086614173229 0.44094488188976377 0.44881889763779526 0.45669291338582679 0.46456692913385828 0.47244094488188976 0.48031496062992124 0.48818897637795278 0.49606299212598426 0.50393700787401574 0.51181102362204722 0.51968503937007871 0.52755905511811019 0.53543307086614178 0.54330708661417326 0.55118110236220474 0.55905511811023623 0.56692913385826771 0.57480314960629919 0.58267716535433067 0.59055118110236215 0.59842519685039375 0.60629921259842523 0.61417322834645671 0.62204724409448819 0.62992125984251968 0.63779527559055116 0.64566929133858264 0.65354330708661412 0.66141732283464572 0.6692913385826772 0.67716535433070868 0.68503937007874016 0.69291338582677164 0.70078740157480313 0.70866141732283461 0.71653543307086609 0.72440944881889768 0.73228346456692917 0.74015748031496065 0.74803149606299213 0.75590551181102361 0.76377952755905509 0.77165354330708658 0.77952755905511806 0.78740157480314965 0.79527559055118113 0.80314960629921262 0.8110236220472441 0.81889763779527558 0.82677165354330706 0.83464566929133854 0.84251968503937003 0.85039370078740162 0.8582677165354331 0.86614173228346458 0.87401574803149606 0.88188976377952755 0.88976377952755903 0.89763779527559051 0.90551181102362199 0.91338582677165359 0.92125984251968507 0.92913385826771655 0.93700787401574803 0.94488188976377951 0.952755905511811 0.96062992125984248 0.96850393700787396 0.97637795275590555 0.98425196850393704 0.99212598425196852 1
        </DataArray>
      </PointData>
      <CellData Scalars="P">
        <DataArray type="Float32" Name="P" NumberOfComponents="1">
          0.023883130749612139 0.071986399954572691 0.12067487211402134 0.17000505243403274 0.21993715913148063 0.27036726279464046 0.32114703431570407 0.37209761119329116 0.42302067957978434 0.47370736547901965 0.52394633916348887 0.57353066404659137 0.62226405115048589 0.66996640755421977 0.71647881763336763 0.76166800313415239 0.80542986009731754 0.84769259488444504 0.88841890693957248 0.92760718823636346 0.96529221686216193 1.0015453062288735 1.0364732167735282 1.0702168442762485 1.1029487986750097 1.1348691629129477 1.1662027766935799 1.1971957567904894 1.2281085087433807 1.259201152153637 1.2907464384448273 1.3230134157512372 1.3562600653917396 1.3907266775254294 1.4266286063268763 1.4641505956977643 1.5034425685122985 1.5446081962215985 1.5876985897131262 1.6327125482224365 1.6795915975428719 1.7282163189235471 1.4118066364285564 1.0949124533675982 0.77248185782540979 0.43986031136355908 0.092834057725615093 -0.27230422818133893 -0.65873143195752581 -1.069028175503004 -1.2630978405612243 -1.460471127652841 -1.6684610526729917 -1.8832499491793293 -2.1066869071453649 -2.3373849819346502 -2.5745539158004087 -2.817157282358385 -3.0509670055562723 -3.27411903886424 -3.4689347642582238 -3.6478139790930424 -3.8081043014773717 -3.9294511188327053 -4.0075213938474521 -4.0585330431116668 -4.1028736256964624 -4.139965125644304 -4.1693193930774752 -4.1674473568514951 -4.1570244583545488 -4.138373361430097 -4.1108492648922059 -4.0504056260779526 -3.9811786662102309 -3.9033045970016285 -3.8170025621938319 -3.722558110562264 -3.596534413346288 -3.4634506084233525 -3.3238331310942759 -3.1782624053406536 -3.0273678533690456 -2.8500243753894874 -2.6693204960134596 -2.4860802482710258 -2.3011681297398354 -2.1154718481326902 -1.929894669968768 -1.7449681724943291 -1.5442860398806382 -1.3474048592883496 -1.1553266825085493 -0.96902705551991009 -0.78944407788897342 -0.61747246637834519 -0.45393641340500279 -0.28846362040268225 -0.13407541474394072 0.0085356809241592026 0.13879027691309814 0.25623438826047518 0.3662904219134353 0.46174937790367387 0.5425156637797599 0.60863164978516782 0.66044518389765972 0.69871064832464191 0.72262777162223746 0.73307583693274792 0.72840751154106143 0.7116394980043157 0.68422641429379194 0.64267030744958609 0.59346560787234925 0.53210563054803828 0.46709202493922897 0.39301353887993723 0.31239836519531744 0.22758113319136833 0.14159219125024439 0.089276148707539665 0.045459366293277306 0.0090586927639666939 -0.014093330231489891 -0.020314685658073803 -0.017531801410312089
        </DataArray>
      </CellData>
      <Points>
        <DataArray type="Float32" NumberOfComponents="3" format="ascii">
          4.2298590152417903 6.6764743344094057 0
          4.2288092210685901 6.6842781915885627 0
          4.2277783676843104 6.6920845701302305 0
          4.2267752711553568 6.6998945585479168 0
          4.2258062702947692 6.7077088435704972 0
          4.224876269943989 6.7155278577495467 0
          4.2239891714952682 6.7233518460485362 0
          4.2231481108780802 6.7311809068695148 0
          4.2223556047175874 6.7390150207497053 0
          4.2216136499618759 6.7468540725757125 0
          4.2209237907246795 6.7546978692848541 0
          4.2202871703190468 6.7625461551856301 0
          4.2197045689893322 6.7703986251279362 0
          4.2191764338971804 6.7782549362729352 0
          4.2187029027935177 6.7861147186719029 0
          4.2182838220744552 6.7939775848072204 0
          4.2179187620249117 6.8018431383462907 0
          4.2176070346258809 6.8097109823472834 0
          4.217347705370285 6.8175807264600428 0
          4.2171396064357687 6.8254519935014795 0
          4.2169813510575649 6.8333244253036254 0
          4.2168713463117369 6.8411976877196654 0
          4.2168078042056916 6.8490714748276513 0
          4.2167887540159485 6.8569455123865639 0
          4.2168120532397344 6.8648195605053512 0
          4.2168753990911503 6.8726934155583432 0
          4.2169763434642915 6.8805669113026307 0
          4.2171123041298904 6.8884399192482748 0
          4.2172805740683028 6.8963123483769548 0
          4.2174783361926904 6.9041841441003697 0
          4.2177026964116466 6.9120552860075337 0
          4.2179506750075202 6.9199257860249173 0
          4.2182192216807666 6.9277956855898921 0
          4.2185052318138778 6.9356650522777947 0
          4.2188055623191456 6.9435339760128647 0
          4.2191170482916043 6.951402564911108 0
          4.2194365181558 6.9592709409373246 0
          4.2197608056794023 6.967139235549447 0
          4.2200867711169341 6.9750075849183153 0
          4.2204113239500156 6.9828761251168565 0
          4.220731438480227 6.9907449877656243 0
          4.2210441722135768 6.9986142958291682 0
          4.2213466869699543 7.0064841596718272 0
          4.2222505048018082 7.0143079669038562 0
          4.2237466906647274 7.0220405571921658 0
          4.2258229932341331 7.029638140295587 0
          4.2284639696255111 7.0370585455372776 0
          4.2316511602520563 7.0442614575633691 0
          4.2353632692446199 7.0512086447256115 0
          4.2395763941566491 7.0578641578646399 0
          4.2442642391006045 7.0641945270386746 0
          4.2491806761737649 7.0703489593875481 0
          4.254308862985277 7.0763279948173743 0
          4.2596396141531514 7.082127048614721 0
          4.2651617397361221 7.0877440573956925 0
          4.270866269214034 7.0931756069894272 0
          4.2767440267998778 7.0984190870834833 0
          4.2827860474426878 7.1034722882045394 0
          4.2889834404926086 7.1083335556690646 0
          4.2953211103837114 7.1130103237622695 0
          4.3017848057606827 7.1175111413225727 0
          4.3083544863050864 7.1218555915508412 0
          4.3150174987420131 7.1260552754901552 0
          4.3217616515913173 7.1301231390383819 0
          4.3285689187856526 7.1340842021570579 0
          4.3354217478536619 7.1379655963339381 0
          4.3423095530207441 7.1417842559763463 0
          4.3492291075059457 7.1455447673200441 0
          4.3561772670168653 7.1492518608239486 0
          4.3631509672681421 7.1529103954761908 0
          4.3701403346694763 7.1565386212036994 0
          4.3771425735729803 7.1601416724103997 0
          4.3841550762752757 7.1637244543011596 0
          4.3911751076244236 7.1672922284873817 0
          4.3981929455959072 7.1708640878427516 0
          4.4052058808980163 7.1744453584313463 0
          4.4122111720677273 7.1780413758537422 0
          4.4192060407171647 7.1816574642080448 0
          4.4261876632661927 7.1852989220459795 0
          4.4331456868668679 7.1889851474322422 0
          4.4400769980195456 7.1927212577342932 0
          4.4469783824058853 7.1965122856204102 0
          4.4538465191481906 7.2003631631303726 0
          4.4606779760068926 7.2042787053977362 0
          4.4674609969711341 7.2082775502907603 0
          4.4741915870554454 7.2123640299207361 0
          4.4808656007856742 7.2165422932987395 0
          4.4874787479355112 7.2208162809850389 0
          4.4940265972736508 7.2251897062775425 0
          4.500504582094579 7.2296660366538621 0
          4.5069078046390336 7.234248759360943 0
          4.5132212426763747 7.2389545110777043 0
          4.5194394536529243 7.2437855149917096 0
          4.525556889336281 7.2487436421429887 0
          4.5315679167302232 7.253830393276993 0
          4.5374668416613897 7.2590468821962979 0
          4.5432479397102252 7.2643938158151933 0
          4.5489054760286223 7.2698714915919656 0
          4.5544211354685835 7.275492192731372 0
          4.5597886682773829 7.2812547139938291 0
          4.5650019346203408 7.2871573692114557 0
          4.5700549504557486 7.2931979886912428 0
          4.5749419358729702 7.2993739207130748 0
          4.5796427066213736 7.3056929851824846 0
          4.5841514438363369 7.3121507194937818 0
          4.588462729154922 7.3187421722642947 0
          4.5925719058297201 7.3254617442004255 0
          4.5964745584335835 7.33230360079438 0
          4.6001501462002876 7.3392703735518081 0
          4.6035949929055358 7.346354388901422 0
          4.6068065410201733 7.3535474955051843 0
          4.6097646519308082 7.3608488333054778 0
          4.6124681554971474 7.368248590568296 0
          4.6149166339339516 7.3757369784901723 0
          4.6170913855954536 7.3833098110572042 0
          4.6189944664640201 7.3909558751334696 0
          4.620608497371931 7.3986686172678775 0
          4.6219382734508203 7.4064359257508841 0
          4.6229674141346866 7.4142493198981647 0
          4.62368183854971 7.4220983830573477 0
          4.6240681458690824 7.4299711276651186 0
          4.6241145790581237 7.4378540012799403 0
          4.6239074659708299 7.4457350198321395 0
          4.6234527603002267 7.4536064403366495 0
          4.6227432122402652 7.4614599144734459 0
          4.6217816695716047 7.4692875831128402 0
          4.6205753305279966 7.4770824879605167 0
          4.6190040594981543 7.4848138135722904 0
        </DataArray>
      </Points>
      <Cells>
        <DataArray type="Int32" Name="connectivity" format="ascii">
          0 1 1 2 2 3 3 4 4 5 5 6 6 7 7 8 8 9 9 10 10 11 11 12 12 13 13 14 14 15 15 16 16 17 17 18 18 19 19 20 20 21 21 22 22 23 23 24 24 25 25 26 26 27 27 28 28 29 29 30 30 31 31 32 32 33 33 34 34 35 35 36 36 37 37 38 38 39 39 40 40 41 41 42 42 43 43 44 44 45 45 46 46 47 47 48 48 49 49 50 50 51 51 52 52 53 53 54 54 55 55 56 56 57 57 58 58 59 59 60 60 61 61 62 62 63 63 64 64 65 65 66 66 67 67 68 68 69 69 70 70 71 71 72 72 73 73 74 74 75 75 76 76 77 77 78 78 79 79 80 80 81 81 82 82 83 83 84 84 85 85 86 86 87 87 88 88 89 89 90 90 91 91 92 92 93 93 94 94 95 95 96 96 97 97 98 98 99 99 100 100 101 101 102 102 103 103 104 104 105 105 106 106 107 107 108 108 109 109 110 110 111 111 112 112 113 113 114 114 115 115 116 116 117 117 118 118 119 119 120 120 121 121 122 122 123 123 124 124 125 125 126 126 127 
        </DataArray>
        <DataArray type="Int32" Name="offsets" format="ascii">
          2 4 6 8 10 12 14 16 18 20 22 24 26 28 30 32 34 36 38 40 42 44 46 48 50 52 54 56 58 60 62 64 66 68 70 72 74 76 78 80 82 84 86 88 90 92 94 96 98 100 102 104 106 108 110 112 114 116 118 120 122 124 126 128 130 132 134 136 138 140 142 144 146 148 150 152 154 156 158 160 162 164 166 168 170 172 174 176 178 180 182 184 186 188 190 192 194 196 198 200 202 204 206 208 210 212 214 216 218 220 222 224 226 228 230 232 234 236 238 240 242 244 246 248 250 252 254 
        </DataArray>
        <DataArray type="Int32" Name="types" format="ascii">
          3 3 3 3 3 3 3 3 3 3 3 3 3 3 3 3 3 3 3 3 3 3 3 3 3 3 3 3 3 3 3 3 3 3 3 3 3 3 3 3 3 3 3 3 3 3 3 3 3 3 3 3 3 3 3 3 3 3 3 3 3 3 3 3 3 3 3 3 3 3 3 3 3 3 3 3 3 3 3 3 3 3 3 3 3 3 3 3 3 3 3 3 3 3 3 3 3 3 3 3 3 3 3 3 3 3 3 3 3 3 3 3 3 3 3 3 3 3 3 3 3 3 3 3 3 3 3         </DataArray>
      </Cells>
    </Piece>
  </UnstructuredGrid>
</VTKFile>
