<?xml version="1.0"?>
<VTKFile type="UnstructuredGrid" version="0.1" byte_order="LittleEndian">
  <UnstructuredGrid>
    <Piece NumberOfPoints="128" NumberOfCells="127">
      <PointData Scalars="W">
        <DataArray type="Float32" Name="W" NumberOfComponents="2">
          0 0 0.05227841226752257 0.15614511240203607 0.075124107090782946 0.22321186801188181 0.095401494133789122 0.28150642620269423 0.11492096294899516 0.33625906334939287 0.13443093056862068 0.38949589399245443 0.15439509089146045 0.44236075976733996 0.17512219167505888 0.49550485922614984 0.19684506450699971 0.54932304297421641 0.21973304752440012 0.60399681993389087 0.2439483904055999 0.65965734658533026 0.26962554412813194 0.71633081103513252 0.29688306087162125 0.77397651139801693 0.32583031943138058 0.83250936710987633 0.35656708631171702 0.89180319693477772 0.38918876084282766 0.9517084776736241 0.42382285020152893 1.0121420392288223 0.46056412036538596 1.0729286297592437 0.49951706131886892 1.1339093444929458 0.54080213572663249 1.1949535698785592 0.58453504772136666 1.2559107034538637 0.63081742168157262 1.3165939246050087 0.67975326830973448 1.3768192827396315 0.73144846728207746 1.4364046096723939 0.78599367803470888 1.4951373360298543 0.8435104814539427 1.5528638466034932 0.90408582979120011 1.6093633669314795 0.96776897239053583 1.6643550764333364 1.0346444013901599 1.7176298228980029 1.1049618448367164 1.7692407794349985 1.1785983328701009 1.8186302937793886 1.2556069505328338 1.865557769890402 1.3360256724830022 1.9097684100298982 1.4198854330293977 1.951006996056692 1.507198623723097 1.9890029239175322 1.5979685133499739 2.0234852425942806 1.6921074968537859 2.0540855141871965 1.7896063501556301 2.0805550940840973 1.8904571009071638 2.1026534935779133 1.9945373261946564 2.1200247748204237 2.1017228318964558 2.1323391279286934 2.211886733301176 2.1392879954369191 2.0961942850971211 1.9347088649782385 2.9937011019073023 2.6175250444002987 10.446776372884788 7.9589446522128267 11.313154665640104 6.8910797695850983 12.078208901871243 5.7192630205769781 12.725040749701328 4.4505964074991242 13.251170906337082 3.098458361077209 13.635183712188338 1.670823222667938 13.864902699839089 0.18222565382664782 -5.8108480968158149 0.10815145434455986 -5.6854873766135423 -0.15180800509237946 -5.5382777866778605 -0.39375422422844397 -2.1378250311598803 -0.21734524647601519 -1.9916986584963683 -0.23548191729263204 -1.7302209698343634 -0.23054064991910939 -1.5140299148386027 -0.22165519849625837 -1.3589873546352131 -0.21487609635369034 -1.0828235625514291 -0.18204452864343731 -0.80396526617082853 -0.14140529435859972 -0.64643143033069284 -0.11756953506015944 -0.36374902236199952 -0.067678244218173006 -0.07555814635916247 -0.014195823614110915 0.21187538545134132 0.039687213065418517 0.36818059298453149 0.068080038731450201 0.66175057121647418 0.11954374284722703 0.81474039336436921 0.14221670490975183 0.96320014259862341 0.16108798473549121 1.1112493048849563 0.1764039079641046 1.25627382275657 0.18729184795312956 1.3978847406456663 0.19333527109824797 1.5356768103359619 0.19418012097909979 1.8143276348298252 0.20495909649311056 1.9437249801411653 0.19032457973828645 2.0679250539854803 0.16941406575584675 2.1840983921545778 0.1420568476051737 2.2964530729248933 0.10864611636372856 2.4021546649683629 0.069095751194457045 2.5007131316628732 0.023614146155284087 2.5916463967522958 -0.027507161267837116 2.6744323393344098 -0.083892323529362961 2.7487355523089105 -0.14509016213597464 2.8140853844551481 -0.2105706587244795 2.8701027196826638 -0.27973153449532351 2.9164521546270863 -0.3519036528141839 2.9528492118874614 -0.42635760863463135 2.9790112815752545 -0.50230137404103548 2.9948760449775564 -0.57892449943431157 3.0002879852907656 -0.65535777437858289 2.9952119169294122 -0.73071338899553762 2.979632346658136 -0.80407422664447703 2.9537522721119229 -0.87455805297037614 2.917690775352296 -0.94125069766984459 2.8716831066660506 -1.0032661464735817 2.8159773094494458 -1.0597262964243435 2.7487686549255224 -1.1089038490708074 2.5415417345961702 -1.0926045094391723 2.461878457814493 -1.1217957334113304 2.3742353061160046 -1.1427377289180116 2.2790825685808787 -1.1548758411312434 2.1767553345859381 -1.1576520036135332 2.067615794014328 -1.1505869370303201 1.951995491791803 -1.1332618469565869 1.8280384408582204 -1.1039999850838773 1.8232502128855561 -1.1435491172590637 1.6872313835496033 -1.0971905299770657 1.5435277788098276 -1.0375634616746754 1.3965262178877509 -0.96742843941191847 1.2439553149646172 -0.88532466819130895 1.2047634977188504 -0.87918476666665912 1.0384484067126276 -0.77542242262761385 0.86361027458225936 -0.65757011793361964 0.80683247844504591 -0.62497445173685373 0.61796210580847843 -0.4857469061172982 0.54402476656727405 -0.43278534321728424 0.47131141364915602 -0.37889499105669255 0.25108372908914317 -0.20336486636153694 0.14967674918631296 -0.12173491045325831 -0.4927327603878664 0.39932824081513579 -0.64854780639804643 0.51943598965082549 -0.86424473154101311 0.68146761525533228 -1.2492488801606934 0.96385500053113882 -1.4008911796218153 1.0518428387238798 -1.8334184689443613 1.3317655118648986 -2.3391289233033592 1.6281380440982234 -2.2000173161011127 1.4617157962941838 0 0
        </DataArray>
        <DataArray type="Float32" Name="u" NumberOfComponents="1">
          0 0.007874015748031496 0.015748031496062992 0.023622047244094488 0.031496062992125984 0.03937007874015748 0.047244094488188976 0.055118110236220472 0.062992125984251968 0.070866141732283464 0.07874015748031496 0.086614173228346455 0.094488188976377951 0.10236220472440945 0.11023622047244094 0.11811023622047244 0.12598425196850394 0.13385826771653545 0.14173228346456693 0.14960629921259844 0.15748031496062992 0.16535433070866143 0.17322834645669291 0.18110236220472442 0.1889763779527559 0.19685039370078741 0.20472440944881889 0.2125984251968504 0.22047244094488189 0.2283464566929134 0.23622047244094488 0.24409448818897639 0.25196850393700787 0.25984251968503935 0.26771653543307089 0.27559055118110237 0.28346456692913385 0.29133858267716534 0.29921259842519687 0.30708661417322836 0.31496062992125984 0.32283464566929132 0.33070866141732286 0.33858267716535434 0.34645669291338582 0.3543307086614173 0.36220472440944884 0.37007874015748032 0.37795275590551181 0.38582677165354329 0.39370078740157483 0.40157480314960631 0.40944881889763779 0.41732283464566927 0.42519685039370081 0.43307086614173229 0.44094488188976377 0.44881889763779526 0.45669291338582679 0.46456692913385828 0.47244094488188976 0.48031496062992124 0.48818897637795278 0.49606299212598426 0.50393700787401574 0.51181102362204722 0.51968503937007871 0.52755905511811019 0.53543307086614178 0.54330708661417326 0.55118110236220474 0.55905511811023623 0.56692913385826771 0.57480314960629919 0.58267716535433067 0.59055118110236215 0.59842519685039375 0.60629921259842523 0.61417322834645671 0.62204724409448819 0.62992125984251968 0.63779527559055116 0.64566929133858264 0.65354330708661412 0.66141732283464572 0.6692913385826772 0.67716535433070868 0.68503937007874016 0.69291338582677164 0.70078740157480313 0.70866141732283461 0.71653543307086609 0.72440944881889768 0.73228346456692917 0.74015748031496065 0.74803149606299213 0.75590551181102361 0.76377952755905509 0.77165354330708658 0.77952755905511806 0.78740157480314965 0.79527559055118113 0.80314960629921262 0.8110236220472441 0.81889763779527558 0.82677165354330706 0.83464566929133854 0.84251968503937003 0.85039370078740162 0.8582677165354331 0.86614173228346458 0.87401574803149606 0.88188976377952755 0.88976377952755903 0.89763779527559051 0.90551181102362199 0.91338582677165359 0.92125984251968507 0.92913385826771655 0.93700787401574803 0.94488188976377951 0.952755905511811 0.96062992125984248 0.96850393700787396 0.97637795275590555 0.98425196850393704 0.99212598425196852 1
        </DataArray>
      </PointData>
      <CellData Scalars="P">
        <DataArray type="Float32" Name="P" NumberOfComponents="1">
          -0.036854679054296138 -0.11049574901497171 -0.18399377473078224 -0.25726332863190432 -0.33020228042371069 -0.40269022162403434 -0.47458701565296829 -0.54573207972543247 -0.61594397694168912 -0.68502084453550705 -0.75274039449222352 -0.81886085445400358 -0.8831221859913031 -0.94524753792771454 -1.0049450868377254 -1.0619099761134456 -1.1158245917920706 -1.1663619443388284 -1.2131872156184076 -1.2559587961316643 -1.294330443324814 -1.3279541542925468 -1.3564820439126151 -1.3795681747083177 -1.3968715908718841 -1.4080558365191342 -1.412793323909566 -1.4107701625743874 -1.4016850579085762 -1.3852368466370359 -1.3611572724816781 -1.3291976823560891 -1.2891315957996015 -1.2407564856285243 -1.1838964775752951 -1.1184041281502222 -1.0441693953111244 -0.96111331789453747 -0.86918859457261244 -0.76839040611734899 -0.65875687904134383 -0.54036956063034169 -0.41164272000115099 -0.20327038810417808 0.59898952928981763 1.4394752614534314 2.332369097170425 3.2905600811219418 4.3263353136790217 5.4492837960239928 6.6665006273185714 6.0031278888987112 5.279479728785847 4.5103700677301797 4.1649345051010132 3.8251433407478901 3.5127010301086896 3.2251920887254211 2.956163798341136 2.7281035133797769 2.5439585373816862 2.3848735267091099 2.2728502586673556 2.2090785054019384 2.1929602800311909 2.2016457139518089 2.2565105355455932 2.3329096497254946 2.4285789143068528 2.5417306730602691 2.6700225378227582 2.8109513088595697 2.9618887499766395 3.1388558694139386 3.319412262861507 3.5007594886234039 3.6798739578407758 3.8543264965049846 4.021510942572136 4.1789486610345339 4.324317915476497 4.4554773590134404 4.5705035359278607 4.6677006842684046 4.7456247996097778 4.8031000145389555 4.8392314379910566 4.853412701215178 4.8453355636191517 4.8149856657603367 4.7626409230654536 4.6888639704497024 4.5944903067456817 4.4806120907193598 4.3485588503049186 4.1998758219712418 4.0363716247602603 3.8652111514838454 3.6837589022927757 3.4939852301645726 3.2979247269989496 3.0976524475870497 2.8952521304970387 2.6927868085396711 2.4924185145892417 2.2871171248735482 2.087382368593877 1.8952024024127545 1.712074472857849 1.5394659483617608 1.3694609519112455 1.2124304420710144 1.0694122268181232 0.93180614795027072 0.80929236846687358 0.69350321856270369 0.58428160370361504 0.49039479235478639 0.40353128036695651 0.35025173935202114 0.30145930306327334 0.25753160830531968 0.2211304494941507 0.18116607493376791 0.14105313900575409 0.09611007305332174 0.036213902296967651
        </DataArray>
      </CellData>
      <Points>
        <DataArray type="Float32" NumberOfComponents="3" format="ascii">
          4.2009848740824847 7.5844224972517198 0
          4.1935165339836118 7.5869175634965291 0
          4.1860514450723398 7.5894223076542158 0
          4.178591027610171 7.5919408866122957 0
          4.1711365400060005 7.5944769141936721 0
          4.1636891918692944 7.5970337851903986 0
          4.1562501908227141 7.5996148008720041 0
          4.1488207715243952 7.6022232398410559 0
          4.1414022150177701 7.6048623983692627 0
          4.1339958633365024 7.6075356148552373 0
          4.1266031301478243 7.6102462810657938 0
          4.1192255109385441 7.6129978502635343 0
          4.1118645914639993 7.6157938388327802 0
          4.1045220552006398 7.6186378237634056 0
          4.0971996902212293 7.6215334373871766 0
          4.0898993954669312 7.6244843595688527 0
          4.0826231867426479 7.6274943084522242 0
          4.075373204698109 7.6305670353216861 0
          4.0681517207747016 7.6337063137553285 0
          4.060961143751638 7.6369159297917157 0
          4.0538040272795453 7.6401996738505025 0
          4.0466830771165609 7.6435613314128474 0
          4.0396011574893702 7.6470046714546962 0
          4.0325612976005294 7.6505334350561709 0
          4.0255666982503522 7.6541513241192618 0
          4.0186207375138991 7.6578619881976913 0
          4.0117269783347531 7.6616690149798821 0
          4.0048891739707981 7.6655759166040376 0
          3.9981112711011964 7.6695861122455593 0
          3.9913974151186098 7.6737029151452694 0
          3.9847519656701578 7.6779295359048252 0
          3.9781794890825206 7.6822690478928202 0
          3.9716847617058311 7.6867243723104695 0
          3.9652727723202257 7.6912982623720429 0
          3.9589487241056158 7.6959932874548018 0
          3.9527180354612037 7.7008118162899679 0
          3.9465863402588868 7.7057560001276908 0
          3.9405594824584504 7.7108277498490176 0
          3.9346435155851083 7.7160287205051015 0
          3.9288447022849553 7.7213602963585668 0
          3.9231695067788133 7.7268235687570836 0
          3.9176245872053403 7.7324193156231997 0
          3.9122167877965941 7.7381479822584129 0
          3.9069393634681533 7.743996401827216 0
          3.901848008652943 7.75000689328769 0
          3.8974047508237626 7.7565113903077592 0
          3.8936633976157919 7.7634436717385737 0
          3.8906714783349372 7.7707310581555245 0
          3.8884691942590952 7.7782948511059846 0
          3.8870892637807395 7.7860511610303265 0
          3.8865555916357564 7.7939114012074908 0
          3.8868825115395231 7.8017831884721573 0
          3.88684873489282 7.8096619135376031 0
          3.8864620129747371 7.8175314396998115 0
          3.8857314545377979 7.8253767458865049 0
          3.8848681778889627 7.8332085300548426 0
          3.8838812568053611 7.8410256623945376 0
          3.8827869274887599 7.8488284375687476 0
          3.8815986143224599 7.8566173991229489 0
          3.8803259447285483 7.8643929649094622 0
          3.8789860664956768 7.8721571612656502 0
          3.8775962943139057 7.8799124993510912 0
          3.8761664092491279 7.8876604564772741 0
          3.8747139621285571 7.8954041182308394 0
          3.873256844782671 7.9031467928907961 0
          3.871812900757118 7.9108918138158755 0
          3.870391831443877 7.9186409415875874 0
          3.8690118587470037 7.9263973590745564 0
          3.8676824760626891 7.9341624719979809 0
          3.8664128947634078 7.9419374502869822 0
          3.865212299936041 7.9497232430848745 0
          3.8640896881286122 7.9575205247758918 0
          3.8630538432335797 7.9653296691712816 0
          3.8621133113659529 7.9731507275787221 0
          3.861285379290377 7.9809843590070972 0
          3.8605780697744914 7.9888296548263069 0
          3.8599990823641539 7.9966853172424912 0
          3.8595556178797805 8.0045496488998307 0
          3.8592546395990168 8.0124205770641588 0
          3.8591026974450346 8.0202956484781378 0
          3.8591058976623116 8.0281720423489951 0
          3.8592698729940831 8.0360465884912315 0
          3.8595997503834027 8.0439157906978309 0
          3.8601001302638118 8.0517758547705203 0
          3.8607750574665154 8.0596227214420146 0
          3.8616279978116306 8.0674521037694991 0
          3.8626618174156131 8.0752595286659012 0
          3.8638787651610285 8.0830403821591705 0
          3.8652804552850246 8.0907899585268765 0
          3.8668678636305263 8.0985035105556129 0
          3.8686413181170725 8.1061763034397281 0
          3.8706004966721301 8.1138036698196867 0
          3.8727444263802848 8.121381066628139 0
          3.8750714961751309 8.1289041297572258 0
          3.8775794643209558 8.1363687307016654 0
          3.8802654730892949 8.1437710314453327 0
          3.8831260642191707 8.1511075388509973 0
          3.8861570671001031 8.1583752117428148 0
          3.8893456313050248 8.1655750715536222 0
          3.8926868159517563 8.1727053160769074 0
          3.8961751862610607 8.1797646547574026 0
          3.8998048427335399 8.1867523430241373 0
          3.9035694419316949 8.1936682168408996 0
          3.9074622189288624 8.2005127223762759 0
          3.9114760078447914 8.207286941930775 0
          3.9156031267445015 8.2139926978735094 0
          3.9198432828702741 8.2206275461088421 0
          3.9241880483109726 8.2271943694843852 0
          3.9286285194067223 8.233696873410624 0
          3.9331555886405289 8.2401394147350508 0
          3.9377598037035297 8.246527092351398 0
          3.9424387433979513 8.2528602966387243 0
          3.9471821045489337 8.2591454699311875 0
          3.9519790556514298 8.2653899282779886 0
          3.9568260873965695 8.2715957040249837 0
          3.9617114988132309 8.277771439617343 0
          3.9666307178175022 8.2839204318245052 0
          3.9715792493805431 8.290046036486693 0
          3.9765434481772264 8.2961591497758125 0
          3.9815170400400195 8.3022648500420431 0
          3.9864601832974831 8.308395450758093 0
          3.9913632243022219 8.3145584181774534 0
          3.9962127931391715 8.3207638194063165 0
          4.0009850113646088 8.3270291828671166 0
          4.0056704817434872 8.3333599935575684 0
          4.0102423720095217 8.3397736346416558 0
          4.0146693041979775 8.3462885132790881 0
          4.018959930368827 8.352894371881888 0
        </DataArray>
      </Points>
      <Cells>
        <DataArray type="Int32" Name="connectivity" format="ascii">
          0 1 1 2 2 3 3 4 4 5 5 6 6 7 7 8 8 9 9 10 10 11 11 12 12 13 13 14 14 15 15 16 16 17 17 18 18 19 19 20 20 21 21 22 22 23 23 24 24 25 25 26 26 27 27 28 28 29 29 30 30 31 31 32 32 33 33 34 34 35 35 36 36 37 37 38 38 39 39 40 40 41 41 42 42 43 43 44 44 45 45 46 46 47 47 48 48 49 49 50 50 51 51 52 52 53 53 54 54 55 55 56 56 57 57 58 58 59 59 60 60 61 61 62 62 63 63 64 64 65 65 66 66 67 67 68 68 69 69 70 70 71 71 72 72 73 73 74 74 75 75 76 76 77 77 78 78 79 79 80 80 81 81 82 82 83 83 84 84 85 85 86 86 87 87 88 88 89 89 90 90 91 91 92 92 93 93 94 94 95 95 96 96 97 97 98 98 99 99 100 100 101 101 102 102 103 103 104 104 105 105 106 106 107 107 108 108 109 109 110 110 111 111 112 112 113 113 114 114 115 115 116 116 117 117 118 118 119 119 120 120 121 121 122 122 123 123 124 124 125 125 126 126 127 
        </DataArray>
        <DataArray type="Int32" Name="offsets" format="ascii">
          2 4 6 8 10 12 14 16 18 20 22 24 26 28 30 32 34 36 38 40 42 44 46 48 50 52 54 56 58 60 62 64 66 68 70 72 74 76 78 80 82 84 86 88 90 92 94 96 98 100 102 104 106 108 110 112 114 116 118 120 122 124 126 128 130 132 134 136 138 140 142 144 146 148 150 152 154 156 158 160 162 164 166 168 170 172 174 176 178 180 182 184 186 188 190 192 194 196 198 200 202 204 206 208 210 212 214 216 218 220 222 224 226 228 230 232 234 236 238 240 242 244 246 248 250 252 254 
        </DataArray>
        <DataArray type="Int32" Name="types" format="ascii">
          3 3 3 3 3 3 3 3 3 3 3 3 3 3 3 3 3 3 3 3 3 3 3 3 3 3 3 3 3 3 3 3 3 3 3 3 3 3 3 3 3 3 3 3 3 3 3 3 3 3 3 3 3 3 3 3 3 3 3 3 3 3 3 3 3 3 3 3 3 3 3 3 3 3 3 3 3 3 3 3 3 3 3 3 3 3 3 3 3 3 3 3 3 3 3 3 3 3 3 3 3 3 3 3 3 3 3 3 3 3 3 3 3 3 3 3 3 3 3 3 3 3 3 3 3 3 3         </DataArray>
      </Cells>
    </Piece>
  </UnstructuredGrid>
</VTKFile>
