<?xml version="1.0"?>
<VTKFile type="UnstructuredGrid" version="0.1" byte_order="LittleEndian">
  <UnstructuredGrid>
    <Piece NumberOfPoints="128" NumberOfCells="127">
      <PointData Scalars="W">
        <DataArray type="Float32" Name="W" NumberOfComponents="2">
          0 0 -0.24328880889912693 0.080089470940830118 -0.43247147381672635 0.14102689615668251 -0.58062978524590447 0.18665142356376271 -0.7066133153196632 0.22301121898203008 -0.8180872759887724 0.25254763653742046 -0.91887211629681187 0.27648147657644417 -1.0112073993991337 0.29554511634848724 -1.0965054974741268 0.3102246988806972 -1.175800347066372 0.32089843752014646 -1.2498110783508232 0.32785742656985589 -1.3191186410048712 0.33135646342223057 -1.3841820717560005 0.33161798657129826 -1.4453889167275271 0.32884481240851871 -1.503092832557327 0.3232277669766016 -1.5576060924971762 0.31494237702550021 -1.6091309000800436 0.30413594658218268 -1.6579157815945496 0.29095993412429022 -1.7041520793373313 0.27554790850460681 -1.7479856271356826 0.25802000359078009 -1.7895716946596985 0.23849221147063374 -1.8290754430720439 0.21707437926318715 -1.8666334665976232 0.19386451165099647 -1.9023993851938714 0.16895406670214058 -1.9365156886582213 0.14242372691970251 -1.969068766493987 0.11434140310627941 -2.000207090292013 0.084770949952183705 -2.0301154785159574 0.053765274262865426 -2.0588918045718403 0.021361897521800621 -2.0863431355959774 -0.012406312805318218 -2.1129551388956234 -0.047512411087522091 -2.1388381437337562 -0.083953304496078768 -2.1640896035840318 -0.12173651503949121 -2.1888209185618961 -0.16088163145359433 -2.2131414303211918 -0.20142078940102748 -2.237188217232009 -0.24340269300745393 -2.2611561597076539 -0.28690056288361432 -2.2851011889731949 -0.33198924168294153 -2.3090619488226243 -0.37875208221099405 -2.3332019804731581 -0.42730737739703184 -2.3576422781701605 -0.47778862298744146 -2.3824666050225169 -0.53034268988894584 -2.9180161176960793 -0.71555158780601669 -2.3003178434706357 -0.61607733665813313 -1.9952333436050165 -0.57207738558840959 -1.6848487803802579 -0.51074649311069242 -1.3688063591188115 -0.43382432282691519 -1.0465400629351462 -0.34322833184947116 -0.71721567793985275 -0.24104655550625823 -0.76991372229352228 -0.26406723764293299 -0.84677760695570525 -0.29682109621515862 -0.91817184755354497 -0.32946846256426721 -0.97770418511463175 -0.35962042437969288 -1.043118047891437 -0.39376837246358304 -1.1059591876832779 -0.42897805522741728 -1.1706659227002481 -0.46709919298839597 -0.43371955075188129 -0.17648675714150661 0.35393369811569503 0.14416056418785816 1.1871810656275492 0.47452282655541828 2.0923893584159718 0.80288827708229626 3.0642627508644651 1.1003238701880753 4.1480228336747684 1.3504248260877005 4.6995700934118343 1.3427301237844256 5.2577532011597663 1.2740151005928666 5.1697368399866868 1.0245785891790062 5.0883487653045254 0.79299586021463764 5.0187989493160403 0.57673648175708303 4.9406183440127993 0.37122046202059983 4.8550517637633908 0.17651797912406675 4.7403063996700556 -0.0069547519249518342 4.6435761084855409 -0.17859885650485688 4.5434203894894383 -0.3399864615382468 4.4397720266105321 -0.491385804490309 4.3105844969733331 -0.62936293957424017 4.2039336596727299 -0.76048061735715966 4.0968218487781618 -0.8830287091943555 3.9899257960499637 -0.99754510121906392 3.8838393840682714 -1.1045958142414753 3.7557786670427951 -1.196938029608303 3.6533464518601395 -1.2894297559994827 3.5531498142417988 -1.3763254381369505 3.4555223995720863 -1.4582468382226301 3.3607423222325594 -1.5358194338473847 3.2468573875129825 -1.5983539072664692 3.1590755364949139 -1.6678750993232301 3.0746898449491806 -1.7349617985870978 2.9937916707647463 -1.8002329175078939 2.9164190240564398 -1.8642975273957185 2.8425682382080928 -1.9277593767450927 2.771763407252632 -1.9908979975944643 2.6840768264996524 -2.0387388405798301 2.6212627682820275 -2.1028552940006739 2.5615885051551728 -2.168767522691633 2.5048514889853948 -2.2370550497479869 2.4508062023390038 -2.3082950199899059 2.3991691296420941 -2.383070283539158 2.349585606888176 -2.46193994466738 2.2836978133646184 -2.5250621897420134 2.2381282878217745 -2.6128879811109882 2.1933240902550581 -2.7065505719359453 2.1487129468022941 -2.8066165320502705 2.103646525589709 -2.9136471341199597 2.0419163238219324 -3.0047008043032628 1.9950359221019138 -3.1264148595053509 1.9452942783458556 -3.2567323598135554 1.891909792789642 -3.3966233346684422 1.8331811058479759 -3.545616082664647 1.7559772043470168 -3.6781180853664699 1.6848209375542365 -3.846587252468014 1.6045289035385659 -4.0261538577278522 1.5032103315866925 -4.1874220016891579 1.4006786647138387 -4.3876951351900901 1.2827817265444157 -4.597900147890031 1.1407150181059753 -4.7876176373631196 0.98771241615245664 -5.0168481761791686 0.80760884366207475 -5.2213391423940072 0.60903549337566054 -5.4637337098098309 0.38056441260023915 -5.6736443511357901 0.1260171863330653 -5.8833754207240165 -0.020538295908727241 2.5175636184227606 -0.10419574232851307 3.3369544184926858 -0.26188586736503711 4.272825961967742 -0.51306257543866862 5.1869572332318867 -0.89249624076409739 6.1695539622683198 -1.2350625228975329 6.302737364244023 -1.3007366903735453 5.3079969345435405 -0.68995634340847589 2.47421321429406 0 0
        </DataArray>
        <DataArray type="Float32" Name="u" NumberOfComponents="1">
          0 0.007874015748031496 0.015748031496062992 0.023622047244094488 0.031496062992125984 0.03937007874015748 0.047244094488188976 0.055118110236220472 0.062992125984251968 0.070866141732283464 0.07874015748031496 0.086614173228346455 0.094488188976377951 0.10236220472440945 0.11023622047244094 0.11811023622047244 0.12598425196850394 0.13385826771653545 0.14173228346456693 0.14960629921259844 0.15748031496062992 0.16535433070866143 0.17322834645669291 0.18110236220472442 0.1889763779527559 0.19685039370078741 0.20472440944881889 0.2125984251968504 0.22047244094488189 0.2283464566929134 0.23622047244094488 0.24409448818897639 0.25196850393700787 0.25984251968503935 0.26771653543307089 0.27559055118110237 0.28346456692913385 0.29133858267716534 0.29921259842519687 0.30708661417322836 0.31496062992125984 0.32283464566929132 0.33070866141732286 0.33858267716535434 0.34645669291338582 0.3543307086614173 0.36220472440944884 0.37007874015748032 0.37795275590551181 0.38582677165354329 0.39370078740157483 0.40157480314960631 0.40944881889763779 0.41732283464566927 0.42519685039370081 0.43307086614173229 0.44094488188976377 0.44881889763779526 0.45669291338582679 0.46456692913385828 0.47244094488188976 0.48031496062992124 0.48818897637795278 0.49606299212598426 0.50393700787401574 0.51181102362204722 0.51968503937007871 0.52755905511811019 0.53543307086614178 0.54330708661417326 0.55118110236220474 0.55905511811023623 0.56692913385826771 0.57480314960629919 0.58267716535433067 0.59055118110236215 0.59842519685039375 0.60629921259842523 0.61417322834645671 0.62204724409448819 0.62992125984251968 0.63779527559055116 0.64566929133858264 0.65354330708661412 0.66141732283464572 0.6692913385826772 0.67716535433070868 0.68503937007874016 0.69291338582677164 0.70078740157480313 0.70866141732283461 0.71653543307086609 0.72440944881889768 0.73228346456692917 0.74015748031496065 0.74803149606299213 0.75590551181102361 0.76377952755905509 0.77165354330708658 0.77952755905511806 0.78740157480314965 0.79527559055118113 0.80314960629921262 0.8110236220472441 0.81889763779527558 0.82677165354330706 0.83464566929133854 0.84251968503937003 0.85039370078740162 0.8582677165354331 0.86614173228346458 0.87401574803149606 0.88188976377952755 0.88976377952755903 0.89763779527559051 0.90551181102362199 0.91338582677165359 0.92125984251968507 0.92913385826771655 0.93700787401574803 0.94488188976377951 0.952755905511811 0.96062992125984248 0.96850393700787396 0.97637795275590555 0.98425196850393704 0.99212598425196852 1
        </DataArray>
      </PointData>
      <CellData Scalars="P">
        <DataArray type="Float32" Name="P" NumberOfComponents="1">
          0.011602841477339181 0.035159272520488692 0.059590311901741674 0.085218339479762512 0.11227326913769052 0.14092229706639059 0.17128296699396975 0.20343163049829716 0.23740949334727943 0.27322850143789573 0.31087569241633795 0.35031793357070229 0.39150600946571795 0.43437865665503522 0.47886661624230747 0.52489622243565381 0.57239165224770516 0.62127903697005282 0.67148889163532099 0.72295843384470371 0.77563452369491548 0.82947646161244526 0.8844580217125434 0.94057005694662554 0.99782252840659813 1.0562456523504049 1.1158929160556113 1.1768436492563665 1.239203397785027 1.3031003745024725 1.3686995266518207 1.4361977177242686 1.5058253240493682 1.5778484153871264 1.6525707296523249 1.73033645008359 1.8115340218274232 1.8965955720049772 1.9859989788075987 2.0802740753567992 2.1800050982336927 2.2858333702639189 2.405219733289242 2.5077547723020062 2.6035472091010226 2.6908775812584791 2.7677083344039106 2.831687657425412 2.8801522686781911 2.9333102080441256 2.9931211490069183 3.0598165023545922 3.1330731977498951 3.2137068318607276 3.3018725029115705 3.3979805861401147 3.4344721524452564 3.4025573344371085 3.2942676841099137 3.0997932685317524 2.810424914063407 2.4141031449670161 1.9609711146617292 1.5129312813512481 1.0732562136532628 0.64285063059730341 0.22197431792553166 -0.18731061847533667 -0.58321353398709552 -0.96211493539906878 -1.3248619157703172 -1.6704442610995935 -1.9979700562798126 -2.3048522504395712 -2.5926334889692435 -2.8609928496100276 -3.1097490459918431 -3.3388424442769447 -3.5467580622261785 -3.7353123552418497 -3.9047141635227094 -4.0552332104741522 -4.1871872188606183 -4.2998955736546636 -4.3949084060260946 -4.4726149535676374 -4.5334114552054618 -4.5776928667691044 -4.6058461121144214 -4.6182372306685275 -4.6150023927841692 -4.5968453141401486 -4.564065872508416 -4.5169383175969502 -4.4557111032296337 -4.3806078291179391 -4.2918300220724266 -4.1901414422498435 -4.0752515185220108 -3.947310479343777 -3.8064705537385821 -3.6528965472260926 -3.4878460465513883 -3.3105704683090846 -3.1213401572390467 -2.920478860161809 -2.7084584275469217 -2.4872498620051813 -2.256232638910276 -2.0162844795904582 -1.7700609532357776 -1.5174477513586444 -1.2601774513050015 -1.0018010306914122 -0.74326839314775783 -0.48896425895454887 -0.24088382745596623 -0.0044301305649687116 0.21598295442973015 0.17146502248426598 0.11917873384313848 0.063027679049943663 0.0098476164505582643 -0.035689578730265237 -0.054583684383662893 -0.048437105474585664 -0.018370354590745906
        </DataArray>
      </CellData>
      <Points>
        <DataArray type="Float32" NumberOfComponents="3" format="ascii">
          4.2295656445860788 6.4386223959478253 0
          4.2320352961204897 6.4460990948168142 0
          4.2344898635109054 6.4535807586742582 0
          4.2369176173123213 6.4610711653786161 0
          4.2393093716548185 6.4685731435338258 0
          4.2416573155573127 6.4760889474582752 0
          4.2439545376778787 6.4836204085483518 0
          4.2461947894403869 6.4911690109731701 0
          4.2483723461756284 6.4987359370894255 0
          4.2504819195473225 6.5063220975907692 0
          4.2525185934399374 6.5139281549659227 0
          4.2544777793632367 6.5215545415553642 0
          4.2563551804227053 6.5292014753572172 0
          4.2581467628472964 6.5368689738262917 0
          4.2598487319483391 6.5445568664557152 0
          4.2614575101783938 6.5522648066141542 0
          4.2629697177547463 6.559992282433309 0
          4.2643821601062379 6.5677386259442789 0
          4.2656918124471055 6.5755030224700484 0
          4.2668958078954216 6.5832845189072433 0
          4.2679914284123948 6.5910820311732197 0
          4.2689760951560611 6.598894351394593 0
          4.2698473582212069 6.606720154712904 0
          4.2706028881501403 6.6145580053541195 0
          4.2712404663876002 6.6224063622902394 0
          4.2717579764256364 6.6302635842307547 0
          4.2721533984269167 6.6381279338201367 0
          4.2724247999989 6.6459975815817112 0
          4.2725703247144766 6.6538706091805597 0
          4.2725881860238868 6.6617450117302717 0
          4.2724766791992348 6.6696186998089129 0
          4.2722341512021229 6.6774895011055646 0
          4.2718589938248277 6.6853551605855372 0
          4.2713496376306272 6.6932133399950313 0
          4.2707045450301786 6.7010616166151422 0
          4.2699222034864563 6.7088974812353488 0
          4.2690011170006645 6.7167183350970161 0
          4.2679397940145058 6.7245214853138791 0
          4.2667367439302986 6.7323041401891182 0
          4.265390474704903 6.7400634040018073 0
          4.2638994826995615 6.7477962696234277 0
          4.2622622451698531 6.7554996101882763 0
          4.260477215066655 6.763170169930925 0
          4.2585112676744385 6.7707960925062327 0
          4.2564027276488483 6.7783835552990759 0
          4.2541705220422648 6.7859353109213005 0
          4.2518339011165267 6.7934551897282329 0
          4.2494124605907251 6.8009479921619134 0
          4.2469261769278628 6.8084193701947324 0
          4.2443954594056148 6.8158756983343487 0
          4.2418170268616464 6.8233155948974407 0
          4.2391860989291033 6.8307370741007345 0
          4.2364982333668753 6.8381381557388972 0
          4.2337497221037275 6.8455170133975232 0
          4.2309364909561875 6.8528715718469284 0
          4.228054623586071 6.8601996889282342 0
          4.2251000861417225 6.8674990406850203 0
          4.2221185450558885 6.8747877130273229 0
          4.2191588127538111 6.8820856725335764 0
          4.2162725356015365 6.8894135106551486 0
          4.2135158362790577 6.8967917235864453 0
          4.2109489962905515 6.9042389230039865 0
          4.208639276823062 6.9117708253606258 0
          4.2066209691946188 6.9193871429397706 0
          4.2049291321633957 6.9270822526668479 0
          4.203558262869957 6.9348406701069134 0
          4.2025032720302633 6.9426480240914579 0
          4.2017598075163676 6.9504908992075256 0
          4.2013229842266719 6.9583565494337583 0
          4.2011874614120401 6.9662329020717326 0
          4.2013460903515147 6.9741085817729935 0
          4.2017928429158955 6.9819729502327172 0
          4.2025214810508027 6.9898160068245456 0
          4.2035255525178972 6.9976283715935264 0
          4.2047970228357094 7.0054014968246259 0
          4.2063292581775187 7.0131272622077523 0
          4.2081155982734613 7.0207980793909845 0
          4.2101493982514651 7.0284068584325059 0
          4.2124240653334635 7.0359469725342851 0
          4.2149316451537349 7.0434127061625276 0
          4.2176657749300812 7.0507983354217689 0
          4.2206202319994484 7.0580984832550335 0
          4.2237889543768139 7.0653080808089621 0
          4.2271660578754746 7.0724223285851044 0
          4.2307444742049931 7.0794373585656505 0
          4.2345187552885166 7.0863488698434178 0
          4.2384836645426738 7.0931527120435982 0
          4.2426341824436475 7.0998448469303961 0
          4.246965508792357 7.1064213106313892 0
          4.2514730624026358 7.1128781761984783 0
          4.2561524515059386 7.1192115362680557 0
          4.2609982376600861 7.1254184311593338 0
          4.2660065255332729 7.1314948920812293 0
          4.2711736148464974 7.1374368384699824 0
          4.2764959877619715 7.1432400420705182 0
          4.2819702936126047 7.1489000911667384 0
          4.2875933312805055 7.1544123544591551 0
          4.2933620271681727 7.1597719464150975 0
          4.2992722966522292 7.1649749572947439 0
          4.3053213153452958 7.1700159456219348 0
          4.3115063064148949 7.1748891076991992 0
          4.3178245050766337 7.1795882424953943 0
          4.3242731183743057 7.184106716861419 0
          4.3308483200283607 7.1884388878271368 0
          4.3375472047085868 7.192577211329878 0
          4.344366689684632 7.1965136096198057 0
          4.3513034663529657 7.2002394111323014 0
          4.3583538947315938 7.2037453797439923 0
          4.3655131892363395 7.2070233014934164 0
          4.3727769393059308 7.2100627322879669 0
          4.3801401678862639 7.2128525397813057 0
          4.387596594161046 7.2153827259284018 0
          4.3951398620696907 7.2176408742091631 0
          4.402762662791452 7.2196139521533311 0
          4.4104561888909828 7.2212901973721229 0
          4.4182109547791422 7.2226553975219687 0
          4.4260157945384293 7.2236968740046947 0
          4.4338583969400167 7.2243995980789446 0
          4.4417245970613344 7.2247505549369313 0
          4.4495986131575869 7.2247367408289298 0
          4.4574714161963165 7.224879018159986 0
          4.4653378836547661 7.2252281980820614 0
          4.473188321908121 7.2258423269001932 0
          4.4810072594485195 7.2267781248840874 0
          4.4887712937060957 7.2280965923852012 0
          4.4964585378811792 7.2298058986121738 0
          4.5040649272626281 7.2318443276243158 0
          4.5116283068768848 7.2340361210569384 0
        </DataArray>
      </Points>
      <Cells>
        <DataArray type="Int32" Name="connectivity" format="ascii">
          0 1 1 2 2 3 3 4 4 5 5 6 6 7 7 8 8 9 9 10 10 11 11 12 12 13 13 14 14 15 15 16 16 17 17 18 18 19 19 20 20 21 21 22 22 23 23 24 24 25 25 26 26 27 27 28 28 29 29 30 30 31 31 32 32 33 33 34 34 35 35 36 36 37 37 38 38 39 39 40 40 41 41 42 42 43 43 44 44 45 45 46 46 47 47 48 48 49 49 50 50 51 51 52 52 53 53 54 54 55 55 56 56 57 57 58 58 59 59 60 60 61 61 62 62 63 63 64 64 65 65 66 66 67 67 68 68 69 69 70 70 71 71 72 72 73 73 74 74 75 75 76 76 77 77 78 78 79 79 80 80 81 81 82 82 83 83 84 84 85 85 86 86 87 87 88 88 89 89 90 90 91 91 92 92 93 93 94 94 95 95 96 96 97 97 98 98 99 99 100 100 101 101 102 102 103 103 104 104 105 105 106 106 107 107 108 108 109 109 110 110 111 111 112 112 113 113 114 114 115 115 116 116 117 117 118 118 119 119 120 120 121 121 122 122 123 123 124 124 125 125 126 126 127 
        </DataArray>
        <DataArray type="Int32" Name="offsets" format="ascii">
          2 4 6 8 10 12 14 16 18 20 22 24 26 28 30 32 34 36 38 40 42 44 46 48 50 52 54 56 58 60 62 64 66 68 70 72 74 76 78 80 82 84 86 88 90 92 94 96 98 100 102 104 106 108 110 112 114 116 118 120 122 124 126 128 130 132 134 136 138 140 142 144 146 148 150 152 154 156 158 160 162 164 166 168 170 172 174 176 178 180 182 184 186 188 190 192 194 196 198 200 202 204 206 208 210 212 214 216 218 220 222 224 226 228 230 232 234 236 238 240 242 244 246 248 250 252 254 
        </DataArray>
        <DataArray type="Int32" Name="types" format="ascii">
          3 3 3 3 3 3 3 3 3 3 3 3 3 3 3 3 3 3 3 3 3 3 3 3 3 3 3 3 3 3 3 3 3 3 3 3 3 3 3 3 3 3 3 3 3 3 3 3 3 3 3 3 3 3 3 3 3 3 3 3 3 3 3 3 3 3 3 3 3 3 3 3 3 3 3 3 3 3 3 3 3 3 3 3 3 3 3 3 3 3 3 3 3 3 3 3 3 3 3 3 3 3 3 3 3 3 3 3 3 3 3 3 3 3 3 3 3 3 3 3 3 3 3 3 3 3 3         </DataArray>
      </Cells>
    </Piece>
  </UnstructuredGrid>
</VTKFile>
