<?xml version="1.0"?>
<VTKFile type="UnstructuredGrid" version="0.1" byte_order="LittleEndian">
  <UnstructuredGrid>
    <Piece NumberOfPoints="128" NumberOfCells="127">
      <PointData Scalars="W">
        <DataArray type="Float32" Name="W" NumberOfComponents="2">
          0 0 0.10483442971904394 -0.22085803081764971 0.15877817144994072 -0.3366102515118562 0.20457200946687615 -0.43750493324407547 0.24555521840989616 -0.53096022292678691 0.28300141572854465 -0.62002625888323115 0.31759300326369716 -0.7065079672101644 0.34971896400577812 -0.79160338852682455 0.37959085437654327 -0.87615321910720745 0.40726295916637717 -0.96067445353618597 0.43272982516410013 -1.0455734991990633 0.45592567521598576 -1.1311407288225546 0.47673655027952339 -1.2175720823286453 0.49499117110762708 -1.3049339278698795 0.51048254603207044 -1.3932005277924147 0.52299279464659953 -1.4823062501969446 0.53232111881674238 -1.5722199095844978 0.53823915801124189 -1.6628132680067103 0.54052051558354486 -1.7539301603419188 0.53895882038385523 -1.8454394876870241 0.53334013256023627 -1.9371402767610448 0.52345496447804052 -2.0287808592371666 0.50911642106610377 -2.1201123510355866 0.4901596174150526 -2.2108851774995926 0.4664272879396823 -2.3007729236773065 0.4378061478449618 -2.3895291540085157 0.40419148299368718 -2.4768163658045945 0.36549774158885179 -2.5622020057052155 0.32168740650592698 -2.6453059547688662 0.27279306047017321 -2.7261135669631007 0.218797335752144 -2.8039027955929594 0.15977398903241893 -2.8782977473522053 0.095834945326664367 -2.9488923809747249 0.02713522553451822 -3.0153045977703337 -0.046128159495158194 -3.077132625433348 -0.12371463042749421 -3.1340051215035452 -0.20533415215410789 -3.1854670427975482 -0.29065823365334675 -3.2312300201495932 -0.37932396097096632 -3.2710223155512632 -0.47091108217829725 -3.3044376731055047 -0.56495799505592004 -3.3311558854556464 -0.66096480296808413 -3.3509079632219598 1.0913482859558632 5.8377857907082218 0.88698428310969168 6.5015193672320226 0.5478725653764418 6.502508225604231 0.21287432123269398 6.4864317714582063 -0.1172512192895723 6.4538273016617573 -0.44174571733298901 6.4047367263306922 -0.75985067533499784 6.3397901689550826 -1.0707660567732868 6.2591219743337065 -1.3737619220279509 6.1634712519219788 -1.6680232565919904 6.0530754841643937 -1.952880317761597 5.9287937386442193 -2.2275351085955371 5.7909796125486572 -2.4912045594402388 5.6401681210142653 -2.069417878074518 4.1915082857146313 -2.1790295562713986 4.0358001265348635 -2.3029698657856126 3.9211692252818762 -2.3621941991294029 3.715658808604009 -2.4013029508047121 3.5072638288967215 -2.381965831986927 3.2467415715159702 -2.3742893123862912 3.0342249515046311 -2.3944814410381516 2.8783146349747546 -2.4031604943533451 2.7237977217888338 -2.2887726225616714 2.4545730100096157 -2.3219377098777514 2.3626069508950676 -2.2888187143854553 2.2127447784795176 -2.24514343681845 2.0663384416611592 -2.2627564928564294 1.9849247291699432 -2.2746342132192914 1.9025406075836497 -2.2113615772128945 1.7654493477989863 -2.2143449729608342 1.6890520122829813 -2.1378436742154818 1.5595288626470358 -2.1333127826556133 1.48967337275383 -2.0475873093026538 1.3698844755608548 -2.0367045662264345 1.3066259706070977 -2.0241009155948131 1.2452219334668564 -1.9227640165902868 1.1353018064627911 -1.9056042410916685 1.0808571898815729 -1.7985765304136125 0.98083845576736906 -1.7781681821927962 0.93317406410999237 -1.7572976988365077 0.88741025584676336 -1.6389264616367378 0.79715875397251901 -1.6164568005351765 0.75802790933690023 -1.5943453377470487 0.72076157502652571 -1.4701750785007008 0.64138464609554136 -1.4511690524758851 0.61159018372539675 -1.4300278605181103 0.58210717059076134 -1.3025982789047186 0.51271807843041561 -1.2832489993756344 0.4889889004997075 -1.2654954090561941 0.46675431272329648 -1.1405570439532706 0.40766117027077881 -1.1261576520840095 0.39053816346008929 -1.1143052129998408 0.37482882655964012 -0.98772638669441082 0.32269094754738947 -0.98079403218096395 0.31161070047240302 -0.98059844111572025 0.3028345501744017 -0.85836531280942763 0.25798529673160864 -0.86153613154170405 0.25231742732980111 -0.86886367601348002 0.24778716994447883 -0.75355164757857684 0.209504420727924 -0.77334656795109891 0.20982306486551969 -0.66293204732495969 0.17570506396091756 -0.68946646868209804 0.17868212847412021 -0.72577597781789305 0.18364395673815276 -0.62782267576627859 0.15519392668848719 -0.67335664673674744 0.16268659004399949 -0.58826588007189073 0.1389523727232046 -0.64887326817777857 0.14984569578020568 -0.57092100508943844 0.12888482733905005 -0.65300091030616614 0.14402973962586088 -0.58859024211680977 0.12673812509431723 -0.52924125311348302 0.11146916014817868 -0.64319026669758672 0.13230509859783363 -0.60208129924258169 0.1207122195830191 -0.57285840485547213 0.11204554877132351 -0.55275644575021377 0.10552530108023894 -0.33488777186904456 0.062698600514082117 -0.12269674580311521 0.022738907987600584 0.3153897385400341 -0.058701815208434011 1.3186475262750585 -0.25438347909018799 1.5973947622310272 -0.32760606081217242 2.5284176933246219 -0.56250461221603754 4.8408430361808685 -1.2298165966617132 7.6117602160620343 -2.3534068739129288 8.1186398811301537 -3.1070532725052522 2.745107530916953 -1.198229742123726 0 0
        </DataArray>
        <DataArray type="Float32" Name="u" NumberOfComponents="1">
          0 0.007874015748031496 0.015748031496062992 0.023622047244094488 0.031496062992125984 0.03937007874015748 0.047244094488188976 0.055118110236220472 0.062992125984251968 0.070866141732283464 0.07874015748031496 0.086614173228346455 0.094488188976377951 0.10236220472440945 0.11023622047244094 0.11811023622047244 0.12598425196850394 0.13385826771653545 0.14173228346456693 0.14960629921259844 0.15748031496062992 0.16535433070866143 0.17322834645669291 0.18110236220472442 0.1889763779527559 0.19685039370078741 0.20472440944881889 0.2125984251968504 0.22047244094488189 0.2283464566929134 0.23622047244094488 0.24409448818897639 0.25196850393700787 0.25984251968503935 0.26771653543307089 0.27559055118110237 0.28346456692913385 0.29133858267716534 0.29921259842519687 0.30708661417322836 0.31496062992125984 0.32283464566929132 0.33070866141732286 0.33858267716535434 0.34645669291338582 0.3543307086614173 0.36220472440944884 0.37007874015748032 0.37795275590551181 0.38582677165354329 0.39370078740157483 0.40157480314960631 0.40944881889763779 0.41732283464566927 0.42519685039370081 0.43307086614173229 0.44094488188976377 0.44881889763779526 0.45669291338582679 0.46456692913385828 0.47244094488188976 0.48031496062992124 0.48818897637795278 0.49606299212598426 0.50393700787401574 0.51181102362204722 0.51968503937007871 0.52755905511811019 0.53543307086614178 0.54330708661417326 0.55118110236220474 0.55905511811023623 0.56692913385826771 0.57480314960629919 0.58267716535433067 0.59055118110236215 0.59842519685039375 0.60629921259842523 0.61417322834645671 0.62204724409448819 0.62992125984251968 0.63779527559055116 0.64566929133858264 0.65354330708661412 0.66141732283464572 0.6692913385826772 0.67716535433070868 0.68503937007874016 0.69291338582677164 0.70078740157480313 0.70866141732283461 0.71653543307086609 0.72440944881889768 0.73228346456692917 0.74015748031496065 0.74803149606299213 0.75590551181102361 0.76377952755905509 0.77165354330708658 0.77952755905511806 0.78740157480314965 0.79527559055118113 0.80314960629921262 0.8110236220472441 0.81889763779527558 0.82677165354330706 0.83464566929133854 0.84251968503937003 0.85039370078740162 0.8582677165354331 0.86614173228346458 0.87401574803149606 0.88188976377952755 0.88976377952755903 0.89763779527559051 0.90551181102362199 0.91338582677165359 0.92125984251968507 0.92913385826771655 0.93700787401574803 0.94488188976377951 0.952755905511811 0.96062992125984248 0.96850393700787396 0.97637795275590555 0.98425196850393704 0.99212598425196852 1
        </DataArray>
      </PointData>
      <CellData Scalars="P">
        <DataArray type="Float32" Name="P" NumberOfComponents="1">
          0.012828692712106468 0.038673725010486132 0.064957384627419484 0.091941516487727193 0.11991106311259857 0.14917362108543825 0.18005848752880912 0.2129151421096028 0.24811119021705941 0.28602857305021118 0.32706048183371539 0.37160736629139218 0.42007230904280107 0.47285471013058344 0.53034348076572624 0.59291058589542267 0.66090621204032962 0.73465046953371482 0.81442638833904391 0.90047456070408782 0.99298491723198579 1.0920888658427221 1.1978534232416114 1.3102756793575709 1.4292746412825339 1.5546897375886095 1.6862730433879567 1.8236815655170684 1.9664765561039272 2.1141378765271206 2.2660313676705899 2.4214239433266527 2.5794831195042676 2.7392800412719276 2.8997916583938363 3.0599062846354226 3.218425483982513 3.3740778683040218 3.5255271623034505 3.6713757929875057 3.8101788251588897 3.9404573687307871 3.7770934195872594 3.6183067819259191 3.4628382446516874 3.3094746464654743 3.1570423093640811 3.0044310681798829 2.8505872908915744 2.6945381271469269 2.5353833210556234 2.3723196730438216 2.2046303649239709 2.0317093984395256 1.8530646031145748 1.7203924200496659 1.5860797048006214 1.4485333969039569 1.3120067076209307 1.1772757154892639 1.0477421375237894 0.92202537243690752 0.79795142894234283 0.67611033826430234 0.56409464206284443 0.45237208189535699 0.34509425732504651 0.2428359624397663 0.14195723656422515 0.042955360538624407 -0.049781263108664667 -0.1399806993064423 -0.22320554210259227 -0.30334208541506019 -0.37608757280583544 -0.44529945944292204 -0.51076400186727811 -0.56822943578187102 -0.62170210075269894 -0.66720642019637122 -0.70859921857301666 -0.74579289821663797 -0.77508247109877637 -0.80024908413085061 -0.82127716573086984 -0.83498633000110789 -0.84488672320227232 -0.8509163655121893 -0.85054806351921441 -0.8466826869529881 -0.83938651189214353 -0.82694570083448415 -0.8115127877852949 -0.79316423297762584 -0.77098038975015448 -0.74633771722730058 -0.71929788452211818 -0.68983761797448495 -0.65835524548477831 -0.62484596163345107 -0.59025366034875471 -0.55385566517191931 -0.51726470958491433 -0.4790198829807556 -0.43889624055113624 -0.39945402846111128 -0.3580859804440012 -0.3177946462386263 -0.27529661780460862 -0.23423158801301461 -0.1904229682333132 -0.14809526600949313 -0.10734528208523401 -0.063076964394483889 -0.020138730979947096 0.021676362772492061 0.062512808573104248 0.096498039183072246 0.12423303334833578 0.14052952717502554 0.13379298142938464 0.12485945261085349 0.1039050221632913 0.056507411391375731 -0.0059985314891538993 -0.038775245871185068 -0.016665582844316511
        </DataArray>
      </CellData>
      <Points>
        <DataArray type="Float32" NumberOfComponents="3" format="ascii">
          4.3399209752591021 9.9739540023164821 0
          4.3470313677897758 9.9773374741923977 0
          4.3541482542385852 9.9807072486188755 0
          4.3612749757599829 9.9840561466746109 0
          4.3684143692364428 9.9873779112870835 0
          4.3755689739083241 9.990666747067948 0
          4.3827411101672373 9.9939171311019859 0
          4.3899329217717939 9.9971237009820548 0
          4.3971463999053961 10.00028118048939 0
          4.4043833962511636 10.003384327438589 0
          4.4116456263259067 10.006427901597558 0
          4.4189346691167204 10.009406639466642 0
          4.4262519629815733 10.012315236253738 0
          4.4335987985653942 10.015148333705415 0
          4.4409763081642364 10.017900515972464 0
          4.4483854528765958 10.020566311186599 0
          4.4558270090807133 10.023140195511074 0
          4.4633015559716744 10.025616595056009 0
          4.4708094613901066 10.027989893811707 0
          4.4783508677729555 10.030254443314169 0
          4.4859256793460442 10.032404570757311 0
          4.4935335488475143 10.034434591438496 0
          4.5011738645274235 10.036338824348332 0
          4.5088457385482288 10.038111607589181 0
          4.5165479967501021 10.039747313837916 0
          4.5242791688889481 10.041240370574409 0
          4.5320374816016491 10.042585275352929 0
          4.539820851903281 10.04377661672144 0
          4.547626881873172 10.044809101035787 0
          4.5554528563200725 10.045677576024604 0
          4.5632957447947247 10.046377031696448 0
          4.5711522005068996 10.046902645107302 0
          4.5790185648937971 10.047249803667748 0
          4.5868908745567261 10.047414130320295 0
          4.5947648708717805 10.047391507232906 0
          4.6026360122061378 10.047178100712557 0
          4.6104994888379824 10.046770384231966 0
          4.6183502409452304 10.04616516664513 0
          4.6261829789811806 10.045359610067813 0
          4.6339922061871253 10.044351246725039 0
          4.6417722446628007 10.043138004136317 0
          4.6495172640035216 10.041718224962615 0
          4.6572213123147037 10.040090683673789 0
          4.6649933271704089 10.038825050500815 0
          4.6728203654850153 10.037962548702492 0
          4.6806814028255843 10.037503243381854 0
          4.6885556697510999 10.037446141935858 0
          4.6964226988295499 10.037789227406037 0
          4.704262371581267 10.038529461100952 0
          4.7120549654394956 10.039662821680681 0
          4.7197812032697914 10.041184313485273 0
          4.7274222985542647 10.043088012352113 0
          4.7349600058364452 10.04536708031106 0
          4.7423766621744825 10.048013818813111 0
          4.7496552365356415 10.051019690595584 0
          4.7567793782740679 10.054375352780772 0
          4.7637752029062721 10.057990954963408 0
          4.7706359121619952 10.061856842797461 0
          4.7773538203250325 10.065965910010133 0
          4.7839252518879691 10.070305412524428 0
          4.7903477785408022 10.074862426718747 0
          4.7966225946440559 10.079620794285546 0
          4.8027501729046636 10.084567334300299 0
          4.8087292595116145 10.08969237722682 0
          4.8145593145704764 10.094986339581281 0
          4.820247426364098 10.10043252006076 0
          4.825791538461834 10.106025215085898 0
          4.8311937030462309 10.111755128453783 0
          4.8364566270109819 10.117613177960015 0
          4.8415792185149078 10.123594313992106 0
          4.8465607412700331 10.129693426592512 0
          4.8514051175885973 10.135902010733028 0
          4.8561121628647648 10.142215327483608 0
          4.8606866199457039 10.148625340852762 0
          4.8651287703700881 10.155127717437653 0
          4.8694439292663789 10.161715024809109 0
          4.8736327722459629 10.168383338599023 0
          4.8776960816621289 10.175128849434021 0
          4.8816401409797638 10.181944736801039 0
          4.8854660152876734 10.188827622984496 0
          4.889180341206818 10.195771301727516 0
          4.8927843854591586 10.202772815982428 0
          4.8962794434548114 10.209829326655374 0
          4.8996728554240043 10.216935233617743 0
          4.9029660161043109 10.224088109486912 0
          4.9061602980467507 10.231285642661609 0
          4.9092634012461467 10.238522908211257 0
          4.9122765058451909 10.245798058504642 0
          4.9152009243633357 10.25310926537472 0
          4.9180445589985595 10.260452224413719 0
          4.9208086112444018 10.26782546500127 0
          4.9234941836528527 10.275227609473815 0
          4.9261090240270127 10.282654993415155 0
          4.9286540269936845 10.290106557035028 0
          4.9311299292502131 10.297581328535307 0
          4.933544580324174 10.305076076534627 0
          4.9358984118887559 10.312590117344453 0
          4.9381914379159921 10.320122910541173 0
          4.9404312385389071 10.327671678765043 0
          4.9426176190257314 10.335236075495066 0
          4.9447501268884944 10.342815825152696 0
          4.9468359132476527 10.350408559870319 0
          4.9488737526518509 10.358014306022177 0
          4.9508704927266489 10.36563095581468 0
          4.9528244901814222 10.373258701830007 0
          4.9547334955496058 10.380897860105124 0
          4.9566035840577749 10.388546676956134 0
          4.9584319342401368 10.396205626791019 0
          4.9602238240331227 10.403873250369292 0
          4.9619754972024763 10.411550234409876 0
          4.9636917892904089 10.419235293886626 0
          4.9653676122922388 10.426929380560212 0
          4.9670069622046755 10.434631439221794 0
          4.9686135214677378 10.442340541747647 0
          4.9701802250781615 10.450057995492847 0
          4.9717096242287582 10.457783102850822 0
          4.973203533158908 10.465515349430849 0
          4.9746632005834428 10.473254355947313 0
          4.9761021436572541 10.480997502466991 0
          4.9775335300320869 10.488742351292437 0
          4.9789845464983866 10.496483908318769 0
          4.9805174593624493 10.504210131667048 0
          4.9821495951276589 10.511916548721469 0
          4.9839387833647297 10.519588705327658 0
          4.9860286731605248 10.527185424487778 0
          4.9885915456944261 10.534637266047923 0
          4.9916584814978799 10.541895970523315 0
          4.9948956102532565 10.549079702780983 0
        </DataArray>
      </Points>
      <Cells>
        <DataArray type="Int32" Name="connectivity" format="ascii">
          0 1 1 2 2 3 3 4 4 5 5 6 6 7 7 8 8 9 9 10 10 11 11 12 12 13 13 14 14 15 15 16 16 17 17 18 18 19 19 20 20 21 21 22 22 23 23 24 24 25 25 26 26 27 27 28 28 29 29 30 30 31 31 32 32 33 33 34 34 35 35 36 36 37 37 38 38 39 39 40 40 41 41 42 42 43 43 44 44 45 45 46 46 47 47 48 48 49 49 50 50 51 51 52 52 53 53 54 54 55 55 56 56 57 57 58 58 59 59 60 60 61 61 62 62 63 63 64 64 65 65 66 66 67 67 68 68 69 69 70 70 71 71 72 72 73 73 74 74 75 75 76 76 77 77 78 78 79 79 80 80 81 81 82 82 83 83 84 84 85 85 86 86 87 87 88 88 89 89 90 90 91 91 92 92 93 93 94 94 95 95 96 96 97 97 98 98 99 99 100 100 101 101 102 102 103 103 104 104 105 105 106 106 107 107 108 108 109 109 110 110 111 111 112 112 113 113 114 114 115 115 116 116 117 117 118 118 119 119 120 120 121 121 122 122 123 123 124 124 125 125 126 126 127 
        </DataArray>
        <DataArray type="Int32" Name="offsets" format="ascii">
          2 4 6 8 10 12 14 16 18 20 22 24 26 28 30 32 34 36 38 40 42 44 46 48 50 52 54 56 58 60 62 64 66 68 70 72 74 76 78 80 82 84 86 88 90 92 94 96 98 100 102 104 106 108 110 112 114 116 118 120 122 124 126 128 130 132 134 136 138 140 142 144 146 148 150 152 154 156 158 160 162 164 166 168 170 172 174 176 178 180 182 184 186 188 190 192 194 196 198 200 202 204 206 208 210 212 214 216 218 220 222 224 226 228 230 232 234 236 238 240 242 244 246 248 250 252 254 
        </DataArray>
        <DataArray type="Int32" Name="types" format="ascii">
          3 3 3 3 3 3 3 3 3 3 3 3 3 3 3 3 3 3 3 3 3 3 3 3 3 3 3 3 3 3 3 3 3 3 3 3 3 3 3 3 3 3 3 3 3 3 3 3 3 3 3 3 3 3 3 3 3 3 3 3 3 3 3 3 3 3 3 3 3 3 3 3 3 3 3 3 3 3 3 3 3 3 3 3 3 3 3 3 3 3 3 3 3 3 3 3 3 3 3 3 3 3 3 3 3 3 3 3 3 3 3 3 3 3 3 3 3 3 3 3 3 3 3 3 3 3 3         </DataArray>
      </Cells>
    </Piece>
  </UnstructuredGrid>
</VTKFile>
