<?xml version="1.0"?>
<VTKFile type="UnstructuredGrid" version="0.1" byte_order="LittleEndian">
  <UnstructuredGrid>
    <Piece NumberOfPoints="128" NumberOfCells="127">
      <PointData Scalars="W">
        <DataArray type="Float32" Name="W" NumberOfComponents="2">
          0 0 -0.61637762491286374 -0.37574258712792036 -0.9688192801214961 -0.60037667706038078 -1.2204362251343905 -0.77360721238490415 -1.4141661194936048 -0.92105893976946396 -1.5677862660030906 -1.0528533164341314 -1.6906361442319511 -1.1738876706977215 -1.7884436859740604 -1.2868146567278322 -1.8650715682446146 -1.3931246895788043 -1.9233675576800076 -1.4936845844453492 -1.9654858367029224 -1.5889318162208725 -1.99318490425845 -1.6790723362569957 -2.0079523872280709 -1.7641644490391979 -2.0110827400723834 -1.8441723304124495 -2.0037370919356858 -1.9190108501414997 -1.9869705090825649 -1.9885658136471422 -1.9616935647737588 -2.0526462790934494 -1.9288143854763191 -2.1111206034361913 -1.8891678581370608 -2.163847788595255 -1.8435187988911588 -2.2106731608909316 -1.7926043501750468 -2.2514726250241321 -1.7371475107707761 -2.2861732292113244 -1.6778312879141604 -2.3147240579205901 -1.6153014092976998 -2.3370979581252356 -1.5501872052042913 -2.3533220933742269 -1.4830456995181327 -2.3633938616694281 -1.4144407375982671 -2.3673976798455008 -1.3449322244765962 -2.3655040862274621 -1.2749980260428861 -2.357838351749987 -1.2049398370835855 -2.3442666403750643 -1.1353579569590595 -2.3253023401376547 -1.0666296167472054 -2.3011593098796546 -0.99910020879717232 -2.2720800987346133 -0.93307620491630638 -2.2383186959114787 -0.86883171474386733 -2.2001519811994927 -0.80660456236700739 -2.1578676276638769 -0.74663704585846713 -2.1118771624553436 -0.6890802888593629 -2.0624557687024159 -0.63405059614353088 -2.0098640694820897 -0.5816794058992909 -1.9545081028728488 -0.53205379828306298 -1.8967675396051709 -0.48522280478934238 -1.836997493502174 2.1587515447843182 7.4686436182116749 2.6341004502961187 7.3797413298579952 3.1114567271105584 7.2618006898640779 3.5896958988819758 7.1144178887276253 4.067340091477913 6.936462483788973 4.5349541717920037 6.7160595388692297 5.00541051507511 6.4753264170383185 5.4598038704079661 6.190094947839186 5.8911016122410791 5.8602422559628593 -7.7491262262549796 -7.8768363312167935 -6.9598306965154721 -8.4212830057315724 -6.1410828170542047 -8.8787829540180123 -0.92269809783915691 -1.4859146516918587 -0.84526854487698799 -1.4026238124229393 -0.61842025423781732 -1.0528259292771744 -0.46856531288349018 -0.81347062728170427 -0.41095493988072668 -0.72510759097363076 -0.19457982987445935 -0.34724040119637595 0.020491238081586528 0.036688468919432629 0.069775777401041406 0.12471638637162555 0.28989921645528505 0.51466753488852368 0.52323765744276718 0.91501113208041573 0.76581654228750407 1.3083161366871634 0.83256956512130431 1.38297137393141 1.1071735025539469 1.7797428474393195 1.1878036704182946 1.8394069597992782 1.2671773796494954 1.8886355022779611 1.3519909820273373 1.9376223331180036 1.4387545345692447 1.9809254182390066 1.5272831800967486 2.0183752339438281 1.6173693818695591 2.0498220656950004 1.9661070013874729 2.3799998222906726 2.072849564681543 2.3870962432347578 2.1805089491401395 2.3869425136916123 2.2842176139120678 2.3749059206220871 2.3924208847291366 2.3603640240655106 2.5004782710983053 2.3385168684427273 2.6080222019877115 2.3093966622041378 2.7146829092101705 2.273063458165582 2.8199720282511191 2.2295131859231994 2.9237562213186448 2.1790494700189464 3.025561279403802 2.1217140154627057 3.1250345795897094 2.0576709131771529 3.2218336179925435 1.9871074380582643 3.315629597322026 1.9102334651585204 3.4059738414931457 1.8272094995473038 3.492820476150678 1.738425210343935 3.5757602671168178 1.6440702260644324 3.6545261833365461 1.5444231926030718 3.7287377646145035 1.4397270955132853 3.7984270874580002 1.330390309070794 3.8632514120921204 1.2166666535311748 3.9230201729713223 1.0988759894594362 3.9774273499027513 0.97731321899940116 4.0200467850379225 0.85110427266089705 3.6695955448958157 0.65931641851780631 3.7035996437209131 0.55348507192657825 3.7328460155683443 0.44555623320114568 3.7574494570245078 0.33583382324238731 3.7771257099276121 0.22457629212756408 3.7917089786974643 0.11207766887137277 3.8010187152398864 -0.0013498002329570046 3.7979777608672234 -0.11505911913201018 4.1942481444057504 -0.25952047311921911 4.1845663842820722 -0.39830284545645689 4.1604677547529016 -0.5353402559070729 4.1359001410235345 -0.67164885984219425 4.1035371269628582 -0.80605013973275297 4.4566107862549069 -1.0361835493108358 4.4010780887663197 -1.1916387540657576 4.3284060120379877 -1.3399782256763297 4.6531594517853598 -1.6328356545611689 4.5561434126312061 -1.7997170095216291 4.8400284617611078 -2.1401460362753797 5.1275382587195306 -2.5385269039306015 4.9588586801801933 -2.7383512650106105 5.1653923942868252 -3.1720493029669341 3.8103955319739429 -2.5660929271601876 3.9581787307230214 -2.8863361746489526 3.96918241073831 -3.1399524716905427 3.5892504002469283 -3.071421636443266 3.8912879385492745 -3.6055322560388103 3.579350659671706 -3.5992842926990698 3.2790451617113332 -3.5655679266122497 3.7157792031472736 -4.3952072460985754 0 0
        </DataArray>
        <DataArray type="Float32" Name="u" NumberOfComponents="1">
          0 0.007874015748031496 0.015748031496062992 0.023622047244094488 0.031496062992125984 0.03937007874015748 0.047244094488188976 0.055118110236220472 0.062992125984251968 0.070866141732283464 0.07874015748031496 0.086614173228346455 0.094488188976377951 0.10236220472440945 0.11023622047244094 0.11811023622047244 0.12598425196850394 0.13385826771653545 0.14173228346456693 0.14960629921259844 0.15748031496062992 0.16535433070866143 0.17322834645669291 0.18110236220472442 0.1889763779527559 0.19685039370078741 0.20472440944881889 0.2125984251968504 0.22047244094488189 0.2283464566929134 0.23622047244094488 0.24409448818897639 0.25196850393700787 0.25984251968503935 0.26771653543307089 0.27559055118110237 0.28346456692913385 0.29133858267716534 0.29921259842519687 0.30708661417322836 0.31496062992125984 0.32283464566929132 0.33070866141732286 0.33858267716535434 0.34645669291338582 0.3543307086614173 0.36220472440944884 0.37007874015748032 0.37795275590551181 0.38582677165354329 0.39370078740157483 0.40157480314960631 0.40944881889763779 0.41732283464566927 0.42519685039370081 0.43307086614173229 0.44094488188976377 0.44881889763779526 0.45669291338582679 0.46456692913385828 0.47244094488188976 0.48031496062992124 0.48818897637795278 0.49606299212598426 0.50393700787401574 0.51181102362204722 0.51968503937007871 0.52755905511811019 0.53543307086614178 0.54330708661417326 0.55118110236220474 0.55905511811023623 0.56692913385826771 0.57480314960629919 0.58267716535433067 0.59055118110236215 0.59842519685039375 0.60629921259842523 0.61417322834645671 0.62204724409448819 0.62992125984251968 0.63779527559055116 0.64566929133858264 0.65354330708661412 0.66141732283464572 0.6692913385826772 0.67716535433070868 0.68503937007874016 0.69291338582677164 0.70078740157480313 0.70866141732283461 0.71653543307086609 0.72440944881889768 0.73228346456692917 0.74015748031496065 0.74803149606299213 0.75590551181102361 0.76377952755905509 0.77165354330708658 0.77952755905511806 0.78740157480314965 0.79527559055118113 0.80314960629921262 0.8110236220472441 0.81889763779527558 0.82677165354330706 0.83464566929133854 0.84251968503937003 0.85039370078740162 0.8582677165354331 0.86614173228346458 0.87401574803149606 0.88188976377952755 0.88976377952755903 0.89763779527559051 0.90551181102362199 0.91338582677165359 0.92125984251968507 0.92913385826771655 0.93700787401574803 0.94488188976377951 0.952755905511811 0.96062992125984248 0.96850393700787396 0.97637795275590555 0.98425196850393704 0.99212598425196852 1
        </DataArray>
      </PointData>
      <CellData Scalars="P">
        <DataArray type="Float32" Name="P" NumberOfComponents="1">
          -0.015978378775033716 -0.045847210952057134 -0.071678301236330635 -0.092826461842589678 -0.10920522836286919 -0.12106401549445574 -0.12887919127381306 -0.13328666691429161 -0.13503547789086684 -0.13495223477378987 -0.13391418277416497 -0.13282603763071951 -0.13260043806978242 -0.13414116597468875 -0.13832844694760904 -0.14600623079898478 -0.157971720007132 -0.17496471369714656 -0.19765933562431395 -0.22665678595924985 -0.26247893111222614 -0.30556326212078061 -0.35625914328958191 -0.41482510478427903 -0.48142756114011265 -0.5561395592629137 -0.63894199117917339 -0.72972668312861411 -0.82829788996126863 -0.93436741675589119 -1.047575614822188 -1.1674890683224539 -1.2936067839518834 -1.4253664923082083 -1.5621519684785889 -1.7033004455223457 -1.8481158657327541 -1.995870594251187 -2.1458121734162634 -2.2971787854950914 -2.4492063883721849 -2.601135542690717 -2.1991764758757806 -1.7679015012797354 -1.3038824643478972 -0.80396947560662102 -0.26538056949105354 0.31318543346863198 0.93469302454424164 1.5992059698499503 2.3057516591006886 1.1836888131134204 0.013618964558788112 -1.1797625680944102 -1.3914944800871218 -1.593792883790246 -1.7512907641715745 -1.8782136704806545 -1.9940593684409673 -2.0618264163102942 -2.0817292318630876 -2.0918493970423895 -2.0555095653301327 -1.9730149332570672 -1.8468017449337701 -1.715718964908884 -1.5432943058691186 -1.3690864725967204 -1.1947140757572712 -1.0206176781741383 -0.84779318861501607 -0.67719919341966872 -0.50975130644105782 -0.31648475100070145 -0.12934373643140143 0.050995604598758348 0.22352105941714642 0.38814841424253227 0.54443591433573146 0.6920204319291704 0.8306161965944131 0.9600056600151281 1.0800586079580488 1.1907064867661441 1.2919461595473447 1.3838355424553266 1.466488893293235 1.5400672078771329 1.604786380778144 1.6608978211553533 1.7086875758391584 1.7484678229762731 1.7805800818021351 1.8053803994149444 1.8232373079663837 1.8345249478590673 1.8395503856348052 1.8349705538203751 1.8255420070766837 1.8114221964399855 1.7927484410236347 1.769633021867375 1.7421630323381954 1.710399637913822 1.6743724595516629 1.6339522685987362 1.5888017375806536 1.539082505731757 1.4849125043345497 1.4264065658825134 1.3612852805862632 1.2916468770566327 1.2178756293197324 1.1365134849295895 1.0513650769716381 0.9586196078599436 0.85808461328612173 0.75596402870366186 0.64850990465225111 0.55825582995195011 0.46636770888260559 0.37560867376694251 0.29214182193414112 0.20914446488792995 0.1353924221462319 0.072163991348809658 0.019380442933102655
        </DataArray>
      </CellData>
      <Points>
        <DataArray type="Float32" NumberOfComponents="3" format="ascii">
          4.3718530820168304 7.449699974916979 0
          4.3677724861709555 7.4564369061578395 0
          4.3636536486642123 7.4631505323369485 0
          4.35947470477885 7.4698269175818863 0
          4.3552200458812909 7.4764553130451974 0
          4.3508776553478361 7.4830265680160286 0
          4.3464380056099445 7.4895325024100519 0
          4.3418934787241446 7.4959656032204123 0
          4.3372380110100144 7.5023188601650999 0
          4.3324668534026634 7.5085856734058414 0
          4.3275763947583297 7.5147597999336622 0
          4.322564028175071 7.5208353265739287 0
          4.3174280418453197 7.5268066573409431 0
          4.3121675266971042 7.5326685099383086 0
          4.3067822960041173 7.5384159180842945 0
          4.3012728132530365 7.5440442368806 0
          4.2956401265784212 7.5495491499677838 0
          4.289885812150894 7.554926681424158 0
          4.2840119177093356 7.5601732039681151 0
          4.2780209106310405 7.5652854477222196 0
          4.2719156303456964 7.5702605098067988 0
          4.2656992424659039 7.575095862018177 0
          4.2593751937977755 7.5797893553167404 0
          4.2529471698374026 7.5843392229313409 0
          4.2464190545872942 7.5887440819743164 0
          4.2397948913997947 7.5930029316738921 0
          4.2330788483167376 7.5971151534406216 0
          4.2262751829994025 7.6010805055272161 0
          4.2193882079177065 7.6048991123403455 0
          4.2124222606426853 7.6085714565549685 0
          4.2053816850793089 7.6120983872930887 0
          4.1982707941987316 7.6154810881674369 0
          4.191093846619542 7.6187210639024832 0
          4.1838550251786444 7.6218201251810695 0
          4.1765584179299875 7.6247803727883712 0
          4.1692080011632928 7.6276041803450214 0
          4.1618076246849416 7.6302941763809908 0
          4.1543609968322137 7.6328532187416469 0
          4.1468716751496704 7.6352843774597448 0
          4.1393430592317486 7.637590918542811 0
          4.1317783826329091 7.6397762787578678 0
          4.1241807075321866 7.6418440420641627 0
          4.1165529217593573 7.6437979175812201 0
          4.1090589352631337 7.6462148705905735 0
          4.1017282045262888 7.6490894053150811 0
          4.0945903123420937 7.6524142304951539 0
          4.0876748988853464 7.6561802344428198 0
          4.0810115709248489 7.6603764149810933 0
          4.0746293173864396 7.6649891432673201 0
          4.0685573090835598 7.670003534780701 0
          4.0628237268186949 7.6754019509001097 0
          4.0574553261531028 7.6811639911645777 0
          4.0516061151475675 7.6864376711913085 0
          4.0453249796729009 7.6911891880758283 0
          4.0386626337218621 7.6953901191994252 0
          4.0319431351432407 7.6994988199228667 0
          4.0251712805643338 7.7035204655637557 0
          4.0183611472416141 7.7074767550579963 0
          4.0115220299971188 7.7113825388486505 0
          4.0046574944158015 7.7152433046306816 0
          3.997780966305255 7.7190824893181063 0
          3.9909057895578739 7.7229239047182681 0
          3.9840350120777819 7.7267730155088952 0
          3.9771822899882898 7.7306540049949941 0
          3.9703620982535592 7.7345916996243878 0
          3.9635894833977554 7.7386104881416191 0
          3.9568685750566255 7.7427150028900522 0
          3.9502164048289639 7.7469298454806346 0
          3.9436379627037308 7.7512587176753431 0
          3.9371381612915282 7.7557046741596087 0
          3.9307222514073521 7.7602707545227103 0
          3.9243956054262874 7.7649596459061119 0
          3.9181637057868293 7.7697736725167044 0
          3.9120321320877207 7.7747147863663404 0
          3.9060225116559124 7.7798034569324637 0
          3.9001414568799704 7.785040125993679 0
          3.8943956375932158 7.7904247858814371 0
          3.8887914790978448 7.7959566923310035 0
          3.8833356860550001 7.8016349457590657 0
          3.878034954575158 7.8074581937388476 0
          3.8728959493993833 7.8134246330055372 0
          3.8679252809483433 7.8195320131885513 0
          3.8631294750198695 7.8257776365702796 0
          3.8585149645122199 7.8321583769153316 0
          3.8540880600091016 7.8386706820653274 0
          3.8498549279115122 7.8453105841175512 0
          3.845821569202112 7.8520737110378933 0
          3.8419937990642992 7.8589552996708383 0
          3.8383772190703995 7.8659502056859933 0
          3.8349772143553293 7.8730529277189696 0
          3.8317989282563372 7.8802576191097948 0
          3.8288472457735789 7.8875581051499859 0
          3.8261267699955708 7.8949478981129015 0
          3.8236418241081833 7.9024202225199698 0
          3.8213964301537406 7.9099680308234115 0
          3.8193942972225265 7.9175840231708161 0
          3.8176388024764218 7.9252606656163218 0
          3.8161325926003271 7.9329901360213224 0
          3.8148539370900609 7.9407605574780344 0
          3.8138049499461792 7.9485653714676392 0
          3.8129874506573507 7.9563978888539841 0
          3.8124029712678182 7.9642513085933917 0
          3.8120527386759289 7.97211873363349 0
          3.8119376642587079 7.9799931890129452 0
          3.8120583325591646 7.9878676410924587 0
          3.8124145622220964 7.9957350378298644 0
          3.8130309370648567 8.0035864017965359 0
          3.8139068625634636 8.0114131221369789 0
          3.8150408494840353 8.0192066950943719 0
          3.8164313787042099 8.026958660347626 0
          3.8180764465765042 8.0346606743911675 0
          3.8199979512482378 8.042298436757644 0
          3.8221924475205555 8.0498622953433525 0
          3.8246554253861431 8.0573430386918332 0
          3.827407017174326 8.0647224724403141 0
          3.8304411965495793 8.0719902344340717 0
          3.8337755525068045 8.0791251815143657 0
          3.8374278924306422 8.086102578355181 0
          3.8413877341022995 8.0929100267730458 0
          3.8456678553283528 8.0995206119055698 0
          3.8501842268950446 8.1059719568490145 0
          3.8549459865177118 8.1122441869646345 0
          3.859953791236959 8.1183215702567644 0
          3.865184066251464 8.1242083684496453 0
          3.870655513374663 8.12987146058747 0
          3.8763487831804322 8.1353112574219839 0
          3.8822452583237181 8.1405298777973005 0
          3.8883722133802028 8.1454760560647959 0
        </DataArray>
      </Points>
      <Cells>
        <DataArray type="Int32" Name="connectivity" format="ascii">
          0 1 1 2 2 3 3 4 4 5 5 6 6 7 7 8 8 9 9 10 10 11 11 12 12 13 13 14 14 15 15 16 16 17 17 18 18 19 19 20 20 21 21 22 22 23 23 24 24 25 25 26 26 27 27 28 28 29 29 30 30 31 31 32 32 33 33 34 34 35 35 36 36 37 37 38 38 39 39 40 40 41 41 42 42 43 43 44 44 45 45 46 46 47 47 48 48 49 49 50 50 51 51 52 52 53 53 54 54 55 55 56 56 57 57 58 58 59 59 60 60 61 61 62 62 63 63 64 64 65 65 66 66 67 67 68 68 69 69 70 70 71 71 72 72 73 73 74 74 75 75 76 76 77 77 78 78 79 79 80 80 81 81 82 82 83 83 84 84 85 85 86 86 87 87 88 88 89 89 90 90 91 91 92 92 93 93 94 94 95 95 96 96 97 97 98 98 99 99 100 100 101 101 102 102 103 103 104 104 105 105 106 106 107 107 108 108 109 109 110 110 111 111 112 112 113 113 114 114 115 115 116 116 117 117 118 118 119 119 120 120 121 121 122 122 123 123 124 124 125 125 126 126 127 
        </DataArray>
        <DataArray type="Int32" Name="offsets" format="ascii">
          2 4 6 8 10 12 14 16 18 20 22 24 26 28 30 32 34 36 38 40 42 44 46 48 50 52 54 56 58 60 62 64 66 68 70 72 74 76 78 80 82 84 86 88 90 92 94 96 98 100 102 104 106 108 110 112 114 116 118 120 122 124 126 128 130 132 134 136 138 140 142 144 146 148 150 152 154 156 158 160 162 164 166 168 170 172 174 176 178 180 182 184 186 188 190 192 194 196 198 200 202 204 206 208 210 212 214 216 218 220 222 224 226 228 230 232 234 236 238 240 242 244 246 248 250 252 254 
        </DataArray>
        <DataArray type="Int32" Name="types" format="ascii">
          3 3 3 3 3 3 3 3 3 3 3 3 3 3 3 3 3 3 3 3 3 3 3 3 3 3 3 3 3 3 3 3 3 3 3 3 3 3 3 3 3 3 3 3 3 3 3 3 3 3 3 3 3 3 3 3 3 3 3 3 3 3 3 3 3 3 3 3 3 3 3 3 3 3 3 3 3 3 3 3 3 3 3 3 3 3 3 3 3 3 3 3 3 3 3 3 3 3 3 3 3 3 3 3 3 3 3 3 3 3 3 3 3 3 3 3 3 3 3 3 3 3 3 3 3 3 3         </DataArray>
      </Cells>
    </Piece>
  </UnstructuredGrid>
</VTKFile>
