<?xml version="1.0"?>
<VTKFile type="UnstructuredGrid" version="0.1" byte_order="LittleEndian">
  <UnstructuredGrid>
    <Piece NumberOfPoints="128" NumberOfCells="127">
      <PointData Scalars="W">
        <DataArray type="Float32" Name="W" NumberOfComponents="2">
          0 0 0.63593570649794118 0.12210943966502648 0.95827339729707584 0.17766523136676224 1.2093445228343687 0.213383505757754 1.4221388394031318 0.23554581619036122 1.6101931574438064 0.24673253792581834 1.7807925447300477 0.24833160341403257 1.9383783442511051 0.24117937264605482 2.0858699743937494 0.22580864756735686 2.2251741958290223 0.20255608026611066 2.3576655062903598 0.17164599311356762 2.4843094839883952 0.13321954007596779 2.6057654317259002 0.087359560760756322 2.7224273991589381 0.034109662082178444 2.8344926169744955 -0.026506897881321274 2.9420372479933938 -0.094474339030446275 3.0451384458362578 -0.16978355608361786 3.1436983912817693 -0.25242271320931192 3.2375561689105194 -0.34237020049508515 3.3265439530423508 -0.43959726712108527 3.410408024499588 -0.5440570427251884 3.4888268729993341 -0.65567726136053706 3.561474995718561 -0.7743656897700345 3.628025183887555 -0.90001177891613693 3.6880589155208701 -1.0324615591483564 3.7412300144586057 -1.1715549220983139 3.7871184626732104 -1.3170874270045303 3.8252080347514901 -1.4687862814309673 3.8550465071652593 -1.6263581389453206 3.8765174202465618 -1.7896320994100561 3.8888621807296664 -1.9581299504223211 3.8916458724656038 -2.1314508569520876 3.8844254676069103 -2.3091440522520732 3.8668005560802836 -2.4907350365083016 3.8383582649933174 -2.6756921452392985 3.7987238815562012 -2.8634542991591507 3.7474736176109662 -3.0533605765284078 3.6843365333380045 -3.2448028134656148 3.6090706306618778 -3.4371502771816411 3.5213391772191889 -3.6296180871015129 3.4209030289554585 -3.8214243237806378 3.3075908721548952 -4.0117750844605 -2.8650062949075785 3.4940126679445469 -2.9312903737608869 3.3283188184988055 -2.9857581154352668 3.1626052617572218 -3.0290462639862494 2.9980118666108115 -3.0699401995022004 2.8427657265162107 -3.0929902085833052 2.6822831810002916 -3.1155225393880563 2.5321899278881368 -3.1299621601795726 2.3852225585529592 -3.1368827134106181 2.2418243952770203 -3.1368672174480405 2.102367255733407 -3.1304920382919472 1.9671499177629246 -3.118338146015696 1.8364144298500702 -3.1011920243109508 1.71045859113318 -3.0895866227891631 1.5943582334493207 -3.0428785003241772 1.4676632836368599 -3.0020076839234617 1.3519582471883087 -2.9572037381064593 1.2417740842229361 -2.9092556787135004 1.1372040032763735 -2.8583387493081269 1.038062653602162 -2.8052242887794492 0.94437896407909605 -2.749994092518127 0.85591788027118076 -2.6785764041566833 0.76858084245580405 -2.6041946843183985 0.68679180863988809 -2.5603721789910932 0.61810746562195618 -2.5003592104512227 0.54976751431518744 -2.4571583375185293 0.48911385819939895 -2.4147301659016041 0.43184450311183209 -2.3735347708872405 0.37779721914101444 -2.3158749116411164 0.32441481636201441 -2.2769774985688778 0.27672829118518033 -2.2399139009322857 0.23162961895803155 -2.2043615824009062 0.18886157247597471 -2.1707115102364192 0.14825281171100163 -2.1211661433961466 0.10883210668138239 -2.0916828528292188 0.072527972587080519 -2.0644875542143364 0.037766150389271169 -2.0396806014935946 0.0043475362084864954 -2.0176099613300473 -0.027931733134151971 -1.979053199359545 -0.058562131507276328 -1.9619721801142063 -0.088564015278276856 -1.9476214908872242 -0.1180218371960074 -1.9363389349211053 -0.14715629722649798 -1.9276529664346771 -0.17613115459313844 -1.9218841693953825 -0.20516312930860578 -1.9000546215889875 -0.2319879793628736 -1.900341944738235 -0.26117945196768022 -1.9036946243003294 -0.29105887901871053 -1.910145674034478 -0.32184639307224827 -1.9197341231851681 -0.35377181121432649 -1.9327607239106301 -0.3871303715194308 -1.9486861047490061 -0.42206291827224918 -1.9482508940661711 -0.45415691467727465 -1.9707333645440483 -0.49250610394802091 -1.9967187098494401 -0.53337015276600575 -2.0256412505594077 -0.57691122814591755 -2.0577683372702151 -0.62352453286727172 -2.0933593216454267 -0.67365422751975934 -2.1121699924429196 -0.7206035339020247 -2.1539513207995311 -0.77793515584330508 -2.1987873309159545 -0.83988194442811204 -2.2468807132424007 -0.90703181183127624 -2.2975379874859243 -0.97966251111171876 -2.3313970167771161 -1.0494073438669616 -2.3880243621126596 -1.1342539177715392 -2.4467786117284742 -1.2263451360793427 -2.488458627721124 -1.3160622544469285 -2.5518014316322106 -1.4242350547569631 -2.6167852795138211 -1.542120106244802 -2.6639382462543146 -1.6584625340104695 -2.7319221280471608 -1.7979849434718438 -2.7999395056986818 -1.9502197695426675 -2.8490200707475548 -2.1025245226107323 -2.916563835730845 -2.283684478205156 -2.9639386160766876 -2.4665454001352107 -3.0094306131639392 -2.6666194758497919 -3.0698637776455833 -2.9034467977600515 -3.1078655055248752 -3.14664022438191 -3.2079304028081395 -3.4913701974093243 1.232061707355236 1.3720155663054616 1.4568333651589842 1.5719599689333901 1.8616288486969079 1.933685188981316 2.7885541080195235 2.7497338537586469 4.0072926966333995 3.6705169390884076 5.8873830625221988 4.859945818791422 3.4690973838657024 2.5988160069516963 0 0
        </DataArray>
        <DataArray type="Float32" Name="u" NumberOfComponents="1">
          0 0.007874015748031496 0.015748031496062992 0.023622047244094488 0.031496062992125984 0.03937007874015748 0.047244094488188976 0.055118110236220472 0.062992125984251968 0.070866141732283464 0.07874015748031496 0.086614173228346455 0.094488188976377951 0.10236220472440945 0.11023622047244094 0.11811023622047244 0.12598425196850394 0.13385826771653545 0.14173228346456693 0.14960629921259844 0.15748031496062992 0.16535433070866143 0.17322834645669291 0.18110236220472442 0.1889763779527559 0.19685039370078741 0.20472440944881889 0.2125984251968504 0.22047244094488189 0.2283464566929134 0.23622047244094488 0.24409448818897639 0.25196850393700787 0.25984251968503935 0.26771653543307089 0.27559055118110237 0.28346456692913385 0.29133858267716534 0.29921259842519687 0.30708661417322836 0.31496062992125984 0.32283464566929132 0.33070866141732286 0.33858267716535434 0.34645669291338582 0.3543307086614173 0.36220472440944884 0.37007874015748032 0.37795275590551181 0.38582677165354329 0.39370078740157483 0.40157480314960631 0.40944881889763779 0.41732283464566927 0.42519685039370081 0.43307086614173229 0.44094488188976377 0.44881889763779526 0.45669291338582679 0.46456692913385828 0.47244094488188976 0.48031496062992124 0.48818897637795278 0.49606299212598426 0.50393700787401574 0.51181102362204722 0.51968503937007871 0.52755905511811019 0.53543307086614178 0.54330708661417326 0.55118110236220474 0.55905511811023623 0.56692913385826771 0.57480314960629919 0.58267716535433067 0.59055118110236215 0.59842519685039375 0.60629921259842523 0.61417322834645671 0.62204724409448819 0.62992125984251968 0.63779527559055116 0.64566929133858264 0.65354330708661412 0.66141732283464572 0.6692913385826772 0.67716535433070868 0.68503937007874016 0.69291338582677164 0.70078740157480313 0.70866141732283461 0.71653543307086609 0.72440944881889768 0.73228346456692917 0.74015748031496065 0.74803149606299213 0.75590551181102361 0.76377952755905509 0.77165354330708658 0.77952755905511806 0.78740157480314965 0.79527559055118113 0.80314960629921262 0.8110236220472441 0.81889763779527558 0.82677165354330706 0.83464566929133854 0.84251968503937003 0.85039370078740162 0.8582677165354331 0.86614173228346458 0.87401574803149606 0.88188976377952755 0.88976377952755903 0.89763779527559051 0.90551181102362199 0.91338582677165359 0.92125984251968507 0.92913385826771655 0.93700787401574803 0.94488188976377951 0.952755905511811 0.96062992125984248 0.96850393700787396 0.97637795275590555 0.98425196850393704 0.99212598425196852 1
        </DataArray>
      </PointData>
      <CellData Scalars="P">
        <DataArray type="Float32" Name="P" NumberOfComponents="1">
          -0.0078224708570590242 -0.022028138617619163 -0.033399869346801586 -0.041074778097738594 -0.044397063990659798 -0.042829966365508176 -0.035912756109431176 -0.023236342154320171 -0.0044280848923313682 0.02085625974881132 0.052939556746630125 0.092127335416906514 0.13871003922760519 0.19296324183169908 0.2551471532621829 0.32550644626938613 0.40427267614146034 0.49166097870756187 0.58786903387238276 0.69307748450927376 0.80744733433866289 0.93111730976632212 1.0642032453464885 1.2067975309707593 1.3589645276421916 1.5207427594662293 1.6921406616219232 1.8731304407051212 2.0636493076843609 2.2636161468834199 2.4728961000004843 2.6913150588519792 2.9186571241062302 3.154664974611542 3.3990368264039166 3.6514264051826917 3.9114367300653305 4.1786278587313639 4.4525167900563964 4.7325671430081826 5.0181928453411357 5.3087600471384864 5.0325813531149715 4.7484274204162258 4.4583697986627273 4.1643520825380458 3.8674008847938475 3.5699770890633782 3.2727950009391993 2.977245271261681 2.6845981688454224 2.3960042229441663 2.1124969930571087 1.8349953359284081 1.5642887280952487 1.3002118875120339 1.0459983138806901 0.80128790098815761 0.56650735530151286 0.34196765730412343 0.12791716904615788 -0.075499716977650969 -0.26818660166504649 -0.44914713072605555 -0.61839623748453099 -0.77806292578585023 -0.92728363736425312 -1.0672053904371839 -1.197991775074331 -1.3198398629579708 -1.4321176766710302 -1.5359195109992996 -1.631482221943108 -1.7190272866498117 -1.7987889795883256 -1.8704295384743492 -1.9348110665142237 -1.992157941245998 -2.0426858657674476 -2.0866049094014487 -2.1237969188059798 -2.1548119601768119 -2.179814881053125 -2.1989566223214463 -2.2123669162976696 -2.2201611797332639 -2.2224756576658486 -2.2194153571777102 -2.2110434324565547 -2.1974063524670293 -2.1785344362817329 -2.154438349092425 -2.1251228214196174 -2.0909923010514739 -2.0516615634058271 -2.0070897405489454 -1.9572427280325289 -1.9020751079008134 -1.8415300708165394 -1.776254819243307 -1.7055623623827811 -1.6294161072500963 -1.5477800301793256 -1.4606578163917756 -1.3689108983246676 -1.2717432816947094 -1.1692382087857167 -1.0624113097667562 -0.95052565293849134 -0.83378952987409072 -0.71341513076794305 -0.58878834951253023 -0.4603484077660267 -0.32954790957510655 -0.19606160529344058 -0.061545845390471379 0.073154533317436474 0.20790875364313591 0.34069237342931902 0.47323656673863185 0.4113001282083863 0.34701472572308417 0.27759851590843593 0.19475706879635163 0.10536672219981295 0.025395963142092959 0.00099813111361852667
        </DataArray>
      </CellData>
      <Points>
        <DataArray type="Float32" NumberOfComponents="3" format="ascii">
          3.8614083027508577 8.613285626479172 0
          3.8599037679892088 8.6210146601447164 0
          3.8584386620761242 8.6287512657209859 0
          3.8570329703835697 8.6364988883162557 0
          3.8557022597012565 8.6442597429298722 0
          3.8544597236401996 8.6520352039870669 0
          3.8533170219302617 8.6598259653528533 0
          3.8522847321021145 8.6676321263986473 0
          3.8513726248547058 8.6754532438644141 0
          3.8505898450613882 8.6832883648966188 0
          3.8499450299897795 8.6911360479228108 0
          3.8494463945204718 8.6989943765605346 0
          3.8491017910119929 8.7068609683690052 0
          3.8489187501760402 8.7147329799848396 0
          3.8489045055063964 8.7226071098250397 0
          3.8490660055045103 8.7304795995282696 0
          3.8494099183984436 8.7383462349325036 0
          3.8499426369230942 8.7462023466389311 0
          3.8506702722515538 8.7540428107453572 0
          3.85159864401421 8.7618620501858615 0
          3.8527332698892782 8.7696540365135398 0
          3.8540793498676451 8.7774122928070142 0
          3.8556417463144466 8.7851298981519328 0
          3.8574249637831004 8.7927994933609313 0
          3.8594331287236212 8.8004132878296613 0
          3.8616699635293936 8.8079630690854422 0
          3.8641387650697596 8.8154402127170322 0
          3.8668423786444595 8.8228356950535662 0
          3.8697831659732733 8.8301401100819223 0
          3.8729629771543332 8.837343687638942 0
          3.8763831434411693 8.8444363040120191 0
          3.8800444302062429 8.8514075115942212 0
          3.8839470099739253 8.8582465637421031 0
          3.8880904349511556 8.8649424427296193 0
          3.8924736122012189 8.8714838891737102 0
          3.8970947780455116 8.8778594350042752 0
          3.9019514748320816 8.8840574382579014 0
          3.907040524662134 8.8900661240619439 0
          3.9123580125942987 8.8958736223472119 0
          3.9178992716441092 8.9014680069596093 0
          3.9236588619103849 8.906837344328876 0
          3.9296305557530147 8.9119697419531398 0
          3.9358073271769842 8.9168533976257756 0
          3.9418064561367578 8.9219536870801299 0
          3.9476238331173601 8.9272603362361185 0
          3.9532560812940236 8.9327630698237446 0
          3.9587005170506488 8.9384516820661215 0
          3.9639546053487571 8.9443165468820371 0
          3.9690169174511079 8.9503477134754803 0
          3.9738860568311449 8.9565358753631656 0
          3.9785611287393219 8.9628719199302704 0
          3.9830417046309576 8.969346955917441 0
          3.9873277860130449 8.975952336473906 0
          3.9914197687037682 8.9826796776814675 0
          3.9953184068069341 8.9895208735608403 0
          3.9990247639456569 8.9964681145361851 0
          4.0025395602442817 9.003514202226798 0
          4.0058656920913389 9.0106512811623585 0
          4.009005693999061 9.0178721774103838 0
          4.011962344327749 9.0251700593972917 0
          4.0147386163630019 9.0325384436892193 0
          4.0173376674458279 9.0399711834973573 0
          4.0197627911463707 9.04746247047302 0
          4.0220174121885437 9.0550068201311067 0
          4.0241059588840562 9.0625988176659824 0
          4.0260330432952376 9.0702333923257878 0
          4.0278013828065671 9.0779062860599726 0
          4.0294146985626043 9.0856132621531227 0
          4.0308756693263241 9.0933505605462415 0
          4.0321869259090066 9.1011146310374684 0
          4.0333510226457641 9.1089021232207852 0
          4.0343715346252109 9.1167097279193587 0
          4.0352508736232418 9.1245344891584566 0
          4.0359913376752514 9.1323736114278891 0
          4.0365951310740433 9.1402244437306841 0
          4.0370643401304767 9.1480844689572685 0
          4.0374020366260659 9.1559512437033614 0
          4.0376100484472897 9.1638225177830694 0
          4.0376900615831985 9.1716961366371432 0
          4.0376436139039766 9.1795700289857756 0
          4.0374720735873648 9.1874421941851914 0
          4.037177830914584 9.1953107339152709 0
          4.0367619446224952 9.2031737887422231 0
          4.0362253041261091 9.2110295329537273 0
          4.03556860857468 9.2188761608708045 0
          4.0347923960874761 9.2267118766953384 0
          4.0338970238770964 9.2345348810689778 0
          4.0328838448795175 9.2423435116269381 0
          4.03175284073507 9.2501359590993868 0
          4.0305038029867042 9.257910371534825 0
          4.0291363310320367 9.2656648406484958 0
          4.0276498297022671 9.2733973875700819 0
          4.0260434906142342 9.2811059445317028 0
          4.0243163256097088 9.2887883461382739 0
          4.0224683608192882 9.2964426032118315 0
          4.0204982014256672 9.3040663384507223 0
          4.0184042353755691 9.3116570185703225 0
          4.0161846684491547 9.3192119442517214 0
          4.0138375076819885 9.3267282256294983 0
          4.0113605452832246 9.3342027547425541 0
          4.0087526137332015 9.3416326211027734 0
          4.0060111212812952 9.3490142700884853 0
          4.0031332867111553 9.3563438608403029 0
          4.0001161267719327 9.3636172297956861 0
          3.9969564991698694 9.3708298734705338 0
          3.9936523029434148 9.3779774676237615 0
          3.990200025456879 9.3850547511362379 0
          3.9865960221138703 9.3920560135740399 0
          3.9828377067211895 9.3989756920233773 0
          3.978921149966415 9.4058070786574426 0
          3.9748423206910668 9.4125428632836901 0
          3.9705982930026136 9.4191758316743943 0
          3.9661848494933443 9.4256973316463419 0
          3.9615977705702341 9.4320979225716393 0
          3.9568340104173303 9.4383681597757558 0
          3.9518893785427469 9.4444968086116319 0
          3.9467609345811039 9.450472529217647 0
          3.9414458547065965 9.4562829140976028 0
          3.9359403888425324 9.4619132758822051 0
          3.9302421772341338 9.4673485326017328 0
          3.9243450134741016 9.4725673034936317 0
          3.918524068757244 9.4778713258125382 0
          3.9127932484704826 9.4832730482923218 0
          3.9071776148899775 9.4887949740638309 0
          3.9017345958063792 9.4944878363922722 0
          3.8965397223513043 9.5004089321532756 0
          3.8917102842610336 9.5066313678814804 0
          3.8870962881617932 9.513014736251618 0
        </DataArray>
      </Points>
      <Cells>
        <DataArray type="Int32" Name="connectivity" format="ascii">
          0 1 1 2 2 3 3 4 4 5 5 6 6 7 7 8 8 9 9 10 10 11 11 12 12 13 13 14 14 15 15 16 16 17 17 18 18 19 19 20 20 21 21 22 22 23 23 24 24 25 25 26 26 27 27 28 28 29 29 30 30 31 31 32 32 33 33 34 34 35 35 36 36 37 37 38 38 39 39 40 40 41 41 42 42 43 43 44 44 45 45 46 46 47 47 48 48 49 49 50 50 51 51 52 52 53 53 54 54 55 55 56 56 57 57 58 58 59 59 60 60 61 61 62 62 63 63 64 64 65 65 66 66 67 67 68 68 69 69 70 70 71 71 72 72 73 73 74 74 75 75 76 76 77 77 78 78 79 79 80 80 81 81 82 82 83 83 84 84 85 85 86 86 87 87 88 88 89 89 90 90 91 91 92 92 93 93 94 94 95 95 96 96 97 97 98 98 99 99 100 100 101 101 102 102 103 103 104 104 105 105 106 106 107 107 108 108 109 109 110 110 111 111 112 112 113 113 114 114 115 115 116 116 117 117 118 118 119 119 120 120 121 121 122 122 123 123 124 124 125 125 126 126 127 
        </DataArray>
        <DataArray type="Int32" Name="offsets" format="ascii">
          2 4 6 8 10 12 14 16 18 20 22 24 26 28 30 32 34 36 38 40 42 44 46 48 50 52 54 56 58 60 62 64 66 68 70 72 74 76 78 80 82 84 86 88 90 92 94 96 98 100 102 104 106 108 110 112 114 116 118 120 122 124 126 128 130 132 134 136 138 140 142 144 146 148 150 152 154 156 158 160 162 164 166 168 170 172 174 176 178 180 182 184 186 188 190 192 194 196 198 200 202 204 206 208 210 212 214 216 218 220 222 224 226 228 230 232 234 236 238 240 242 244 246 248 250 252 254 
        </DataArray>
        <DataArray type="Int32" Name="types" format="ascii">
          3 3 3 3 3 3 3 3 3 3 3 3 3 3 3 3 3 3 3 3 3 3 3 3 3 3 3 3 3 3 3 3 3 3 3 3 3 3 3 3 3 3 3 3 3 3 3 3 3 3 3 3 3 3 3 3 3 3 3 3 3 3 3 3 3 3 3 3 3 3 3 3 3 3 3 3 3 3 3 3 3 3 3 3 3 3 3 3 3 3 3 3 3 3 3 3 3 3 3 3 3 3 3 3 3 3 3 3 3 3 3 3 3 3 3 3 3 3 3 3 3 3 3 3 3 3 3         </DataArray>
      </Cells>
    </Piece>
  </UnstructuredGrid>
</VTKFile>
