<?xml version="1.0"?>
<VTKFile type="UnstructuredGrid" version="0.1" byte_order="LittleEndian">
  <UnstructuredGrid>
    <Piece NumberOfPoints="128" NumberOfCells="127">
      <PointData Scalars="W">
        <DataArray type="Float32" Name="W" NumberOfComponents="2">
          0 0 -0.070557018527923177 0.028352167325830121 -0.1619716442284414 0.064900125400938466 -0.24620228932099381 0.098156219275437745 -0.32843722924955226 0.13001603860993785 -0.41069697552850581 0.16109559812186044 -0.49381013790986111 0.19152204172107834 -0.57817938548204884 0.2212412447572131 -0.66400432745484339 0.25010824805442822 -0.7514421687944064 0.27795075496186333 -0.84054374270707921 0.304546513849904 -0.93137427965794273 0.32966985707064994 -1.023982266317591 0.35308021404165446 -1.1183912668016314 0.3745201231352206 -1.2146472752915467 0.39373174084496781 -1.3127850771764877 0.41044484599159448 -1.4127387937091027 0.42435089092025191 -1.5145151236551708 0.43515918493755268 -1.6180552742841945 0.44255433071198896 -1.723249586481322 0.4462051071936593 -1.8299756939193239 0.44577806690384242 -1.9381151494156945 0.44094251540615365 -2.0475089003629448 0.43136099696735924 -2.1579694686412041 0.41669539889939133 -2.269282137601798 0.39660989864029123 -2.3811454619949517 0.37076493372500846 -2.4932749600193964 0.33884011691546223 -2.6054081253712158 0.30053254208486868 -2.7171483961211167 0.2555402369417793 -2.8277596419273467 0.20356634002969512 -2.9371550922269241 0.14440327633895497 -3.0448365019455914 0.07782822048840761 -3.1502638013869624 0.00365555561031188 -3.2528533939998701 -0.078256687435884709 -3.3519984690385547 -0.16800094209275696 -3.4470781686293153 -0.26561641507336992 -3.5375244550339637 -0.3710936333409699 -3.6225978931994001 -0.48434909962282863 -3.7015162209734682 -0.6052162737974055 -3.7736272775140676 -0.73346993452662024 -3.8382343947237145 -0.86880375129468879 -3.8946153123412999 -1.010822203954888 4.4235469056487142 1.1379957815377015 4.3355295271381973 0.95284593762611525 4.2376950302264245 0.77942622144308149 4.177459091760773 0.62409286304010814 4.0653180208263615 0.4718667289599876 3.9942445333902925 0.33493486487793711 3.8707637794103107 0.20385032661640115 3.7910426453286261 0.085024202876843452 3.7081109783625279 -0.026352209122448796 3.6224668000362614 -0.13038779323261496 3.5345541849931044 -0.22721577755034988 3.4447617744286565 -0.31698609398278588 3.3534880796427138 -0.3998667869716207 3.1611015538691896 -0.46015664740064516 3.0175146884540278 -0.51544000048552607 2.8726453374464094 -0.56069212857622175 2.6694668307380063 -0.58306185517970244 2.5217167698780258 -0.60645619525808425 2.3736164035242848 -0.62098103122237402 2.2254206719639056 -0.62704953417164044 2.0099901785652579 -0.60421578587907998 1.8603767526235515 -0.59175380925660392 1.638065090652675 -0.54729313246473565 1.4852902818467535 -0.51779673568232309 1.4106806647681591 -0.51101281168935553 1.3368036728607726 -0.50175952688007253 1.1888027275016764 -0.46069966411305591 1.1188424561046832 -0.44619846278125291 1.051514313065127 -0.43062163540194792 0.90656887198620584 -0.38012637193686222 0.84233123656435238 -0.36062107409984756 0.78074509183189833 -0.34070517813817208 0.72002746109942495 -0.31975802792395136 0.58088766587698504 -0.26187881771103461 0.52512585155039049 -0.23976771937124339 0.47022787173984937 -0.21715697229076605 0.41716422578566725 -0.19460440364564999 0.36701459772931594 -0.17273592958554487 0.23553148461344101 -0.11160884540993314 0.18851186118591678 -0.089755151522579249 0.14351446522030967 -0.068585917215651854 0.10159805616597768 -0.048687541533134329 0.060872185763441986 -0.029224119169985872 -0.062550307274028216 0.030029204338658771 -0.097639565495681091 0.046790880041077218 -0.13133565109676207 0.062777415608619019 -0.16246391843472502 0.077400853609983764 -0.18980042510753647 0.090067123809365573 -0.30358320191989996 0.14326274639174311 -0.32633372551784984 0.1529068144559399 -0.34477812722108264 0.16032477057927969 -0.36096897347787327 0.16651126081094025 -0.37356841149560022 0.17088355866960497 -0.47423862518581167 0.21483428086532719 -0.47809028749962496 0.21421399942005004 -0.47880935507221722 0.21216926983832862 -0.47365736964777927 0.20756841363245787 -0.56053569980491114 0.24267912680138845 -0.5467545588905216 0.23363790009621707 -0.52606407687865875 0.22194722341509726 -0.50063858822271601 0.20863984692632553 -0.56720175358669733 0.23335650457771245 -0.52873923709286519 0.21465596101778703 -0.48286031089504944 0.19361867249411588 -0.53139984328215839 0.21043520183216657 -0.4679651745443541 0.18302956502129861 -0.39670564692606025 0.1534901275797271 -0.42180373950613065 0.16152849509266981 -0.33022206332092396 0.12525907562301494 -0.33712621619247007 0.12679592676731985 -0.21991535485253111 0.082124450717457748 -0.20616609857550802 0.076569683676670663 -0.060171297552775206 0.022270940572846544 -0.017148985294565964 0.0063409501987942681 0.040334476027420241 -0.01491840155753742 0.11439193060701111 -0.042394342913384425 0.83038643950703261 -0.3115040602959141 1.0001324888113505 -0.38400479419618216 1.3237440526327358 -0.52323634832556698 1.5345870234762602 -0.62821509546738552 1.6662867731494067 -0.70886088048399598 2.0453386508092488 -0.90890161514601753 2.2146925718674146 -1.0334762321906634 2.6158973427555723 -1.2886307036262918 2.5568959787887264 -1.3329915615754084 0 0
        </DataArray>
        <DataArray type="Float32" Name="u" NumberOfComponents="1">
          0 0.007874015748031496 0.015748031496062992 0.023622047244094488 0.031496062992125984 0.03937007874015748 0.047244094488188976 0.055118110236220472 0.062992125984251968 0.070866141732283464 0.07874015748031496 0.086614173228346455 0.094488188976377951 0.10236220472440945 0.11023622047244094 0.11811023622047244 0.12598425196850394 0.13385826771653545 0.14173228346456693 0.14960629921259844 0.15748031496062992 0.16535433070866143 0.17322834645669291 0.18110236220472442 0.1889763779527559 0.19685039370078741 0.20472440944881889 0.2125984251968504 0.22047244094488189 0.2283464566929134 0.23622047244094488 0.24409448818897639 0.25196850393700787 0.25984251968503935 0.26771653543307089 0.27559055118110237 0.28346456692913385 0.29133858267716534 0.29921259842519687 0.30708661417322836 0.31496062992125984 0.32283464566929132 0.33070866141732286 0.33858267716535434 0.34645669291338582 0.3543307086614173 0.36220472440944884 0.37007874015748032 0.37795275590551181 0.38582677165354329 0.39370078740157483 0.40157480314960631 0.40944881889763779 0.41732283464566927 0.42519685039370081 0.43307086614173229 0.44094488188976377 0.44881889763779526 0.45669291338582679 0.46456692913385828 0.47244094488188976 0.48031496062992124 0.48818897637795278 0.49606299212598426 0.50393700787401574 0.51181102362204722 0.51968503937007871 0.52755905511811019 0.53543307086614178 0.54330708661417326 0.55118110236220474 0.55905511811023623 0.56692913385826771 0.57480314960629919 0.58267716535433067 0.59055118110236215 0.59842519685039375 0.60629921259842523 0.61417322834645671 0.62204724409448819 0.62992125984251968 0.63779527559055116 0.64566929133858264 0.65354330708661412 0.66141732283464572 0.6692913385826772 0.67716535433070868 0.68503937007874016 0.69291338582677164 0.70078740157480313 0.70866141732283461 0.71653543307086609 0.72440944881889768 0.73228346456692917 0.74015748031496065 0.74803149606299213 0.75590551181102361 0.76377952755905509 0.77165354330708658 0.77952755905511806 0.78740157480314965 0.79527559055118113 0.80314960629921262 0.8110236220472441 0.81889763779527558 0.82677165354330706 0.83464566929133854 0.84251968503937003 0.85039370078740162 0.8582677165354331 0.86614173228346458 0.87401574803149606 0.88188976377952755 0.88976377952755903 0.89763779527559051 0.90551181102362199 0.91338582677165359 0.92125984251968507 0.92913385826771655 0.93700787401574803 0.94488188976377951 0.952755905511811 0.96062992125984248 0.96850393700787396 0.97637795275590555 0.98425196850393704 0.99212598425196852 1
        </DataArray>
      </PointData>
      <CellData Scalars="P">
        <DataArray type="Float32" Name="P" NumberOfComponents="1">
          0.0062584670702401212 0.018817051503515876 0.031559228781775577 0.044667485000650882 0.058372079137708567 0.072952981501204994 0.088739217434802273 0.10610738348366318 0.12547932678704238 0.147319947570548 0.17213341227376858 0.20046003727471504 0.23287241467219785 0.2699708652289517 0.31237949547777338 0.36074135151826175 0.41571043483980863 0.47794793827690552 0.54811426524681206 0.6268605523169325 0.7148209668455946 0.81260549825596962 0.92079065522024439 1.0399102470776478 1.1704459205224236 1.3128141942821272 1.4673586030184342 1.6343426054965935 1.8139333537765374 2.0061712935904557 2.2110022750626017 2.4282444069701627 2.6575774146038142 2.8985323330788582 3.1504832366179509 3.4126404731970101 3.6840497717414959 3.9635760350773395 4.2498975611401297 4.5415146321813289 4.8367467656195968 5.1337330809446291 4.8262879226394846 4.5230986008709282 4.2249477265353423 3.9289953342296227 3.6393087692424335 3.3528004525773554 3.073692615895502 2.7986928319821569 2.5281853017612366 2.2625334938678838 2.002082216333362 1.7471599241900768 1.4980757945413301 1.2633470574105521 1.0392827612876372 0.82626412011643657 0.62939574870777049 0.44437964106758809 0.27148659869125741 0.11094308934013551 -0.031514001512343473 -0.1611530796592312 -0.27193552908386059 -0.36949508542288062 -0.46009621022689706 -0.54373675958096623 -0.61459486386608864 -0.67882154752265733 -0.73663665276609236 -0.78233779449907148 -0.82207534299780693 -0.85613459954954796 -0.88469114823611561 -0.9026581968995645 -0.91591051638305709 -0.92468087884437788 -0.92927733051705619 -0.93007821946459335 -0.92287215466129235 -0.91271559128456725 -0.89995434495636251 -0.88498071621683727 -0.86809215066811118 -0.84627433521376771 -0.82353610047969639 -0.80016446462262036 -0.77647343696818782 -0.75278727952247404 -0.72735205629356525 -0.7027268850305296 -0.67915282447864245 -0.65679803011664462 -0.63581478744762676 -0.61585107032084074 -0.59776615278731471 -0.58157200639292295 -0.56722756056460522 -0.5554667763466814 -0.54564067012167328 -0.53751707740089849 -0.53083539539929947 -0.52731464936252248 -0.52477835124269157 -0.52275005178915279 -0.52363370963759026 -0.52409241085074121 -0.52350075006621588 -0.52485247200171259 -0.5238741855296043 -0.52392607148274761 -0.52010200706020127 -0.51620215274817982 -0.50684146059841251 -0.49602182241054837 -0.48313958336194396 -0.46758326333244565 -0.42525469094047585 -0.37818131122314375 -0.32219440594834448 -0.26304455529668824 -0.20506775724750656 -0.14424049933198096 -0.089282198484507649 -0.04030750277772023 -0.0076559508377829965
        </DataArray>
      </CellData>
      <Points>
        <DataArray type="Float32" NumberOfComponents="3" format="ascii">
          4.1087883704033663 5.999133581809704 0
          4.1117266099241645 6.0064393426068268 0
          4.1146604707112564 6.0137468522815434 0
          4.1175842824231923 6.0210583720489304 0
          4.1204928208697362 6.0283759605212275 0
          4.1233809860715613 6.0357015906446883 0
          4.1262436768788326 6.0430371876399223 0
          4.1290757395386395 6.0503846367435443 0
          4.131871942690986 6.0577457797610288 0
          4.1346269649638048 6.0651224060143347 0
          4.1373353852012578 6.0725162416106668 0
          4.1399916792895608 6.0799289356243325 0
          4.1425902160909853 6.087362046074122 0
          4.1451252544164072 6.0948170249819853 0
          4.1475909415432177 6.10229520238848 0
          4.1499813103424446 6.1097977703476607 0
          4.1522902771007848 6.1173257661569638 0
          4.1545116455839315 6.1248800532127028 0
          4.1566391065998332 6.1324613029742236 0
          4.1586662416225613 6.1400699753974024 0
          4.1605865295699971 6.1477062983879174 0
          4.1623933543694829 6.1553702471170677 0
          4.1640800122807207 6.1630615235086648 0
          4.1656397217365893 6.1707795353068455 0
          4.1670656349468125 6.1785233751031505 0
          4.1683508511909988 6.1862917995053879 0
          4.1694884354895505 6.1940832080742876 0
          4.1704714362236306 6.2018956234485616 0
          4.1712929013935733 6.2097266725532529 0
          4.1719459031897825 6.2175735678653448 0
          4.1724235836180954 6.2254330889955662 0
          4.172719159865995 6.2333015698052527 0
          4.1728259551816418 6.2411748845769761 0
          4.1727374323474606 6.2490484364914147 0
          4.1724472298539252 6.2569171488097313 0
          4.1719491995142084 6.2647754591265876 0
          4.171237444951359 6.2726173169227151 0
          4.1703063568121452 6.2804361841352412 0
          4.1691506586093201 6.2882250403172506 0
          4.1677654552208958 6.2959763929458736 0
          4.166146273324463 6.303682291368621 0
          4.1642891045924344 6.3113343457786408 0
          4.1621904504753964 6.3189237517200434 0
          4.1603660697113725 6.3265837252190096 0
          4.158810505847625 6.3343027859798289 0
          4.157517693635139 6.3420701809207571 0
          4.1564838988908877 6.3498762790612044 0
          4.1557021691736198 6.357711641292215 0
          4.1551680982545207 6.3655677775451318 0
          4.1548740304579548 6.3734365594679634 0
          4.1548150232929322 6.381310619559569 0
          4.1549859352054161 6.3891830522130011 0
          4.1553814564565492 6.3970474069614651 0
          4.1559961366553368 6.4048976802144866 0
          4.1568244088535655 6.412728305958038 0
          4.1578606142522094 6.4205341453324305 0
          4.1590928242303278 6.4283114583181646 0
          4.1605121359406496 6.4360568161729947 0
          4.1621095668909582 6.4437674120703434 0
          4.1638725187374428 6.4514418568572829 0
          4.1657918300435339 6.459078698853582 0
          4.1678583175399195 6.4666770362864616 0
          4.1700627919392019 6.4742364916792337 0
          4.1723918945619074 6.4817584783459417 0
          4.1748363479773101 6.4892437677286052 0
          4.1773823665883398 6.4966951139982916 0
          4.1800204767968472 6.504114344779734 0
          4.1827460521069808 6.511501880816958 0
          4.185554511464245 6.5188582959265711 0
          4.1884366773284238 6.5261861347608461 0
          4.1913882115445 6.5334862965535478 0
          4.1944049391933067 6.5407597472308936 0
          4.1974778722994657 6.5480096165304236 0
          4.2006030276437105 6.5552371139942442 0
          4.2037765864501546 6.5624434746313733 0
          4.2069947838247579 6.5696299973771035 0
          4.2102489920243347 6.576800269968702 0
          4.2135357535667479 6.5839556636219116 0
          4.2168516645714744 6.5910975805348961 0
          4.2201934349404553 6.5982274193207759 0
          4.2235579553073146 6.6053465362175983 0
          4.226937073134323 6.6124587207328833 0
          4.2303278732999745 6.619565328364617 0
          4.2337275661239548 6.6266676722289262 0
          4.2371335530158269 6.6337669867193849 0
          4.2405433092571574 6.6408644793258809 0
          4.2439491826857356 6.6479638240870917 0
          4.2473489982804296 6.6550660613076502 0
          4.2507406674582766 6.6621721833364518 0
          4.2541222609062386 6.6692830981314977 0
          4.2574920844662127 6.6763995924412045 0
          4.2608430843040725 6.6835249658648568 0
          4.2641738508116989 6.6906598182616301 0
          4.2674832414175459 6.6978046116484542 0
          4.2707702533255363 6.7049597318791196 0
          4.2740341064615954 6.7121254525274168 0
          4.2772685605771743 6.7193045016932667 0
          4.2804733781437365 6.7264968440903496 0
          4.2836485159015742 6.7337023563634109 0
          4.2867942946416662 6.7409207569152745 0
          4.2899053296126946 6.7481542275911952 0
          4.2929824767739699 6.7554022123357287 0
          4.2960270205165436 6.7626639910853541 0
          4.2990405388765502 6.769938743830787 0
          4.3020189069783878 6.7772280101431868 0
          4.3049645113526687 6.7845306365617368 0
          4.3078801984783839 6.7918453250152169 0
          4.310762961269325 6.7991731271728364 0
          4.313616734997531 6.8065123510252583 0
          4.3164459403501594 6.8138611725150247 0
          4.3192490241921071 6.8212201010143421 0
          4.3220316678660948 6.8285868960478124 0
          4.3247934469168055 6.8359616653699913 0
          4.3275416327784608 6.8433416482142757 0
          4.3302770825718584 6.8507265140986728 0
          4.3330088540383178 6.8581129057905788 0
          4.335739620983035 6.8654998506127214 0
          4.3384729548839811 6.8728860463637629 0
          4.3412134561746365 6.8802698062290855 0
          4.3440055359218341 6.8876344244890193 0
          4.3468597336206143 6.8949754157869183 0
          4.3497961337355138 6.902284147724405 0
          4.3528278305309103 6.9095541191983951 0
          4.3559630136227279 6.9167803448748524 0
          4.3592252186079801 6.9239504186269309 0
          4.3626249812201721 6.9310566316997306 0
          4.3661872262186314 6.938083161544303 0
          4.3699083461854142 6.9450273080741685 0
        </DataArray>
      </Points>
      <Cells>
        <DataArray type="Int32" Name="connectivity" format="ascii">
          0 1 1 2 2 3 3 4 4 5 5 6 6 7 7 8 8 9 9 10 10 11 11 12 12 13 13 14 14 15 15 16 16 17 17 18 18 19 19 20 20 21 21 22 22 23 23 24 24 25 25 26 26 27 27 28 28 29 29 30 30 31 31 32 32 33 33 34 34 35 35 36 36 37 37 38 38 39 39 40 40 41 41 42 42 43 43 44 44 45 45 46 46 47 47 48 48 49 49 50 50 51 51 52 52 53 53 54 54 55 55 56 56 57 57 58 58 59 59 60 60 61 61 62 62 63 63 64 64 65 65 66 66 67 67 68 68 69 69 70 70 71 71 72 72 73 73 74 74 75 75 76 76 77 77 78 78 79 79 80 80 81 81 82 82 83 83 84 84 85 85 86 86 87 87 88 88 89 89 90 90 91 91 92 92 93 93 94 94 95 95 96 96 97 97 98 98 99 99 100 100 101 101 102 102 103 103 104 104 105 105 106 106 107 107 108 108 109 109 110 110 111 111 112 112 113 113 114 114 115 115 116 116 117 117 118 118 119 119 120 120 121 121 122 122 123 123 124 124 125 125 126 126 127 
        </DataArray>
        <DataArray type="Int32" Name="offsets" format="ascii">
          2 4 6 8 10 12 14 16 18 20 22 24 26 28 30 32 34 36 38 40 42 44 46 48 50 52 54 56 58 60 62 64 66 68 70 72 74 76 78 80 82 84 86 88 90 92 94 96 98 100 102 104 106 108 110 112 114 116 118 120 122 124 126 128 130 132 134 136 138 140 142 144 146 148 150 152 154 156 158 160 162 164 166 168 170 172 174 176 178 180 182 184 186 188 190 192 194 196 198 200 202 204 206 208 210 212 214 216 218 220 222 224 226 228 230 232 234 236 238 240 242 244 246 248 250 252 254 
        </DataArray>
        <DataArray type="Int32" Name="types" format="ascii">
          3 3 3 3 3 3 3 3 3 3 3 3 3 3 3 3 3 3 3 3 3 3 3 3 3 3 3 3 3 3 3 3 3 3 3 3 3 3 3 3 3 3 3 3 3 3 3 3 3 3 3 3 3 3 3 3 3 3 3 3 3 3 3 3 3 3 3 3 3 3 3 3 3 3 3 3 3 3 3 3 3 3 3 3 3 3 3 3 3 3 3 3 3 3 3 3 3 3 3 3 3 3 3 3 3 3 3 3 3 3 3 3 3 3 3 3 3 3 3 3 3 3 3 3 3 3 3         </DataArray>
      </Cells>
    </Piece>
  </UnstructuredGrid>
</VTKFile>
