<?xml version="1.0"?>
<VTKFile type="UnstructuredGrid" version="0.1" byte_order="LittleEndian">
  <UnstructuredGrid>
    <Piece NumberOfPoints="128" NumberOfCells="127">
      <PointData Scalars="W">
        <DataArray type="Float32" Name="W" NumberOfComponents="2">
          0 0 0.16659028321303765 -0.29288054159891358 0.25395558117109579 -0.44998889859189961 0.32384696933684526 -0.58011666299879927 0.38334343358030259 -0.69605898925382126 0.43527867363325073 -0.8030947581820419 0.4811936043030251 -0.90420711081740157 0.52202358615698896 -1.0013095162149903 0.5583619940648461 -1.0957178089153552 0.59054378471321634 -1.1882887631136048 0.61878764141671705 -1.2796804649729414 0.64321294300749665 -1.3703787766273994 0.66386359681882334 -1.4607361293923038 0.68070441553201622 -1.5509491839348122 0.69365003106404044 -1.641103298422655 0.70259519710671692 -1.7312282478715109 0.70744818733136106 -1.8213764941747372 0.70808074391474429 -1.9114964426162606 0.70436201729808434 -2.0015031265654293 0.69617893926704533 -2.0913331188274045 0.68340439323422997 -2.1808516671610438 0.66591036224899736 -2.2698732729328879 0.6435876160239713 -2.3582162079815143 0.61634375308145994 -2.445699216696863 0.5840859998610739 -2.5320672128594541 0.54676111317151954 -2.6171480638450659 0.50431384166468973 -2.7006820286940276 0.45669735650027699 -2.782318108543357 0.40390457816689979 -2.861761292694585 0.34599336689620153 -2.9390841379520345 0.28294567545221705 -3.0136563410509072 0.2148286144332775 -3.0851951856377831 0.14173239809034446 -3.1533885368920149 0.063775263008635064 -3.2179483596991858 -0.018899006899226391 -3.278566333253643 -0.10611955232949069 -3.3349614367441527 -0.19768371411610733 -3.3867648195592843 -0.29336641001428598 -3.4337690006427648 -0.39292576503078347 -3.475774935966943 -0.49607996064061782 -3.5124400726623675 -0.60252118776724406 -3.5434961950039696 -0.71191824712000151 -3.5687134524086361 0.040274847403130809 0.18852053996711865 0.32558620046442976 1.5788489866338222 0.58445964188128852 3.132215368848267 0.74898214484511716 4.8726411844557846 0.6707976927654915 6.1425312483127037 0.36940522658977748 6.117989322142444 0.0743691718743279 6.0782483108758187 -0.21356017533971844 6.0238196331468661 -0.49369426848286851 5.9556443793421181 -0.76539684437348854 5.874286405437986 -1.0281336734910314 5.7807434455292332 -1.2813841557183858 5.6756157238796856 -1.5246706875077582 5.5596007188926908 -1.4200986151886947 4.452215585375269 -1.551691130359355 4.3147866817718556 -1.6861194082768296 4.2077381998159948 -1.7817589859187584 4.0295692468268465 -1.8609061323781586 3.8474333454303102 -1.9018506293094848 3.6226169869880169 -1.9435905362072505 3.4335509676318505 -1.9968958639241208 3.2881369513794301 -2.0399852998056582 3.1432537805921474 -2.006158291700527 2.9053064926659169 -2.0565060516845892 2.809075851236305 -2.0645222810068531 2.6660076442106719 -2.0633351293615729 2.5253808036190373 -2.0978210218734152 2.4379539483520514 -2.1274641589608905 2.3501995444301813 -2.1084255743349085 2.2173410780968177 -2.1296272780387921 2.1349666802234033 -2.0989889612565045 2.0083671856423368 -2.1131328195337931 1.9319096363119295 -2.0739495442551599 1.8135195821786916 -2.0822676777728977 1.7430988914293779 -2.089077396152121 1.6746607045644435 -2.0370433095753984 1.5649484382268704 -2.0397911233176131 1.502876342214351 -1.9825645750605003 1.4017974763300294 -1.9825015113526721 1.3460112696189241 -1.9822090072748613 1.2921869957525138 -1.916250572904433 1.2000207015313222 -1.9147221347521102 1.1523923228298032 -1.9137397595408365 1.1066433451642688 -1.8434267271980116 1.0245516460138948 -1.8448598736118975 0.98577089868089507 -1.8453438751675524 0.9474537399787083 -1.7730409959919284 0.87488052052536647 -1.7754439029504814 0.8420581045459099 -1.7796293893096662 0.8106358641187984 -1.7098905930361834 0.74801062736174539 -1.7174776038307333 0.72147691202412301 -1.7276914419474516 0.69613463538929998 -1.6582213414130687 0.64067517685675324 -1.6733042681857158 0.61967670253653817 -1.6941562946940723 0.60037139459082456 -1.629724742543869 0.55225232994744511 -1.6547634619434506 0.53572045890154596 -1.6839507661370299 0.51963377691439561 -1.627002388662675 0.47790064010122163 -1.6672710654065832 0.4653895268127039 -1.6157835319666807 0.42777239489620672 -1.6633867337975756 0.4167270165232545 -1.7195604852621731 0.40583464014435389 -1.6807807433059547 0.37239023306761093 -1.7466180488809988 0.36176553176163273 -1.71999766354447 0.331354806050426 -1.8001469808035497 0.32055017600880692 -1.7820609587344038 0.2910886878263419 -1.8816538975508583 0.27921951543902229 -1.8773113718608503 0.24996074961472037 -1.878748271992704 0.22170796075019733 -2.0083413215104189 0.20570290753043979 -2.0280663837412511 0.17506001523126236 -2.0592524122897404 0.14430714677859915 -2.1002225919029738 0.11258395112498722 -2.0010604756144423 0.07485292790214787 -1.9100564020633233 0.041994684810978393 -1.6594895868326871 0.013153259348275022 -1.0022592317264591 -0.002560487634497963 -0.87644513979988525 -0.0087229215566469696 -0.27847762675983412 -0.0040382549700740946 1.3438012732609224 0.013848201993054083 3.3654758108310117 -0.027736598481741342 8.1543214304680802 -0.43800239452313411 5.20902335952825 -0.55667806743409487 0 0
        </DataArray>
        <DataArray type="Float32" Name="u" NumberOfComponents="1">
          0 0.007874015748031496 0.015748031496062992 0.023622047244094488 0.031496062992125984 0.03937007874015748 0.047244094488188976 0.055118110236220472 0.062992125984251968 0.070866141732283464 0.07874015748031496 0.086614173228346455 0.094488188976377951 0.10236220472440945 0.11023622047244094 0.11811023622047244 0.12598425196850394 0.13385826771653545 0.14173228346456693 0.14960629921259844 0.15748031496062992 0.16535433070866143 0.17322834645669291 0.18110236220472442 0.1889763779527559 0.19685039370078741 0.20472440944881889 0.2125984251968504 0.22047244094488189 0.2283464566929134 0.23622047244094488 0.24409448818897639 0.25196850393700787 0.25984251968503935 0.26771653543307089 0.27559055118110237 0.28346456692913385 0.29133858267716534 0.29921259842519687 0.30708661417322836 0.31496062992125984 0.32283464566929132 0.33070866141732286 0.33858267716535434 0.34645669291338582 0.3543307086614173 0.36220472440944884 0.37007874015748032 0.37795275590551181 0.38582677165354329 0.39370078740157483 0.40157480314960631 0.40944881889763779 0.41732283464566927 0.42519685039370081 0.43307086614173229 0.44094488188976377 0.44881889763779526 0.45669291338582679 0.46456692913385828 0.47244094488188976 0.48031496062992124 0.48818897637795278 0.49606299212598426 0.50393700787401574 0.51181102362204722 0.51968503937007871 0.52755905511811019 0.53543307086614178 0.54330708661417326 0.55118110236220474 0.55905511811023623 0.56692913385826771 0.57480314960629919 0.58267716535433067 0.59055118110236215 0.59842519685039375 0.60629921259842523 0.61417322834645671 0.62204724409448819 0.62992125984251968 0.63779527559055116 0.64566929133858264 0.65354330708661412 0.66141732283464572 0.6692913385826772 0.67716535433070868 0.68503937007874016 0.69291338582677164 0.70078740157480313 0.70866141732283461 0.71653543307086609 0.72440944881889768 0.73228346456692917 0.74015748031496065 0.74803149606299213 0.75590551181102361 0.76377952755905509 0.77165354330708658 0.77952755905511806 0.78740157480314965 0.79527559055118113 0.80314960629921262 0.8110236220472441 0.81889763779527558 0.82677165354330706 0.83464566929133854 0.84251968503937003 0.85039370078740162 0.8582677165354331 0.86614173228346458 0.87401574803149606 0.88188976377952755 0.88976377952755903 0.89763779527559051 0.90551181102362199 0.91338582677165359 0.92125984251968507 0.92913385826771655 0.93700787401574803 0.94488188976377951 0.952755905511811 0.96062992125984248 0.96850393700787396 0.97637795275590555 0.98425196850393704 0.99212598425196852 1
        </DataArray>
      </PointData>
      <CellData Scalars="P">
        <DataArray type="Float32" Name="P" NumberOfComponents="1">
          0.0099382527837902999 0.030201083611370121 0.051312446041877076 0.073660959389278871 0.097614551892035648 0.12353058706968467 0.15176030068688684 0.18265067534109197 0.21654490846201696 0.25378071276817477 0.29468944844259159 0.33959438557493105 0.38880848916730859 0.44263073967888467 0.50134230160828452 0.56520331020628523 0.63445146692531762 0.70929738967501366 0.78992143786229896 0.87647222060283536 0.9690624168048968 1.0677650265292715 1.1726114889543211 1.2835899807777487 1.4006411785839483 1.5236600048240365 1.6524912789733592 1.7869251294751167 1.9266984934994094 2.0715101423313111 2.2209915816100905 2.3747215792419434 2.5322255541677166 2.6929775437270278 2.8564005723095591 3.0218693675256234 3.1887084459435071 3.3562011924483732 3.5235924611957241 3.690085109423447 3.854846131893118 4.0170114087734303 4.0138690998641113 3.9554148425634788 3.8341502159312779 3.6396273959266576 3.4144180199624983 3.1841055038552146 2.9491034587635672 2.709856013059317 2.4668197154569769 2.2204807662588011 1.9713350898707533 1.7199067267525388 1.4667435393449046 1.2644204802158814 1.0643488838033592 0.86530598101185263 0.67162812227578372 0.48411493482837048 0.30583335294299457 0.13538958131537485 -0.029219091298146788 -0.18754802216802188 -0.33345567947308075 -0.47499106418166875 -0.60891402506673553 -0.73496183896591094 -0.85605334129110511 -0.9718744074607909 -1.0793521469386909 -1.1813086797409673 -1.2747939073403347 -1.3626225541430284 -1.4420801373782159 -1.5158352138966324 -1.5838346186040904 -1.6436035390340278 -1.6977071468455747 -1.7439649139966853 -1.7847101681025908 -1.8199566732378165 -1.8478736512515574 -1.8705293814935178 -1.8879612893077071 -1.8988131262672741 -1.9047611894708885 -1.905805705128548 -1.9011169582168661 -1.8918251513154063 -1.8779660418522433 -1.8592840768701808 -1.8363107242084586 -1.8090622255437079 -1.7778703080193379 -1.7426380408337065 -1.7033281982869313 -1.660900353980554 -1.6145719692688831 -1.5642891862848824 -1.5116114343078564 -1.4550017936196187 -1.3964812402366391 -1.3340814696421894 -1.2676193416467083 -1.1997140155338148 -1.1277555311845904 -1.0545969699742259 -0.97730604380698194 -0.89917729007715197 -0.81677632212001061 -0.73381401652765965 -0.65053241274525597 -0.5631351717866514 -0.4757993061374946 -0.38873492781543623 -0.30228461867176687 -0.22141431459132208 -0.14624527913304461 -0.081329688111803855 -0.036030490291511626 0.0042196379281624809 0.031104468060234987 0.032838886622587611 0.016862223095647062 -0.022180213380529681 -0.014006352940974465
        </DataArray>
      </CellData>
      <Points>
        <DataArray type="Float32" NumberOfComponents="3" format="ascii">
          4.3134155415306834 9.9645615488393577 0
          4.3202547892987369 9.9684637262175286 0
          4.3271043641513689 9.97234774325727 0
          4.3339696819050104 9.9762038583342179 0
          4.3408550753048134 9.9800240029200555 0
          4.3477642327917776 9.9838009881681558 0
          4.3547003741356667 9.9875281775715354 0
          4.3616663459400575 9.9911993019772201 0
          4.3686646796141027 9.9948083409296249 0
          4.3756976281470248 9.9983494410724383 0
          4.3827671868640783 10.001816863015637 0
          4.3898751069758672 10.005204940523287 0
          4.3970229029723678 10.008508050380897 0
          4.4042118553388638 10.011720590536816 0
          4.4114430083689058 10.014836967902598 0
          4.4187171648667585 10.01785159305507 0
          4.4260348796180562 10.020758878385397 0
          4.4333964536992507 10.023553234842153 0
          4.440801926522524 10.026229075126661 0
          4.4482510677203981 10.028780818957992 0
          4.4557433701331384 10.031202897002958 0
          4.4632780419254017 10.033489759228827 0
          4.4708539986472875 10.03563588640278 0
          4.4784698564603254 10.037635801357949 0
          4.4861239264069868 10.039484080230512 0
          4.4938142086571906 10.041175368274684 0
          4.5015383892057512 10.0427043905348 0
          4.5092938364452833 10.044065967949493 0
          4.5170775982612836 10.045255039114229 0
          4.5248864015916137 10.046266678572813 0
          4.5327166560122309 10.047096092319716 0
          4.5405644526165299 10.047738656880652 0
          4.5484255681744727 10.048189936842803 0
          4.5562954707241818 10.048445704209396 0
          4.5641693269009886 10.048501956260452 0
          4.5720420108506108 10.048354934671664 0
          4.5799081148212881 10.048001142941031 0
          4.5877619617279546 10.047437369261347 0
          4.595597619107207 10.046660699387948 0
          4.6034089141141949 10.045668528983535 0
          4.6111894509969282 10.044458584860717 0
          4.6189326301831075 10.043028941615443 0
          4.6266316688184004 10.041378035881415 0
          4.6343331718938723 10.039738825468877 0
          4.6420549536097528 10.03819748614201 0
          4.6498132334994624 10.036850307393214 0
          4.6576184386591093 10.035805205368613 0
          4.6654652517991719 10.035141022424215 0
          4.6733349835764093 10.034856237990416 0
          4.6812093387990501 10.034948389123546 0
          4.6890704629269973 10.035414102226721 0
          4.6969009847536114 10.036249151412855 0
          4.7046840558314154 10.03744849346973 0
          4.7124033835830605 10.039006329729098 0
          4.7200432635540226 10.040916143278901 0
          4.7275886090023684 10.043170742201687 0
          4.7350458731052152 10.045701442513847 0
          4.7424068957504169 10.048499720121827 0
          4.7496633420714121 10.051558935524641 0
          4.7568092804435711 10.054868037853238 0
          4.7638398019796941 10.058415730097545 0
          4.770752365627974 10.062188067607241 0
          4.7775443822271448 10.066173323183309 0
          4.7842125467904211 10.070362477403929 0
          4.7907541878429729 10.074746543803304 0
          4.7971714008957855 10.079310762712275 0
          4.8034610658208639 10.084049165633509 0
          4.8096226860805311 10.088952878577953 0
          4.8156563358619175 10.094013178982198 0
          4.821559878641267 10.099224644594633 0
          4.8273314780532646 10.104581832910149 0
          4.8329723151621531 10.110076503324501 0
          4.8384810769904929 10.115703547089756 0
          4.8438596638694484 10.121455111830675 0
          4.8491072004197164 10.127326455830072 0
          4.85422611685508 10.133310235930088 0
          4.8592158989921233 10.139402084874257 0
          4.8640761261107839 10.145597758391435 0
          4.8688100252014195 10.151890451574307 0
          4.873417427389465 10.158276315024239 0
          4.877901881677162 10.164749079362707 0
          4.8822633934663608 10.171305285102916 0
          4.8865019823342726 10.177941594462435 0
          4.8906217386831017 10.184652290934439 0
          4.8946227587259585 10.191434421093714 0
          4.8985051047763148 10.198285148109015 0
          4.9022731372609307 10.205199380510617 0
          4.9059267687483965 10.212174713786974 0
          4.9094659706021204 10.219208772203466 0
          4.9128952266503569 10.226297054928645 0
          4.9162143892898396 10.233437527198909 0
          4.9194232003590113 10.240628241155527 0
          4.9225259847426841 10.247865313371435 0
          4.9255222733795669 10.255147099424063 0
          4.9284114343050067 10.262472028873942 0
          4.9311977757413317 10.269836663244961 0
          4.9338803638206965 10.277239701825534 0
          4.9364579069462877 10.284679949033046 0
          4.9389344009246399 10.292154422322634 0
          4.9413082945286417 10.299662098514261 0
          4.9435777792516422 10.30720198217926 0
          4.9457463868681728 10.314771487654152 0
          4.9478116217250783 10.322369841735728 0
          4.949776676947037 10.329994714729345 0
          4.9516386019800827 10.337645424874022 0
          4.9533939147556945 10.345321300058883 0
          4.9550450202580949 10.353020270450591 0
          4.9565878369938341 10.360741681146891 0
          4.9580240158040016 10.368483651312129 0
          4.9593485874361329 10.376245515514603 0
          4.9605626732165895 10.38402545275966 0
          4.9616600977895446 10.391822732218744 0
          4.9626411298125941 10.399635546470146 0
          4.9635056792966106 10.407462151202525 0
          4.9642457095434107 10.415301560250557 0
          4.9648599957072941 10.423151882163239 0
          4.965346601761123 10.431011219407143 0
          4.9657029843523164 10.438877615096475 0
          4.9659352888010204 10.44674874441384 0
          4.9660491540021177 10.45462258674451 0
          4.9660601129744197 10.462497377902988 0
          4.9660089175585655 10.470372185606776 0
          4.9659033657071774 10.478246659977749 0
          4.9657805386798799 10.486121148328776 0
          4.9657410578789465 10.493996875810268 0
          4.9659103520655412 10.501871432128828 0
          4.9665856285082794 10.509719746006382 0
          4.9675840843021426 10.517533173348102 0
        </DataArray>
      </Points>
      <Cells>
        <DataArray type="Int32" Name="connectivity" format="ascii">
          0 1 1 2 2 3 3 4 4 5 5 6 6 7 7 8 8 9 9 10 10 11 11 12 12 13 13 14 14 15 15 16 16 17 17 18 18 19 19 20 20 21 21 22 22 23 23 24 24 25 25 26 26 27 27 28 28 29 29 30 30 31 31 32 32 33 33 34 34 35 35 36 36 37 37 38 38 39 39 40 40 41 41 42 42 43 43 44 44 45 45 46 46 47 47 48 48 49 49 50 50 51 51 52 52 53 53 54 54 55 55 56 56 57 57 58 58 59 59 60 60 61 61 62 62 63 63 64 64 65 65 66 66 67 67 68 68 69 69 70 70 71 71 72 72 73 73 74 74 75 75 76 76 77 77 78 78 79 79 80 80 81 81 82 82 83 83 84 84 85 85 86 86 87 87 88 88 89 89 90 90 91 91 92 92 93 93 94 94 95 95 96 96 97 97 98 98 99 99 100 100 101 101 102 102 103 103 104 104 105 105 106 106 107 107 108 108 109 109 110 110 111 111 112 112 113 113 114 114 115 115 116 116 117 117 118 118 119 119 120 120 121 121 122 122 123 123 124 124 125 125 126 126 127 
        </DataArray>
        <DataArray type="Int32" Name="offsets" format="ascii">
          2 4 6 8 10 12 14 16 18 20 22 24 26 28 30 32 34 36 38 40 42 44 46 48 50 52 54 56 58 60 62 64 66 68 70 72 74 76 78 80 82 84 86 88 90 92 94 96 98 100 102 104 106 108 110 112 114 116 118 120 122 124 126 128 130 132 134 136 138 140 142 144 146 148 150 152 154 156 158 160 162 164 166 168 170 172 174 176 178 180 182 184 186 188 190 192 194 196 198 200 202 204 206 208 210 212 214 216 218 220 222 224 226 228 230 232 234 236 238 240 242 244 246 248 250 252 254 
        </DataArray>
        <DataArray type="Int32" Name="types" format="ascii">
          3 3 3 3 3 3 3 3 3 3 3 3 3 3 3 3 3 3 3 3 3 3 3 3 3 3 3 3 3 3 3 3 3 3 3 3 3 3 3 3 3 3 3 3 3 3 3 3 3 3 3 3 3 3 3 3 3 3 3 3 3 3 3 3 3 3 3 3 3 3 3 3 3 3 3 3 3 3 3 3 3 3 3 3 3 3 3 3 3 3 3 3 3 3 3 3 3 3 3 3 3 3 3 3 3 3 3 3 3 3 3 3 3 3 3 3 3 3 3 3 3 3 3 3 3 3 3         </DataArray>
      </Cells>
    </Piece>
  </UnstructuredGrid>
</VTKFile>
