<?xml version="1.0"?>
<VTKFile type="UnstructuredGrid" version="0.1" byte_order="LittleEndian">
  <UnstructuredGrid>
    <Piece NumberOfPoints="128" NumberOfCells="127">
      <PointData Scalars="W">
        <DataArray type="Float32" Name="W" NumberOfComponents="2">
          0 0 -0.0018461668914771757 0.0011372330961471199 -0.051824829236529646 0.031906196128581449 -0.10196571216610664 0.06267575062221141 -0.1545689033832113 0.094757406929669483 -0.21042925157265924 0.12851499413578096 -0.26969260711559162 0.16389032273872012 -0.33229872312548492 0.2006769442829702 -0.39812043341155812 0.23860744164618208 -0.46711461060169368 0.2774456956514102 -0.53919095141171636 0.31690870400510324 -0.61428287972108908 0.3567106756651453 -0.69235880761447599 0.39657014078540465 -0.77344991411741459 0.4362253274004298 -0.85763162572488327 0.47542162913680003 -0.9449852366313245 0.51388872054917589 -1.0355167944234167 0.55129756831539545 -1.1293063531864684 0.58734290709064096 -1.2264292709529865 0.6216988263319112 -1.3269113210694645 0.65399730466884498 -1.4308031757315041 0.68386765983726661 -1.538168533540138 0.7109290464112632 -1.6490281481966396 0.7347644076831612 -1.763356846155725 0.75492312174052545 -1.8811691962335351 0.77095994541423152 -2.0023641887719061 0.78237080966482564 -2.1268627226146406 0.78865515341050585 -2.2546353853334016 0.78932207957578626 -2.3855457107662041 0.78383263785780066 -2.5190528858804395 0.7715240403642083 -2.655225820197916 0.75193976213509062 -2.7937589468910011 0.72449922211598772 -2.9343056511498182 0.68862183495111506 -3.0764215169738849 0.64371938178095722 -3.2196258101739508 0.58921871023240047 -3.3633448300752629 0.52455642735988939 -3.5070227052656402 0.44920345750983254 -3.6498728790161801 0.36263708903554237 -3.7910200331727584 0.26438526859746758 -3.929682802308454 0.15404443580047028 -4.0649323425722965 0.031260890524916179 -4.1957297069780068 -0.10424630403817536 3.6581395416923215 0.098637755796772544 3.463353919928382 -0.0037672115720223699 3.2624890641193161 -0.089984613343995407 3.0566443614925349 -0.16054966939882262 2.9202190046989815 -0.22253921758986991 2.7833912998690975 -0.27534379651269825 2.571422411720544 -0.30957296493182168 2.4337567840248444 -0.34219360509463903 2.2966516547797013 -0.36714884524415581 2.1605123403727915 -0.38493710011392712 2.0256875984736724 -0.39606696341602438 1.892472788114256 -0.40105131463534377 1.8336026625962514 -0.41744856178194045 1.7030402593097449 -0.4134325541367832 1.6466575045598686 -0.42352937181684963 1.4523962831014319 -0.39316850653486862 1.2589899992526175 -0.35582392102255317 1.0663529930663425 -0.3123790099464811 0.87438246536719832 -0.26372827251739106 0.76153593548669929 -0.23529804569822177 0.57276898549584843 -0.18043163261332015 0.38520114322049337 -0.12302203590280109 0.1109436326993401 -0.035683076646303581 0.0077206089158578699 -0.0024873803881438517 -0.092120432382955461 0.029643328833427171 -0.28055292759157102 0.089802007753904456 -0.37704309093839555 0.11955903416197711 -0.47128221074808685 0.14762769836636255 -0.56205162973052913 0.17343500601254799 -0.6516088492671509 0.19750976808994775 -0.83231413281601563 0.24675135794684991 -0.91734377790836197 0.26481222611825495 -0.99981629148178897 0.28013936553589025 -1.0784308907818576 0.29231838101586921 -1.1554204539712321 0.30192669446974246 -1.229462078134264 0.30857643731938988 -1.3003976853016841 0.31223924802371178 -1.4665019649540167 0.33481594882585702 -1.5299597299459782 0.32990435572415322 -1.5909970427896563 0.32222071320192491 -1.648150495063371 0.3115572734643684 -1.7012190580190909 0.29803012529824047 -1.7499414331161112 0.28177299553674734 -1.7941054594390806 0.26295686171648658 -1.8321774024305426 0.24161423537359328 -1.8665202667166154 0.21832839136526799 -1.8956043608326947 0.19314637605889418 -1.9191968357549405 0.16633932025552273 -1.9370683454109712 0.13820196961127587 -1.9490119766650185 0.10905200034443339 -1.9547674361511902 0.079224036670529227 -1.9527638775060829 0.049051096251734067 -1.9455391900963261 0.018994612430188521 -1.9315342030017901 -0.010627336497499402 -1.9105080372751624 -0.039419621726279261 -1.8822822870109628 -0.066979161040246912 -1.8466803984664004 -0.092900221900205346 -1.8020453054880601 -0.11667164147872155 -1.7510334487821579 -0.13805455177209139 -1.6920127135350493 -0.15659166654041254 -1.6247777568814838 -0.17190117954017342 -1.5490387149310509 -0.18361150378641086 -1.4630861136438087 -0.19118049034100343 -1.3695469190153171 -0.1946603598614278 -1.2665563105262609 -0.19359872481736468 -1.152238110818619 -0.18751031573066507 -1.1317277668180179 -0.19478097179797935 -0.99729753520071163 -0.18039784661816585 -0.95563602200774 -0.18059043390087226 -0.79698545668761034 -0.15641816586291049 -0.734240337269921 -0.14879733208656798 -0.5460757635719099 -0.11359358679350021 -0.45651249690766943 -0.096885675014068515 -0.23509555386866496 -0.050578884318448855 -0.11083736764366611 -0.024007405270208216 0.029618395481488976 0.0064255005038270458 0.31697283739722815 0.068301738655003705 0.50149448269892305 0.1063343670389305 1.1788557377372628 0.24164541990294777 1.4752002688221173 0.28604374878764588 1.836429921899376 0.33086933249220213 2.3082447221954467 0.37652247630964125 2.734162979197527 0.38978464159849385 3.2479899625555704 0.38454189283918871 3.5403614912998638 0.32291549895282962 0 0
        </DataArray>
        <DataArray type="Float32" Name="u" NumberOfComponents="1">
          0 0.007874015748031496 0.015748031496062992 0.023622047244094488 0.031496062992125984 0.03937007874015748 0.047244094488188976 0.055118110236220472 0.062992125984251968 0.070866141732283464 0.07874015748031496 0.086614173228346455 0.094488188976377951 0.10236220472440945 0.11023622047244094 0.11811023622047244 0.12598425196850394 0.13385826771653545 0.14173228346456693 0.14960629921259844 0.15748031496062992 0.16535433070866143 0.17322834645669291 0.18110236220472442 0.1889763779527559 0.19685039370078741 0.20472440944881889 0.2125984251968504 0.22047244094488189 0.2283464566929134 0.23622047244094488 0.24409448818897639 0.25196850393700787 0.25984251968503935 0.26771653543307089 0.27559055118110237 0.28346456692913385 0.29133858267716534 0.29921259842519687 0.30708661417322836 0.31496062992125984 0.32283464566929132 0.33070866141732286 0.33858267716535434 0.34645669291338582 0.3543307086614173 0.36220472440944884 0.37007874015748032 0.37795275590551181 0.38582677165354329 0.39370078740157483 0.40157480314960631 0.40944881889763779 0.41732283464566927 0.42519685039370081 0.43307086614173229 0.44094488188976377 0.44881889763779526 0.45669291338582679 0.46456692913385828 0.47244094488188976 0.48031496062992124 0.48818897637795278 0.49606299212598426 0.50393700787401574 0.51181102362204722 0.51968503937007871 0.52755905511811019 0.53543307086614178 0.54330708661417326 0.55118110236220474 0.55905511811023623 0.56692913385826771 0.57480314960629919 0.58267716535433067 0.59055118110236215 0.59842519685039375 0.60629921259842523 0.61417322834645671 0.62204724409448819 0.62992125984251968 0.63779527559055116 0.64566929133858264 0.65354330708661412 0.66141732283464572 0.6692913385826772 0.67716535433070868 0.68503937007874016 0.69291338582677164 0.70078740157480313 0.70866141732283461 0.71653543307086609 0.72440944881889768 0.73228346456692917 0.74015748031496065 0.74803149606299213 0.75590551181102361 0.76377952755905509 0.77165354330708658 0.77952755905511806 0.78740157480314965 0.79527559055118113 0.80314960629921262 0.8110236220472441 0.81889763779527558 0.82677165354330706 0.83464566929133854 0.84251968503937003 0.85039370078740162 0.8582677165354331 0.86614173228346458 0.87401574803149606 0.88188976377952755 0.88976377952755903 0.89763779527559051 0.90551181102362199 0.91338582677165359 0.92125984251968507 0.92913385826771655 0.93700787401574803 0.94488188976377951 0.952755905511811 0.96062992125984248 0.96850393700787396 0.97637795275590555 0.98425196850393704 0.99212598425196852 1
        </DataArray>
      </PointData>
      <CellData Scalars="P">
        <DataArray type="Float32" Name="P" NumberOfComponents="1">
          -0.0046232758958341339 -0.013872540549843812 -0.023076264412666012 -0.032150371879398509 -0.04096809074722884 -0.049354739404729515 -0.057084735683815238 -0.063879851894343212 -0.069408501587310184 -0.073284646700811112 -0.075068549685198827 -0.074267592429224816 -0.070337293991072206 -0.062681854531040831 -0.050654834737294339 -0.033560758226995266 -0.010659674944071672 0.018832010906733799 0.055738445438418258 0.10091890761368222 0.15526466082110046 0.21969534853743011 0.29515240315142033 0.38259133551354912 0.48297816690205841 0.59727660262738969 0.72644230425225753 0.87141940257604511 1.0331263671747066 1.2124176946818666 1.4101196472688113 1.6269946357581453 1.8637285696299464 2.1209129782170417 2.3990317468194742 2.6984426135709474 3.0193685591581958 3.3618658932016565 3.7258046938503675 4.1108676491520271 4.5165258501163663 4.9420181956116735 4.5490615216202643 4.1659644650532623 3.7956311400094744 3.4407047107475424 3.0946279335617333 2.7588172897643153 2.4439766675514059 2.142092203095685 1.85411356972446 1.5808301941219784 1.3228786537513695 1.0807505771104406 0.84529926878720785 0.6263836909077698 0.41472094554135269 0.22864869839065041 0.068228937396655615 -0.066627648315792015 -0.17615850642040795 -0.27060224372291686 -0.3407605546325414 -0.38736434497392858 -0.40082651191364782 -0.40238790666487806 -0.39297748604961669 -0.36339940766804169 -0.3247452619361646 -0.27794480991648879 -0.22407181580741053 -0.1639843513570545 -0.090028100028406291 -0.012219158321678025 0.06842764624389451 0.15080713834310938 0.23401886545070139 0.31707967552626648 0.39902965391429945 0.48501899182884156 0.5675417716650466 0.6458194170020144 0.71904761525072136 0.78648153435993862 0.84743997189206888 0.90131417483174614 0.94753591750633537 0.98570085502352145 1.015449616026723 1.0365159761418614 1.0487309376691234 1.0520261989361266 1.0464363707901043 1.0321059213316406 1.0092819264217026 0.97831532173883051 0.93966204298110712 0.89388032389411465 0.8416270885297007 0.78369299427445116 0.72088616946262274 0.6541299340213117 0.58442124912036097 0.51282380076207268 0.44051602764812031 0.36860039728223526 0.29826822934986985 0.23079603595223724 0.16227705119434863 0.098834908339256455 0.036327980854102639 -0.018826833809086709 -0.071184822465892139 -0.11401655317484888 -0.15225167589553376 -0.17928127663719046 -0.20020863487478707 -0.21461287757682032 -0.21663173897202062 -0.21207004490875539 -0.18378904062954241 -0.15002311952219824 -0.11193374068627154 -0.070946501606341097 -0.033749766558775693 -0.0051226250319554691 0.0058153553115618487
        </DataArray>
      </CellData>
      <Points>
        <DataArray type="Float32" NumberOfComponents="3" format="ascii">
          3.8107250185812918 8.5547873517087982 0
          3.8148550493541697 8.5614918527440622 0
          3.8189849593776612 8.5681964141120623 0
          3.8231116463270718 8.5749029383582016 0
          3.8272319989236387 8.5816133297619182 0
          3.8313427539172475 8.588329574988153 0
          3.835440446636138 8.5950537653575925 0
          3.8395214018534656 8.6017880930756867 0
          3.8435817374644974 8.6085348383257223 0
          3.8476173723282256 8.6152963526122921 0
          3.8516240289059214 8.622075044064152 0
          3.8555972388290098 8.628873359842709 0
          3.8595323469978968 8.6356937683866413 0
          3.8634245135124488 8.6425387419312649 0
          3.8672687117111972 8.6494107402545453 0
          3.8710597234672282 8.6563121948715924 0
          3.8747921341202134 8.6632454922579178 0
          3.8784603320736215 8.6702129534355059 0
          3.8820585038030648 8.6772168150348143 0
          3.8855806291554793 8.6842592090785224 0
          3.8890204797222485 8.6913421401557702 0
          3.892371615668206 8.6984674624323759 0
          3.8956273817526967 8.7056368560315534 0
          3.8987809060129721 8.7128518011697498 0
          3.9018251012948673 8.7201135502113587 0
          3.9047526643192998 8.7274231000564626 0
          3.9075560819146107 8.7347811608806136 0
          3.9102276358906511 8.7421881250910225 0
          3.9127594048323395 8.7496440368804844 0
          3.9151432725309072 8.7571485588003526 0
          3.9173709614854597 8.764700930653472 0
          3.9194340286021676 8.7722999411732765 0
          3.9213238841120983 8.7799438920088715 0
          3.923031813035267 8.7876305617071235 0
          3.9245490027099867 8.7953571692185371 0
          3.9258665725758215 8.8031203383342138 0
          3.9269756097227915 8.8109160627247221 0
          3.927867203337529 8.8187396731034386 0
          3.928532493455474 8.8265858047812085 0
          3.9289627252200301 8.8344483683586699 0
          3.9291492973199129 8.842320524662254 0
          3.9290838195747448 8.8501946627686987 0
          3.9287581773520523 8.8580623825384386 0
          3.9286593656023556 8.8659362212799735 0
          3.9287753064130069 8.8738098273618355 0
          3.9290935447115785 8.8816778528820333 0
          3.9296013164600536 8.8895359204931257 0
          3.9302901621146722 8.897380186234118 0
          3.9311515971869131 8.9052073757267625 0
          3.9321724776880749 8.9130153647744237 0
          3.9333442670989083 8.9208021306013201 0
          3.9346584636747628 8.9285661257549638 0
          3.936106625578712 8.9363062471945405 0
          3.9376803925070467 8.9440218047487825 0
          3.9393715040032209 8.9517124893086688 0
          3.9411763098545096 8.959377285631092 0
          3.9430867141557098 8.9670164426272265 0
          3.9450992210297184 8.9746293356314943 0
          3.9472017845019005 8.9822178456236621 0
          3.9493824115528668 8.9897842865921209 0
          3.9516291568306632 8.997331350760815 0
          3.9539301163022182 9.0048620531291714 0
          3.9562782925977831 9.0123781564781407 0
          3.9586619803905716 9.0198830611986764 0
          3.9610695487672052 9.0273803253884584 0
          3.9634839911602091 9.0348753612820829 0
          3.9658989072164035 9.0423702272620226 0
          3.9683081063544869 9.0498669156746452 0
          3.9706999044970801 9.0573691551232187 0
          3.9730683190364466 9.0648787908100612 0
          3.975407507007775 9.0723975632471188 0
          3.9777118406534373 9.0799270727535788 0
          3.9799757674351652 9.0874688122143024 0
          3.9821880830397594 9.0950258336161358 0
          3.9843435158800133 9.1025992571159904 0
          3.986436952975962 9.1101900334115822 0
          3.9884635206044328 9.1177989180726282 0
          3.9904184458407634 9.1254265073229792 0
          3.9922971385796657 9.1330732140186264 0
          3.9940952013284945 9.140739265900363 0
          3.995802335863889 9.1484260626300458 0
          3.9974146084729658 9.1561333006908381 0
          3.9989282355091627 9.1638605048065784 0
          4.0003396741150006 9.1716070150841169 0
          4.0016456346718243 9.1793719942214071 0
          4.0028430969854867 9.1871544358086883 0
          4.0039293234246811 9.1949531749381137 0
          4.0049019539967565 9.2027668902296202 0
          4.0057588598234872 9.2105941399942459 0
          4.0064982379663956 9.2184333651616885 0
          4.0071186258468252 9.2262829060952054 0
          4.0076189154492647 9.2341410208693553 0
          4.0079983661346192 9.2420059049682877 0
          4.0082566207642367 9.2498757120333828 0
          4.0083938030807325 9.2577485745007912 0
          4.0084103603475576 9.2656226322246216 0
          4.0083071600099096 9.2734960521900476 0
          4.0080855046244412 9.2813670530084149 0
          4.0077471429192322 9.2892339299055671 0
          4.007294280743106 9.2970950798745537 0
          4.0067296838180058 9.3049490333432168 0
          4.0060565130431929 9.3127944690209894 0
          4.0052784257099718 9.3206302422323297 0
          4.0043995882593508 9.3284554085897611 0
          4.0034246942882019 9.3362692470340871 0
          4.0023590705948076 9.3440712934208019 0
          4.0012085143327729 9.3518613373508863 0
          3.9999794087052467 9.3596394502004756 0
          3.9986788393860082 9.3674060151832403 0
          3.9973080743787834 9.3751605903579254 0
          3.9958754464822102 9.3829040740173859 0
          3.9943835350004475 9.3906364642238547 0
          3.9928421750065923 9.3983592670807745 0
          3.9912552532657082 9.4060729664959926 0
          3.9896344359960887 9.4137797535094219 0
          3.9879852736496639 9.4214806769977191 0
          3.9863214962610218 9.4291786176048902 0
          3.9846508073981557 9.436875237487607 0
          3.9829819159519042 9.4445724395512407 0
          3.9813326457977527 9.4522740721367775 0
          3.9797144422200224 9.4599825117310399 0
          3.9781693335761532 9.4677061458964715 0
          3.976715709596244 9.4754477444403946 0
          3.9753759893630947 9.4832101035347272 0
          3.9741794585344081 9.4909960683287196 0
          3.9731525589887271 9.4988064823920748 0
          3.9723271940462057 9.5066410437693012 0
          3.9717215283451051 9.51449598183539 0
        </DataArray>
      </Points>
      <Cells>
        <DataArray type="Int32" Name="connectivity" format="ascii">
          0 1 1 2 2 3 3 4 4 5 5 6 6 7 7 8 8 9 9 10 10 11 11 12 12 13 13 14 14 15 15 16 16 17 17 18 18 19 19 20 20 21 21 22 22 23 23 24 24 25 25 26 26 27 27 28 28 29 29 30 30 31 31 32 32 33 33 34 34 35 35 36 36 37 37 38 38 39 39 40 40 41 41 42 42 43 43 44 44 45 45 46 46 47 47 48 48 49 49 50 50 51 51 52 52 53 53 54 54 55 55 56 56 57 57 58 58 59 59 60 60 61 61 62 62 63 63 64 64 65 65 66 66 67 67 68 68 69 69 70 70 71 71 72 72 73 73 74 74 75 75 76 76 77 77 78 78 79 79 80 80 81 81 82 82 83 83 84 84 85 85 86 86 87 87 88 88 89 89 90 90 91 91 92 92 93 93 94 94 95 95 96 96 97 97 98 98 99 99 100 100 101 101 102 102 103 103 104 104 105 105 106 106 107 107 108 108 109 109 110 110 111 111 112 112 113 113 114 114 115 115 116 116 117 117 118 118 119 119 120 120 121 121 122 122 123 123 124 124 125 125 126 126 127 
        </DataArray>
        <DataArray type="Int32" Name="offsets" format="ascii">
          2 4 6 8 10 12 14 16 18 20 22 24 26 28 30 32 34 36 38 40 42 44 46 48 50 52 54 56 58 60 62 64 66 68 70 72 74 76 78 80 82 84 86 88 90 92 94 96 98 100 102 104 106 108 110 112 114 116 118 120 122 124 126 128 130 132 134 136 138 140 142 144 146 148 150 152 154 156 158 160 162 164 166 168 170 172 174 176 178 180 182 184 186 188 190 192 194 196 198 200 202 204 206 208 210 212 214 216 218 220 222 224 226 228 230 232 234 236 238 240 242 244 246 248 250 252 254 
        </DataArray>
        <DataArray type="Int32" Name="types" format="ascii">
          3 3 3 3 3 3 3 3 3 3 3 3 3 3 3 3 3 3 3 3 3 3 3 3 3 3 3 3 3 3 3 3 3 3 3 3 3 3 3 3 3 3 3 3 3 3 3 3 3 3 3 3 3 3 3 3 3 3 3 3 3 3 3 3 3 3 3 3 3 3 3 3 3 3 3 3 3 3 3 3 3 3 3 3 3 3 3 3 3 3 3 3 3 3 3 3 3 3 3 3 3 3 3 3 3 3 3 3 3 3 3 3 3 3 3 3 3 3 3 3 3 3 3 3 3 3 3         </DataArray>
      </Cells>
    </Piece>
  </UnstructuredGrid>
</VTKFile>
