<?xml version="1.0"?>
<VTKFile type="UnstructuredGrid" version="0.1" byte_order="LittleEndian">
  <UnstructuredGrid>
    <Piece NumberOfPoints="128" NumberOfCells="127">
      <PointData Scalars="W">
        <DataArray type="Float32" Name="W" NumberOfComponents="2">
          0 0 -0.034403667684664671 -0.0083037964534942756 -0.096431688611610125 -0.02332920068356548 -0.13105141482953919 -0.031832444107888908 -0.14885497249525104 -0.036335792457194899 -0.15420824059148361 -0.037843325536937776 -0.14926965127996136 -0.036826175693556833 -0.13534223259407749 -0.03355594448106896 -0.11331090392338827 -0.028214990099520703 -0.083884731426696627 -0.02095902323177775 -0.04758959952314018 -0.011917483377558344 -0.0048878751344073636 -0.0012251379837516722 0.043820407688524882 0.0109761549983861 0.098152200401999692 0.024525113210909957 0.15772754124810553 0.039237156815221823 0.22222350563101637 0.054917982490715181 0.29141469646691592 0.071373564768951375 0.36500960129033094 0.088370058920862901 0.44277281633114912 0.10566490247143746 0.5245095856764237 0.12300344358770982 0.61001429812096941 0.14010751759674453 0.69906749440990046 0.15667657163214352 0.79146329445261188 0.17239586145976404 0.88701348262989188 0.18693880455565923 0.98549287187011458 0.1999573486970142 1.0867441202602606 0.21110583883608575 1.1905361695356962 0.22001397953927504 1.2965672421572367 0.22629363769007554 1.4045973956358457 0.22956700393935836 1.5146979719203844 0.22950138113821833 1.6262429395729874 0.22565338773811622 1.7389307008700743 0.21764628844266151 1.8524160984185591 0.20510947589857115 1.9663572525896387 0.18768866718404392 2.0803494884762559 0.16504304310574111 2.1939679538772436 0.13685580432850986 2.3066674383799914 0.10283492801071545 2.4180055194256775 0.06273255429832067 2.5275296669465881 0.016336206265338857 2.6346090494541539 -0.036524413026821197 2.7386071373109653 -0.095960922602286114 2.8389085249656025 -0.16202395912229647 -4.6075417219580785 0.23076271604569459 -4.4260119559941913 0.063952268805523821 -4.2352899599933229 -0.083277256071523934 -4.0389216542282718 -0.21128339640941796 -3.9327860754488135 -0.33005699568926383 -3.7275258799882636 -0.4269408930258789 -3.617656323601198 -0.52163537966464224 -3.5073298889580893 -0.60787733585955062 -3.3950828576782128 -0.68561856760415563 -3.281296878343348 -0.75501302774193169 -3.1681659017579049 -0.81672801436930675 -3.0578955206801033 -0.8717031873795319 -2.9471112476221966 -0.91932476627919835 -2.9288635553637867 -0.9924437895472199 -2.6315753407456861 -0.96033940469228785 -2.4283562838111101 -0.94523066463721617 -2.2243562907675027 -0.9167649733711688 -2.0208159893568882 -0.87609995608866709 -1.8190424247882124 -0.82461762832556917 -1.6162808432767917 -0.76193005503925415 -1.4150907100378709 -0.6901215826767747 -1.094804678348789 -0.54893885455572156 -0.76486563762532278 -0.39139219397275238 -0.68284463732344847 -0.35496483181733818 -0.47142287737880856 -0.24813961021051043 -0.39209556070552781 -0.20831415117905522 -0.31189904579286493 -0.16696530739779458 -0.23254886880457692 -0.12521649734289736 -0.023105248595699308 -0.012475171251583825 0.05467515160263467 0.029510674196967006 0.13188236149506491 0.071040893053488222 0.20667193049254215 0.11092452303152188 0.28268984311180895 0.150929965449281 0.49607524585563406 0.26264882384832644 0.57158505592455178 0.29916042486725442 0.64472406642533109 0.33302024408583564 0.71924117221956896 0.3660296831209589 0.79314705575084199 0.39700392402586421 1.0094655443744924 0.49532308830488281 1.0832211469213644 0.51926177112280369 1.1561801770892248 0.5404312632031123 1.22822275842229 0.55870975441714865 1.2971303832117416 0.57308159391104185 1.3668185757490752 0.58528007651338898 1.5895778273231209 0.65704413193642153 1.6556251491482681 0.65777079853041009 1.7218870835072062 0.65580885370367348 1.7859377615858993 0.65023226658283662 1.8475006655319786 0.64105165794389873 1.9038803963467175 0.62753233088853766 1.9593726327212651 0.61130374693345801 2.1772653462431824 0.63884377443590701 2.2268688792240989 0.61003012295875447 2.2695791152524847 0.5772718969867574 2.3098585060029282 0.54207775423088334 2.3447767174679721 0.50400041405474394 2.3713559682127117 0.46287154521388046 2.5702610258672403 0.44909982837787871 2.5874079533224745 0.39740988725150278 2.5971037992333676 0.34424311262002827 2.5961993660220752 0.28983970737163739 2.5894541068772816 0.23539443744790836 2.7551148818323714 0.19190927245953998 2.7300947037672758 0.13088896853937809 2.6947665377610663 0.071506784681568125 2.8363585562139093 0.013459949693211595 2.7783176088632064 -0.048252024083146564 2.7048998185741726 -0.10545635371572268 2.8181107275014918 -0.17139783567580105 2.7168857979653231 -0.22492490850688951 2.6038923535968812 -0.27085164395407407 2.6741360896420803 -0.33484822001915149 2.5239128140247771 -0.36914369645823053 2.5630807434949694 -0.42813066178891274 2.6035995381438362 -0.49041608642252915 2.3902835370950948 -0.50006616084018407 2.37557173980926 -0.54484179750852968 1.4962632487397227 -0.36794179423926582 1.1261663381831317 -0.28968570989404513 0.91474146245913424 -0.24342244742459004 0.65407731954559623 -0.17854737933746806 0.58219293503323966 -0.16208963625733758 0.3027097143599537 -0.085460179022240013 0.091166357137003731 -0.025896663962966804 0.55555127694720596 -0.15940248770416665 0 0
        </DataArray>
        <DataArray type="Float32" Name="u" NumberOfComponents="1">
          0 0.007874015748031496 0.015748031496062992 0.023622047244094488 0.031496062992125984 0.03937007874015748 0.047244094488188976 0.055118110236220472 0.062992125984251968 0.070866141732283464 0.07874015748031496 0.086614173228346455 0.094488188976377951 0.10236220472440945 0.11023622047244094 0.11811023622047244 0.12598425196850394 0.13385826771653545 0.14173228346456693 0.14960629921259844 0.15748031496062992 0.16535433070866143 0.17322834645669291 0.18110236220472442 0.1889763779527559 0.19685039370078741 0.20472440944881889 0.2125984251968504 0.22047244094488189 0.2283464566929134 0.23622047244094488 0.24409448818897639 0.25196850393700787 0.25984251968503935 0.26771653543307089 0.27559055118110237 0.28346456692913385 0.29133858267716534 0.29921259842519687 0.30708661417322836 0.31496062992125984 0.32283464566929132 0.33070866141732286 0.33858267716535434 0.34645669291338582 0.3543307086614173 0.36220472440944884 0.37007874015748032 0.37795275590551181 0.38582677165354329 0.39370078740157483 0.40157480314960631 0.40944881889763779 0.41732283464566927 0.42519685039370081 0.43307086614173229 0.44094488188976377 0.44881889763779526 0.45669291338582679 0.46456692913385828 0.47244094488188976 0.48031496062992124 0.48818897637795278 0.49606299212598426 0.50393700787401574 0.51181102362204722 0.51968503937007871 0.52755905511811019 0.53543307086614178 0.54330708661417326 0.55118110236220474 0.55905511811023623 0.56692913385826771 0.57480314960629919 0.58267716535433067 0.59055118110236215 0.59842519685039375 0.60629921259842523 0.61417322834645671 0.62204724409448819 0.62992125984251968 0.63779527559055116 0.64566929133858264 0.65354330708661412 0.66141732283464572 0.6692913385826772 0.67716535433070868 0.68503937007874016 0.69291338582677164 0.70078740157480313 0.70866141732283461 0.71653543307086609 0.72440944881889768 0.73228346456692917 0.74015748031496065 0.74803149606299213 0.75590551181102361 0.76377952755905509 0.77165354330708658 0.77952755905511806 0.78740157480314965 0.79527559055118113 0.80314960629921262 0.8110236220472441 0.81889763779527558 0.82677165354330706 0.83464566929133854 0.84251968503937003 0.85039370078740162 0.8582677165354331 0.86614173228346458 0.87401574803149606 0.88188976377952755 0.88976377952755903 0.89763779527559051 0.90551181102362199 0.91338582677165359 0.92125984251968507 0.92913385826771655 0.93700787401574803 0.94488188976377951 0.952755905511811 0.96062992125984248 0.96850393700787396 0.97637795275590555 0.98425196850393704 0.99212598425196852 1
        </DataArray>
      </PointData>
      <CellData Scalars="P">
        <DataArray type="Float32" Name="P" NumberOfComponents="1">
          0.012767508289002572 0.03832834417225494 0.063946315598358033 0.089582022907455677 0.11517307100646919 0.14065562825781697 0.1659794680589515 0.19112023208195528 0.2160897401813098 0.24094438262959772 0.26579221888688165 0.29079832483158963 0.31618872446027985 0.34225249097475985 0.36934202018382134 0.39787261509493521 0.42832208124481413 0.46122617360967166 0.49717506313250376 0.53680884652164396 0.58081071282777064 0.629898688681093 0.684817229388895 0.746328264218455 0.81519910025911335 0.89219431807526917 0.97806048590459216 1.0735093470357251 1.1792075700988085 1.2957830323536466 1.4237685797202573 1.5636064539358394 1.7156311974813134 1.8800558346710767 2.0569536039813232 2.2462430366358688 2.4476658344210036 2.6607829247385455 2.8849632591480083 3.1193601030250178 3.3629026518122145 3.6142919435357141 3.2633232610496186 2.923543195474696 2.5957965681664801 2.2807377160791771 1.9705817640550287 1.6742971996878333 1.3835660783713994 1.0985664168092077 0.8196443736345258 0.54714599468601055 0.28123966340700401 0.021900701856676082 -0.23055400760652223 -0.48506059215697533 -0.7134714979531166 -0.92447548184265482 -1.1173666707707526 -1.291573057827998 -1.44668368943597 -1.5820397442823209 -1.6973042929703024 -1.7793791306737001 -1.8268122485867091 -1.8657433542139914 -1.8823585768921076 -1.8906479607195807 -1.8905413532060296 -1.8821959325922852 -1.8523741567935306 -1.8149265892041904 -1.7701476776272707 -1.7185543224736286 -1.6603420034252869 -1.5829833686492971 -1.5001611606596725 -1.4125534197893046 -1.3205283173115223 -1.224661026724162 -1.1140594757095541 -1.0012517310104527 -0.88692032441087632 -0.77176347531414069 -0.6566296216253672 -0.54209262406542802 -0.41968908009390116 -0.30001037888276 -0.18367552293391465 -0.071414005521274443 0.036070927307772241 0.13801454092464113 0.23388739974966888 0.32832650570185024 0.41488131729866679 0.49300309224548189 0.56234619526282736 0.62258375469635285 0.67345653619009394 0.71614756501016974 0.74862565126966807 0.77097689786341128 0.78342838566120132 0.78633075589653312 0.77815621095208476 0.76088563956229216 0.7352977940081239 0.69846255723268502 0.6547273947887533 0.60540188337118217 0.54623925075023883 0.48392472216256593 0.42001513814373609 0.34957689536433967 0.28095942766637655 0.20871578285676362 0.13378549988945879 0.066360045051296931 0.00052532672079374468 -0.03297513308430363 -0.052049373659501297 -0.062128506741924813 -0.06227127767753831 -0.05799274173275594 -0.045356382729691724 -0.027503422257626229 -0.011124187051689761
        </DataArray>
      </CellData>
      <Points>
        <DataArray type="Float32" NumberOfComponents="3" format="ascii">
          4.0958845884180395 6.7317300046445254 0
          4.094038046334286 6.7393851364506894 0
          4.0921893731591119 6.7470397437889842 0
          4.0903347238979837 6.754692889221336 0
          4.088471952870961 6.7623440411268447 0
          4.0865999570080875 6.7699929167530239 0
          4.0847184051565852 6.7776394197352436 0
          4.0828276042457121 6.7852836107701746 0
          4.0809284184837367 6.7929256907075377 0
          4.0790222144762218 6.800565989198768 0
          4.0771108172464858 6.8082049550108561 0
          4.0751964776142726 6.8158431479769419 0
          4.0732818435135263 6.8234812306215105 0
          4.0713699351766373 6.8311199593492997 0
          4.0694641213738993 6.8387601744323323 0
          4.0675680958469256 6.8464027885543164 0
          4.0656858572816175 6.8540487747537435 0
          4.063821695331411 6.8616991543855628 0
          4.0619801725444571 6.8693549826150351 0
          4.060166109773327 6.8770173333721569 0
          4.0583845741086488 6.8846872835574304 0
          4.0566408661434208 6.8923658957905269 0
          4.0549405063825432 6.9000541997714464 0
          4.0532892224981163 6.9077531727621988 0
          4.0516929376837565 6.9154637193346513 0
          4.050157756720357 6.9231866497871701 0
          4.0486899562519003 6.9309226587094557 0
          4.0472959704942477 6.9386723020188894 0
          4.0459823725625794 6.94643597288976 0
          4.044755859635595 6.9542138783209575 0
          4.0436232574220305 6.9620060184985668 0
          4.0425914813922201 6.9698121592934719 0
          4.0416675181263626 6.977631808888006 0
          4.040858403963294 6.9854641947790022 0
          4.0401712038530961 6.993308241788954 0
          4.0396129863162722 7.0011625509075248 0
          4.0391907971510239 7.0090253796174773 0
          4.038911625676306 7.0168946237516847 0
          4.0387823773452167 7.0247678020829678 0
          4.0388098457281965 7.0326420431022854 0
          4.0390006734362425 7.0405140744067731 0
          4.0393613126847967 7.0483802157207576 0
          4.0398979871603977 7.0562363756931079 0
          4.040148960693319 7.0641068545633443 0
          4.040125488457158 7.0719813069422006 0
          4.0398393959487287 7.079850601404643 0
          4.0393028591086448 7.0877067984122393 0
          4.0385224588081394 7.0955425330614821 0
          4.0375109227629231 7.103351795490692 0
          4.0362750636183726 7.1111287138721249 0
          4.03482172235422 7.118867940514396 0
          4.0331578590541408 7.1265646548071295 0
          4.0312905292443393 7.1342145536751307 0
          4.0292267478425154 7.1418138102446207 0
          4.026973352377289 7.1493590156217497 0
          4.0245372122542555 7.1568472168650814 0
          4.02191945808441 7.1642738821608702 0
          4.0191385256025169 7.1716409977194635 0
          4.0162070170277433 7.1789494981247923 0
          4.0131375832036911 7.1862011461803359 0
          4.0099428466213709 7.1933984611655237 0
          4.0066353203153975 7.2005446331788603 0
          4.0032275786611189 7.2076435471374776 0
          3.999732098589587 7.2146996536009427 0
          3.9961687430743198 7.2217217022738183 0
          3.9925579735012917 7.228719457584198 0
          3.9889048757822589 7.2356951792051545 0
          3.9852225606383147 7.2426554892730737 0
          3.9815159465968115 7.2496028582416958 0
          3.9777900059939406 7.2565398509451873 0
          3.9740496585882359 7.2634690569808305 0
          3.9703078914648016 7.2703974656202535 0
          3.9665695266574375 7.2773276812958327 0
          3.9628393505701225 7.2842622801734107 0
          3.9591219996094296 7.2912037363424904 0
          3.9554221862801784 7.2981545314196978 0
          3.9517531408709043 7.3051215918637284 0
          3.9481195440120911 7.3121071829379378 0
          3.9445259292806503 7.3191134055469416 0
          3.9409769156663459 7.3261423078998842 0
          3.9374770842296192 7.333195812082721 0
          3.9340398460535755 7.34028001489001 0
          3.9306697726292494 7.3473964026703324 0
          3.9273713860790163 7.3545462901939826 0
          3.9241491517398397 7.3617308131130148 0
          3.9210073406314661 7.3689508650035185 0
          3.9179502722395578 7.3762072048344214 0
          3.9149917564293903 7.3835042851573096 0
          3.912135887017933 7.3908421544485359 0
          3.9093867712893244 7.3982206946906111 0
          3.9067483796145268 7.4056395639633585 0
          3.9042245283304 7.4130981971082184 0
          3.9018187126521409 7.4205957601573571 0
          3.8995343730197041 7.428131251401596 0
          3.8973850187657604 7.4357063852218221 0
          3.8953737259266457 7.4433193806588598 0
          3.8935031435386569 7.4509682123757406 0
          3.8917757703257023 7.4586507042611343 0
          3.8901937730385723 7.4663645016549332 0
          3.8887588018395052 7.4741070608443669 0
          3.8874831921709423 7.4818775387678382 0
          3.8863680107578724 7.4896727380090073 0
          3.8854138628893073 7.497489369742703 0
          3.8846206971344732 7.5053240685318992 0
          3.8839881004437973 7.5131734665375092 0
          3.883526351760517 7.5210348816709898 0
          3.8832339067533788 7.5289045393173453 0
          3.8831085824631857 7.53677876649731 0
          3.883159169421655 7.5446539804555437 0
          3.8833820783481601 7.5525263645460043 0
          3.8837727667905062 7.5603923815280485 0
          3.884338269940498 7.5682479613775397 0
          3.8850723228878201 7.576089795624398 0
          3.8859679309909168 7.58391504732674 0
          3.8870294692971421 7.5917197691733351 0
          3.8882476354474353 7.5995018463536166 0
          3.8896248804923053 7.6072576443247684 0
          3.8911637428243049 7.614983326580278 0
          3.8928510085594175 7.6226783094584647 0
          3.8946857925643434 7.6303398448587982 0
          3.8966135315432062 7.6379788859236868 0
          3.8986112677296627 7.645600300877688 0
          3.9006658934290126 7.6532069886428111 0
          3.9027612420527298 7.6608030067973356 0
          3.9048928725056733 7.6683894315656573 0
          3.9070434494418396 7.6759710719521728 0
          3.9091998590771926 7.68355170321591 0
          3.9113910033287405 7.6911232071953268 0
        </DataArray>
      </Points>
      <Cells>
        <DataArray type="Int32" Name="connectivity" format="ascii">
          0 1 1 2 2 3 3 4 4 5 5 6 6 7 7 8 8 9 9 10 10 11 11 12 12 13 13 14 14 15 15 16 16 17 17 18 18 19 19 20 20 21 21 22 22 23 23 24 24 25 25 26 26 27 27 28 28 29 29 30 30 31 31 32 32 33 33 34 34 35 35 36 36 37 37 38 38 39 39 40 40 41 41 42 42 43 43 44 44 45 45 46 46 47 47 48 48 49 49 50 50 51 51 52 52 53 53 54 54 55 55 56 56 57 57 58 58 59 59 60 60 61 61 62 62 63 63 64 64 65 65 66 66 67 67 68 68 69 69 70 70 71 71 72 72 73 73 74 74 75 75 76 76 77 77 78 78 79 79 80 80 81 81 82 82 83 83 84 84 85 85 86 86 87 87 88 88 89 89 90 90 91 91 92 92 93 93 94 94 95 95 96 96 97 97 98 98 99 99 100 100 101 101 102 102 103 103 104 104 105 105 106 106 107 107 108 108 109 109 110 110 111 111 112 112 113 113 114 114 115 115 116 116 117 117 118 118 119 119 120 120 121 121 122 122 123 123 124 124 125 125 126 126 127 
        </DataArray>
        <DataArray type="Int32" Name="offsets" format="ascii">
          2 4 6 8 10 12 14 16 18 20 22 24 26 28 30 32 34 36 38 40 42 44 46 48 50 52 54 56 58 60 62 64 66 68 70 72 74 76 78 80 82 84 86 88 90 92 94 96 98 100 102 104 106 108 110 112 114 116 118 120 122 124 126 128 130 132 134 136 138 140 142 144 146 148 150 152 154 156 158 160 162 164 166 168 170 172 174 176 178 180 182 184 186 188 190 192 194 196 198 200 202 204 206 208 210 212 214 216 218 220 222 224 226 228 230 232 234 236 238 240 242 244 246 248 250 252 254 
        </DataArray>
        <DataArray type="Int32" Name="types" format="ascii">
          3 3 3 3 3 3 3 3 3 3 3 3 3 3 3 3 3 3 3 3 3 3 3 3 3 3 3 3 3 3 3 3 3 3 3 3 3 3 3 3 3 3 3 3 3 3 3 3 3 3 3 3 3 3 3 3 3 3 3 3 3 3 3 3 3 3 3 3 3 3 3 3 3 3 3 3 3 3 3 3 3 3 3 3 3 3 3 3 3 3 3 3 3 3 3 3 3 3 3 3 3 3 3 3 3 3 3 3 3 3 3 3 3 3 3 3 3 3 3 3 3 3 3 3 3 3 3         </DataArray>
      </Cells>
    </Piece>
  </UnstructuredGrid>
</VTKFile>
