<?xml version="1.0"?>
<VTKFile type="UnstructuredGrid" version="0.1" byte_order="LittleEndian">
  <UnstructuredGrid>
    <Piece NumberOfPoints="128" NumberOfCells="127">
      <PointData Scalars="W">
        <DataArray type="Float32" Name="W" NumberOfComponents="2">
          0 0 -0.062627157656073074 -0.36294837771362742 -0.092897826189100446 -0.52717884356430633 -0.11763999853242975 -0.64967889655800015 -0.13964125081070222 -0.74732039396451033 -0.15997236466404832 -0.82718271903394525 -0.17917227179766207 -0.89333189768257715 -0.19754042883645495 -0.94845051834682925 -0.21524117145247923 -0.99441668791154281 -0.23233982675510617 -1.0325277487882107 -0.24886174257442886 -1.0638094380770258 -0.26479901466893763 -1.0890608962036175 -0.28012353136840895 -1.1089264003837991 -0.29477569450708613 -1.1238670087933387 -0.30866634743377402 -1.1341927743410998 -0.32170554304853066 -1.1401849700578361 -0.33381830453395711 -1.1421480731057378 -0.34490956890394059 -1.140285570117048 -0.3548842523015675 -1.1347780190940018 -0.36366243819646804 -1.1258299868748542 -0.37115890872836704 -1.1136020715377426 -0.37728466846101399 -1.0982203579238905 -0.38196933197310085 -1.0798423366215089 -0.38515689064180747 -1.0586381251910226 -0.38677243780467196 -1.0346988266650392 -0.38678963769838304 -1.0082206225831687 -0.38517129451731508 -0.97933859168887538 -0.38186211072098386 -0.94811654560413605 -0.37684693265781349 -0.91469520290015272 -0.37027359938514465 -0.87956990048318751 -0.36202295836655335 -0.84255718039472594 -0.35212424526668062 -0.80381343805348449 -0.34062734813959922 -0.76351188273998527 -0.32759848922614671 -0.72183173255616351 -0.31310864328500021 -0.6789335089879891 -0.29725936292895272 -0.6350165521084814 -0.28012199428273282 -0.59018990614315858 -0.26185128702020571 -0.54471576149821188 -0.24261127510311867 -0.49884873697606086 -0.22251269396903933 -0.45271300851449769 -0.20170155055405467 -0.40649052817995124 -0.18034743902524525 -0.36039687479036825 -2.3608687371441452 -4.4746923052411933 -2.4199242197766577 -4.1833196842212796 -2.4499717858388079 -3.8940551343101748 -2.4520560050447942 -3.6082966964582921 -2.5848441330636005 -3.5355269565441136 -2.5528144683664422 -3.2566234037206359 -2.6286545249035447 -3.1383344522348886 -2.6987422528418459 -3.0197998405276816 -2.6204676450618423 -2.755788797882643 -2.6690778373973725 -2.6446215123643269 -2.7124982877349395 -2.5339856396196359 -2.9062413274024714 -2.5568469457408747 -2.948014167345939 -2.4391712344576928 -2.6542745019913339 -2.0723532980611248 -2.317356101224219 -1.7191841437239375 -2.1329894808553993 -1.511918400062535 -1.931994205879342 -1.3136314512300544 -1.4986729892079063 -0.98376034898289344 -1.2564715182489772 -0.80172841512975734 -1.0012586723122892 -0.62416785607223557 -0.48211016718370736 -0.29595801957421963 -0.19048258082597896 -0.11612060390054685 0.38109169005827742 0.23277849051730379 0.70184208674163251 0.43353843878760789 0.73328269255762279 0.45973008693708323 0.75983955552636462 0.48377285805210551 1.0814078892281886 0.70168376871948746 1.1025273365263641 0.73160937028209372 1.1262680604780997 0.76462971888335041 1.4433495582229117 1.0060240221597301 1.4546120191164151 1.0443810018204522 1.4681150597551464 1.0860878857644258 1.7743689905340392 1.3570632324499119 1.7720773048232663 1.4057112701876651 1.7714339715039751 1.4577235756226123 1.7681822544637427 1.5098052416975682 2.0441888102613177 1.8171264605116351 2.0251092086411098 1.8802004409456874 2.002939852004002 1.9428708125924239 1.9735532165574392 2.0006926356965993 2.2151169364062264 2.3551151359275249 2.1691180676918909 2.4275893176391694 2.1194153645289293 2.498406368409376 2.0625029804915114 2.5627653930253533 2.005899685708183 2.6294259400061701 2.1824932546027211 3.0316765488948558 2.0968516895515199 3.1013853010002865 2.0109660982400941 3.1723517652557924 1.921550287307465 3.2396508816015661 1.8288281463395015 3.3030800555590329 1.9193809181686792 3.7391801128784405 1.7967185798752643 3.8053614968144709 1.6709623915593959 3.8659950200400486 1.5401971925258424 3.9148854805532323 1.4096911169776296 3.9638061833828591 1.4034254313527936 4.4295132782464872 1.237849986621129 4.4678522324536276 1.0727857008627417 4.5048094383029325 0.90657434623805566 4.534028020759199 0.80281396521056769 5.000180029818174 0.60174027225369897 5.0175169569118649 0.40089019389211661 5.0251385416639733 0.20936264115798794 5.4876419277938755 -0.027665642598309389 5.4753850697347684 -0.2619248915559077 5.4439772178740746 -0.54869616142959354 5.8929221005184313 -0.81913309524120692 5.8393532971679054 -1.188307632973284 6.2574001002733652 -1.4937222386696183 6.1644876386245819 -1.7885848054793303 6.0478665951535797 -2.2613412581579202 6.4101317115960237 -2.5840972407838194 6.2417747006747222 -3.1380183175032057 6.5350320463640053 -3.7649856958200378 6.7822502780716958 -4.4670874231137505 6.9704484238452062 -4.8746999046246637 6.6174252113400787 -4.0800911591522908 4.9190659624707802 -4.6359065985907453 5.0309961920109512 -4.6901889987239924 4.5797570978477786 -5.1082344858566007 4.4882979444138673 -5.5295444977208099 4.3485131131249259 -5.3629196793370735 3.7712741837630097 -4.8801332317217172 3.0890339024232487 -3.5139391920120242 2.0380731141044137 -1.6151391232474337 0.88725075297658695 0 0
        </DataArray>
        <DataArray type="Float32" Name="u" NumberOfComponents="1">
          0 0.007874015748031496 0.015748031496062992 0.023622047244094488 0.031496062992125984 0.03937007874015748 0.047244094488188976 0.055118110236220472 0.062992125984251968 0.070866141732283464 0.07874015748031496 0.086614173228346455 0.094488188976377951 0.10236220472440945 0.11023622047244094 0.11811023622047244 0.12598425196850394 0.13385826771653545 0.14173228346456693 0.14960629921259844 0.15748031496062992 0.16535433070866143 0.17322834645669291 0.18110236220472442 0.1889763779527559 0.19685039370078741 0.20472440944881889 0.2125984251968504 0.22047244094488189 0.2283464566929134 0.23622047244094488 0.24409448818897639 0.25196850393700787 0.25984251968503935 0.26771653543307089 0.27559055118110237 0.28346456692913385 0.29133858267716534 0.29921259842519687 0.30708661417322836 0.31496062992125984 0.32283464566929132 0.33070866141732286 0.33858267716535434 0.34645669291338582 0.3543307086614173 0.36220472440944884 0.37007874015748032 0.37795275590551181 0.38582677165354329 0.39370078740157483 0.40157480314960631 0.40944881889763779 0.41732283464566927 0.42519685039370081 0.43307086614173229 0.44094488188976377 0.44881889763779526 0.45669291338582679 0.46456692913385828 0.47244094488188976 0.48031496062992124 0.48818897637795278 0.49606299212598426 0.50393700787401574 0.51181102362204722 0.51968503937007871 0.52755905511811019 0.53543307086614178 0.54330708661417326 0.55118110236220474 0.55905511811023623 0.56692913385826771 0.57480314960629919 0.58267716535433067 0.59055118110236215 0.59842519685039375 0.60629921259842523 0.61417322834645671 0.62204724409448819 0.62992125984251968 0.63779527559055116 0.64566929133858264 0.65354330708661412 0.66141732283464572 0.6692913385826772 0.67716535433070868 0.68503937007874016 0.69291338582677164 0.70078740157480313 0.70866141732283461 0.71653543307086609 0.72440944881889768 0.73228346456692917 0.74015748031496065 0.74803149606299213 0.75590551181102361 0.76377952755905509 0.77165354330708658 0.77952755905511806 0.78740157480314965 0.79527559055118113 0.80314960629921262 0.8110236220472441 0.81889763779527558 0.82677165354330706 0.83464566929133854 0.84251968503937003 0.85039370078740162 0.8582677165354331 0.86614173228346458 0.87401574803149606 0.88188976377952755 0.88976377952755903 0.89763779527559051 0.90551181102362199 0.91338582677165359 0.92125984251968507 0.92913385826771655 0.93700787401574803 0.94488188976377951 0.952755905511811 0.96062992125984248 0.96850393700787396 0.97637795275590555 0.98425196850393704 0.99212598425196852 1
        </DataArray>
      </PointData>
      <CellData Scalars="P">
        <DataArray type="Float32" Name="P" NumberOfComponents="1">
          0.011062667351740605 0.033587029424523532 0.056814738108498276 0.080862966709257397 0.10575232732199662 0.13143610405616044 0.15781815462103113 0.18476548772990789 0.21211756484019226 0.2396932424083075 0.26729719159399784 0.2947251973280961 0.32176885864569693 0.34821952448267529 0.37387207585911958 0.39852895576247416 0.42200392534287118 0.44412522191820814 0.46473874906030904 0.48371090564189073 0.50093111916720179 0.516314242110127 0.5298023493658105 0.54136602563040637 0.55100609958049196 0.55875328730436402 0.5646688321189407 0.56884544880885091 0.57140569082131654 0.5724930529133242 0.57228306731711076 0.57097510007455043 0.56878898833924696 0.56596136293911847 0.56274226970146957 0.55938967988541488 0.55616789417979129 0.55333744730239554 0.5511497688397935 0.5498468784865983 0.54965426373349324 0.55077451215894269 0.38109233908833168 0.21715436026932733 0.059738828455832844 -0.090402941139029441 -0.24336976691798118 -0.3881385810905546 -0.53265746601635744 -0.67672218009129304 -0.81146557646334017 -0.94527450452700723 -1.0779719602520403 -1.2181939454153674 -1.3570238686746738 -1.4764757584308965 -1.5754713594419942 -1.6630527735668486 -1.7387992862812542 -1.791158019114836 -1.8305554884867894 -1.8566094331815446 -1.8563233779422579 -1.8415187120889465 -1.7984925354308479 -1.7399911302613618 -1.6805019022286249 -1.6204088637173617 -1.5456744345032227 -1.4709927543871746 -1.3964199474956804 -1.3087044821699509 -1.2221500653973116 -1.1368460352333731 -1.0404463044772438 -0.94647400248884694 -0.85503400353156234 -0.76637679745238452 -0.67007595215456706 -0.5775816276708271 -0.48910679887812192 -0.40495963840669613 -0.31653563793500561 -0.23323163701949434 -0.15515635181437804 -0.082462874341298495 -0.015050771970543173 0.0526122829908083 0.11430882956973791 0.17019709144676234 0.22040952376515013 0.26512704891056166 0.30699913171084747 0.34317946789554316 0.37392945926194926 0.39954234416934059 0.42038327162214112 0.43669356894770617 0.44844207858561896 0.45602008882248002 0.45984807489638696 0.4586670379355573 0.45418461766095897 0.44683510277486643 0.43448218168232605 0.41980981082847313 0.40329324516192894 0.38206408202629422 0.35955777098986946 0.33263651289811214 0.30502805939568611 0.27716338262821894 0.2455388290887475 0.21432731547930162 0.17997644902225374 0.14271996001510309 0.10277687850885307 0.064472530081346985 0.039955574375874062 0.014609990644245924 -0.00607548475413124 -0.024321245947200809 -0.035775883380469269 -0.040096922822122419 -0.036878119208402109 -0.025648976859601179 -0.0089980469324786819
        </DataArray>
      </CellData>
      <Points>
        <DataArray type="Float32" NumberOfComponents="3" format="ascii">
          6.0585692105357936 10.489953372162129 0
          6.0663305853778162 10.488625724751209 0
          6.0740880769337959 10.487275574018009 0
          6.0818398079710656 10.485892737489952 0
          6.0895842439795755 10.484469620066738 0
          6.0973200203521323 10.483000167939835 0
          6.1050458760059438 10.481479429660608 0
          6.1127606199796762 10.479903304040615 0
          6.1204631128787721 10.478268373826298 0
          6.1281522566989528 10.476571789251796 0
          6.1358269907890861 10.474811187598949 0
          6.1434862902934197 10.472984629596082 0
          6.1511291666560286 10.471090549864925 0
          6.1587546693787623 10.469127716967996 0
          6.1663618897318875 10.467095204814504 0
          6.1739499662978341 10.464992373427418 0
          6.1815180905642739 10.462818851493594 0
          6.1890655115894404 10.460574517473926 0
          6.1965915419130555 10.45825948697374 0
          6.2040955634688038 10.455874101533583 0
          6.2115770325565931 10.453418915930364 0
          6.2190354851437375 10.450894688203583 0
          6.2264705424005315 10.448302371820542 0
          6.2338819150821951 10.445643105893692 0
          6.2412694070196908 10.442918204614591 0
          6.2486329197825263 10.440129151586451 0
          6.2559724543305339 10.437277587641692 0
          6.2632881133394402 10.434365302447958 0
          6.2705801046493272 10.431394230533073 0
          6.2778487422248874 10.42836644254233 0
          6.2850944370109243 10.425284114510022 0
          6.2923177043424579 10.42214953921756 0
          6.299519162155887 10.4189651164819 0
          6.3066995279210465 10.415733342402957 0
          6.3138596145620376 10.412456798240152 0
          6.3210003260851906 10.409138140449983 0
          6.3281226513128646 10.405780088318764 0
          6.3352276594921459 10.402385417196156 0
          6.3423164907342739 10.398956942235239 0
          6.349390345880531 10.395497502603858 0
          6.3564504796749386 10.392009953786259 0
          6.3634981917521012 10.38849715630448 0
          6.370534816164751 10.384961962356323 0
          6.3774250084343693 10.381149303023127 0
          6.3841651080176325 10.377077250558978 0
          6.3907532532596987 10.372763746166926 0
          6.3971893165763198 10.368226513296573 0
          6.4034650707858116 10.363470063780666 0
          6.4095825033223424 10.358511695105165 0
          6.415536916461253 10.3533587418653 0
          6.421323968725793 10.348018553532981 0
          6.4269485145199621 10.342507503159718 0
          6.4324075436410606 10.336832482923434 0
          6.4376983672784371 10.331000351832294 0
          6.4428089780490803 10.325009687679231 0
          6.447736788256206 10.318867785496062 0
          6.4525000086177213 10.312597395457088 0
          6.4571195274198523 10.306220421758567 0
          6.4616067766761844 10.299749718029247 0
          6.4659742194212813 10.293197581038731 0
          6.4702487214474758 10.286584470159042 0
          6.4744453007983589 10.279921673612767 0
          6.4785797821560953 10.273220201979102 0
          6.4826843527039513 10.266500409837525 0
          6.4867770948527923 10.259773447316404 0
          6.4908934463058889 10.253060949099899 0
          6.4950532953058362 10.246375359931429 0
          6.4992585942755712 10.239718297659532 0
          6.5035109926299945 10.233091247488543 0
          6.5078304294957352 10.226507716542161 0
          6.5122182172184209 10.219969554955279 0
          6.5166758304621988 10.213478805439452 0
          6.5212229309493868 10.207050430448712 0
          6.5258602199735902 10.200686803960581 0
          6.5305885375479011 10.194390508392802 0
          6.535426875416638 10.188178340039398 0
          6.5403750947325276 10.182053312357427 0
          6.5454331585997174 10.176018648172404 0
          6.5506008680987833 10.170077575365401 0
          6.5558953415320218 10.164249144598395 0
          6.5613153990261148 10.158537266270528 0
          6.5668596687027749 10.152945826522505 0
          6.5725263306391817 10.14747841162799 0
          6.5783303696272641 10.142156994266912 0
          6.5842689359841353 10.136986070338514 0
          6.5903389497103797 10.131970033623402 0
          6.5965368829686275 10.127112878066725 0
          6.6028592264446573 10.122418740659175 0
          6.6093169379572565 10.117912562393775 0
          6.6159047072980339 10.113598670431738 0
          6.6226172083602783 10.109481470069237 0
          6.6294488952811745 10.105565139291679 0
          6.6363940163559452 10.10185361607912 0
          6.6434581945379971 10.098373942803518 0
          6.6506338210563332 10.095130228765301 0
          6.6579130944461431 10.092126238947218 0
          6.6652879016954305 10.089365009773774 0
          6.6727501453846036 10.086849578940582 0
          6.6802994448935014 10.084608825995176 0
          6.6879255275432143 10.082645132633029 0
          6.6956181520463955 10.080960794057786 0
          6.7033670056454691 10.079557624778912 0
          6.7111656622098952 10.078464532638508 0
          6.7190016470784109 10.077682595305394 0
          6.7268624993689752 10.077212287077224 0
          6.7347363512764593 10.077082290592699 0
          6.7426084987025217 10.077291847602364 0
          6.750464409227269 10.077839011358458 0
          6.7582863102663477 10.078751625510217 0
          6.766057426740641 10.080026369785863 0
          6.773754876855417 10.081689174628936 0
          6.78135971706104 10.083734281407621 0
          6.7888536584784998 10.086154460799893 0
          6.7962073975209512 10.08897218936073 0
          6.8034009161407107 10.092177032535188 0
          6.8103998776642918 10.095787194320291 0
          6.8171654149916296 10.099818030777792 0
          6.823654000148454 10.104281247039934 0
          6.8298403491685704 10.109154975902623 0
          6.8357736897452455 10.114333856805642 0
          6.8414195666996971 10.119824869106257 0
          6.8467746086590866 10.125600046094558 0
          6.8518129001101977 10.131653766566426 0
          6.8565078062596916 10.137976695286206 0
          6.8608698263679626 10.144533095975413 0
          6.8649290269264798 10.151280735059782 0
          6.8687702108342936 10.158154517725551 0
          6.8725111762991 10.165083173589286 0
        </DataArray>
      </Points>
      <Cells>
        <DataArray type="Int32" Name="connectivity" format="ascii">
          0 1 1 2 2 3 3 4 4 5 5 6 6 7 7 8 8 9 9 10 10 11 11 12 12 13 13 14 14 15 15 16 16 17 17 18 18 19 19 20 20 21 21 22 22 23 23 24 24 25 25 26 26 27 27 28 28 29 29 30 30 31 31 32 32 33 33 34 34 35 35 36 36 37 37 38 38 39 39 40 40 41 41 42 42 43 43 44 44 45 45 46 46 47 47 48 48 49 49 50 50 51 51 52 52 53 53 54 54 55 55 56 56 57 57 58 58 59 59 60 60 61 61 62 62 63 63 64 64 65 65 66 66 67 67 68 68 69 69 70 70 71 71 72 72 73 73 74 74 75 75 76 76 77 77 78 78 79 79 80 80 81 81 82 82 83 83 84 84 85 85 86 86 87 87 88 88 89 89 90 90 91 91 92 92 93 93 94 94 95 95 96 96 97 97 98 98 99 99 100 100 101 101 102 102 103 103 104 104 105 105 106 106 107 107 108 108 109 109 110 110 111 111 112 112 113 113 114 114 115 115 116 116 117 117 118 118 119 119 120 120 121 121 122 122 123 123 124 124 125 125 126 126 127 
        </DataArray>
        <DataArray type="Int32" Name="offsets" format="ascii">
          2 4 6 8 10 12 14 16 18 20 22 24 26 28 30 32 34 36 38 40 42 44 46 48 50 52 54 56 58 60 62 64 66 68 70 72 74 76 78 80 82 84 86 88 90 92 94 96 98 100 102 104 106 108 110 112 114 116 118 120 122 124 126 128 130 132 134 136 138 140 142 144 146 148 150 152 154 156 158 160 162 164 166 168 170 172 174 176 178 180 182 184 186 188 190 192 194 196 198 200 202 204 206 208 210 212 214 216 218 220 222 224 226 228 230 232 234 236 238 240 242 244 246 248 250 252 254 
        </DataArray>
        <DataArray type="Int32" Name="types" format="ascii">
          3 3 3 3 3 3 3 3 3 3 3 3 3 3 3 3 3 3 3 3 3 3 3 3 3 3 3 3 3 3 3 3 3 3 3 3 3 3 3 3 3 3 3 3 3 3 3 3 3 3 3 3 3 3 3 3 3 3 3 3 3 3 3 3 3 3 3 3 3 3 3 3 3 3 3 3 3 3 3 3 3 3 3 3 3 3 3 3 3 3 3 3 3 3 3 3 3 3 3 3 3 3 3 3 3 3 3 3 3 3 3 3 3 3 3 3 3 3 3 3 3 3 3 3 3 3 3         </DataArray>
      </Cells>
    </Piece>
  </UnstructuredGrid>
</VTKFile>
