<?xml version="1.0"?>
<VTKFile type="UnstructuredGrid" version="0.1" byte_order="LittleEndian">
  <UnstructuredGrid>
    <Piece NumberOfPoints="128" NumberOfCells="127">
      <PointData Scalars="W">
        <DataArray type="Float32" Name="W" NumberOfComponents="2">
          0 0 -0.5674930264800927 -0.055337472923831593 -0.80331976525182236 -0.073937421285673266 -0.95895765368938346 -0.081527426486564428 -1.0676560223810319 -0.082162066519415031 -1.1433597104734963 -0.077951963761410836 -1.1938880397552143 -0.070339655020371553 -1.2243093721180875 -0.060419962461409731 -1.2381669814946112 -0.049059857982167956 -1.2380101476577952 -0.03695852957677364 -1.2258346094545527 -0.024689278835243765 -1.2032246215385063 -0.012719782473920263 -1.1714902165430903 -0.0014283211190624305 -1.1316554370114473 0.008884042221270344 -1.0845229196101671 0.017980599728135083 -1.0307857396241582 0.025681033632536873 -0.97111822558494154 0.031858992135541581 -0.90604748362779119 0.03643447094958939 -0.83602024488009707 0.039369278880965378 -0.76149265844011182 0.040667495061295002 -0.68286402886338682 0.04037003520505731 -0.60045894238947106 0.038549549084453572 -0.51461192732817496 0.035312320568612034 -0.42565040546694116 0.03079528285928031 -0.33378434385019001 0.025155038743672607 -0.2393376648468527 0.018582019378292042 -0.14255527489552014 0.011284208267738002 -0.04360444393436496 0.0034838463590503195 0.057295980712633775 -0.0045746352294234226 0.15953550856166157 -0.012600179310829657 0.2632442274381902 -0.020348941367413251 0.36818930899776486 -0.027537971576141868 0.47412686423799899 -0.033876332758167212 0.58079259817870543 -0.039067794198683496 0.68793359022965261 -0.042816521355516855 0.79525030561567989 -0.044826901938838204 0.90253279157743804 -0.044814924576366183 1.0093979951951153 -0.042497440821634341 1.1154536904776122 -0.037608378589734426 1.2204185011883799 -0.02990585198426636 1.3239442081100925 -0.019167646660375539 1.425640623367491 -0.005198130421368948 3.1056097441164026 0.04411367262029154 3.596133394646015 0.1461351222705953 4.5134593548043851 0.32832581212989298 4.5840641652569776 0.49980987808507693 5.0884445694931912 0.753569063820407 5.5826647358328634 1.0717751511086531 6.0667497624436377 1.4630661465248702 6.5393908370161649 1.9377970086272134 6.9759960824874891 2.5001348331588158 7.3704343026023542 3.1587974602967441 8.1950243458998973 4.1909555999050196 8.9168132881799522 5.4691208576056152 -6.1399319503434988 -3.8733179560745179 -6.259747940811403 -3.4687873149129906 -0.94327950302934305 -0.48350577978376086 -0.6610232797666824 -0.33293178285068625 -0.37379106771570991 -0.18613267252020979 -0.072289445862943974 -0.035820362367259169 0.022993948264518213 0.01138759687688789 0.32746769943121767 0.1628050973366279 0.63262847135043321 0.31786305958882927 0.94765749638081398 0.48446188677090635 1.2605498654523211 0.660071407566168 1.3460854384350629 0.72492204150803574 1.6613993974410957 0.92389515133222311 1.7375753803913667 1.0015601498326585 1.8099060615590055 1.0826968960418109 1.8781138870807101 1.1673409367660239 1.9418579656607353 1.2554643295526584 2.0007968710845376 1.3470072703421405 2.0594832743104261 1.445382962344125 2.1077043619555882 1.5436912184234317 2.3673813924017413 1.8153724773192654 2.395794100108585 1.9296720439836414 2.4169983690469428 2.0467459558538641 2.4306932523783842 2.1662679973002406 2.4365983500425603 2.2878728669529047 2.4344535211461644 2.4111528292380786 2.4240255906711656 2.5356605781238746 2.4090044354101852 2.6653407390697019 2.381183064027045 2.7910345797162401 2.3445595609096874 2.9163793289389632 2.2990497185606085 3.0407811455799472 2.2446151412903217 3.1636131193383763 2.181269805443014 3.2842212906599122 2.1119770343386981 3.4067638180714379 2.030771363763856 3.5210593071917362 1.9410307134990468 3.6310300297302183 1.8430146641088059 3.7359511192178667 1.7392191311655134 3.840097203069968 1.6253515318937353 3.932818380126156 1.5044298509563352 4.0183624566711282 1.3769723461346437 4.0959563467602074 1.2450238272486343 4.1699867575782932 1.106090811313285 4.229738839569654 0.96270742600481574 4.2795337095271115 0.81572021234606507 4.3187754893136239 0.66604541712821419 4.3469058898175366 0.51517689460042226 4.368483437290366 0.36279554398321978 4.372936000072726 0.21087333847234285 4.3648576240449639 0.060584460575434887 4.3438799671441268 -0.097772853525217543 4.5953273338911895 -0.26092295983443442 4.5470123081535831 -0.41821257391226102 4.4839022693751502 -0.56813343311911069 4.4059620135566036 -0.76246522924016891 4.6039965784807606 -0.91336458631370843 4.4928329116491801 -1.1285374635084195 4.6618203326117928 -1.2716154306627783 4.5093583758074836 -1.5009037041588413 4.644934939487217 -1.6281320444809739 4.4541955337459784 -1.863665032578306 4.5533379105644007 -1.9650793637809103 4.3237747564222744 -2.1975889826173591 4.3847976677969749 -1.8154768667434815 3.3322929971987163 -1.7536990110495554 3.0102187373185552 -1.8560751377095697 2.9929774577375352 -1.7328195683900751 2.6368402367587969 -1.7655299981109511 2.5476292972006926 -1.5396180090366365 2.1181468111562336 -1.4505084384792586 1.9147946410957601 -1.4921851580132752 1.894136723238335 -1.2730330884314267 1.559293527419221 -2.0397879940280097 2.3973440030503408 0 0
        </DataArray>
        <DataArray type="Float32" Name="u" NumberOfComponents="1">
          0 0.007874015748031496 0.015748031496062992 0.023622047244094488 0.031496062992125984 0.03937007874015748 0.047244094488188976 0.055118110236220472 0.062992125984251968 0.070866141732283464 0.07874015748031496 0.086614173228346455 0.094488188976377951 0.10236220472440945 0.11023622047244094 0.11811023622047244 0.12598425196850394 0.13385826771653545 0.14173228346456693 0.14960629921259844 0.15748031496062992 0.16535433070866143 0.17322834645669291 0.18110236220472442 0.1889763779527559 0.19685039370078741 0.20472440944881889 0.2125984251968504 0.22047244094488189 0.2283464566929134 0.23622047244094488 0.24409448818897639 0.25196850393700787 0.25984251968503935 0.26771653543307089 0.27559055118110237 0.28346456692913385 0.29133858267716534 0.29921259842519687 0.30708661417322836 0.31496062992125984 0.32283464566929132 0.33070866141732286 0.33858267716535434 0.34645669291338582 0.3543307086614173 0.36220472440944884 0.37007874015748032 0.37795275590551181 0.38582677165354329 0.39370078740157483 0.40157480314960631 0.40944881889763779 0.41732283464566927 0.42519685039370081 0.43307086614173229 0.44094488188976377 0.44881889763779526 0.45669291338582679 0.46456692913385828 0.47244094488188976 0.48031496062992124 0.48818897637795278 0.49606299212598426 0.50393700787401574 0.51181102362204722 0.51968503937007871 0.52755905511811019 0.53543307086614178 0.54330708661417326 0.55118110236220474 0.55905511811023623 0.56692913385826771 0.57480314960629919 0.58267716535433067 0.59055118110236215 0.59842519685039375 0.60629921259842523 0.61417322834645671 0.62204724409448819 0.62992125984251968 0.63779527559055116 0.64566929133858264 0.65354330708661412 0.66141732283464572 0.6692913385826772 0.67716535433070868 0.68503937007874016 0.69291338582677164 0.70078740157480313 0.70866141732283461 0.71653543307086609 0.72440944881889768 0.73228346456692917 0.74015748031496065 0.74803149606299213 0.75590551181102361 0.76377952755905509 0.77165354330708658 0.77952755905511806 0.78740157480314965 0.79527559055118113 0.80314960629921262 0.8110236220472441 0.81889763779527558 0.82677165354330706 0.83464566929133854 0.84251968503937003 0.85039370078740162 0.8582677165354331 0.86614173228346458 0.87401574803149606 0.88188976377952755 0.88976377952755903 0.89763779527559051 0.90551181102362199 0.91338582677165359 0.92125984251968507 0.92913385826771655 0.93700787401574803 0.94488188976377951 0.952755905511811 0.96062992125984248 0.96850393700787396 0.97637795275590555 0.98425196850393704 0.99212598425196852 1
        </DataArray>
      </PointData>
      <CellData Scalars="P">
        <DataArray type="Float32" Name="P" NumberOfComponents="1">
          -0.030835709111520442 -0.091499748656579727 -0.15077994137235251 -0.20894119382932938 -0.26648359979127234 -0.32400295916333988 -0.38211442825268621 -0.44140570988050021 -0.50240723568971313 -0.56557283170021111 -0.63126724092296571 -0.69975879214631809 -0.77121593257409093 -0.8457059819567605 -0.9231954114437676 -1.003552196789393 -1.0865509260167323 -1.1718771558017902 -1.2591330354521426 -1.3478456737367934 -1.4374749387215819 -1.5274208567612104 -1.6170338798752555 -1.705625419292091 -1.7924740949519573 -1.876841489492538 -1.9579804966074728 -2.0351428102788027 -2.1075927520969739 -2.1746421527660011 -2.23562071443193 -2.2899072585487938 -2.3369423129879889 -2.3762412884798061 -2.4074053357879466 -2.4301359363291231 -2.4442393240519427 -2.4496495573723078 -2.4464395022634053 -2.4348216597296566 -2.4151614685575558 -2.387987901508652 -2.2023590654761906 -1.9792263077700458 -1.6846606943776645 -1.3844605245854118 -1.0428391449828147 -0.65776290813285843 -0.22573630321505692 0.25845351004543915 0.80015546488092892 1.4067008387729905 2.1347066256736582 3.0019643634589452 2.2523543321086099 1.4724548489239537 1.2961522647352572 1.1502632023518635 1.03687102563695 0.95882092300169086 0.89169561183503354 0.86141048985766611 0.86831751249749634 0.91369670992649754 0.9972061417023399 1.0905747976332441 1.2218250754422477 1.3612710053208119 1.5081194506486231 1.6615226742973526 1.8205743162880847 1.9843130761010737 2.1523056185789562 2.3229047564812015 2.5200991849061345 2.7168479739888345 2.9120480264261794 3.1045878099764543 3.2933531586468847 3.4772328907848613 3.6551249943328981 3.8263423300173933 3.9893972704248517 4.1432568344653449 4.286924541170376 4.41944735718209 4.5399229653956139 4.6477556472086263 4.7418911667521373 4.8216259015275362 4.8863358419606797 4.9356334105198432 4.9688954286735338 4.9857811140405452 4.9860517707569603 4.9696362104378551 4.9364340248402678 4.8865486214756464 4.8202021243521678 4.7377367416004859 4.6395750103149904 4.526318923240944 4.3986745557620459 4.2574639875137734 4.0976246874376825 3.9252384710250805 3.7417634107005524 3.5487538097049178 3.3386197641990023 3.1216546487424051 2.8893340196235791 2.6542018697639596 2.4069098809208449 2.161699533607023 1.9089029240200828 1.6638861569830443 1.4170848076375648 1.2156080546306676 1.0312664447683428 0.85341258699282652 0.69492879087214188 0.54723094399573635 0.42043148425563409 0.30740962092519336 0.20429572655733033 0.11623589247053798 0.03277874195940457
        </DataArray>
      </CellData>
      <Points>
        <DataArray type="Float32" NumberOfComponents="3" format="ascii">
          6.6470669270794236 10.332964687835288 0
          6.6478491177277315 10.325125534421039 0
          6.6485960791748075 10.317283035045493 0
          6.6492931727778579 10.309436082509899 0
          6.6499307398537892 10.301584238793458 0
          6.6505020371980814 10.293727488988678 0
          6.6510023710154602 10.285866112603731 0
          6.6514286111351693 10.278000595258781 0
          6.6517788760276826 10.270131561502128 0
          6.6520523125253277 10.262259721536321 0
          6.6522489372772853 10.25438582822953 0
          6.6523695126019682 10.246510641863749 0
          6.6524154479179129 10.238634901390375 0
          6.6523887182336052 10.230759301201163 0
          6.6522918004221339 10.222884472667761 0
          6.6521276232702231 10.215010969656689 0
          6.6518995243613368 10.20713925752808 0
          6.6516112081587497 10.199269705468945 0
          6.6512667132542358 10.191402581688569 0
          6.6508703846337989 10.183538051194729 0
          6.6504268453902347 10.175676176178538 0
          6.6499409719896203 10.167816918670486 0
          6.649417874197562 10.159960145150864 0
          6.6488628744136848 10.152105633232011 0
          6.648281487469669 10.14425308022715 0
          6.6476794077304868 10.136402112925056 0
          6.6470624891493459 10.12855229944862 0
          6.646436730239043 10.120703162188617 0
          6.6458082638725084 10.112854191608911 0
          6.6451833438999746 10.105004861415731 0
          6.6445683074959545 10.097154646607006 0
          6.6439695834348056 10.089303038584601 0
          6.6433936778759426 10.081449562682398 0
          6.6428471594729581 10.073593796182003 0
          6.6423366432261917 10.06573538665033 0
          6.6418687750487138 10.057874070247417 0
          6.6414502134489366 10.050009690016463 0
          6.6410876167763817 10.042142213451479 0
          6.6407876197382025 10.034271750009513 0
          6.6405568093513461 10.026398567562765 0
          6.6404017077767445 10.01852310734999 0
          6.6403287510136604 10.010645997707522 0
          6.6403442649962567 10.002768066151008 0
          6.640552510010691 9.9948931170001778 0
          6.6409839068997725 9.9870274923382816 0
          6.6416953512083525 9.9791825313631115 0
          6.6426911953008645 9.9713688533951608 0
          6.6440027012066194 9.9636022053706057 0
          6.6456604946320743 9.9559023269502003 0
          6.6476945670532324 9.9482934854036991 0
          6.6501341952331128 9.9408051167816467 0
          6.6530064172354733 9.9334720822104039 0
          6.6563356539364635 9.926335207586682 0
          6.6601729931950926 9.9194584867722124 0
          6.6645631449069951 9.9129211473998424 0
          6.6685726839942117 9.90614339505637 0
          6.6721941623227998 9.8991502519842172 0
          6.6757571893200884 9.8921270225741438 0
          6.6792792681206592 9.8850830455734755 0
          6.6827782113526437 9.8780274270504567 0
          6.6862727173479914 9.8709694928615139 0
          6.6897686987514113 9.8639121657347921 0
          6.6932850397640058 9.8568648421390019 0
          6.6968406679936665 9.8498371458243046 0
          6.7004551235933585 9.842839418344866 0
          6.7041478146613356 9.835882561573511 0
          6.7079240517593393 9.8289705965281673 0
          6.7118033936561403 9.8221158769196517 0
          6.7157905708122438 9.8153232199477092 0
          6.7198900754826738 9.8085976586482744 0
          6.7241061444755079 9.8019444441440058 0
          6.7284427379762297 9.7953690439529417 0
          6.7329035183319244 9.7888771383196787 0
          6.7374921322783603 9.7824748323020536 0
          6.742211577632089 9.7761682271470427 0
          6.7470779625722423 9.7699741947499827 0
          6.7520930554061813 9.7638998299895103 0
          6.7572581771362747 9.7579524005564924 0
          6.7625741827102903 9.7521393267243521 0
          6.7680414435406631 9.7464681586865449 0
          6.7736598312756557 9.7409465512521063 0
          6.7794287032392564 9.7355822360760573 0
          6.7853471310323847 9.7303832666731225 0
          6.7914133916907575 9.7253574495226331 0
          6.797625215428555 9.7205125699907686 0
          6.8039797803161299 9.7158563554198469 0
          6.8104737098030563 9.7113964361518121 0
          6.817103073495363 9.707140304859383 0
          6.8238635706556163 9.703095574713462 0
          6.8307501605290755 9.6992693469737912 0
          6.8377572716132606 9.6956684545091001 0
          6.8448788177153128 9.6922994166760699 0
          6.8521083524766562 9.6891687046384867 0
          6.8594388036104608 9.6862820798858209 0
          6.8668626598734717 9.6836448579035981 0
          6.8743720032538667 9.6812618600293234 0
          6.8819586355688154 9.6791376856677669 0
          6.8896139244646486 9.6772760468517784 0
          6.8973289604448871 9.6756800364309292 0
          6.9050946095212069 9.6743520909508849 0
          6.9129015702138066 9.6732939558819222 0
          6.9207404660695682 9.6725069684871041 0
          6.9286018267369034 9.6719914014580315 0
          6.9364762101992889 9.6717467480847965 0
          6.9443542758550878 9.671771699385431 0
          6.9522261633786435 9.6720818512443465 0
          6.9600817353752049 9.672674192057757 0
          6.9679112191751589 9.6735447905347005 0
          6.9757053006522476 9.6746887937177544 0
          6.9834518931918979 9.6761184693447433 0
          6.9911416266375994 9.6778268979670141 0
          6.9987611277377209 9.6798245378169927 0
          7.0063015185759809 9.6821019038226961 0
          7.0137485591318844 9.6846673760436044 0
          7.0210943630353837 9.6875090940056303 0
          7.028324313874899 9.6906331752040149 0
          7.0354321357875502 9.6940253535276035 0
          7.0424034121383317 9.6976893835717579 0
          7.0492618948457126 9.7015599836260513 0
          7.0560114337397648 9.7056171675820195 0
          7.0626456893477174 9.7098598516800472 0
          7.0691723282692456 9.7142659464197312 0
          7.075589339155929 9.7188299146309198 0
          7.0819107575223095 9.7235251303323693 0
          7.0881421317599029 9.7283389910494531 0
          7.094280902243808 9.7332702261653914 0
          7.1003406896700803 9.7382980952670941 0
          7.1062739928643266 9.7434745862281815 0
        </DataArray>
      </Points>
      <Cells>
        <DataArray type="Int32" Name="connectivity" format="ascii">
          0 1 1 2 2 3 3 4 4 5 5 6 6 7 7 8 8 9 9 10 10 11 11 12 12 13 13 14 14 15 15 16 16 17 17 18 18 19 19 20 20 21 21 22 22 23 23 24 24 25 25 26 26 27 27 28 28 29 29 30 30 31 31 32 32 33 33 34 34 35 35 36 36 37 37 38 38 39 39 40 40 41 41 42 42 43 43 44 44 45 45 46 46 47 47 48 48 49 49 50 50 51 51 52 52 53 53 54 54 55 55 56 56 57 57 58 58 59 59 60 60 61 61 62 62 63 63 64 64 65 65 66 66 67 67 68 68 69 69 70 70 71 71 72 72 73 73 74 74 75 75 76 76 77 77 78 78 79 79 80 80 81 81 82 82 83 83 84 84 85 85 86 86 87 87 88 88 89 89 90 90 91 91 92 92 93 93 94 94 95 95 96 96 97 97 98 98 99 99 100 100 101 101 102 102 103 103 104 104 105 105 106 106 107 107 108 108 109 109 110 110 111 111 112 112 113 113 114 114 115 115 116 116 117 117 118 118 119 119 120 120 121 121 122 122 123 123 124 124 125 125 126 126 127 
        </DataArray>
        <DataArray type="Int32" Name="offsets" format="ascii">
          2 4 6 8 10 12 14 16 18 20 22 24 26 28 30 32 34 36 38 40 42 44 46 48 50 52 54 56 58 60 62 64 66 68 70 72 74 76 78 80 82 84 86 88 90 92 94 96 98 100 102 104 106 108 110 112 114 116 118 120 122 124 126 128 130 132 134 136 138 140 142 144 146 148 150 152 154 156 158 160 162 164 166 168 170 172 174 176 178 180 182 184 186 188 190 192 194 196 198 200 202 204 206 208 210 212 214 216 218 220 222 224 226 228 230 232 234 236 238 240 242 244 246 248 250 252 254 
        </DataArray>
        <DataArray type="Int32" Name="types" format="ascii">
          3 3 3 3 3 3 3 3 3 3 3 3 3 3 3 3 3 3 3 3 3 3 3 3 3 3 3 3 3 3 3 3 3 3 3 3 3 3 3 3 3 3 3 3 3 3 3 3 3 3 3 3 3 3 3 3 3 3 3 3 3 3 3 3 3 3 3 3 3 3 3 3 3 3 3 3 3 3 3 3 3 3 3 3 3 3 3 3 3 3 3 3 3 3 3 3 3 3 3 3 3 3 3 3 3 3 3 3 3 3 3 3 3 3 3 3 3 3 3 3 3 3 3 3 3 3 3         </DataArray>
      </Cells>
    </Piece>
  </UnstructuredGrid>
</VTKFile>
