<?xml version="1.0"?>
<VTKFile type="UnstructuredGrid" version="0.1" byte_order="LittleEndian">
  <UnstructuredGrid>
    <Piece NumberOfPoints="128" NumberOfCells="127">
      <PointData Scalars="W">
        <DataArray type="Float32" Name="W" NumberOfComponents="2">
          0 0 -0.46871886770211307 0.28313855566574586 -0.75602014880472335 0.45090668398131245 -0.97845985189681606 0.57310374433540823 -1.1678931059807536 0.66883022554088967 -1.3373487700226467 0.74588467957137372 -1.4934869816672012 0.80824453475308644 -1.6402493576897741 0.85825347095175819 -1.7801623807698228 0.89740249930373417 -1.9149925235569143 0.92671556214267414 -2.0459497085362632 0.94687967767458692 -2.1739428002830699 0.95838989308595446 -2.2996642470333626 0.96159885424484437 -2.4236356020182628 0.95674568406154004 -2.5462762135894517 0.94399090462056867 -2.6679080927161856 0.92342191193088674 -2.7886859866931144 0.89503681744200969 -2.9087737734058599 0.85881230696372535 -3.0282368577087695 0.81466831281940078 -3.1470535735806235 0.76248024503091139 -3.2651590058321904 0.70209653736418731 -3.3824664222168761 0.63334443728731904 -3.4988273278435802 0.5560227676483428 -3.6140331473351726 0.46990744659278438 -3.7278395443196821 0.37475877621780929 -3.8398851491211548 0.27031783031984979 -3.9498196841737734 0.15632532315747064 -4.0572976042352185 0.032513822830319151 -4.1618158031517112 -0.1013933533561682 -4.2625006940748928 -0.2456424556718276 -4.3591179344708868 -0.40048959053156513 -4.4509914773838775 -0.56618382526599687 -4.5373746181175285 -0.74295099118279306 -4.6174414047311778 -0.93098424996291596 -4.6903049111661792 -1.1304389268420962 -4.7550032808589515 -1.3414221708843075 -4.8106005260679598 -1.5640179013336524 -4.8559392721179506 -1.7982064349466975 -4.8897668509872423 -2.0438687488250249 -4.9108929088653097 -2.3008424155392388 -4.9180195063368535 -2.5688539982619458 -4.9097460314019088 -2.8474940941453006 2.4130155085260627 1.4361335022856299 2.2899894441492497 1.2973048305932939 2.1561538634986013 1.1651096638318406 2.0568116651803843 1.0620528626337928 1.9074176535854139 0.94301931788682747 1.7971198209168191 0.85251807431887172 1.6837275932128346 0.76776059308897826 1.5672129106564603 0.68824379639943645 1.4488807027711565 0.61404453494762412 1.3295113656569324 0.54495571305471813 1.2098241263577465 0.48072448514889127 1.090478979991202 0.42106511962409782 1.0182843104416839 0.38282588906325299 0.90160382610213397 0.33068543326404465 0.83179075544784442 0.29824599912826399 0.72060317894805059 0.25311560234712321 0.61174174029677153 0.21106711463143105 0.46044458981200748 0.15656954054293065 0.3110088090216378 0.1046439115741189 0.16379010926323856 0.054750493627636988 0.019097180892313166 0.0063675429448807087 -0.12277306526609802 -0.040994749862854347 -0.26094208849675793 -0.087592691183479093 -0.34064676191344367 -0.1152961011889288 -0.47158539070403305 -0.16139164597982739 -0.54135576543589881 -0.18782419101698597 -0.60570919148467472 -0.21340399481895878 -0.66385636875016474 -0.23785669923667982 -0.71710475212310809 -0.26162347997323976 -0.76472388858006801 -0.28439644041280349 -0.80665726294443507 -0.3060748345551953 -0.84289217260633575 -0.32654846589459358 -0.87272475991530052 -0.34540773545205339 -0.89757223479199699 -0.3630590009847387 -0.97296339916323193 -0.40259232072048129 -0.98609955264807159 -0.41771888720520189 -0.99363134658719732 -0.43088367909378017 -0.9956300947476151 -0.44190471393776615 -0.99148225385266864 -0.45028057308431924 -0.9826786047478967 -0.45646057824317293 -0.96861798624378681 -0.45996406723160016 -0.94940756566262219 -0.4606264839441459 -0.92515965590708704 -0.4582941017890691 -0.89599883408646486 -0.45283092762080018 -0.80794418216580632 -0.4159962199931887 -0.76968095672528181 -0.40313466392310005 -0.72609774635489566 -0.3864905860827893 -0.67870407239430319 -0.36674828302371987 -0.62687683162926289 -0.34349711305289138 -0.57066446716834984 -0.31670234676623865 -0.45880621377563818 -0.25741653782799312 -0.39421701962292632 -0.22318068131114138 -0.32530437318255118 -0.18556889385663267 -0.25206261714603573 -0.14466457817419096 -0.1744323438100763 -0.10056043808083097 -0.092359788021886297 -0.053394865541125915 0.044288186024601953 0.025616720911102859 0.13560057527601027 0.078284750717586102 0.23182233115354978 0.13331985875096336 0.33314627202875802 0.19045575547526394 0.4398127452256026 0.24939631091270795 0.55209210281241783 0.30980147997538615 0.67108328778660808 0.37172225985524165 0.79564878240091841 0.43389440472706353 0.87661578226388015 0.4695710172259191 1.014652745440507 0.53255644912255673 1.1611583863790087 0.59523164324339284 1.3151578267627706 0.65613084160538171 1.4249617273692703 0.68964551538057883 1.5978547971715638 0.74749225687145771 1.7805791715166455 0.80142426781230236 1.919751925185847 0.82756747288133581 2.1264002441156622 0.87338515016843288 2.2895898537717065 0.89068117189667262 2.4650132011793047 0.90256225062217665 2.7209058659831209 0.92993711198610085 2.9348854533172952 0.92682852670366445 3.1027905774784563 0.89574514921807036 -4.2569075736529642 -1.2508839564981391 -3.6587338509093623 -1.2061526327303715 -3.6490143532675337 -1.3274589084505548 -2.8371691803703318 -1.1207272098407191 -2.0339796448175096 -0.85252075141490591 -0.78518934514251371 -0.34028642478750976 5.5737179208495835 2.2820099196456138 0 0
        </DataArray>
        <DataArray type="Float32" Name="u" NumberOfComponents="1">
          0 0.007874015748031496 0.015748031496062992 0.023622047244094488 0.031496062992125984 0.03937007874015748 0.047244094488188976 0.055118110236220472 0.062992125984251968 0.070866141732283464 0.07874015748031496 0.086614173228346455 0.094488188976377951 0.10236220472440945 0.11023622047244094 0.11811023622047244 0.12598425196850394 0.13385826771653545 0.14173228346456693 0.14960629921259844 0.15748031496062992 0.16535433070866143 0.17322834645669291 0.18110236220472442 0.1889763779527559 0.19685039370078741 0.20472440944881889 0.2125984251968504 0.22047244094488189 0.2283464566929134 0.23622047244094488 0.24409448818897639 0.25196850393700787 0.25984251968503935 0.26771653543307089 0.27559055118110237 0.28346456692913385 0.29133858267716534 0.29921259842519687 0.30708661417322836 0.31496062992125984 0.32283464566929132 0.33070866141732286 0.33858267716535434 0.34645669291338582 0.3543307086614173 0.36220472440944884 0.37007874015748032 0.37795275590551181 0.38582677165354329 0.39370078740157483 0.40157480314960631 0.40944881889763779 0.41732283464566927 0.42519685039370081 0.43307086614173229 0.44094488188976377 0.44881889763779526 0.45669291338582679 0.46456692913385828 0.47244094488188976 0.48031496062992124 0.48818897637795278 0.49606299212598426 0.50393700787401574 0.51181102362204722 0.51968503937007871 0.52755905511811019 0.53543307086614178 0.54330708661417326 0.55118110236220474 0.55905511811023623 0.56692913385826771 0.57480314960629919 0.58267716535433067 0.59055118110236215 0.59842519685039375 0.60629921259842523 0.61417322834645671 0.62204724409448819 0.62992125984251968 0.63779527559055116 0.64566929133858264 0.65354330708661412 0.66141732283464572 0.6692913385826772 0.67716535433070868 0.68503937007874016 0.69291338582677164 0.70078740157480313 0.70866141732283461 0.71653543307086609 0.72440944881889768 0.73228346456692917 0.74015748031496065 0.74803149606299213 0.75590551181102361 0.76377952755905509 0.77165354330708658 0.77952755905511806 0.78740157480314965 0.79527559055118113 0.80314960629921262 0.8110236220472441 0.81889763779527558 0.82677165354330706 0.83464566929133854 0.84251968503937003 0.85039370078740162 0.8582677165354331 0.86614173228346458 0.87401574803149606 0.88188976377952755 0.88976377952755903 0.89763779527559051 0.90551181102362199 0.91338582677165359 0.92125984251968507 0.92913385826771655 0.93700787401574803 0.94488188976377951 0.952755905511811 0.96062992125984248 0.96850393700787396 0.97637795275590555 0.98425196850393704 0.99212598425196852 1
        </DataArray>
      </PointData>
      <CellData Scalars="P">
        <DataArray type="Float32" Name="P" NumberOfComponents="1">
          -0.026701350374984535 -0.07887848619490434 -0.12847140371546223 -0.17472286286007374 -0.21708495097780264 -0.25510977797669004 -0.28840108727799024 -0.31658689953520047 -0.33930277194512537 -0.35617972973588286 -0.36683727638194769 -0.37087712532663925 -0.36787849301308245 -0.3573947109513218 -0.3389497780336419 -0.31203584793736161 -0.27611386193447807 -0.23060975612222032 -0.17491430497035645 -0.10838332302173603 -0.030336801568304168 0.059942632023097769 0.1632095220960515 0.28025508826480133 0.41190754316019446 0.55902811906220984 0.72251290476126184 0.90329481032401215 1.1023363133616446 1.3206069327852852 1.5591219877586973 1.8189167948712777 2.1010413401267991 2.4065534154613135 2.7365120822564726 3.0919690427299833 3.4739676941571238 3.8835198869154604 4.3215900547026962 4.7890930884334164 5.2868749498435337 5.8156903994848435 5.4811627833263952 5.1514866676925219 4.8311344122797504 4.5179409327490907 4.2209896529326674 3.9365686649913267 3.6665357229722426 3.4124766010240051 3.1755257251112803 2.9564561729531391 2.7557061271096344 2.5734069849118173 2.4030633651214797 2.250739696317456 2.109933936564925 1.9858040998820863 1.8774907906618661 1.7894170644176575 1.7201822333201073 1.6682329269342502 1.6318934509206668 1.6093914356598216 1.5988264185971808 1.593364135887251 1.5963493765428132 1.6013995863686608 1.6072280503432508 1.6125846924579887 1.6164090421944659 1.6176952463468341 1.6155480105117148 1.6091905744736834 1.5979448548741937 1.5813118090754412 1.5601206617044405 1.5325049891785687 1.4983336461622119 1.4576010776205293 1.4104246917947378 1.3570375518609672 1.297778476610018 1.2330864512543187 1.1634915546448568 1.0896047477869091 1.0140210404249645 0.93581859693477976 0.85579525591806027 0.77472527435343186 0.69343575686138992 0.61276822645449192 0.53662594502348493 0.46292988167100751 0.39247390163611368 0.32602245795612722 0.26430295246818902 0.20799454507104156 0.16135371733770343 0.12135775309678661 0.088483676946335299 0.063134340844213918 0.045634178795448344 0.036224355650092271 0.035117226459346347 0.042325751070832467 0.054250255389580802 0.074414484207106668 0.1026758623283423 0.13869240498932295 0.17871374521988839 0.22581388585916365 0.27940722359090114 0.33581000945769146 0.39756626875310708 0.46106466624231557 0.52571710732821253 0.59381854312048776 0.66196820892561548 0.72709124661815439 0.54864767063919639 0.40076987405943959 0.26557197945687711 0.16425267310899269 0.090091120261245619 0.040006483086597121 0.02312376688663266
        </DataArray>
      </CellData>
      <Points>
        <DataArray type="Float32" NumberOfComponents="3" format="ascii">
          4.198122819164583 6.1324994884438366 0
          4.2022089232199082 6.1392309521978587 0
          4.2062659667766056 6.1459799801021662 0
          4.210276136739135 6.1527569792470373 0
          4.2142256412463741 6.1595695300946209 0
          4.2181027346325379 6.1664235713196769 0
          4.2218969096242125 6.1733238835609479 0
          4.2255984844016856 6.1802743361392674 0
          4.2291983582092856 6.1872780324285657 0
          4.2326878547045617 6.1943374023323461 0
          4.2360586124279687 6.2014542657848546 0
          4.2393025097798231 6.2086298753513667 0
          4.2424116086632226 6.2158649469185026 0
          4.2453781115455342 6.2231596815498573 0
          4.2481943291165196 6.2305137802985842 0
          4.2508526542841478 6.2379264541430661 0
          4.2533455422067696 6.2453964293855782 0
          4.2556655006987008 6.2529219475121227 0
          4.2578050800706455 6.260500763721879 0
          4.2597568690783403 6.2681301419356394 0
          4.2615134962727499 6.2758068470418511 0
          4.263067634034571 6.2835271354686482 0
          4.2644120039641233 6.2912867444411091 0
          4.265539386104253 6.2990808794750954 0
          4.266442631892251 6.3069042004501927 0
          4.267114679332817 6.3147508067141391 0
          4.2675485754328877 6.3226142209950185 0
          4.2677374979522176 6.3304873732917937 0
          4.2676747768641476 6.3383625842607261 0
          4.2673539255924897 6.3462315480295874 0
          4.2667686952311898 6.3540853169014584 0
          4.2659130891200645 6.3619142854499628 0
          4.2647814048203427 6.3697081750543925 0
          4.2633682804767448 6.377456019880003 0
          4.2616687460987457 6.3851461548893527 0
          4.2596782786273462 6.3927662062059456 0
          4.2573928616526127 6.4003030844722959 0
          4.2548090435290646 6.4077429796559251 0
          4.2519240092248438 6.4150713622893827 0
          4.2487356580827402 6.422272990880745 0
          4.2452426777157495 6.4293319220257432 0
          4.2414446245744397 6.4362315274155417 0
          4.2373420108799928 6.4429545192887492 0
          4.2333890996793615 6.4497665539431033 0
          4.2295782592496938 6.4566590145365188 0
          4.2259011872550225 6.4636236958874598 0
          4.2223517198537746 6.470654202384611 0
          4.2189205896337612 6.4777431458163095 0
          4.2156009532645973 6.484884910011794 0
          4.2123857755908274 6.4920742354178831 0
          4.2092678279391693 6.4993061878637617 0
          4.2062397690723001 6.5065761633518404 0
          4.203294193613444 6.5138798752141041 0
          4.2004236766721359 6.5212133384285389 0
          4.1976208147911969 6.5285728518939763 0
          4.1948811283039404 6.5359560449517504 0
          4.1921973794681691 6.5433596834378625 0
          4.1895652367557883 6.5507817568149864 0
          4.1869778035030807 6.558219466281705 0
          4.1844283275197434 6.5656702044827311 0
          4.1819074257337947 6.5731305910399893 0
          4.1794058307590465 6.5805974055494252 0
          4.1769144129490021 6.5880675541199674 0
          4.1744241995277092 6.5955380370274135 0
          4.1719263929827086 6.6030059183486403 0
          4.1694124255114708 6.6104683100879793 0
          4.166877354268161 6.6179234975296044 0
          4.1643130600732512 6.6253686246766392 0
          4.1617152162199647 6.6328020562880825 0
          4.1590798318914421 6.6402222102076935 0
          4.1564033010646906 6.647627574359519 0
          4.1536823214220231 6.6550166793431034 0
          4.1509139396114154 6.6623881175086561 0
          4.1480955547269582 6.6697405491750219 0
          4.1452249190765018 6.6770727094326645 0
          4.142300181803396 6.6843834335145127 0
          4.1393198010107133 6.6916716315599603 0
          4.1362791010310529 6.6989348568019471 0
          4.1331772657493433 6.7061721760529718 0
          4.1300138263779385 6.7133827776821535 0
          4.126788657041363 6.7205659828712569 0
          4.1235020128279407 6.7277212766755214 0
          4.1201544373754713 6.7348482801449325 0
          4.1167468001624323 6.7419467801051587 0
          4.1132802898864975 6.7490167393425038 0
          4.1097564075273345 6.7560583061204191 0
          4.1061769586518011 6.7630718225997493 0
          4.102547400745916 6.7700595751300003 0
          4.0988701039415645 6.7770223639960339 0
          4.095147768310281 6.7839612237721107 0
          4.0913833302918814 6.7908773809141856 0
          4.0875800013672619 6.7977722792147564 0
          4.0837412650890501 6.8046475819611354 0
          4.0798740562256803 6.8115069657690706 0
          4.0759823783287485 6.8183525547909598 0
          4.0720705032915321 6.8251866823112328 0
          4.0681429717268038 6.8320118855851657 0
          4.0642045966757534 6.8388309001006675 0
          4.060260466964043 6.8456466510078249 0
          4.0563190568687588 6.8524640366647906 0
          4.0523860289892086 6.8592863230349161 0
          4.0484673507108528 6.8661169227171444 0
          4.0445693061699233 6.8729593784395409 0
          4.0406985111619598 6.8798173447005055 0
          4.0368619299070305 6.8866945666853194 0
          4.0330669432115585 6.8935948834050729 0
          4.0293212778875223 6.9005221493450897 0
          4.0256299562279292 6.9074785774628999 0
          4.0220015410552534 6.9144680724701688 0
          4.0184451206930483 6.9214945196708211 0
          4.0149702484487486 6.9285616941146975 0
          4.0115837358619553 6.9356716743623856 0
          4.008296308420964 6.9428280459285538 0
          4.0051193014852258 6.9500341514456192 0
          4.0020613484512424 6.9572916121332407 0
          3.9991352686740327 6.9646032672561295 0
          3.996351185230782 6.9719701894041544 0
          3.9937199800021741 6.9793931155608835 0
          3.9912575267435813 6.9868737413012241 0
          3.9889770987334794 6.9944118743765378 0
          3.9868891108108229 7.0020055909212582 0
          3.984537229861675 7.0095213058577475 0
          3.9819585708467664 7.0169618697964777 0
          3.9791537361003733 7.0243198526949877 0
          3.9761730617195301 7.0316081423343153 0
          3.9730663316725772 7.0388434398940127 0
          3.9699109471159 7.0460575752473957 0
          3.9671011320698892 7.053413201639656 0
        </DataArray>
      </Points>
      <Cells>
        <DataArray type="Int32" Name="connectivity" format="ascii">
          0 1 1 2 2 3 3 4 4 5 5 6 6 7 7 8 8 9 9 10 10 11 11 12 12 13 13 14 14 15 15 16 16 17 17 18 18 19 19 20 20 21 21 22 22 23 23 24 24 25 25 26 26 27 27 28 28 29 29 30 30 31 31 32 32 33 33 34 34 35 35 36 36 37 37 38 38 39 39 40 40 41 41 42 42 43 43 44 44 45 45 46 46 47 47 48 48 49 49 50 50 51 51 52 52 53 53 54 54 55 55 56 56 57 57 58 58 59 59 60 60 61 61 62 62 63 63 64 64 65 65 66 66 67 67 68 68 69 69 70 70 71 71 72 72 73 73 74 74 75 75 76 76 77 77 78 78 79 79 80 80 81 81 82 82 83 83 84 84 85 85 86 86 87 87 88 88 89 89 90 90 91 91 92 92 93 93 94 94 95 95 96 96 97 97 98 98 99 99 100 100 101 101 102 102 103 103 104 104 105 105 106 106 107 107 108 108 109 109 110 110 111 111 112 112 113 113 114 114 115 115 116 116 117 117 118 118 119 119 120 120 121 121 122 122 123 123 124 124 125 125 126 126 127 
        </DataArray>
        <DataArray type="Int32" Name="offsets" format="ascii">
          2 4 6 8 10 12 14 16 18 20 22 24 26 28 30 32 34 36 38 40 42 44 46 48 50 52 54 56 58 60 62 64 66 68 70 72 74 76 78 80 82 84 86 88 90 92 94 96 98 100 102 104 106 108 110 112 114 116 118 120 122 124 126 128 130 132 134 136 138 140 142 144 146 148 150 152 154 156 158 160 162 164 166 168 170 172 174 176 178 180 182 184 186 188 190 192 194 196 198 200 202 204 206 208 210 212 214 216 218 220 222 224 226 228 230 232 234 236 238 240 242 244 246 248 250 252 254 
        </DataArray>
        <DataArray type="Int32" Name="types" format="ascii">
          3 3 3 3 3 3 3 3 3 3 3 3 3 3 3 3 3 3 3 3 3 3 3 3 3 3 3 3 3 3 3 3 3 3 3 3 3 3 3 3 3 3 3 3 3 3 3 3 3 3 3 3 3 3 3 3 3 3 3 3 3 3 3 3 3 3 3 3 3 3 3 3 3 3 3 3 3 3 3 3 3 3 3 3 3 3 3 3 3 3 3 3 3 3 3 3 3 3 3 3 3 3 3 3 3 3 3 3 3 3 3 3 3 3 3 3 3 3 3 3 3 3 3 3 3 3 3         </DataArray>
      </Cells>
    </Piece>
  </UnstructuredGrid>
</VTKFile>
