<?xml version="1.0"?>
<VTKFile type="UnstructuredGrid" version="0.1" byte_order="LittleEndian">
  <UnstructuredGrid>
    <Piece NumberOfPoints="128" NumberOfCells="127">
      <PointData Scalars="W">
        <DataArray type="Float32" Name="W" NumberOfComponents="2">
          0 0 0.52215469281968852 -0.58057213716549194 0.77266768683788589 -0.87246870064104443 0.95218246063664524 -1.0977717683889103 1.090488914546744 -1.2891044557891 1.1999770339399263 -1.4597595749397985 1.2874125108642811 -1.6168298199803202 1.3570088061209205 -1.7646443264563603 1.4115822207412521 -1.9060563342623602 1.4530358342138252 -2.0429578250519769 1.4827587738960371 -2.1767351415741869 1.5017564858109478 -2.3084019292960862 1.5107514649348184 -2.4387015103426419 1.5102262303352283 -2.5681287427489385 1.5004878795354435 -2.6969884128243788 1.4817387259608616 -2.8254827624074403 1.4541262174602441 -2.9537913196091035 1.4176900196180748 -3.0819563760520352 1.3724091013277282 -3.209946236456811 1.3182383412551368 -3.3377268185966371 1.2550751663463677 -3.4651774080289965 1.1827756870201103 -3.5921024328497912 1.1011803559421602 -3.7182864567891603 1.0101118050938727 -3.843488125760063 0.90935715292755159 -3.9673553502397341 0.79871570416607962 -4.0895953784266545 0.67795705212634261 -4.2098051822822375 0.54683621586808862 -4.3274551393497234 0.40512506874935256 -4.4420349975015121 0.25261374714677848 -4.5533613741964558 0.089030944793042535 -4.6604888804159046 -0.085835328305278472 -4.762770890179616 -0.27218264160142874 -4.8594861693387639 -0.47018955141492613 -4.9498765661822759 -0.68000818347159575 -5.0330988233590084 -0.90176060872309238 -5.1082637234338852 -1.135508994085213 -5.1743195359455312 -1.3812921242943106 -5.230294209116729 -1.6391011804640736 -5.27512746015422 -1.9088176377915465 -5.3075412809331137 -2.1902414362040692 -5.3262285762546266 -2.4830860433006898 -5.329845398162691 1.0065773545892358 2.0836137752399786 0.8929350892343394 1.9340914564705658 0.7853076940043433 1.7752279780752989 0.70877918512619054 1.6684781496671082 0.63645074481330122 1.5574487175033891 0.54485077072844645 1.38230371976656 0.4826968469929 1.2659493064476863 0.42444686678044152 1.1480710097872642 0.37011743007130504 1.0299324898358833 0.31949072243360621 0.91224956143275326 0.27232122742201131 0.79567581697527368 0.22834705247398787 0.68080547963706728 0.20753833535329319 0.63011449218789906 0.16820267801768068 0.51898842098776965 0.15095299284940936 0.47236072465382245 0.13485632078521109 0.4274653421125662 0.084148891328963971 0.26943240928335832 0.054105733070096758 0.17435945285528687 0.0070667885291809318 0.022838792473177057 -0.038796353432699299 -0.12519685469823022 -0.064090170221639917 -0.20582663308085192 -0.10817285603821049 -0.34463962949493093 -0.1527141242486052 -0.48080662118302464 -0.17552882381007298 -0.54462354927543288 -0.2203213706080904 -0.67199124485658768 -0.24229507681747561 -0.7248013359812584 -0.2632902091256451 -0.77161425129152883 -0.28291628451785134 -0.81158266471211893 -0.30166880268755347 -0.84648041269994256 -0.31908789512192398 -0.87535841341683129 -0.33472493658952085 -0.89744994916122633 -0.34904746422699906 -0.91449379928919083 -0.36160738903248196 -0.92575394585309079 -0.37220533067870826 -0.9312183277514503 -0.38069569653286722 -0.93102814902676601 -0.38655693443919881 -0.9244347190896014 -0.39034670227899454 -0.91327505292711608 -0.39159426884822546 -0.89686378774795961 -0.39012564813268863 -0.87523913974846301 -0.38541981812445841 -0.84766785579995441 -0.34771680203336175 -0.75090344044770796 -0.33666649778856067 -0.71505951147254498 -0.32262145123662922 -0.67459810286669397 -0.3055699400194346 -0.62969697682684855 -0.28544434762153392 -0.58036881148477248 -0.26180787174477665 -0.52584343361529029 -0.20420561074429369 -0.40596643634337565 -0.17465875015606525 -0.34438256513165716 -0.14234002192082509 -0.27875349548280404 -0.10738516331117029 -0.20918332764503653 -0.069871996680015827 -0.13559887161738252 0.0009310475306026644 0.0018042343273260064 0.043413409516052381 0.084207575403751359 0.087271299714071507 0.16974569427603547 0.13273320975555816 0.2593806530370189 0.17949876832023781 0.35312145693052044 0.22733335573363495 0.45118164470309585 0.27588091690111932 0.55361506800362326 0.32475566343450357 0.66049446357924324 0.40180487212052302 0.8308617446807478 0.44927106186847093 0.94771693426472048 0.49616031511286313 1.0708085261881912 0.51447435856035817 1.1387708440643109 0.55850219342465279 1.2712586733276174 0.60009226457711939 1.409732716281761 0.63857360283378595 1.5544075497739391 0.67334201480382594 1.7058246039982217 0.70402443596211184 1.8654015229788776 0.70682020805567314 1.9680674372396694 0.7280154875298458 2.1418038985571095 0.72186558301882409 2.2580863990797826 0.73155282904099883 2.451444425399099 0.73216073230349865 2.6549338031166561 0.70595184501325547 2.8013430843794151 0.67302243683808005 2.9605206610746611 0.64604356319606981 3.2086200612557789 -0.71854335142622061 -3.5439540724356431 -0.87250630992973321 -3.7366764035417468 -0.92225218802664555 -3.4851807968039394 -0.84707561126032327 -2.8938786412767157 -0.81276693649590448 -2.5618666700115882 -0.76699307189578658 -2.2599331753366982 -0.53857417846955413 -1.508635644415484 -0.075073819512945186 -0.20562690188810828 1.9252509308138914 5.6698118309466814 0 0
        </DataArray>
        <DataArray type="Float32" Name="u" NumberOfComponents="1">
          0 0.007874015748031496 0.015748031496062992 0.023622047244094488 0.031496062992125984 0.03937007874015748 0.047244094488188976 0.055118110236220472 0.062992125984251968 0.070866141732283464 0.07874015748031496 0.086614173228346455 0.094488188976377951 0.10236220472440945 0.11023622047244094 0.11811023622047244 0.12598425196850394 0.13385826771653545 0.14173228346456693 0.14960629921259844 0.15748031496062992 0.16535433070866143 0.17322834645669291 0.18110236220472442 0.1889763779527559 0.19685039370078741 0.20472440944881889 0.2125984251968504 0.22047244094488189 0.2283464566929134 0.23622047244094488 0.24409448818897639 0.25196850393700787 0.25984251968503935 0.26771653543307089 0.27559055118110237 0.28346456692913385 0.29133858267716534 0.29921259842519687 0.30708661417322836 0.31496062992125984 0.32283464566929132 0.33070866141732286 0.33858267716535434 0.34645669291338582 0.3543307086614173 0.36220472440944884 0.37007874015748032 0.37795275590551181 0.38582677165354329 0.39370078740157483 0.40157480314960631 0.40944881889763779 0.41732283464566927 0.42519685039370081 0.43307086614173229 0.44094488188976377 0.44881889763779526 0.45669291338582679 0.46456692913385828 0.47244094488188976 0.48031496062992124 0.48818897637795278 0.49606299212598426 0.50393700787401574 0.51181102362204722 0.51968503937007871 0.52755905511811019 0.53543307086614178 0.54330708661417326 0.55118110236220474 0.55905511811023623 0.56692913385826771 0.57480314960629919 0.58267716535433067 0.59055118110236215 0.59842519685039375 0.60629921259842523 0.61417322834645671 0.62204724409448819 0.62992125984251968 0.63779527559055116 0.64566929133858264 0.65354330708661412 0.66141732283464572 0.6692913385826772 0.67716535433070868 0.68503937007874016 0.69291338582677164 0.70078740157480313 0.70866141732283461 0.71653543307086609 0.72440944881889768 0.73228346456692917 0.74015748031496065 0.74803149606299213 0.75590551181102361 0.76377952755905509 0.77165354330708658 0.77952755905511806 0.78740157480314965 0.79527559055118113 0.80314960629921262 0.8110236220472441 0.81889763779527558 0.82677165354330706 0.83464566929133854 0.84251968503937003 0.85039370078740162 0.8582677165354331 0.86614173228346458 0.87401574803149606 0.88188976377952755 0.88976377952755903 0.89763779527559051 0.90551181102362199 0.91338582677165359 0.92125984251968507 0.92913385826771655 0.93700787401574803 0.94488188976377951 0.952755905511811 0.96062992125984248 0.96850393700787396 0.97637795275590555 0.98425196850393704 0.99212598425196852 1
        </DataArray>
      </PointData>
      <CellData Scalars="P">
        <DataArray type="Float32" Name="P" NumberOfComponents="1">
          -0.032363384715043512 -0.095052233723402338 -0.15400165540356589 -0.20840879854561992 -0.25779256557187136 -0.30183058735785989 -0.34028057858888594 -0.37293606121241701 -0.3995995447754383 -0.42006722023475856 -0.43411686557543083 -0.4415000151277047 -0.44193653807020566 -0.43511202788229303 -0.42067619372402437 -0.39824051291022611 -0.36737440286855882 -0.32760553208104942 -0.27841897470951971 -0.21925428228699392 -0.14950568968288316 -0.06852239497519981 0.024392987792985731 0.12998573036502495 0.24904642587437067 0.38241569318281099 0.53098130891077766 0.6956736250075698 0.87746773090178121 1.0774036615657976 1.2965462352727504 1.5360015211948996 1.7969129835962603 2.0804594236618321 2.3878491643896904 2.7203160824556569 3.0791057425463633 3.4654789398556844 3.8807022155420867 4.326024562707226 4.8026674726435239 5.3118129912669909 5.0328153112222633 4.7616362855826582 4.5025672099913034 4.2516012978718143 4.0112018508979803 3.7913917590603705 3.5857331573066196 3.3953459689195338 3.2209037550599362 3.0627268828726844 2.9208144406625478 2.7948776871495524 2.6766411621395938 2.5734301980672529 2.477064987032958 2.3871629776768186 2.315920818130389 2.2553370214733461 2.2101632221056211 2.1784700299457866 2.1525655743821535 2.1363169750667406 2.1277863061395048 2.1200635063173006 2.1163937158899673 2.1107115129746323 2.101965936619834 2.0891966248090825 2.0716639237001457 2.0487185823126577 2.0198345636044936 1.9846784514853464 1.9430326310237223 1.8948178005734886 1.8400906044199914 1.7790417216720471 1.7119769558068876 1.6393124388780087 1.5615666319911454 1.4793737298439837 1.3956442206791573 1.3091963585041175 1.2207991908147529 1.1312571168597612 1.0414043148743961 0.95213722198873019 0.8679718838170184 0.78620402510887266 0.70761234593969469 0.6329382057463343 0.56288653108985498 0.5024336245600769 0.44799473783467536 0.40000634645916416 0.35890002652582492 0.32502704126803145 0.29866848120048112 0.28001882701605896 0.26918418130200672 0.27057535883115474 0.27971319749631052 0.29653951509997856 0.31657185012847949 0.34380584783877677 0.37790769785725387 0.41847763944005095 0.4650782821377128 0.51729401215517956 0.57089250296480409 0.62916345736893131 0.68809159253776597 0.7509013247594194 0.8170755178226986 0.88308497713992751 0.94891523835563618 1.0176167589074698 0.84458369037900749 0.67095617065841107 0.51518387720080527 0.38792059979367349 0.2793337508708113 0.18684467075800715 0.11496138138455442 0.061226612067667233 0.028162287627559728
        </DataArray>
      </CellData>
      <Points>
        <DataArray type="Float32" NumberOfComponents="3" format="ascii">
          4.4509207716336263 10.08237204135343 0
          4.4567602590783961 10.087656525959005 0
          4.4626321410490704 10.092905007170133 0
          4.468551960340748 10.098099383617036 0
          4.4745308552817677 10.103225683244007 0
          4.4805774078992151 10.108272040241095 0
          4.4866984125787752 10.11322787071151 0
          4.4928992957850502 10.118083432825788 0
          4.4991843774380973 10.122829558351988 0
          4.505557045608918 10.127457475710663 0
          4.5120198745587627 10.131958692642069 0
          4.5185747108917367 10.136324910229469 0
          4.525222735903192 10.140547960035333 0
          4.5319645103731627 10.144619758002314 0
          4.5388000044711152 10.148532273764653 0
          4.5457286167766249 10.152277511749229 0
          4.5527491867979197 10.155847498637808 0
          4.5598600040851274 10.159234272239052 0
          4.5670588106558769 10.162429878875098 0
          4.5743427996542287 10.165426375359825 0
          4.5817086125139728 10.168215831127629 0
          4.5891523325571049 10.170790335739326 0
          4.5966694760285671 10.173142011035313 0
          4.6042549821593877 10.175263024524849 0
          4.6119032021244362 10.177145604387315 0
          4.6196078857975893 10.178782061347841 0
          4.6273621692640088 10.180164806876455 0
          4.6351585604909165 10.181286378233743 0
          4.6429889240965423 10.182139471375953 0
          4.6508444671678326 10.182716972663975 0
          4.6587157262151973 10.18301197029767 0
          4.6665925503199563 10.183017813032716 0
          4.6744640879677917 10.182728150367172 0
          4.6823187747837798 10.182136977362239 0
          4.6901443224550947 10.1812386817584 0
          4.6979277093027942 10.180028096376208 0
          4.7056551727287657 10.178500554372233 0
          4.713312205391178 10.176651954580924 0
          4.7208835528435955 10.174478821913961 0
          4.7283532141417579 10.171978373233772 0
          4.7357044492726219 10.169148596734338 0
          4.7429197916586725 10.165988333122641 0
          4.7499810660446862 10.162497359079955 0
          4.7571047022700608 10.159135713808871 0
          4.7642836413270775 10.155894117404754 0
          4.771511197969466 10.152762710577825 0
          4.7787826203602402 10.149734866189556 0
          4.7860934177899308 10.146803691899223 0
          4.7934379013838972 10.143958319308389 0
          4.8008122130614268 10.141191526438497 0
          4.8082127375454409 10.138495997202735 0
          4.8156361034173871 10.13586439980859 0
          4.8230791695991764 10.133289431174001 0
          4.8305390101128678 10.130763857474291 0
          4.838012897821276 10.128280550997115 0
          4.8454995456221601 10.125836364329528 0
          4.8529965150237162 10.123424402816767 0
          4.86050274027704 10.121041771711102 0
          4.8680172272684725 10.118685683968854 0
          4.8755368314945571 10.116346337538467 0
          4.883059692808625 10.114017834731939 0
          4.8905828956546733 10.111690778187945 0
          4.8981035982161387 10.109355987066996 0
          4.9056202367833404 10.107008460253327 0
          4.9131300813102676 10.10463958939531 0
          4.9206303740417248 10.102240930483886 0
          4.9281197066573892 10.099808525430317 0
          4.9355953069770298 10.097334476101061 0
          4.9430558196216312 10.094815506926199 0
          4.950499950059676 10.092248714103675 0
          4.9579264887755619 10.08963161809497 0
          4.9653342804656635 10.0869620536204 0
          4.9727222525153474 10.084238228477062 0
          4.9800894427675955 10.08145877105772 0
          4.9874349704685512 10.078622622541559 0
          4.9947580640108624 10.075729082524134 0
          5.0020580732500957 10.072777809771074 0
          5.009334478488654 10.069768813476625 0
          5.0165869227709905 10.066702499703357 0
          5.0238151772755453 10.063579557512393 0
          5.0310191704714677 10.060401001486547 0
          5.0381989988800369 10.057168169396933 0
          5.0453549593488658 10.053882767710023 0
          5.0524893934333406 10.050550793415711 0
          5.059602990366975 10.047174466195635 0
          5.0666966246703069 10.043756292155608 0
          5.0737713568767528 10.040299052847111 0
          5.0808284377253647 10.036805804525278 0
          5.0878693352320736 10.033279925955782 0
          5.0948976217643684 10.029728849120202 0
          5.1019151309327935 10.026156391243003 0
          5.1089238678646725 10.022566620724094 0
          5.1159260008016485 10.018963850710227 0
          5.1229238562851442 10.015352643657659 0
          5.1299218231474919 10.011741520806098 0
          5.1369225353108821 10.00813559245714 0
          5.1439287117264652 10.004540163693278 0
          5.1509431705290654 10.000960794049384 0
          5.1579688104227648 9.9974032980641638 0
          5.1650085961370351 9.9938737585129136 0
          5.1720655363568673 9.9903785297285594 0
          5.1791426598083614 9.9869242420876088 0
          5.1862447401600669 9.9835214646790522 0
          5.1933747182303902 9.9801774471288471 0
          5.2005354987891623 9.9768998260347832 0
          5.2077282164596204 9.973692817991946 0
          5.2149555982287392 9.9705646425483678 0
          5.2222202196961653 9.9675238905608605 0
          5.2295244634828908 9.9645795374400876 0
          5.2368704817751457 9.9617409766682687 0
          5.2442601731766505 9.9590181076693849 0
          5.2516937091871974 9.9564172990510862 0
          5.2591723999650162 9.9539493280207587 0
          5.2666958623193008 9.9516214072660638 0
          5.2742646927337047 9.9494455303956197 0
          5.2818789247704636 9.9474343189245005 0
          5.2895369317791641 9.9455968530584666 0
          5.2972366707455398 9.9439430046704427 0
          5.3049764654517473 9.9424881609418883 0
          5.3126712434512378 9.9408136227736605 0
          5.320311573435764 9.938907450008907 0
          5.3278944684332075 9.9367852408482911 0
          5.3354246798206697 9.9344836508968299 0
          5.3429044266820043 9.9320232461014903 0
          5.3503366324691122 9.9294227204250216 0
          5.3577355407808804 9.926728623680475 0
          5.3651299792240366 9.9240217098037995 0
          5.3726437559425415 9.9216663638703633 0
        </DataArray>
      </Points>
      <Cells>
        <DataArray type="Int32" Name="connectivity" format="ascii">
          0 1 1 2 2 3 3 4 4 5 5 6 6 7 7 8 8 9 9 10 10 11 11 12 12 13 13 14 14 15 15 16 16 17 17 18 18 19 19 20 20 21 21 22 22 23 23 24 24 25 25 26 26 27 27 28 28 29 29 30 30 31 31 32 32 33 33 34 34 35 35 36 36 37 37 38 38 39 39 40 40 41 41 42 42 43 43 44 44 45 45 46 46 47 47 48 48 49 49 50 50 51 51 52 52 53 53 54 54 55 55 56 56 57 57 58 58 59 59 60 60 61 61 62 62 63 63 64 64 65 65 66 66 67 67 68 68 69 69 70 70 71 71 72 72 73 73 74 74 75 75 76 76 77 77 78 78 79 79 80 80 81 81 82 82 83 83 84 84 85 85 86 86 87 87 88 88 89 89 90 90 91 91 92 92 93 93 94 94 95 95 96 96 97 97 98 98 99 99 100 100 101 101 102 102 103 103 104 104 105 105 106 106 107 107 108 108 109 109 110 110 111 111 112 112 113 113 114 114 115 115 116 116 117 117 118 118 119 119 120 120 121 121 122 122 123 123 124 124 125 125 126 126 127 
        </DataArray>
        <DataArray type="Int32" Name="offsets" format="ascii">
          2 4 6 8 10 12 14 16 18 20 22 24 26 28 30 32 34 36 38 40 42 44 46 48 50 52 54 56 58 60 62 64 66 68 70 72 74 76 78 80 82 84 86 88 90 92 94 96 98 100 102 104 106 108 110 112 114 116 118 120 122 124 126 128 130 132 134 136 138 140 142 144 146 148 150 152 154 156 158 160 162 164 166 168 170 172 174 176 178 180 182 184 186 188 190 192 194 196 198 200 202 204 206 208 210 212 214 216 218 220 222 224 226 228 230 232 234 236 238 240 242 244 246 248 250 252 254 
        </DataArray>
        <DataArray type="Int32" Name="types" format="ascii">
          3 3 3 3 3 3 3 3 3 3 3 3 3 3 3 3 3 3 3 3 3 3 3 3 3 3 3 3 3 3 3 3 3 3 3 3 3 3 3 3 3 3 3 3 3 3 3 3 3 3 3 3 3 3 3 3 3 3 3 3 3 3 3 3 3 3 3 3 3 3 3 3 3 3 3 3 3 3 3 3 3 3 3 3 3 3 3 3 3 3 3 3 3 3 3 3 3 3 3 3 3 3 3 3 3 3 3 3 3 3 3 3 3 3 3 3 3 3 3 3 3 3 3 3 3 3 3         </DataArray>
      </Cells>
    </Piece>
  </UnstructuredGrid>
</VTKFile>
